
Integration time [ms]:   1,000
Averaging Nr. [scans]: 1
Smoothing Nr. [pixels]: 0
Data measured with spectrometer [name]: 1703254U1
Wave   ;Sample   ;Dark     ;Reference;Scope
[nm]   ;[counts] ;[counts] ;[counts] 

 190,08;  -81,212; -370,119;11982,743
 190,69;  -62,612; -359,404;11603,049
 191,29;  -64,144; -311,651;11479,965
 191,90;  -73,882; -365,508;11440,717
 192,50;  -72,131; -379,511;10355,099
 193,10;  -51,342; -446,299;11244,381
 193,71;  -70,927; -367,888; 9821,736
 194,31;  -65,347; -399,273; 9436,327
 194,91;  -65,347; -382,273; 9291,327
 195,52;  -72,240; -338,386;10555,949
 196,12;  -48,060; -397,056; 8671,847
 196,72;  -67,864; -386,394; 8220,904
 197,32;  -70,927; -375,888; 8251,736
 197,93;  -53,859; -360,420; 8700,957
 198,53;  -67,207; -383,145; 7601,797
 199,13;  -74,210; -397,132; 8091,270
 199,74;  -59,111; -366,410; 7263,813
 200,34;  -55,390; -388,667; 7832,874
 200,94;  -52,874; -436,547; 6941,297
 201,55;  -62,612; -406,404; 7119,049
 202,15;  -65,785; -375,773; 6404,732
 202,75;  -95,983; -373,217; 6097,647
 203,36;  -57,141; -338,664; 6822,492
 203,96; -108,456; -357,943; 6332,678
 204,56;  -60,642; -355,657;10275,729
 205,16;  -68,192; -363,018; 5478,458
 205,77;  -81,103; -360,244; 4767,892
 206,37;  -69,067; -409,017; 5556,267
 206,97;  -72,787; -363,760; 5129,205
 207,58;  -55,828; -364,166; 5927,278
 208,18;  -75,960; -337,129; 5129,889
 208,78;  -73,334; -404,134; 5295,461
 209,38;  -56,485; -469,415; 4958,385
 209,99;  -56,375; -356,540; 3837,534
 210,59;  -58,016; -361,662; 3890,301
 211,19;  -57,251; -364,538; 3938,343
 211,79;  -49,920; -366,927; 4499,316
 212,40;  -78,149; -373,625; 3368,911
 213,00;  -69,177; -388,891; 3903,118
 213,60;  -74,429; -386,882; 2992,972
 214,20;  -88,981; -401,230; 3081,175
 214,81;  -81,650; -422,618; 2884,148
 215,41;  -89,200; -376,979; 3235,877
 216,01; -109,222; -373,067; 3109,636
 216,61;  -65,238; -367,399; 2814,476
 217,22; -104,627; -381,326; 2358,888
 217,82; -119,617; -325,173; 2262,495
 218,42;  -99,047; -383,711; 2389,480
 219,02; -103,752; -288,327; 3432,079
 219,63;  -87,011; -357,483; 2044,854
 220,23;  -90,403; -366,602; 2425,239
 220,83;  -88,543; -395,730; 1901,770
 221,43; -107,362; -393,195; 1850,167
 222,03; -110,207; -348,940; 2326,296
 222,64;  -92,373; -380,348; 1769,560
 223,24;  -83,202; -298,966; 1625,350
 223,84; -111,629; -376,313; 2637,361
 224,44; -107,800; -316,695; 2381,571
 225,05; -104,080; -313,952; 1440,632
 225,65; -110,098; -301,065; 1227,445
 226,25;  -58,828; -364,961; 1139,777
 226,85; -112,380; -294,309;  995,979
 227,45; -101,673; -335,706; 1083,907
 228,06;  -83,813; -365,834; 1945,438
 228,66;  -99,266; -349,460; 4049,182
 229,26;  -75,520; -313,438; 1131,510
 229,86;  -95,874; -396,342; 1760,797
 230,46; -108,238; -358,194;  891,976
 231,06; -102,019; -320,444;  757,273
 231,67;  -87,668; -346,732; 1228,961
 232,27; -124,322; -343,789;  778,094
 232,87; -113,818; -308,808;  526,384
 233,47; -127,495; -321,158;  525,777
 234,07;  -68,261; -268,486; 9912,235
 234,67; -136,108; -291,013;  672,338
 235,28; -127,495; -319,158;   65,777
 235,88; -124,718; -316,882;  285,426
 236,48; -106,815; -350,821;  165,911
 237,08;  -75,805; -267,669;  448,518
 237,68; -143,907; -369,378; -267,552
 238,28; -117,199; -304,774; -106,624
 238,89; -123,828; -212,756; -205,723
 239,49; -132,856; -282,023; 1280,483
 240,09; -135,192; -284,608; -190,544
 240,69; -146,533; -251,373; -319,124
 241,29; -133,184; -289,647;  651,036
 241,89; -133,622; -330,147; -260,559
 242,49; -118,800; -248,490; -358,930
 243,10; -116,299; -201,496; 3664,834
 243,70; -133,800; -284,490;  239,070
 244,30; -103,673; -275,501; -708,594
 244,90; -118,197; -188,582; -568,598
 245,50; -152,161; -177,355; 3274,777
 246,10; -139,311; -307,636; -831,300
 246,70; -145,986; -300,999;   17,620
 247,30; -112,685; -251,641;  326,273
 247,91; -155,398; -208,218; 5781,292
 248,51;  -99,146; -270,228; -806,563
 249,11; -110,670; -239,514;  417,933
 249,71;  -88,734; -303,008; -667,235
 250,31;  -60,301; -265,483; -567,693
 250,91;  -54,548; -238,500;   75,216
 251,51;  -73,897; -199,225; -822,945
 252,11;  -91,482; -239,813;  367,410
 252,71;  -91,377; -269,117;-1080,994
 253,31;  -80,662; -222,348; 3228,013
 253,91; -115,823; -236,578; -676,170
 254,52;  -91,164; -237,342;-1063,750
 255,12; -105,301; -293,483;-1104,693
 255,72;  -69,034; -206,366;  557,112
 256,32; -101,014; -242,061; -966,674
 256,92; -103,762; -190,070;-1147,529
 257,52;  -17,115; -173,974; -883,243
 258,12;  -60,008; -201,087;  -91,621
 258,72;  -94,232; -210,810;-1232,972
 259,32;  -49,665; -211,335;-1169,514
 259,92;  -20,291; -199,330;-1343,086
 260,52;  -64,991; -192,973;-1077,433
 261,12;  -33,889; -202,059; -662,865
 261,72;  -89,932; -238,452;-1312,319
 262,32;  -34,568; -215,600;-1561,498
 262,92; -104,937; -238,426;  405,627
 263,53;  -42,339; -189,698;-1277,594
 264,13; -120,248; -262,937; -268,632
 264,73;  -77,151; -217,202;-1694,617
 265,33;  -78,293; -188,317;-1708,613
 265,93;  -77,296; -147,304;-1345,140
 266,53;  -42,891; -161,046;-1544,392
 267,13;  -86,034; -139,161; -857,388
 267,73;  -73,784; -185,158;  270,230
 268,33; -110,927; -166,274;-1788,766
 268,93;  -59,087; -213,708;-1702,449
 269,53;  -60,220; -204,670; -644,839
 270,13;  -90,235; -201,797;-1810,499
 270,73;  -76,924; -245,287;-1891,239
 271,33;  -53,843; -200,678;-1778,884
 271,93;  -82,876; -242,919;-1867,732
 272,53;  -45,494; -121,748;    8,776
 273,13;  -52,718; -146,677;-1117,075
 273,73;  -52,868; -119,753;-1955,652
 274,33;  -43,062; -148,428;-2041,182
 274,93;  -89,899; -188,007;-1843,972
 275,53;  -41,494;  -68,748;-1881,224
 276,13;  -91,657; -121,965;-2261,935
 276,73; -114,950; -118,361;-1570,007
 277,33;  -72,583; -179,522;-1926,659
 277,93;  -29,968; -213,680;-1864,693
 278,53;  -76,833; -194,526;-2112,278
 279,13;  -99,337; -125,506;-2152,568
 279,73;  -53,713; -140,498;-1388,522
 280,33;  -43,118; -154,756;-2179,270
 280,93;  -23,901; -105,994;-2049,499
 281,53;  -50,945; -147,387;-2252,953
 282,13;  -66,074; -127,363;-2193,816
 282,73;  -78,510; -156,875; -385,885
 283,33;  -59,260; -137,872;-2307,266
 283,92;  -19,092;  -74,477;-2028,003
 284,52;  -32,044;  -94,109;-2365,496
 285,12;  -59,708; -138,524;-1425,469
 285,72;  -37,255; -126,898;-1041,213
 286,32;   -9,479;  -55,622;-1313,564
 286,92;  -26,459; -163,521;-2376,850
 287,52;   -8,334;  -89,519;-2170,041
 288,12;  -29,617;  -97,763;-2542,507
 288,72;   22,811; -106,417;-1625,518
 289,32;  -14,594;  -54,470; 1692,233
 289,92;  -24,678; -106,270;-2344,148
 290,52;  -77,398;  -91,809;-2485,710
 291,12;  -61,026;  -57,996;-1570,308
 291,72;  -17,092;  -74,477;-1590,003
 292,32;   33,961;  -83,135;-2372,442
 292,92;   26,378;   -2,737;-2481,560
 293,51;  -38,797;  -37,093;-2532,404
 294,11;   -9,917;  -42,121;-1681,160
 294,71;   49,035;   -7,488;-2695,667
 295,31;  -16,120;  -24,743;-1755,797
 295,91;   83,943;   46,751;-2713,629
 296,51;   49,422;   62,656;-1776,106
 297,11;   34,338;   35,061;-2900,988
 297,71;   39,989;    4,131;-2726,648
 298,31;   38,322;   38,730;-2329,148
 298,91;  122,317;   74,756;-2483,202
 299,50;   75,768;   41,395;-2689,473
 300,10;  116,707;  145,887;-2706,114
 300,70;  162,282;   95,528;-2492,576
 301,30;  127,630;   89,253;-2855,415
 301,90;  233,256;   96,248;-2004,843
 302,50;  286,175;  163,640;-2515,198
 303,10;  360,615;  124,126;-2530,076
 303,70;  365,671;  208,660;-3000,488
 304,29;  551,076;  189,918;-2658,740
 304,89;  833,979;  266,183;-1090,755
 305,49; 1227,325;  163,922;-2773,122
 306,09; 1234,114;  214,133;-2874,839
 306,69; 1306,821;  262,736;-2915,911
 307,29; 2151,961;  312,865;-2008,442
 307,89; 3654,765;  303,408;-3029,000
 308,48; 4714,689;  341,774;-2453,301
 309,08; 5082,539;  369,492;-2743,377
 309,68; 4001,096;  377,019;-3094,026
 310,28; 2234,745;  371,102;-2576,213
 310,88; 1514,389;  321,211;-2936,453
 311,48; 1143,162;  447,500;-2875,331
 312,07;  900,648;  408,367;-2963,228
 312,67;  878,213;  497,855;-2128,297
 313,27;  842,172;  494,448;-1105,224
 313,87;  735,900;  583,357;-2164,083
 314,47;  682,109;  516,954;-3030,392
 315,06;  688,892;  620,191; 2713,837
 315,66;  579,727;  579,988;-3245,400
 316,26;  635,862;  632,938;-1844,483
 316,86;  663,231;  777,969;-3140,110
 317,46;  743,035;  720,307;-2115,167
 318,06;  659,971;  739,813; -825,335
 318,65;  642,098;  781,801;-2807,999
 319,25;  659,849;  821,798;-3195,617
 319,85;  651,210;  932,663;-2908,323
 320,45;  718,165;  986,283;-3213,304
 321,05;  696,292;  901,271;-2761,968
 321,64;  616,821;  889,531;-3219,411
 322,24;  669,002; 1056,861;-3265,513
 322,84;  687,065; 1080,356;-3261,345
 323,44;  696,689; 1133,364;-3219,300
 324,03;  788,330; 1194,486;-3072,067
 324,63;  783,711; 1250,452;-2310,059
 325,23;  782,404; 1241,928;-3097,792
 325,83;  811,800; 1367,021;-2876,123
 326,42;  855,383; 1442,622;-3285,005
 327,02;  886,897; 1476,551;-3076,607
 327,62;  920,172; 1439,629;-2505,221
 328,22;  898,910; 1553,486;-3234,973
 328,82; 1022,627; 1577,037;-2229,938
 329,41; 1083,123; 1658,852;-3016,728
 330,01; 1062,268; 1652,750;-2961,704
 330,61; 1148,077; 1806,062;-2928,707
 331,20; 1097,856; 1778,325;-2868,531
 331,80; 1151,774; 1762,512;-2794,386
 332,40; 1146,484; 1752,102;-2896,932
 333,00; 1193,199; 1933,667;-2790,423
 333,59; 1212,469; 1748,771;-2855,091
 334,19; 1306,474; 1920,745;-1771,037
 334,79; 1297,209; 1712,615;-2861,316
 335,39; 1264,105; 1729,919;-2978,912
 335,98; 1242,815; 1726,714;-3126,958
 336,58; 1180,677; 1659,777;-3191,401
 337,18; 1213,802; 1720,779;-2958,592
 337,77; 1158,291; 1782,837;-2098,463
 338,37; 1102,474; 1806,359;-2021,540
 338,97; 1127,344; 1907,384;-2912,402
 339,57; 1092,059; 1862,948;-3044,894
 340,16; 1160,250; 1836,431;-2881,390
 340,76; 1159,400; 1962,712;-3053,314
 341,36; 1215,940; 1861,920;-3195,650
 341,95; 1252,276; 1934,506;-3027,623
 342,55; 1220,214; 1918,998;  703,736
 343,15; 1250,474; 2048,155;-3094,039
 343,74; 1192,164; 1924,644;-2382,298
 344,34; 1236,367; 1860,267;-3015,661
 344,94; 1281,146; 2068,530;-3069,485
 345,53; 1279,054; 2110,769;-2860,447
 346,13; 1347,756; 2174,398;-1283,573
 346,73; 1366,782; 1966,473;-2254,805
 347,32; 1403,538; 2268,649;-3080,871
 347,92; 1403,797; 2312,600;-2277,145
 348,52; 1409,647; 2270,523;-1878,722
 349,11; 1325,767; 2336,551;  975,034
 349,71; 1459,286; 2330,658;-3240,016
 350,31; 1568,884; 2441,387;-2672,237
 350,90; 1625,253; 2483,418;-2326,863
 351,50; 1684,703; 2390,852;-2105,634
 352,10; 1827,731; 2471,119;-3114,840
 352,69; 2091,866; 2532,273;-3182,424
 353,29; 2200,209; 2563,024;-3191,317
 353,89; 2208,896; 2645,527;-3255,104
 354,48; 2508,731; 2693,119;-3208,840
 355,08; 2737,843; 2871,980;-1117,164
 355,67; 3280,581; 2850,042;-2951,417
 356,27; 3922,479; 2839,128;-3232,985
 356,87; 5142,988; 3010,288;-3383,142
 357,46; 7706,250; 3049,431;-2351,390
 358,06;11463,237; 3306,291;-3073,523
 358,66;12327,150; 3337,504;-3109,432
 359,25;10656,800; 3260,792;-2344,119
 359,85;10152,909; 3365,667;-3215,970
 360,44; 9571,461; 3389,015;-3292,172
 361,04; 8308,474; 3567,155;-2367,039
 361,64; 6352,474; 3696,155;-2309,039
 362,23; 4854,148; 3772,517;-2932,958
 362,83; 3825,789; 3755,639;-2990,726
 363,42; 3325,054; 3938,769;-2836,447
 364,02; 3056,958; 3910,034;-2973,462
 364,62; 2710,756; 3816,398;-2486,573
 365,21; 2484,187; 3857,937;-1741,558
 365,81; 2425,795; 3935,818;-2792,173
 366,40; 2374,077; 3970,062;-2080,707
 367,00; 2274,642; 4021,550;-2952,776
 367,59; 2143,792; 4071,831;-2979,699
 368,19; 2211,782; 4221,678;-3237,306
 368,79; 2195,024; 4198,720;-3125,268
 369,38; 2226,965; 4107,200;-2250,383
 369,98; 2343,436; 4101,940;-2935,940
 370,57; 2473,634; 4188,588;-3331,356
 371,17; 2632,036; 4164,860;-3326,135
 371,76; 2584,489; 4277,486;-3442,879
 372,36; 2576,383; 4057,598;-3195,501
 372,95; 2386,472; 4115,372;  667,934
 373,55; 2257,925; 4105,998;-3393,811
 374,14; 2127,945; 4300,099;-3405,097
 374,74; 2034,609; 4256,514;-3224,124
 375,34; 1958,428; 4286,979;-3189,521
 375,93; 1886,991; 4295,479;-2706,116
 376,53; 1835,385; 4344,585;-3575,974
 377,12; 1882,158; 4405,670;-1465,352
 377,72; 1859,772; 4480,730;-3410,414
 378,31; 1905,459; 4511,027;-2274,699
 378,91; 1742,125; 4291,429;-3262,199
 379,50; 1814,253; 4588,213;-3331,363
 380,10; 1787,250; 4327,226;-3398,890
 380,69; 1773,418; 4094,621;-2343,626
 381,29; 1913,436; 4586,735;-2550,439
 381,88; 2017,181; 4518,758;-1605,111
 382,48; 2066,812; 4519,727;-3286,485
 383,07; 2029,639; 4495,358;-3457,802
 383,67; 1925,181; 4635,758;-1847,111
 384,26; 1987,153; 4667,491;-2467,905
 384,86; 1922,453; 4921,849;-3182,252
 385,45; 1956,540; 4932,636;-3325,344
 386,05; 1886,420; 5073,608;-3419,100
 386,64; 1881,634; 4911,384;-3524,855
 387,24; 1992,698; 5016,878;-2585,688
 387,83; 1988,774; 4993,512;-2489,386
 388,42; 2039,766; 5182,346;-2109,466
 389,02; 2089,433; 5423,748;-3235,966
 389,61; 2111,082; 5688,036;-3413,653
 390,21; 2268,698; 5729,878;-3463,688
 390,80; 2308,258; 5816,392;-3208,810
 391,40; 2618,319; 6137,899;-2293,168
 391,99; 2989,235; 5981,099;-3195,550
 392,59; 3795,245; 6435,252;-2416,943
 393,18; 6251,756; 6683,398;-2491,573
 393,77;14338,841; 6883,198;-3238,192
 394,37;20344,160; 7145,657;-2198,825
 394,96;17806,131; 7098,403;-2296,146
 395,56;22127,635; 7264,588;-2834,356
 396,15;27038,174; 6867,797;-3125,692
 396,75;20630,098; 7343,163;-2889,993
 397,34;11475,436; 7669,940;-2620,940
 397,93; 7892,092; 7720,188;-3358,047
 398,53; 5838,993; 7595,262;-2525,088
 399,12; 4650,336; 8192,013;-2154,981
 399,72; 3703,731; 8013,119;-2274,840
 400,31; 3256,042; 8034,629;-3169,581
 400,91; 3094,212; 8446,012;-2959,791
 401,50; 2872,840; 8820,198;-2330,192
 402,09; 2738,980; 8550,327;-2894,722
 402,69; 2757,968; 8691,187;-3072,856
 403,28; 2575,660; 9052,663;-2983,588
 403,88; 2571,390; 9162,560; 1927,079
 404,47; 2527,792; 9689,831;  884,300
 405,06; 2454,721; 9684,171;  -68,947
 405,66; 2435,889; 9753,565;-2875,684
 406,25; 2414,024;10085,720;-3119,268
 406,84; 2467,219;10446,177;-2892,711
 407,44; 2484,912;10847,858;-2219,944
 408,03; 2464,329;10422,257;-2906,063
 408,63; 2385,823;10373,085;-3011,379
 409,22; 2519,260;10191,584;-1945,783
 409,81; 2502,548;10681,007;-1849,765
 410,41; 2561,324;11553,078;-2857,615
 411,00; 2738,723;11336,362;-1814,921
 411,59; 2656,566;11251,120;-2826,578
 412,19; 2619,726;11468,350;-2245,394
 412,78; 2629,960;11399,226;-2830,436
 413,37; 2584,408;12151,878;-2704,234
 413,97; 2657,484;12410,512;-2618,933
 414,56; 2539,986;12071,506;-2503,169
 415,15; 2699,093;12410,394;-2121,547
 415,75; 2834,500;12408,639;-2698,272
 416,34; 2753,080;12590,254;-1893,681
 416,93; 2836,665;12922,047;-2777,536
 417,53; 2759,306;12696,169;-1423,303
 418,12; 2795,011;12570,785;-2217,903
 418,71; 2673,594;12907,592;-2673,285
 419,31; 2602,864;13054,695;-1884,952
 419,90; 2529,568;13470,313;-2786,552
 420,49; 2497,446;13619,298;-1733,834
 421,08; 2455,446;14201,298;-1674,834
 421,68; 2442,212;14723,421;-1908,792
 422,27; 2533,627;14035,832;-2004,437
 422,86; 2577,660;13874,073; -437,590
 423,46; 2277,278;14080,107;-2575,598
 424,05; 2230,212;14376,626;-2928,293
 424,64; 2277,144;13888,953;-2640,014
 425,24; 2304,530;14092,098;-2903,453
 425,83; 2128,912;13992,269;-2680,945
 426,42; 2155,212;12987,626;-2760,293
 427,01; 2185,856;13424,734;-2674,533
 427,61; 2138,744;14347,873;-2609,209
 428,20; 2098,645;14036,151;-1764,751
 428,79; 2053,749;14414,052;-2859,656
 429,38; 2098,556;14092,377;-1781,186
 429,98; 2084,943;14922,521; -994,625
 430,57; 2111,744;15058,873;-2193,209
 431,16; 2027,429;14580,389;-2784,522
 431,75; 2064,487;14357,909; -561,407
 432,35; 2080,739;13435,899;-1951,262
 432,94; 2038,263;14429,186;-2324,759
 433,53; 2143,431;14560,375;-1152,995
 434,12; 2130,156;14431,298;-2267,381
 434,72; 2159,775;14188,331;-1413,389
 435,31; 2142,823;14167,699; 7395,119
 435,90; 2180,978;14308,954; 8338,249
 436,49; 2122,462;13427,834; -683,175
 437,08; 2214,729;13895,951; -675,370
 437,68; 2267,963;14442,827;-2987,412
 438,27; 2305,253;14610,237;-2610,866
 438,86; 2319,337;14612,832;-1147,984
 439,45; 2287,897;15313,346;-1937,106
 440,05; 2353,174;15955,616;-2982,694
 440,64; 2503,452;15054,886;-1902,282
 441,23; 2447,902;14152,525;-1415,553
 441,82; 2421,757;13700,218;-2631,576
 442,41; 2407,370;14351,277;-3014,637
 443,00; 2517,444;13625,925;-2724,863
 443,60; 2654,078;14373,881;-3136,710
 444,19; 2805,149;15026,541;-1440,462
 444,78; 2848,355;14960,151;-3012,298
 445,37; 3023,866;15728,297;-2522,928
 445,96; 3341,126;15331,249;-3116,202
 446,56; 3484,650;15596,535;-1144,698
 447,15; 3677,912;16225,678; -884,947
 447,74; 3799,009;17097,412;-2709,931
 448,33; 3883,582;16443,066;-1985,920
 448,92; 3841,129;15422,440;-2964,176
 449,51; 3887,925;15095,817;-2848,813
 450,10; 4105,454;15133,078;-3063,256
 450,70; 4715,566;14904,939;-1957,581
 451,29; 5129,597;15329,193;-1112,260
 451,88; 5475,414;15513,671;-2929,183
 452,47; 5680,708;16565,055;-2795,584
 453,06; 5875,617;16495,498;-2401,047
 453,65; 5562,289;16071,874;-2873,493
 454,24; 4887,711;17329,246;-2173,558
 454,84; 4174,844;17793,209;-1379,168
 455,43; 3886,368;18732,496;-2219,665
 456,02; 3544,246;18879,480;-2927,947
 456,61; 3172,500;17317,459;-2925,275
 457,20; 3107,979;16921,363;-2786,753
 457,79; 2899,569;17588,131;-2922,554
 458,38; 2661,958;18338,264;-2132,467
 458,97; 2631,755;18039,641;-2515,104
 459,56; 2497,996;18190,479;-2760,565
 460,16; 2387,584;17832,258;-2082,894
 460,75; 2258,989;18157,518;-2072,146
 461,34; 2266,286;18077,887;-2962,020
 461,93; 2134,683;18381,186;-2200,853
 462,52; 2193,956;19333,275;-2744,993
 463,11; 2223,371;20546,688;-1989,639
 463,70; 2273,879;19458,643;-2869,295
 464,29; 2298,538;19945,082;-3150,376
 464,88; 2573,762;20795,807;-2743,024
 465,47; 2969,704;19885,285;-2748,139
 466,06; 3661,365;20915,713;-3191,692
 466,65; 3703,228;21667,572;-3018,635
 467,24; 3439,004;22030,848;-2539,986
 467,84; 2854,063;22443,164;-2020,371
 468,43; 2576,045;22325,051;-2238,559
 469,02; 2564,561;23517,170;-2702,135
 469,61; 2425,902;24168,936;-2593,555
 470,20; 2457,042;23781,063;-2841,085
 470,79; 2321,910;22760,100;-3232,475
 471,38; 2166,584;25266,463;-2192,395
 471,97; 2188,862;26009,732; -666,983
 472,56; 1930,872;25472,887;-3035,376
 473,15; 1970,895;25296,975;-2825,135
 473,74; 1917,378;26395,854;-3106,559
 474,33; 1937,879;25866,848;-2957,796
 474,92; 1833,442;27630,348;-3146,391
 475,51; 1881,014;29609,002;-2873,380
 476,10; 1812,892;29847,986;-3011,662
 476,69; 1740,042;26101,268;-2855,586
 477,28; 1867,398;25846,955;-2956,845
 477,87; 1738,531;27035,121; -173,956
 478,46; 1772,340;28695,639;-3029,460
 479,05; 1669,785;30507,100;-2134,284
 479,64; 1744,607;31679,756;-2718,655
 480,23; 1628,951;29541,508;-2845,548
 480,82; 1613,640;28549,996;-2736,807
 481,41; 1611,200;29371,510;-1873,929
 482,00; 1619,747;29284,885;-1364,185
 482,59; 1541,765;29593,998;-2298,998
 483,18; 1637,172;31702,244;-2376,723
 483,77; 2069,778;31703,139;-2193,865
 484,36; 2629,014;32475,002;-1701,380
 484,95; 2483,180;32990,410; -788,643
 485,54; 2424,383;35331,031;-1371,006
 486,13; 2530,516;35762,996; -945,616
 486,72; 2565,653;34334,137;  148,326
 487,31; 2512,414;31046,285;-1109,686
 487,89; 2195,841;32608,633; -193,697
 488,48; 2185,648;33798,164;-1523,728
 489,07; 2143,987;32913,941;-1248,674
 489,66; 2091,839;33511,645;-1505,224
 490,25; 2040,411;31095,299; -660,212
 490,84; 1996,561;34127,375;-1683,635
 491,43; 1873,093;34965,621; -701,552
 492,02; 1770,338;36094,652;-1864,987
 492,61; 1724,994;35362,902;-1043,094
 493,20; 1774,551;33776,426;-2019,743
 493,79; 1634,050;32749,434; 4824,494
 494,38; 1663,256;33706,043;-1938,342
 494,97; 1598,488;32583,934; -629,911
 495,55; 1530,284;34690,309;-2325,548
 496,14; 1504,696;35087,531;-2403,220
 496,73; 1469,564;35451,566;-1952,609
 497,32; 1509,938;34211,570;-2587,182
 497,91; 1486,610;35005,949;-1921,629
 498,50; 1435,142;34165,195;-2912,544
 499,09; 1532,938;34554,570;-3088,182
 499,68; 1478,251;32403,070;-2405,396
 500,27; 1603,432;33321,605;-2490,999
 500,85; 1509,139;32655,207;-2604,071
 501,44; 1414,653;32478,342;-2576,175
 502,03; 1412,796;33194,457;-3368,178
 502,62; 1300,126;31275,068;-3438,205
 503,21; 1336,826;29432,711;-3532,858
 503,80; 1298,495;32028,100;-2976,831
 504,39; 1272,992;32451,119;-3458,121
 504,97; 1358,228;31774,982;-3577,636
 505,56; 1291,310;31537,590;-2979,281
 506,15; 1254,279;32302,336;-3991,602
 506,74; 1229,429;32557,617;-2945,526
 507,33; 1251,913;32185,498;-3165,949
 507,92; 1492,462;33952,859;-3871,678
 508,51; 1437,605;35926,973;-3735,682
 509,09; 1349,427;34536,629;-3921,053
 509,68; 1449,786;34318,508;-3748,286
 510,27; 1537,015;33667,410;-3799,381
 510,86; 1557,503;32572,264;-4081,751
 511,45; 1451,910;33677,512;-3843,476
 512,03; 1661,338;34524,855;-3829,488
 512,62; 1636,732;36240,961;-3780,346
 513,21; 1509,936;33870,789;-3186,209
 513,80; 1596,249;34644,289;-3501,423
 514,39; 1612,363;32752,137;-3905,221
 514,97; 1482,312;35347,781;-4095,255
 515,56; 1454,027;34167,551;-4198,248
 516,15; 1479,463;35428,063;-3955,179
 516,74; 1438,618;32584,318;-4420,049
 517,33; 1453,666;33459,688;-3549,542
 517,91; 1358,137;33935,426;-4188,099
 518,50; 1368,643;32563,393;-3264,282
 519,09; 1321,834;33942,875;-3157,778
 519,68; 1337,656;35231,531;-4286,148
 520,26; 1243,653;38679,547;-4232,675
 520,85; 1176,796;39452,660;-4352,679
 521,44; 1170,585;40826,078;-4358,897
 522,03; 1287,155;39485,539;-4271,912
 522,61; 1137,585;36773,078;-4364,897
 523,20; 1117,457;33924,090;-4337,233
 523,79; 1067,020;32040,590;-4337,828
 524,38; 1033,602;32850,191;-4344,709
 524,96;  986,101;35883,199;-4321,473
 525,55; 1003,882;36021,449;-4542,771
 526,14;  987,534;34018,723;-4434,931
 526,73;  965,335;32852,074;-4389,515
 527,31;  996,992;32903,324;-4488,622
 527,90;  998,882;33630,449;-4564,771
 528,49;  998,447;34155,938;-2529,839
 529,08;  842,613;34601,344;-3467,103
 529,66;  924,633;34848,445;-3911,389
 530,25;  933,178;35279,832;-4414,172
 530,84;  941,862;35334,348;-4583,485
 531,42;  929,829;38583,105;-4365,332
 532,01;  917,376;37528,480;-4291,588
 532,60;  898,076;34512,125;-4473,241
 533,18;  885,333;35538,086;-4078,042
 533,77;  894,063;34969,984;-4236,374
 534,36;  903,379;34459,469;-4374,061
 534,95;  868,002;35483,477;-4088,015
 535,53;  928,582;34236,090; -974,424
 536,12;  857,440;36469,977;-2657,420
 536,71;  901,470;36511,230;-3869,099
 537,29;  887,389;36073,621;-3618,454
 537,88;  992,585;33908,078;-3454,897
 538,47;  911,796;32497,867;-2840,180
 539,05;  955,094;36837,238;-2139,054
 539,64;  890,290;40414,898;-1785,997
 540,22;  946,262;37414,633; -764,790
 540,81; 1021,651;37501,766; 1008,297
 541,40;  979,012;39018,629; 3425,591
 541,98;  941,720;38188,230; 4858,519
 542,57; 1008,440;39368,977; 4597,580
 543,16;  947,765;38645,613; 4952,500
 543,74;  945,251;35774,480; 4083,603
 544,33;  983,167;36297,883; 3620,721
 544,92;  987,417;37217,887; 3973,339
 545,50; 1023,875;37338,488;11456,648
 546,09; 1069,567;40064,965;11359,916
 546,67; 1014,659;41948,727; 2857,878
 547,26;  993,707;40050,094; -202,615
 547,85;  935,099;39208,414; -567,501
 548,43;  924,638;38452,625; -849,836
 549,02;  931,717;39427,246;-1040,008
 549,60;  945,872;40570,500; -984,878
 550,19;  994,061;41166,996;-2192,901
 550,78;  979,544;42660,875;-2328,325
 551,36;  849,946;45349,148;-2432,104
 551,95;  938,297;45443,859; -585,416
 552,53;  948,964;43280,262; -296,916
 553,12; 1030,178;41420,035;-3431,672
 553,70;  933,363;43188,547;-2878,222
 554,29;  996,058;44058,008;-2869,428
 554,88; 1014,005;41831,668;-4247,989
 555,46; 1013,554;43723,027;-3881,718
 556,05; 1079,407;45007,734;-4207,268
 556,63; 1112,338;45206,266;-3396,489
 557,22; 1076,078;43875,109;-3394,714
 557,80; 1150,401;41749,762;-3568,321
 558,39; 1136,966;44188,250;-4145,390
 558,97; 1195,292;47993,887;-3699,470
 559,56; 1194,073;49889,137;-4544,768
 560,15; 1225,666;50117,891;-3611,042
 560,73; 1176,445;49814,152;-4287,867
 561,32; 1261,641;47024,609;-3741,309
 561,90; 1131,162;46041,910;-4382,333
 562,49; 1149,732;48487,371;-3786,348
 563,07; 1049,730;48074,387;-4783,875
 563,66; 1216,949;50064,133;-4352,577
 564,24; 1185,572;49228,145;-4763,531
 564,83; 1223,755;51344,664;-4603,607
 565,41; 1344,857;53840,375;-4329,539
 566,00; 1338,193;52202,164;-2755,012
 566,58; 1546,982;56465,375;-3725,729
 567,17; 1697,371;56909,508;-4280,642
 567,75; 1927,045;52392,871;-4653,562
 568,34; 2365,150;55893,770;-3216,466
 568,92; 2794,771;55738,793;-3987,947
 569,51; 2908,916;54852,895; 2680,576
 570,09; 2485,229;58247,391;-4676,638
 570,68; 2214,829;53188,313;-4788,833
 571,26; 2201,592;50733,242;-3886,817
 571,85; 2264,656;57347,738;-4822,649
 572,43; 1921,231;57011,379;-4704,111
 573,01; 1576,106;52662,375;-4873,920
 573,60; 1375,307;53819,012;-3785,810
 574,18; 1294,964;55122,262;-4514,917
 574,77; 1077,086;53284,277;-4737,634
 575,35; 1112,307;56113,012;-4452,810
 575,94; 1044,025;57300,770;-4076,275
 576,52; 1033,463;54049,270;-2249,680
 577,11;  967,582;51620,297;-3244,924
 577,69;  943,987;48685,555;-3183,176
 578,27;  927,061;51008,996;-3447,901
 578,86;  883,239;55198,543;-2994,031
 579,44;  990,684;60080,004;-2805,855
 580,03;  963,198;60164,137;-2493,958
 580,61;  912,712;60267,270;-3206,062
 581,19;  888,883;56429,652;-2538,271
 581,78;  906,267;55361,813;-2364,238
 582,36;  863,679;57656,031;-2911,909
 582,95;  872,692;56180,172;-1497,776
 583,53;  841,740;59586,539;-2319,268
 584,11;  902,043;61608,883;-2241,088
 584,70;  952,381;61691,660;-1948,035
 585,28;  934,852;62070,398;-1853,592
 585,87;  839,534;60436,930;-2889,432
 586,45;  879,239;63023,543;-2375,031
 587,03;  912,096;64945,430;-1150,027
 587,62;  936,885;61494,641;-1834,745
 588,20; 1362,834;62236,285;-1020,779
 588,78; 1867,511;58157,840;-3411,673
 589,37; 1709,463;57765,270;-3360,680
 589,95; 1220,274;62238,773;-3385,657
 590,54;  974,865;63633,539;-3461,459
 591,12;  837,956;62116,301;-3508,497
 591,70;  955,521;59586,789;-3331,565
 592,29;  958,643;62881,805;-2923,283
 592,87;  976,857;63542,375;-2394,538
 593,45;  892,519;63404,801; 1487,908
 594,04;  840,063;62800,188;-3676,875
 594,62;  863,162;59709,910;-3708,333
 595,20;  805,514;62066,828;-4371,146
 595,79;  923,709;62681,285;-4165,588
 596,37;  908,987;61108,555;-3657,176
 596,95;  895,318;56922,164;-4321,203
 597,53;  842,150;58806,770;-4226,466
 598,12;  824,035;61848,922;-3959,669
 598,70;  847,366;64932,531;-3776,695
 599,28;  887,857;64911,375;-3404,538
 599,87;  882,773;64929,777;-3061,420
 600,45;  875,333;64938,293;-3907,543
 601,03;  845,022;63145,781;-4100,802
 601,62;  864,063;61727,188;-4468,875
 602,20;  820,849;59786,414;-4541,119
 602,78;  878,796;64399,070;-4770,680
 603,36;  915,081;64783,301;-3166,688
 603,95;  903,086;58863,277;-4492,634
 604,53;  878,460;62401,281;-4574,207
 605,11;  951,715;59505,258;-2755,535
 605,69;  884,694;62362,156;-3365,249
 606,28;  918,643;62594,805;-4223,283
 606,86;  924,598;61629,422;-3946,264
 607,44;  856,363;60431,547;-3906,222
 608,02;  814,768;58047,805;-4037,474
 608,61;  828,005;60099,668;-2866,989
 609,19;  819,348;58582,418;-2582,882
 609,77;  824,473;57398,422; -710,073
 610,35;  824,396;55748,785; 5794,625
 610,94;  889,285;56509,926;14509,949
 611,52;  844,005;55803,668;12610,011
 612,10;  784,778;53026,957; 8432,133
 612,68;  753,030;56637,949; 2694,278
 613,26;  787,862;57037,551; 2032,015
 613,85;  774,409;61759,926; -599,241
 614,43;  804,661;62306,918;-1030,096
 615,01;  735,936;62272,199;-1215,211
 615,59;  729,201;64874,328; -972,932
 616,17;  804,633;59402,648;-2561,890
 616,76;  861,292;62178,887;-2993,470
 617,34;  906,562;62666,988;-2389,138
 617,92;  849,150;58547,770;-3399,466
 618,50;  908,883;61202,652;-2562,271
 619,08;  929,804;57928,031;-2514,100
 619,67; 1012,193;55968,164;-3196,012
 620,25;  967,885;54290,641;-2743,745
 620,83; 1045,333;50498,293;-3495,543
 621,41; 1088,269;52314,797;-2800,711
 621,99; 1148,254;54560,672;-2529,371
 622,57; 1302,323;55529,141;-3707,149
 623,15; 1418,730;56213,387;-3783,875
 623,74; 1625,404;58266,746;-3892,794
 624,32; 1662,027;59330,754;-2827,749
 624,90; 1684,414;58625,898;-2311,188
 625,48; 1807,676;57897,043;-3132,436
 626,06; 1655,229;56898,391;-4006,638
 626,64; 1549,684;57787,004;-4162,855
 627,22; 1444,931;58993,020;-3409,764
 627,81; 1391,577;58046,117;-4334,478
 628,39; 1362,697;57121,145;-4560,722
 628,97; 1282,458;56597,293;-4437,733
 629,55; 1216,529;55377,750;-4219,985
 630,13; 1158,712;55669,270;-2959,062
 630,71; 1079,791;54162,891;-2747,233
 631,29; 1078,086;53129,277;-3824,634
 631,87; 1098,246;52776,504;-4223,451
 632,45; 1024,633;52786,648;-4716,890
 633,03;  967,748;54183,500;-4191,688
 633,62;  979,460;55423,281;-4714,207
 634,20;  886,816;54882,172;-4089,966
 634,78;  938,310;56497,000;-4430,283
 635,36;  849,384;56701,648;-4449,508
 635,94;  928,605;55183,383;-5398,684
 636,52;  828,134;51027,645;-5422,126
 637,10;  774,318;52116,164;-5488,203
 637,68;  753,992;50694,527;-4702,123
 638,26;  771,653;47618,750;-5536,176
 638,84;  686,664;48688,902;-5421,569
 639,42;  671,318;49235,164;-3756,203
 640,00;  701,694;51366,148;-5405,726
 640,58;  701,472;54579,402;-4806,027
 641,16;  675,251;55521,656;-5571,328
 641,74;  658,029;53214,906;-5433,630
 642,32;  624,808;50106,160;-5620,931
 642,90;  596,586;50434,414;-5856,232
 643,48;  616,365;49231,668;-5786,534
 644,06;  619,143;49280,922;-5796,835
 644,64;  595,922;49595,176;-5842,137
 645,22;  523,700;50513,430;-5562,438
 645,80;  547,479;50547,684;-4957,740
 646,39;  561,257;48107,938;-5515,041
 646,97;  564,036;49773,191;-5850,342
 647,54;  580,814;52328,441;-5717,644
 648,12;  572,592;54879,695;-5865,945
 648,70;  540,371;58954,949;-5885,247
 649,28;  585,149;56421,203;-6090,548
 649,86;  515,928;51091,457;-5609,850
 650,44;  560,706;48619,711;-5452,151
 651,02;  542,485;49970,965;-5474,452
 651,60;  518,263;51793,219;-5803,753
 652,18;  572,042;51320,473;-4735,055
 652,76;  571,820;53277,723;-5934,356
 653,34;  489,599;54817,977;-5939,658
 653,92;  580,377;57729,230;-5784,959
 654,50;  602,155;59042,484;-5818,261
 655,08;  578,934;58048,738;-5841,562
 655,66;  628,712;55058,992;-5115,863
 656,24;  569,491;56743,246;-5200,165
 656,82;  619,269;58989,500;-4979,466
 657,40;  602,048;58967,754;-5667,768
 657,98;  573,826;60169,008;-5486,069
 658,56;  578,605;61114,258;-5717,371
 659,14;  559,383;61380,512;-5913,672
 659,72;  600,162;63381,766;-5916,973
 660,29;  558,940;62437,020;-5907,275
 660,87;  560,719;59738,273;-5212,576
 661,45;  549,497;58590,527;-5664,877
 662,03;  491,275;57513,781;-4971,179
 662,61;  512,054;54945,035;-5638,480
 663,19;  466,832;54618,289;-5657,782
 663,77;  497,611;53917,543;-5939,083
 664,35;  512,389;56689,793;-5887,384
 664,93;  435,168;62595,047;-4922,686
 665,51;  488,946;61993,301;-6033,987
 666,08;  490,725;57747,555;-5652,289
 666,66;  431,503;51859,809;-4400,590
 667,24;  485,282;49420,063;-5952,892
 667,82;  520,060;50250,316;-5849,193
 668,40;  504,838;50723,570;-5932,494
 668,98;  597,617;51952,824;-5097,796
 669,56;  594,395;57957,078;-6096,097
 670,13;  599,174;61797,328;-6222,398
 670,71;  615,952;59698,582;-5900,700
 671,29;  552,731;57209,836;-6139,001
 671,87;  474,509;56814,090;-6051,303
 672,45;  399,288;51822,344;-6050,604
 673,03;  455,066;52592,598;-4769,906
 673,60;  445,845;58431,852;-3503,207
 674,18;  465,623;63679,105;-5938,508
 674,76;  456,401;61159,359;-6226,810
 675,34;  487,180;56361,613;-5251,111
 675,92;  436,958;55284,863;-6338,413
 676,50;  435,737;55051,117;-6085,714
 677,07;  415,515;56952,371;-6095,016
 677,65;  393,294;56680,625;-6163,317
 678,23;  430,072;55997,879;-5057,618
 678,81;  470,851;58016,133;-5299,919
 679,38;  474,629;56669,387;-5969,221
 679,96;  478,408;53267,641;-5846,522
 680,54;  495,186;55171,895;-5308,824
 681,12;  474,965;52485,148;-6126,125
 681,70;  547,743;54786,398;-4413,427
 682,27;  531,521;54740,652;-5851,728
 682,85;  517,300;58265,906;-5991,029
 683,43;  523,078;64943,160;-6140,331
 684,01;  572,857;64943,414;-5172,632
 684,58;  567,635;64307,668;-5138,934
 685,16;  547,414;64236,922;-4494,235
 685,74;  582,192;62790,176;-3853,536
 686,32;  594,971;59009,430;-6012,838
 686,89;  567,749;59552,684;-6015,139
 687,47;  496,528;59534,934;-6076,441
 688,05;  496,306;56416,188;-6019,742
 688,63;  494,084;59626,441;-6102,043
 689,20;  465,863;62884,695;-5971,345
 689,78;  470,641;58427,949;-5530,646
 690,36;  494,420;54291,203;-5381,948
 690,93;  438,198;54968,457;-6355,249
 691,51;  524,977;61453,711;-6326,550
 692,09;  526,755;64946,965;-6223,852
 692,67;  489,534;64947,219;-6047,153
 693,24;  507,312;60968,469;-5803,455
 693,82;  479,091;59538,723;-6235,756
 694,40;  569,869;58049,977;-3570,058
 694,97;  524,648;57456,230;-6046,359
 695,55;  506,426;59820,484;-5464,660
 696,13;  531,204;61729,738;-4454,962
 696,70;  580,983;58594,992;-6029,263
 697,28;  479,761;59108,246;-6266,564
 697,86;  525,540;60837,500;-6030,866
 698,43;  592,318;58827,754;-6198,167
 699,01;  538,097;55595,004;-6051,469
 699,59;  646,875;55751,258;-6402,770
 700,16;  666,654;54174,512;-5257,072
 700,74;  715,432;57040,766;-5497,373
 701,32;  754,211;56440,020;-6233,674
 701,89;  846,989;55792,273;-6049,976
 702,47; 1083,767;60296,527;-6466,277
 703,05; 1433,546;64951,781;-6309,579
 703,62; 1661,324;64952,035;-6227,880
 704,20; 1733,103;64952,285;-5306,182
 704,77; 1566,881;64952,539;-6118,483
 705,35; 1467,660;64213,793;-6006,784
 705,93; 1234,438;64327,047;-4922,085
 706,50; 1036,217;63796,301;-5267,387
 707,08;  817,995;60606,555;-5284,688
 707,65;  668,774;60046,809;-5620,990
 708,23;  634,552;64881,063;-5431,292
 708,81;  532,331;64954,316;-5019,593
 709,38;  533,109;64954,570;-5001,894
 709,96;  555,887;64954,820;-6025,195
 710,53;  456,666;64955,074;-6007,497
 711,11;  525,444;61503,328;-5752,798
 711,69;  418,223;61913,582;-3821,100
 712,26;  439,001;59012,836;-4642,401
 712,84;  447,780;63346,090;-5947,703
 713,41;  422,558;64411,344;-6153,004
 713,99;  392,337;64924,598;-6068,305
 714,56;  435,115;62057,852;-6326,607
 715,14;  404,894;60312,105;-6198,908
 715,71;  379,672;60246,355;-6210,209
 716,29;  394,450;62893,609;-6648,511
 716,86;  361,229;63573,863;-6510,813
 717,44;  353,007;63263,117;-6424,114
 718,02;  343,786;62110,371;-6462,415
 718,59;  336,564;61013,625;-5121,716
 719,17;  300,343;63488,879;-5649,018
 719,74;  345,121;62907,133;-5756,319
 720,32;  374,900;63502,387;-6451,621
 720,89;  318,678;64959,641;-6422,922
 721,47;  298,457;64959,891;-6388,224
 722,04;  330,235;64960,145;-5502,525
 722,62;  303,013;64252,398;-3979,826
 723,19;  305,792;60250,652;-4938,128
 723,77;  315,570;57638,906;-5673,429
 724,34;  343,349;60150,160;-5576,730
 724,92;  353,127;63789,414;-6558,032
 725,49;  338,906;64961,668;-5666,333
 726,07;  354,684;64961,922;-6491,635
 726,64;  361,463;64627,176;-6587,936
 727,21;  303,241;60249,426;-5627,238
 727,79;  294,020;63706,680;-6444,539
 728,36;  370,798;64962,934;-6722,840
 728,94;  342,577;64963,188;-6535,142
 729,51;  357,355;64963,441;-6365,443
 730,09;  364,133;64963,695;-5545,745
 730,66;  331,912;64963,949;-6358,046
 731,24;  385,690;64964,203;-6577,348
 731,81;  337,469;64964,457;-5151,649
 732,38;  323,247;64964,711;-6492,950
 732,96;  368,026;64964,961;-6263,251
 733,53;  415,804;60347,215;-6389,553
 734,11;  386,583;61575,469;-6617,854
 734,68;  380,361;64965,723;-6211,156
 735,26;  367,140;64965,977;-6389,458
 735,83;  395,918;64966,230;-6498,759
 736,40;  381,697;62243,484;-6516,060
 736,98;  376,475;61999,738;-6374,361
 737,55;  323,253;59236,992;-5827,663
 738,13;  315,032;57707,246;-5702,964
 738,70;  306,810;60991,496;-5529,266
 739,27;  365,589;62504,750;-6452,567
 739,85;  373,367;62745,004;-6283,869
 740,42;  398,146;64968,258;-6464,170
 740,99;  375,924;64968,512;-5618,471
 741,57;  393,703;64968,766;-4867,773
 742,14;  381,481;64969,020;-5349,074
 742,72;  359,260;64969,273;-4751,375
 743,29;  399,038;64969,527;-6563,677
 743,86;  427,816;64969,781;-6538,979
 744,44;  482,595;64970,031;-6113,280
 745,01;  444,373;64970,285;-5760,581
 745,58;  475,152;64970,539;-6259,882
 746,16;  470,930;64970,793;-6188,184
 746,73;  499,709;64971,047;-6479,485
 747,30;  502,487;61139,301;-6536,787
 747,88;  495,266;59621,555;-5621,088
 748,45;  521,044;64971,809;-5668,390
 749,02;  540,823;64972,063;-6384,691
 749,60;  452,601;62401,313;-6212,992
 750,17;  502,379;61766,566;-5269,294
 750,74;  468,158;62801,820;-6479,595
 751,31;  454,936;63306,074;-6347,896
 751,89;  468,715;64232,328;-6546,198
 752,46;  524,493;64973,582;-6282,500
 753,03;  457,272;64973,836;-6160,801
 753,61;  494,050;63755,090;-4858,102
 754,18;  451,829;64573,344;-6434,404
 754,75;  472,607;63888,598;-5191,705
 755,32;  388,386;60715,848;-6332,006
 755,90;  362,164;64975,102;-6493,308
 756,47;  378,943;64975,355;-4809,609
 757,04;  375,721;64975,609;-6457,911
 757,61;  397,499;64975,863;-5553,212
 758,19;  379,278;64976,117;-5253,514
 758,76;  324,056;64976,371;-6603,815
 759,33;  378,835;64976,625;-6664,116
 759,90;  406,613;64976,879;-5714,417
 760,48;  325,392;64977,133;-6778,719
 761,05;  360,170;64977,383;-6083,021
 761,62;  350,949;62082,637;-4888,322
 762,19;  303,727;58992,891;-6144,624
 762,77;  335,506;61730,145;-5963,925
 763,34;  325,284;64978,398;-6610,226
 763,91;  320,062;64978,652;-5818,527
 764,48;  315,841;64978,906;-6756,829
 765,05;  333,619;64979,160;-6543,130
 765,63;  377,398;63215,414;-6417,432
 766,20;  442,176;59753,668;-6004,733
 766,77;  355,955;57105,918;-5921,035
 767,34;  291,733;58807,172;-6640,336
 767,91;  276,512;59176,426;-6689,637
 768,49;  256,290;61368,680;-6772,939
 769,06;  298,069;64980,934;-5832,240
 769,63;  330,847;62272,188;-6636,542
 770,20;  330,626;59567,441;-5868,843
 770,77;  245,404;57921,695;-5645,145
 771,34;  271,182;60065,949;-6615,446
 771,91;  227,961;60549,203;-6102,747
 772,49;  333,739;58558,453;-6369,048
 773,06;  279,518;57687,707;-6203,350
 773,63;  315,296;60204,961;-6639,651
 774,20;  318,075;58197,215;-5918,953
 774,77;  337,853;56475,469;-6631,254
 775,34;  248,632;56707,723;-6214,556
 775,91;  433,410;57056,977;-6417,857
 776,49;  413,189;58787,230;-6590,158
 777,06;  520,967;60761,484;-6015,460
 777,63;  440,745;64224,738;-6367,761
 778,20;  349,524;62572,988;-6250,063
 778,77;  324,302;63316,242;-5763,364
 779,34;  296,081;64985,496;-6585,666
 779,91;  263,859;64985,750;-6534,967
 780,48;  253,638;59144,004;-5853,268
 781,05;  227,416;50716,258;-6586,570
 781,62;  309,195;52124,512;-6604,871
 782,20;  254,973;58813,766;-6500,172
 782,77;  278,752;64987,020;-6529,474
 783,34;  277,530;64052,273;-6522,775
 783,91;  278,309;61362,523;-6509,077
 784,48;  279,087;60480,777;-2126,378
 785,05;  275,865;59144,031;-6540,680
 785,62;  239,644;58221,285;-6452,981
 786,19;  284,422;58149,539;-5100,282
 786,76;  253,201;55130,793;-6677,583
 787,33;  282,979;56202,047;-6515,885
 787,90;  253,758;59491,301;-6591,187
 788,47;  223,536;60148,555;-5075,488
 789,04;  271,315;58988,809;-5763,790
 789,61;  200,093;58863,059;-5066,091
 790,18;  222,872;55747,313;-6561,392
 790,75;  237,650;50841,566;-6671,693
 791,32;  262,428;52056,820;-6577,995
 791,89;  242,207;55205,074;-6068,296
 792,46;  236,985;60806,328;-5763,598
 793,03;  239,764;62404,582;-6702,899
 793,60;  225,542;55699,836;-6440,201
 794,17;  231,321;52257,090;-5569,502
 794,74;  255,099;47273,344;-5886,803
 795,31;  244,878;50096,594;-6099,105
 795,88;  183,656;52579,848;-5572,406
 796,45;  164,435;53365,102;-6529,708
 797,02;  143,213;56004,355;-5046,009
 797,59;  206,992;57922,609;-6675,311
 798,16;  217,770;54563,863;-5861,612
 798,73;  197,548;53534,117;-6761,913
 799,30;  193,327;55088,371;-6611,214
 799,87;  131,105;55650,625;-6713,516
 800,44;  176,884;55353,875;-6729,817
 801,01;  175,662;56836,129;-6807,119
 801,58;  205,441;58477,383;-6537,420
 802,15;  225,219;52086,637;-6658,722
 802,72;  181,998;48849,891;-6694,023
 803,28;  168,776;52000,145;-6076,324
 803,85;  158,555;57179,398;-6728,626
 804,42;  213,333;55235,652;-5999,927
 804,99;  157,111;53752,906;-6539,229
 805,56;  162,890;52472,160;-6770,530
 806,13;  156,668;53387,410;-6075,832
 806,70;  177,447;52719,664;-6748,133
 807,27;  168,225;54477,918;-6672,434
 807,84;  152,004;52786,172;-6693,736
 808,41;  152,782;49728,426;-6022,037
 808,98;  193,561;50479,680;-5986,338
 809,54;  166,339;52469,934;-4958,640
 810,11;  115,118;48281,188;-6782,941
 810,68;  144,896;43021,441;-6680,243
 811,25;  111,674;41394,695;-6760,544
 811,82;  183,453;40374,945;-6886,846
 812,39;  148,231;37710,199;-3331,147
 812,96;  190,010;38779,453;-6767,448
 813,52;  164,788;41291,707;-6937,750
 814,09;  152,567;44522,961;-6766,051
 814,66;  154,345;50325,215;-6827,353
 815,23;  170,124;51240,469;-6669,654
 815,80;  140,902;50439,723;-5853,956
 816,37;  138,681;50917,977;-6801,257
 816,93;  204,459;49487,230;-6731,558
 817,50;  195,238;46790,480;-6102,859
 818,07;  183,016;46034,734;-6960,161
 818,64;  231,794;46919,988;-6856,462
 819,21;  232,573;46261,242;-6053,764
 819,77;  253,351;42742,496;-6571,065
 820,34;  199,130;42053,750;-6677,367
 820,91;  250,908;43276,004;-6469,668
 821,48;  248,687;43873,258;-6689,969
 822,05;  281,465;45571,512;-5875,271
 822,61;  215,244;44296,766;-5631,572
 823,18;  186,022;41860,016;-6620,874
 823,75;  179,801;42585,270;-6957,175
 824,32;  202,579;45286,523;-6923,477
 824,88;  197,357;45073,777;-6882,778
 825,45;  166,136;44018,031;-6899,079
 826,02;  142,914;43798,285;-6643,380
 826,59;  173,693;43974,539;-6639,682
 827,15;  121,471;46077,793;-6906,983
 827,72;  118,250;49519,047;-6723,285
 828,29;  151,028;51523,301;-6895,586
 828,86;  118,807;48827,551;-6791,888
 829,42;  104,585;40797,805;-6812,189
 829,99;  130,364;36802,059;-6647,490
 830,56;  108,142;36252,313;-6869,792
 831,13;  134,921;37220,566;-6060,093
 831,69;  176,699;38022,820;-6506,395
 832,26;  147,477;38832,074;-5062,696
 832,83;  122,256;40408,328;-5452,998
 833,39;  139,034;40187,582;-6904,299
 833,96;  113,813;39167,836;-6687,600
 834,53;  104,591;40039,086;-6928,902
 835,10;  102,370;39930,340;-6529,203
 835,66;  131,148;38972,594;-6920,504
 836,23;  141,927;39801,848;-6803,806
 836,80;  108,705;39428,102;-6790,107
 837,36;  120,484;37086,355;-6810,409
 837,93;  139,262;34475,609;-6902,710
 838,50;  143,040;35084,863;-6789,012
 839,06;   88,819;37684,117;-6288,313
 839,63;  123,597;37191,371;-6895,614
 840,19;  143,376;35132,621;-6607,916
 840,76;  113,154;35364,875;-6404,217
 841,33;   92,933;35892,129;-6509,519
 841,89;  101,711;36779,383;-6949,820
 842,46;   90,490;37103,637;-6751,122
 843,03;  100,268;35389,891;-6089,423
 843,59;   95,047;34224,145;-6403,724
 844,16;  102,825;34994,398;-6181,025
 844,73;  173,604;34249,652;-6067,327
 845,29;  153,382;32937,902;-5695,628
 845,86;  108,160;35699,156;-6800,930
 846,42;   73,939;36940,410;-7004,231
 846,99;  119,717;36477,664;-6967,533
 847,56;   92,496;36265,918;-5840,834
 848,12;  102,274;36240,172;-6745,135
 848,69;   62,053;35710,426;-6715,437
 849,25;  100,831;34401,680;-6845,738
 849,82;   73,610;34081,934;-3247,040
 850,38;  117,388;35064,188;-6840,341
 850,95;   78,167;32489,439;-6324,643
 851,52;   71,945;32520,693;-6565,944
 852,08;   73,723;32548,947;-6691,245
 852,65;   57,502;30323,199;-7005,546
 853,21;   61,280;27698,453;-6958,848
 853,78;  104,059;27362,707;-6363,149
 854,34;   36,837;28860,961;-6871,451
 854,91;   51,616;29081,215;-5086,752
 855,47;   77,394;29942,467;-5108,054
 856,04;  119,173;32027,721;-6746,355
 856,60;   85,951;33961,973;-6104,656
 857,17;   74,730;34979,227;-6840,958
 857,73;   65,508;33553,480;-6811,259
 858,30;   38,287;32532,734;-6985,561
 858,86;   73,065;31110,988;-5926,862
 859,43;   94,843;31430,242;-6226,164
 859,99;   86,622;32011,496;-6852,465
 860,56;   74,400;33126,750;-6903,766
 861,12;   44,179;35190,004;-6737,068
 861,69;   59,957;33669,258;-5924,369
 862,25;  110,736;34731,508;-6821,670
 862,82;   50,514;34419,762;-5972,972
 863,38;   96,293;31196,018;-6843,273
 863,95;  129,071;29305,270;-6239,575
 864,51;  118,850;30403,523;-5287,876
 865,08;  113,628;29284,777;-6090,178
 865,64;   23,406;26795,031;-7018,479
 866,21;   78,185;26131,285;-6745,780
 866,77;  108,963;26051,537;-5552,082
 867,34;  117,742;25734,791;-6672,383
 867,90;  170,520;24632,045;-6303,685
 868,46;  125,299;23835,299;-6041,986
 869,03;   63,077;24389,551;-6929,288
 869,59;  109,856;26353,805;-6884,589
 870,16;   78,634;27647,059;-6052,890
 870,72;   82,413;30060,313;-6657,191
 871,28;   98,191;32915,566;-5992,493
 871,85;   92,969;33142,820;-6907,794
 872,41;   39,748;31569,072;-6004,096
 872,98;   44,526;32738,326;-6050,397
 873,54;   24,305;33876,578;-5920,699
 874,10;   96,083;32768,832;-5876,000
 874,67;   29,083;32987,832;-6904,000
 875,23;   79,083;31068,834;-7032,000
 875,80;   97,083;28009,834;-6641,000
 876,36;   69,083;25058,834;-6642,000
 876,92;  103,083;22832,834;-6189,000
 877,49;   60,083;23923,834;-6517,000
 878,05;  107,083;24896,834;-6797,000
 878,61;   66,083;26938,834;-6812,000
 879,18;   50,083;27553,834;-6252,000
 879,74;   49,083;28076,834;-6720,000
 880,30;   57,083;28679,834;-5926,000
 880,87;  -28,917;28852,834;-6326,000
 881,43;   80,083;29533,834;-6871,000
 881,99;   74,083;27306,834;-6879,000
 882,56;   12,083;27610,834;-6661,000
 883,12;   66,083;29049,834;-5740,000
 883,68;   51,083;29120,834;-6518,000
 884,25;   27,083;28300,834;-6949,000
 884,81;   48,083;26343,834;-6701,000
 885,37;   27,083;24221,834;-6786,000
 885,94;   54,083;22940,834;-6851,000
 886,50;   37,083;23098,834;-6886,000
 887,06;   11,083;24358,834;-6796,000
 887,62;   17,083;25019,834;-6866,000
 888,19;   19,083;25774,834;-5986,000
 888,75;   46,083;26542,834;-6821,000
 889,31;   34,083;29043,834;-6778,000
 889,87;   39,083;30537,834;-6723,000
 890,44;   60,083;30349,834;-6696,000
 891,00;   43,083;28757,834;-6786,000
 891,56;    8,083;26457,834;-6998,000
 892,12;  104,083;24463,834;-6754,000
 892,69;   73,083;25310,834;-6373,000
 893,25;   35,083;28798,834;-6877,000
 893,81;   67,083;31774,834;-6696,000
 894,37;   73,083;31330,834;-6342,000
 894,94;   33,083;28713,834;-6772,000
 895,50;   24,083;26035,834; -212,000
 896,06;   91,083;24749,834;-6810,000
 896,62;   97,083;23405,834;-6707,000
 897,18;   76,083;24661,834;-6518,000
 897,75;   54,083;27406,834;-6895,000
 898,31;   75,083;27887,834;-6849,000
 898,87;   47,083;26274,834;-6860,000
 899,43;   70,083;25164,834;-6469,000
 899,99;   25,083;26592,834;-6866,000
 900,56;   80,083;25515,834;-6791,000
 901,12;   47,083;24875,834;-6890,000
 901,68;   93,083;27903,834;-6267,000
 902,24;   86,083;31800,834;-5930,000
 902,80;   40,083;32652,834;-6794,000
 903,36;   71,083;31893,834;-6691,000
 903,93;   93,083;32139,834;-6646,000
 904,49;  162,083;32761,834;-6913,000
 905,05;  352,083;30952,834;-6732,000
 905,61;  733,083;28208,834;-6832,000
 906,17; 1273,083;28086,834;-6901,000
 906,73; 1834,083;25975,834;-5380,000
 907,29; 2440,083;24960,834;-6910,000
 907,86; 3053,083;25118,834;-6827,000
 908,42; 3284,083;28092,834;-6795,000
 908,98; 2726,083;31123,834;-5908,000
 909,54; 1446,083;38813,832;-6885,000
 910,10;  583,083;48220,832;-6634,000
 910,66;  148,083;57581,832;-6781,000
 911,22;   73,083;65027,832;-6761,000
 911,78;   58,083;62593,832;-6841,000
 912,34;   20,083;53256,832;-6080,000
 912,90;    9,083;44610,832;-5232,000
 913,46;   67,083;37052,832;-6876,000
 914,03;   10,083;30620,834;-5746,000
 914,59;   32,083;27452,834;-6682,000
 915,15;   69,083;24908,834;-6891,000
 915,71;   20,083;24217,834;-6863,000
 916,27;   37,083;23800,834;-6723,000
 916,83;   68,083;23006,834;-5824,000
 917,39;   17,083;21742,834;-3512,000
 917,95;   50,083;20224,834;-6009,000
 918,51;   45,083;19972,834;-6583,000
 919,07;    8,083;21780,834;-6791,000
 919,63;   -0,917;23295,834;-6661,000
 920,19;   10,083;23935,834;-6865,000
 920,75;   32,083;23112,834;-6640,000
 921,31;   12,083;21484,834;-4837,000
 921,87;   21,083;20216,834;-6845,000
 922,43;   -2,917;18019,834;-5626,000
 922,99;   44,083;17321,834;-6706,000
 923,55;   89,083;18674,834;-6655,000
 924,11;   47,083;19094,834;-6976,000
 924,67;   46,083;19310,834;-6962,000
 925,23;   30,083;19485,834;-6778,000
 925,79;   23,083;20122,834;-6710,000
 926,35;   68,083;20219,834;-6573,000
 926,91;    7,083;19401,834;-6909,000
 927,47;   44,083;19367,834;-6660,000
 928,03;  112,083;20294,834;-6786,000
 928,59;   91,083;20503,834;-6678,000
 929,15;   55,083;20781,834;-6792,000
 929,71;   55,083;22016,834;-6840,000
 930,27;  113,083;23587,834;-6537,000
 930,82;   87,083;25573,834;-6728,000
 931,38;   -4,917;24317,834;-5852,000
 931,94;   -0,917;22672,834;-6843,000
 932,50;   45,083;21252,834;-6481,000
 933,06;   34,083;20895,834;-6768,000
 933,62;   61,083;21092,834;-6443,000
 934,18;   61,083;20632,834;-6727,000
 934,74;   27,083;21320,834;-6709,000
 935,30;   62,083;22030,834;-6484,000
 935,86;   74,083;21213,834;-6505,000
 936,42;   48,083;20702,834;-6873,000
 936,97;   32,083;21656,834;-6563,000
 937,53;   37,083;20552,834;-6826,000
 938,09;   38,083;21087,834;  123,000
 938,65;   28,083;21186,834;-6268,000
 939,21;   51,083;20179,834;-6708,000
 939,77;    9,083;18946,834;-6213,000
 940,33;   38,083;18602,834;-6748,000
 940,88;   50,083;19429,834;-5908,000
 941,44;   33,083;21301,834;-6983,000
 942,00;    5,083;23225,834;-6697,000
 942,56;   52,083;24231,834;-6604,000
 943,12;   54,083;23427,834;-5907,000
 943,68;   34,083;22950,834;-5679,000
 944,23;   28,083;23124,834;-6749,000
 944,79;   16,083;22674,834;-6102,000
 945,35;   23,083;20741,834;-6599,000
 945,91;  100,083;19519,834;-6767,000
 946,47;   18,083;19827,834;-3353,000
 947,03;    3,083;19896,834;-6850,000
 947,58;  -14,917;19661,834;-6840,000
 948,14;   89,083;20790,834;-5897,000
 948,70;   25,083;19573,834;-5855,000
 949,26;   24,083;18881,834;-6616,000
 949,81;    5,083;18342,834;-6644,000
 950,37;   24,083;18686,834;-6695,000
 950,93;   50,083;17993,834;-6224,000
 951,49;    0,083;17568,834;-6057,000
 952,05;   13,083;17926,834;-6571,000
 952,60;  -11,917;17299,834;-6951,000
 953,16;   43,083;16933,834;-5783,000
 953,72;   -5,917;15628,833;-5813,000
 954,27;   -2,917;15524,833;-6566,000
 954,83;   40,083;15317,833;-6703,000
 955,39;    1,083;14917,833;-6691,000
 955,95;  -30,917;14456,833;-6849,000
 956,50;   -1,917;14272,833;-6698,000
 957,06;  -27,917;14126,833;-5922,000
 957,62;  -16,917;13780,833;-6559,000
 958,18;  -41,917;13872,833;-6741,000
 958,73;   12,083;13326,833;-6820,000
 959,29;   -9,917;13518,833;-6106,000
 959,85;   31,083;14785,833;-6864,000
 960,40;   29,083;16746,834;-4263,000
 960,96;   16,083;16386,834;-6738,000
 961,52;   15,083;14755,833;-6643,000
 962,07;    2,083;13711,833;-6742,000
 962,63;   11,083;13208,833;-6723,000
 963,19;  -47,917;13435,833;-5779,000
 963,74;   47,083;13877,833;-6582,000
 964,30;  -20,917;14475,833;-6595,000
 964,86;   28,083;14281,833;-6484,000
 965,41;   49,083;14290,833;-6705,000
 965,97;  -26,917;14185,833;-6569,000
 966,53;    7,083;14792,833;-6750,000
 967,08;   13,083;15311,833;-6611,000
 967,64;   -6,917;15082,833;-6705,000
 968,19;  -13,917;14471,833;-6684,000
 968,75;    0,083;14662,833;-6566,000
 969,31;   -4,917;14880,833;-5626,000
 969,86;   -7,917;14995,833;-6505,000
 970,42;    2,083;13195,833;-6620,000
 970,97;   -1,917;11567,833;-6437,000
 971,53;  -12,917;11625,833;-6490,000
 972,09;  -32,917;12998,833;-6646,000
 972,64;   -4,917;13523,833;-5812,000
 973,20;   12,083;13815,833;-6599,000
 973,75;   -5,917;14605,833;-5760,000
 974,31;   29,083;14826,833;-6578,000
 974,87;    9,083;14921,833;-6674,000
 975,42;  -22,917;14507,833;-6727,000
 975,98;  -28,917;13201,833;-6651,000
 976,53;   14,083;12100,833;-6555,000
 977,09;   -9,917;11353,833;-4624,000
 977,64;    0,083;11164,833;-6532,000
 978,20;    0,083;10649,833;-6585,000
 978,75;   -6,917;10482,833;-6429,000
 979,31;   -5,917;10950,833;-6513,000
 979,86;   -5,917;12220,833;-6739,000
 980,42;  -32,917;12828,833;-5813,000
 980,97;   15,083;13290,833;-6642,000
 981,53;   60,083;14285,833;-6636,000
 982,08;   -3,917;13803,833;-5046,000
 982,64;    8,083;12278,833;-6237,000
 983,19;   15,083;11308,833;-6760,000
 983,75;   -2,917;10993,833;-6576,000
 984,30;  -32,917;10430,833;-5581,000
 984,86;  -20,917; 9867,833;-5898,000
 985,41;   29,083; 9457,833;-6634,000
 985,97;   27,083; 9632,833;-4797,000
 986,52;  -27,917; 9894,833;-5853,000
 987,08;    7,083; 9953,833;-6174,000
 987,63;  -14,917;10165,833;-5608,000
 988,19;   -7,917;11252,833;-6266,000
 988,74;  -10,917;11710,833;-5682,000
 989,30;  -22,917;11529,833;-6568,000
 989,85;   41,083;11470,833; -276,000
 990,40;  -23,917;11314,833;-6617,000
 990,96;   61,083;11060,833;-6482,000
 991,51;   24,083;11149,833;-6578,000
 992,07;  -27,917;10742,833;-6605,000
 992,62;   -7,917;10285,833;-6519,000
 993,18;    7,083;10035,833;-6504,000
 993,73;   16,083; 9986,833;-6440,000
 994,28;  -26,917; 9800,833;-6464,000
 994,84;    5,083; 9019,833;-6240,000
 995,39;   21,083; 8474,833;-2971,000
 995,94;   27,083; 7953,833;-5673,000
 996,50;  -14,917; 7647,833;-6543,000
 997,05;   22,083; 7872,833;-3481,000
 997,61;    6,083; 8363,833;-6489,000
 998,16;   -1,917; 8581,833;-6555,000
 998,71;  -10,917; 8850,833;-6340,000
 999,27;    8,083; 9115,833;-5223,000
 999,82;   -7,917; 8706,833;-4778,000
1000,37;  -17,917; 8661,833;-6520,000
1000,93;   32,083; 8920,833;-6107,000
1001,48;   -9,917; 8799,833;-6543,000
1002,03;   19,083; 8477,833;-6469,000
1002,59;   19,083; 8715,833;-5972,000
1003,14;   10,083; 8758,833;-6113,000
1003,69;   15,083; 8484,833;-6513,000
1004,25;   -1,917; 8299,833;-6507,000
1004,80;   11,083; 8322,833;-6266,000
1005,35;   -6,917; 8313,833;-6361,000
1005,91;   26,083; 8515,833;-6558,000
1006,46;   11,083; 8426,833;-6084,000
1007,01;   56,083; 8227,833;-5479,000
1007,56;   15,083; 8599,833;-6440,000
1008,12;    0,083; 8342,833;-6178,000
1008,67;   26,083; 7867,833;-6312,000
1009,22;   25,083; 7509,833;-6481,000
1009,78;    3,083; 7205,833;-6163,000
1010,33;   17,083; 6649,833;-6443,000
1010,88;   17,083; 6413,833;-5618,000
1011,43;   -3,917; 5995,833;-6433,000
1011,99;   20,083; 5972,833;-6198,000
1012,54;    9,083; 6320,833;-6387,000
1013,09;   42,083; 6048,833;-6299,000
1013,64;    0,083; 5802,833;-6362,000
1014,19;   -0,917; 5823,833;-6442,000
1014,75;    1,083; 5928,833;-6408,000
1015,30;   -5,917; 6394,833;-6425,000
1015,85;   38,083; 6370,833;-6367,000
1016,40;   39,083; 6247,833;-5436,000
1016,96;   95,083; 6235,833;-6268,000
1017,51;   40,083; 6150,833;-6351,000
1018,06;   10,083; 6095,833;-6310,000
1018,61;  -17,917; 5695,833;-6665,000
1019,16;   11,083; 5609,833;-6697,000
1019,71;   51,083; 5663,833;-6373,000
1020,27;    9,083; 5567,833;-6353,000
1020,82;   36,083; 5375,833;-3700,000
1021,37;   52,083; 5405,833;-4798,000
1021,92;   37,083; 5984,833;-6454,000
1022,47;    5,083; 5965,833;-6548,000
1023,02;   10,083; 5463,833;-6512,000
1023,58;   53,083; 5045,833;-6573,000
1024,13;  111,083; 4730,833;-6258,000
1024,68;   42,083; 4434,833;-6298,000
1025,23;   84,083; 4324,833;-5525,000
1025,78;   74,083; 4613,833;-6475,000
1026,33;   72,083; 4932,833;-5510,000
1026,88;   85,083; 4843,833;-6236,000
1027,43;   68,083; 5167,833;-6276,000
1027,99;   95,083; 5134,833;-6002,000
1028,54;  120,083; 4732,833;-6395,000
1029,09;  131,083; 4106,833;-2478,000
1029,64;  112,083; 3919,833;-6303,000
1030,19;  163,083; 4147,833;-3821,000
1030,74;  131,083; 4243,833;-5134,000
1031,29;  173,083; 4284,833;-4765,000
1031,84;  179,083; 4491,833;-6300,000
1032,39;  197,083; 4563,833;-5403,000
1032,94;  177,083; 4617,833;-4326,000
1033,49;  245,083; 4361,833;-5476,000
1034,04;  246,083; 4236,833;-6312,000
1034,59;  331,083; 4205,833;-6507,000
1035,14;  288,083; 4117,833;-6145,000
1035,69;  302,083; 4318,833;-6224,000
1036,24;  324,083; 4104,833;-4477,000
1036,80;  314,083; 3986,833;-5453,000
1037,35;  407,083; 4138,833;-6347,000
1037,90;  471,083; 4172,833;-6274,000
1038,45;  484,083; 4201,833;-6419,000
1039,00;  495,083; 4340,833;-5490,000
1039,55;  584,083; 4229,833;-6284,000
1040,10;  625,083; 3977,833;-5615,000
1040,65;  659,083; 3916,833;-5576,000
1041,20;  677,083; 3850,833;-6325,000
1041,75;  789,083; 4030,833;-4522,000
1042,30;  845,083; 4164,833;-3585,000
1042,84;  886,083; 4338,833;-4439,000
1043,39;  943,083; 4248,833;-6313,000
1043,94; 1042,083; 4175,833;-5342,000
1044,49; 1164,083; 3887,833;-6246,000
1045,04; 1322,083; 3710,833;-5800,000
1045,59; 1444,083; 3809,833;-6299,000
1046,14; 1677,083; 3732,833;-6392,000
1046,69; 1788,083; 3591,833;-6294,000
1047,24; 2035,083; 3623,833;-5510,000
1047,79; 2374,083; 3737,833;-6139,000
1048,34; 2557,083; 4002,833;-5961,000
1048,89; 3024,083; 3948,833;-6259,000
1049,44; 3387,083; 3935,833;-5172,000
1049,99; 4041,083; 3855,833;-4844,000
1050,54; 4948,083; 3876,833;-6249,000
1051,08; 6418,083; 3961,833;-6178,000
1051,63; 9317,083; 4050,833;-5285,000
1052,18;14967,083; 5051,833;-6127,000
1052,73;24454,084; 7151,833;-6173,000
1053,28;36695,082;10516,833;-6386,000
1053,83;51118,082;15224,833;-6214,000
1054,38;65154,082;19203,834;-6254,000
1054,93;65154,082;21243,834;-6285,000
1055,47;65154,082;23825,834;-5328,000
1056,02;65154,082;26212,834;-5832,000
1056,57;65154,082;27830,834;-6198,000
1057,12;65154,082;30497,834;-6378,000
1057,67;65154,082;33805,832;-6078,000
1058,22;65154,082;36084,832;-6313,000
1058,76;65154,082;38542,832;-6093,000
1059,31;65154,082;44129,832;-3514,000
1059,86;65154,082;48778,832;-6204,000
1060,41;65154,082;49718,832;-6152,000
1060,96;65154,082;51396,832;-6226,000
1061,51;65154,082;53649,832;-5344,000
1062,05;65154,082;54082,832;-6122,000
1062,60;65154,082;50555,832;-6061,000
1063,15;65154,082;45221,832;-6149,000
1063,70;65154,082;41550,832;-6250,000
1064,24;65154,082;43676,832;-6169,000
1064,79;65154,082;45461,832;-6144,000
1065,34;65154,082;43989,832;-6064,000
1065,89;65154,082;41776,832;-6202,000
1066,44;65154,082;37631,832;-6120,000
1066,98;65154,082;32612,834;-6224,000
1067,53;65154,082;30790,834;-5953,000
1068,08;65154,082;30368,834;-4845,000
1068,63;65154,082;27618,834;-6096,000
1069,17;65154,082;24647,834;-5893,000
1069,72;65154,082;22350,834;-5857,000
1070,27;65154,082;20529,834;-6040,000
1070,81;65154,082;20388,834;-5996,000
1071,36;65154,082;20367,834;-3883,000
1071,91;65154,082;18745,834;  966,000
1072,46;65154,082;16791,834;-5058,000
1073,00;65154,082;14646,833;-5239,000
1073,55;65154,082;11404,833;-5935,000
1074,10;46183,082; 7803,833;-5981,000
1074,64;27909,084; 5240,833;-5860,000
1075,19;16950,084; 3535,833;-4958,000
1075,74;10430,083; 2551,833;-6091,000
1076,28; 7161,083; 2312,833;-6075,000
1076,83; 5723,083; 1951,833;-5286,000
1077,38; 4664,083; 1820,833;-5653,000
1077,92; 3740,083; 1783,833;-6332,000
1078,47; 3200,083; 1629,833;-5507,000
1079,02; 2638,083; 1578,833;-5959,000
1079,56; 2305,083; 1557,833;-5328,000
1080,11; 1905,083; 1304,833;-6094,000
1080,65; 1641,083; 1241,833;-5039,000
1081,20; 1411,083; 1186,833;-6151,000
1081,75; 1314,083; 1125,833;-6039,000
1082,29; 1156,083; 1128,833; -139,000
1082,84;  982,083; 1184,833;-2678,000
1083,39;  834,083; 1294,833;-5061,000
1083,93;  787,083; 1335,833;-5025,000
1084,48;  690,083; 1196,833;-5961,000
1085,02;  647,083; 1082,833;-5783,000
1085,57;  566,083; 1074,833;-5994,000
1086,11;  520,083; 1079,833;-5968,000
1086,66;  497,083;  925,833;-5584,000
1087,21;  504,083; 1060,833;-5802,000
1087,75;  435,083;  939,833;-6125,000
1088,30;  354,083;  815,833;-5040,000
1088,84;  379,083;  783,833;-5963,000
1089,39;  300,083;  656,833;-5965,000
1089,93;  327,083;  664,833;-6100,000
1090,48;  265,083;  649,833;-4394,000
1091,02;  308,083;  733,833;-5181,000
1091,57;  259,083;  629,833;-5479,000
1092,11;  243,083;  642,833;-4094,000
1092,66;  225,083;  624,833;-6031,000
1093,20;  224,083;  580,833;-5180,000
1093,75;  185,083;  566,833;-4998,000
1094,29;  187,083;  486,833;-4979,000
1094,84;  219,083;  525,833;-5890,000
1095,38;  142,083;  528,833;-5097,000
1095,93;  141,083;  584,833;-5981,000
1096,47;  150,083;  615,833;-5612,000
1097,02;  119,083;  587,833;-4985,000
1097,56;  127,083;  614,833;-5772,000
1098,11;  140,083;  552,833;-5774,000
1098,65;   88,083;  508,833;-5992,000
1099,20;   92,083;  577,833;-5935,000
1099,74;  105,083;  487,833;-6002,000
1100,29;  129,083;  513,833;-4879,000
1100,83;   65,083;  496,833;-5934,000

