
Integration time [ms]:   0,030
Averaging Nr. [scans]: 1
Smoothing Nr. [pixels]: 0
Data measured with spectrometer [name]: 1703254U1
Wave   ;Sample   ;Dark     ;Reference;Scope
[nm]   ;[counts] ;[counts] ;[counts] 

 190,08;  -34,287; -370,119;11982,743
 190,69;  -13,059; -359,404;11603,049
 191,29;  -14,807; -311,651;11479,965
 191,90;  -25,921; -365,508;11440,717
 192,50;  -23,923; -379,511;10355,099
 193,10;   -0,197; -446,299;11244,381
 193,71;  -22,549; -367,888; 9821,736
 194,31;  -16,181; -399,273; 9436,327
 194,91;  -16,181; -382,273; 9291,327
 195,52;  -24,048; -338,386;10555,949
 196,12;    3,549; -397,056; 8671,847
 196,72;  -19,053; -386,394; 8220,904
 197,32;  -22,549; -375,888; 8251,736
 197,93;   -3,069; -360,420; 8700,957
 198,53;  -18,304; -383,145; 7601,797
 199,13;  -26,295; -397,132; 8091,270
 199,74;   -9,063; -366,410; 7263,813
 200,34;   -4,817; -388,667; 7832,874
 200,94;   -1,945; -436,547; 6941,297
 201,55;  -13,059; -406,404; 7119,049
 202,15;  -16,680; -375,773; 6404,732
 202,75;  -51,145; -373,217; 6097,647
 203,36;   -6,815; -338,664; 6822,492
 203,96;  -65,380; -357,943; 6332,678
 204,56;  -10,811; -355,657;10275,729
 205,16;  -19,427; -363,018; 5478,458
 205,77;  -34,162; -360,244; 4767,892
 206,37;  -20,426; -409,017; 5556,267
 206,97;  -24,672; -363,760; 5129,205
 207,58;   -5,317; -364,166; 5927,278
 208,18;  -28,293; -337,129; 5129,889
 208,78;  -25,296; -404,134; 5295,461
 209,38;   -6,066; -469,415; 4958,385
 209,99;   -5,941; -356,540; 3837,534
 210,59;   -7,814; -361,662; 3890,301
 211,19;   -6,940; -364,538; 3938,343
 211,79;    1,426; -366,927; 4499,316
 212,40;  -30,791; -373,625; 3368,911
 213,00;  -20,551; -388,891; 3903,118
 213,60;  -26,545; -386,882; 2992,972
 214,20;  -43,153; -401,230; 3081,175
 214,81;  -34,787; -422,618; 2884,148
 215,41;  -43,403; -376,979; 3235,877
 216,01;  -66,255; -373,067; 3109,636
 216,61;  -16,056; -367,399; 2814,476
 217,22;  -61,010; -381,326; 2358,888
 217,82;  -78,117; -325,173; 2262,495
 218,42;  -54,641; -383,711; 2389,480
 219,02;  -60,011; -288,327; 3432,079
 219,63;  -40,905; -357,483; 2044,854
 220,23;  -44,776; -366,602; 2425,239
 220,83;  -42,654; -395,730; 1901,770
 221,43;  -64,132; -393,195; 1850,167
 222,03;  -67,378; -348,940; 2326,296
 222,64;  -47,024; -380,348; 1769,560
 223,24;  -51,395; -298,966; 1625,350
 223,84;  -69,002; -376,313; 2637,361
 224,44;  -64,631; -316,695; 2381,571
 225,05;  -60,386; -313,952; 1440,632
 225,65;  -67,253; -301,065; 1227,445
 226,25;  -54,392; -364,961; 1139,777
 226,85;  -71,000; -294,309;  995,979
 227,45;  -57,638; -335,706; 1083,907
 228,06;  -55,515; -365,834; 1945,438
 228,66;  -54,891; -349,460; 4049,182
 229,26;  -68,877; -313,438; 1131,510
 229,86;  -51,020; -396,342; 1760,797
 230,46;  -65,131; -358,194;  891,976
 231,06;  -64,881; -320,444;  757,273
 231,67;  -41,655; -346,732; 1228,961
 232,27;  -83,487; -343,789;  778,094
 232,87;  -71,499; -308,808;  526,384
 233,47;  -87,108; -321,158;  525,777
 234,07;  -38,907; -268,486; 9912,235
 234,67;  -99,221; -291,013;  672,338
 235,28;  -87,108; -319,158;   65,777
 235,88; -103,342; -316,882;  285,426
 236,48;  -63,507; -350,821;  165,911
 237,08;  -80,615; -267,669;  448,518
 237,68; -105,839; -369,378; -267,552
 238,28;  -92,478; -304,774; -106,624
 238,89; -103,466; -212,756; -205,723
 239,49;  -93,227; -282,023; 1280,483
 240,09; -117,577; -284,608; -190,544
 240,69; -108,836; -251,373; -319,124
 241,29;  -93,602; -289,647;  651,036
 241,89;  -94,101; -330,147; -260,559
 242,49; -103,706; -248,490; -358,930
 243,10; -109,710; -201,496; 3664,834
 243,70; -113,706; -284,490;  239,070
 244,30; -101,713; -275,501; -708,594
 244,90;  -97,561; -188,582; -568,598
 245,50;  -90,825; -177,355; 3274,777
 246,10; -100,594; -307,636; -831,300
 246,70; -108,212; -300,999;   17,620
 247,30;  -97,597; -251,641;  326,273
 247,91; -126,942; -208,218; 5781,292
 248,51; -120,949; -270,228; -806,563
 249,11;  -86,721; -239,514;  417,933
 249,71; -102,218; -303,008; -667,235
 250,31;  -97,702; -265,483; -567,693
 250,91;  -59,712; -238,500;   75,216
 251,51;  -88,947; -199,225; -822,945
 252,11; -123,299; -239,813;  367,410
 252,71;  -99,083; -269,117;-1080,994
 253,31;  -95,821; -222,348; 3228,013
 253,91;  -82,558; -236,578; -676,170
 254,52;  -90,817; -237,342;-1063,750
 255,12;  -88,702; -293,483;-1104,693
 255,72;  -40,832; -206,366;  557,112
 256,32; -121,047; -242,061; -966,674
 256,92;  -64,053; -190,070;-1147,529
 257,52;  -35,196; -173,974; -883,243
 258,12; -123,063; -201,087;  -91,621
 258,72;  -75,297; -210,810;-1232,972
 259,32;  -44,812; -211,335;-1169,514
 259,92;  -62,809; -199,330;-1343,086
 260,52;  -54,195; -192,973;-1077,433
 261,12;  -70,046; -202,059; -662,865
 261,72;  -64,682; -238,452;-1312,319
 262,32;  -47,572; -215,600;-1561,498
 262,92; -112,666; -238,426;  405,627
 263,53;  -72,430; -189,698;-1277,594
 264,13;  -99,173; -262,937; -268,632
 264,73;  -66,932; -217,202;-1694,617
 265,33;  -57,801; -188,317;-1708,613
 265,93;  -40,793; -147,304;-1345,140
 266,53;  -67,038; -161,046;-1544,392
 267,13;  -66,907; -139,161; -857,388
 267,73;  -56,905; -185,158;  270,230
 268,33;  -51,774; -166,274;-1788,766
 268,93;  -52,436; -213,708;-1702,449
 269,53;  -76,412; -204,670; -644,839
 270,13;  -68,288; -201,797;-1810,499
 270,73;  -62,782; -245,287;-1891,239
 271,33;  -58,417; -200,678;-1778,884
 271,93;  -59,162; -242,919;-1867,732
 272,53;  -33,258; -121,748;    8,776
 273,13;  -33,416; -146,677;-1117,075
 273,73;  -61,261; -119,753;-1955,652
 274,33;  -37,667; -148,428;-2041,182
 274,93;  -73,013; -188,007;-1843,972
 275,53;  -55,258;  -68,748;-1881,224
 276,13; -116,987; -121,965;-2261,935
 276,73; -108,625; -118,361;-1570,007
 277,33;  -59,523; -179,522;-1926,659
 277,93;  -33,418; -213,680;-1864,693
 278,53;  -47,525; -194,526;-2112,278
 279,13;  -86,513; -125,506;-2152,568
 279,73;  -61,508; -140,498;-1388,522
 280,33;  -63,263; -154,756;-2179,270
 280,93;  -18,005; -105,994;-2049,499
 281,53;  -48,642; -147,387;-2252,953
 282,13;  -50,626; -127,363;-2193,816
 282,73;  -88,134; -156,875; -385,885
 283,33;  -56,132; -137,872;-2307,266
 283,92;  -29,494;  -74,477;-2028,003
 284,52;  -43,874;  -94,109;-2365,496
 285,12;  -55,524; -138,524;-1425,469
 285,72;  -14,148; -126,898;-1041,213
 286,32;   -5,382;  -55,622;-1313,564
 286,92;  -55,522; -163,521;-2376,850
 287,52;    0,479;  -89,519;-2170,041
 288,12;  -37,267;  -97,763;-2542,507
 288,72;   -6,660; -106,417;-1625,518
 289,32;  -26,490;  -54,470; 1692,233
 289,92;  -43,772; -106,270;-2344,148
 290,52;  -79,092;  -91,809;-2485,710
 291,12;  -28,006;  -57,996;-1570,308
 291,72;  -48,494;  -74,477;-1590,003
 292,32;  -11,890;  -83,135;-2372,442
 292,92;  -26,251;   -2,737;-2481,560
 293,51;  -56,864;  -37,093;-2532,404
 294,11;  -23,881;  -42,121;-1681,160
 294,71;   11,499;   -7,488;-2695,667
 295,31;  -57,255;  -24,743;-1755,797
 295,91;   20,242;   46,751;-2713,629
 296,51;   -6,614;   62,656;-1776,106
 297,11;  -46,970;   35,061;-2900,988
 297,71;  -55,130;    4,131;-2726,648
 298,31;   19,228;   38,730;-2329,148
 298,91;  -17,755;   74,756;-2483,202
 299,50;  -44,371;   41,395;-2689,473
 300,10;   37,124;  145,887;-2706,114
 300,70;    8,509;   95,528;-2492,576
 301,30;   -5,257;   89,253;-2855,415
 301,90;  -28,260;   96,248;-2004,843
 302,50;  -31,624;  163,640;-2515,198
 303,10;   26,867;  124,126;-2530,076
 303,70;   -8,612;  208,660;-3000,488
 304,29;  -46,857;  189,918;-2658,740
 304,89;  -35,097;  266,183;-1090,755
 305,49;  -13,855;  163,922;-2773,122
 306,09;   -3,129;  214,133;-2874,839
 306,69;   50,232;  262,736;-2915,911
 307,29;   48,110;  312,865;-2008,442
 307,89;    5,637;  303,408;-3029,000
 308,48;   20,256;  341,774;-2453,301
 309,08;   21,486;  369,492;-2743,377
 309,68;   37,003;  377,019;-3094,026
 310,28;   36,852;  371,102;-2576,213
 310,88;    2,717;  321,211;-2936,453
 311,48;    4,491;  447,500;-2875,331
 312,07;   -1,389;  408,367;-2963,228
 312,67;   50,103;  497,855;-2128,297
 313,27;   52,459;  494,448;-1105,224
 313,87;   37,605;  583,357;-2164,083
 314,47;   25,962;  516,954;-3030,392
 315,06;  116,704;  620,191; 2713,837
 315,66;   45,984;  579,988;-3245,400
 316,26;   67,952;  632,938;-1844,483
 316,86;  119,971;  777,969;-3140,110
 317,46;  114,573;  720,307;-2115,167
 318,06;   64,077;  739,813; -825,335
 318,65;  118,070;  781,801;-2807,999
 319,25;  112,068;  821,798;-3195,617
 319,85;  101,187;  932,663;-2908,323
 320,45;  122,558;  986,283;-3213,304
 321,05;  142,551;  901,271;-2761,968
 321,64;   83,307;  889,531;-3219,411
 322,24;  156,904; 1056,861;-3265,513
 322,84;  180,400; 1080,356;-3261,345
 323,44;  138,406; 1133,364;-3219,300
 324,03;  154,279; 1194,486;-3072,067
 324,63;  113,257; 1250,452;-2310,059
 325,23;  154,742; 1241,928;-3097,792
 325,83;  178,597; 1367,021;-2876,123
 326,42;  261,957; 1442,622;-3285,005
 327,02;  292,913; 1476,551;-3076,607
 327,62;  330,758; 1439,629;-2505,221
 328,22;  305,872; 1553,486;-3234,973
 328,82;  335,200; 1577,037;-2229,938
 329,41;  404,287; 1658,852;-3016,728
 330,01;  459,223; 1652,750;-2961,704
 330,61;  495,809; 1806,062;-2928,707
 331,20;  453,567; 1778,325;-2868,531
 331,80;  524,278; 1762,512;-2794,386
 332,40;  541,631; 1752,102;-2896,932
 333,00;  560,968; 1933,667;-2790,423
 333,59;  560,829; 1748,771;-2855,091
 334,19;  625,813; 1920,745;-1771,037
 334,79;  572,935; 1712,615;-2861,316
 335,39;  567,719; 1729,919;-2978,912
 335,98;  554,997; 1726,714;-3126,958
 336,58;  502,037; 1659,777;-3191,401
 337,18;  537,038; 1720,779;-2958,592
 337,77;  483,075; 1782,837;-2098,463
 338,37;  451,588; 1806,359;-2021,540
 338,97;  446,604; 1907,384;-2912,402
 339,57;  494,941; 1862,948;-3044,894
 340,16;  509,430; 1836,431;-2881,390
 340,76;  505,200; 1962,712;-3053,314
 341,36;  543,923; 1861,920;-3195,650
 341,95;  563,273; 1934,506;-3027,623
 342,55;  572,769; 1918,998;  703,736
 343,15;  553,663; 2048,155;-3094,039
 343,74;  514,157; 1924,644;-2382,298
 344,34;  481,530; 1860,267;-3015,661
 344,94;  521,289; 2068,530;-3069,485
 345,53;  538,032; 2110,769;-2860,447
 346,13;  543,410; 2174,398;-1283,573
 346,73;  569,253; 1966,473;-2254,805
 347,32;  551,160; 2268,649;-3080,871
 347,92;  531,129; 2312,600;-2277,145
 348,52;  560,285; 2270,523;-1878,722
 349,11;  443,302; 2336,551;  975,034
 349,71;  516,166; 2330,658;-3240,016
 350,31;  597,402; 2441,387;-2672,237
 350,90;  577,422; 2483,418;-2326,863
 351,50;  569,880; 2390,852;-2105,634
 352,10;  533,641; 2471,119;-3114,840
 352,69;  538,534; 2532,273;-3182,424
 353,29;  551,785; 2563,024;-3191,317
 353,89;  565,287; 2645,527;-3255,104
 354,48;  599,641; 2693,119;-3208,840
 355,08;  602,758; 2871,980;-1117,164
 355,67;  560,796; 2850,042;-2951,417
 356,27;  581,647; 2839,128;-3232,985
 356,87;  529,544; 3010,288;-3383,142
 357,46;  541,430; 3049,431;-2351,390
 358,06;  578,546; 3306,291;-3073,523
 358,66;  585,272; 3337,504;-3109,432
 359,25;  600,046; 3260,792;-2344,119
 359,85;  563,171; 3365,667;-3215,970
 360,44;  582,779; 3389,015;-3292,172
 361,04;  571,663; 3567,155;-2367,039
 361,64;  587,663; 3696,155;-2309,039
 362,23;  586,281; 3772,517;-2932,958
 362,83;  592,154; 3755,639;-2990,726
 363,42;  598,032; 3938,769;-2836,447
 364,02;  621,791; 3910,034;-2973,462
 364,62;  626,410; 3816,398;-2486,573
 365,21;  548,934; 3857,937;-1741,558
 365,81;  551,063; 3935,818;-2792,173
 366,40;  596,809; 3970,062;-2080,707
 367,00;  545,301; 4021,550;-2952,776
 367,59;  571,071; 4071,831;-2979,699
 368,19;  543,178; 4221,678;-3237,306
 368,79;  554,205; 4198,720;-3125,268
 369,38;  541,692; 4107,200;-2250,383
 369,98;  541,936; 4101,940;-2935,940
 370,57;  580,326; 4188,588;-3331,356
 371,17;  532,089; 4164,860;-3326,135
 371,76;  512,465; 4277,486;-3442,879
 372,36;  513,332; 4057,598;-3195,501
 372,95;  509,597; 4115,372;  667,934
 373,55;  559,972; 4105,998;-3393,811
 374,14;  566,832; 4300,099;-3405,097
 374,74;  545,482; 4256,514;-3224,124
 375,34;  540,960; 4286,979;-3189,521
 375,93;  570,461; 4295,479;-2706,116
 376,53;  607,323; 4344,585;-3575,974
 377,12;  622,173; 4405,670;-1465,352
 377,72;  563,211; 4480,730;-3410,414
 378,31;  647,787; 4511,027;-2274,699
 378,91;  544,429; 4291,429;-3262,199
 379,50;  664,497; 4588,213;-3331,363
 380,10;  621,505; 4327,226;-3398,890
 380,69;  630,142; 4094,621;-2343,626
 381,29;  644,010; 4586,735;-2550,439
 381,88;  648,025; 4518,758;-1605,111
 382,48;  639,005; 4519,727;-3286,485
 383,07;  660,384; 4495,358;-3457,802
 383,67;  625,025; 4635,758;-1847,111
 384,26;  629,264; 4667,491;-2467,905
 384,86;  654,878; 4921,849;-3182,252
 385,45;  650,152; 4932,636;-3325,344
 386,05;  619,134; 5073,608;-3419,100
 386,64;  615,400; 4911,384;-3524,855
 387,24;  611,897; 5016,878;-2585,688
 387,83;  598,278; 4993,512;-2489,386
 388,42;  658,377; 5182,346;-2109,466
 389,02;  632,019; 5423,748;-3235,966
 389,61;  644,792; 5688,036;-3413,653
 390,21;  648,897; 5729,878;-3463,688
 390,80;  624,405; 5816,392;-3208,810
 391,40;  633,910; 6137,899;-2293,168
 391,99;  667,629; 5981,099;-3195,550
 392,59;  648,521; 6435,252;-2416,943
 393,18;  591,410; 6683,398;-2491,573
 393,77;  632,691; 6883,198;-3238,192
 394,37;  589,165; 7145,657;-2198,825
 394,96;  664,413; 7098,403;-2296,146
 395,56;  554,326; 7264,588;-2834,356
 396,15;  616,049; 6867,797;-3125,692
 396,75;  623,668; 7343,163;-2889,993
 397,34;  576,936; 7669,940;-2620,940
 397,93;  601,685; 7720,188;-3358,047
 398,53;  643,527; 7595,262;-2525,088
 399,12;  640,778; 8192,013;-2154,981
 399,72;  645,641; 8013,119;-2274,840
 400,31;  632,148; 8034,629;-3169,581
 400,91;  643,777; 8446,012;-2959,791
 401,50;  614,691; 8820,198;-2330,192
 402,09;  617,568; 8550,327;-2894,722
 402,69;  626,684; 8691,187;-3072,856
 403,28;  630,169; 9052,663;-2983,588
 403,88;  627,307; 9162,560; 1927,079
 404,47;  592,071; 9689,831;  884,300
 405,06;  630,674; 9684,171;  -68,947
 405,66;  628,311; 9753,565;-2875,684
 406,25;  600,205;10085,720;-3119,268
 406,84;  649,678;10446,177;-2892,711
 407,44;  560,088;10847,858;-2219,944
 408,03;  602,728;10422,257;-2906,063
 408,63;  558,823;10373,085;-3011,379
 409,22;  632,322;10191,584;-1945,783
 409,81;  555,977;10681,007;-1849,765
 410,41;  603,819;11553,078;-2857,615
 411,00;  562,591;11336,362;-1814,921
 411,59;  557,845;11251,120;-2826,578
 412,19;  642,582;11468,350;-2245,394
 412,78;  592,708;11399,226;-2830,436
 413,37;  581,100;12151,878;-2704,234
 413,97;  589,481;12410,512;-2618,933
 414,56;  581,477;12071,506;-2503,169
 415,15;  597,610;12410,394;-2121,547
 415,75;  616,357;12408,639;-2698,272
 416,34;  594,726;12590,254;-1893,681
 416,93;  563,003;12922,047;-2777,536
 417,53;  602,876;12696,169;-1423,303
 418,12;  578,246;12570,785;-2217,903
 418,71;  523,531;12907,592;-2673,285
 419,31;  564,393;13054,695;-1884,952
 419,90;  561,762;13470,313;-2786,552
 420,49;  575,753;13619,298;-1733,834
 421,08;  548,753;14201,298;-1674,834
 421,68;  563,627;14723,421;-1908,792
 422,27;  535,275;14035,832;-2004,437
 422,86;  607,019;13874,073; -437,590
 423,46;  516,041;14080,107;-2575,598
 424,05;  525,552;14376,626;-2928,293
 424,64;  572,147;13888,953;-2640,014
 425,24;  535,035;14092,098;-2903,453
 425,83;  545,938;13992,269;-2680,945
 426,42;  521,552;12987,626;-2760,293
 427,01;  505,417;13424,734;-2674,533
 427,61;  508,301;14347,873;-2609,209
 428,20;  512,068;14036,151;-1764,751
 428,79;  498,209;14414,052;-2859,656
 429,38;  556,803;14092,377;-1781,186
 429,98;  499,691;14922,521; -994,625
 430,57;  540,301;15058,873;-2193,209
 431,16;  532,810;14580,389;-2784,522
 431,75;  517,323;14357,909; -561,407
 432,35;  525,317;13435,899;-1951,262
 432,94;  485,090;14429,186;-2324,759
 433,53;  508,802;14560,375;-1152,995
 434,12;  522,957;14431,298;-2267,381
 434,72;  503,978;14188,331;-1413,389
 435,31;  521,598;14167,699; 7395,119
 435,90;  499,352;14308,954; 8338,249
 436,49;  468,480;13427,834; -683,175
 437,08;  462,350;13895,951; -675,370
 437,68;  462,476;14442,827;-2987,412
 438,27;  452,122;14610,237;-2610,866
 438,86;  474,479;14612,832;-1147,984
 439,45;  459,987;15313,346;-1937,106
 440,05;  472,750;15955,616;-2982,694
 440,64;  460,512;15054,886;-1902,282
 441,23;  427,896;14152,525;-1415,553
 441,82;  455,110;13700,218;-2631,576
 442,41;  393,148;14351,277;-3014,637
 443,00;  395,537;13625,925;-2724,863
 443,60;  450,509;14373,881;-3136,710
 444,19;  414,906;15026,541;-1440,462
 444,78;  408,272;14960,151;-3012,298
 445,37;  431,160;15728,297;-2522,928
 445,96;  493,130;15331,249;-3116,202
 446,56;  414,902;15596,535;-1144,698
 447,15;  416,789;16225,678; -884,947
 447,74;  390,029;17097,412;-2709,931
 448,33;  414,422;16443,066;-1985,920
 448,92;  393,047;15422,440;-2964,176
 449,51;  405,673;15095,817;-2848,813
 450,10;  391,429;15133,078;-3063,256
 450,70;  367,546;14904,939;-1957,581
 451,29;  396,298;15329,193;-1112,260
 451,88;  416,785;15513,671;-2929,183
 452,47;  420,415;16565,055;-2795,584
 453,06;  318,083;16495,498;-2401,047
 453,65;  393,709;16071,874;-2873,493
 454,24;  353,332;17329,246;-2173,558
 454,84;  421,309;17793,209;-1379,168
 455,43;  354,081;18732,496;-2219,665
 456,02;  371,072;18879,480;-2927,947
 456,61;  381,058;17317,459;-2925,275
 457,20;  413,202;16921,363;-2786,753
 457,79;  374,463;17588,131;-2922,554
 458,38;  366,342;18338,264;-2132,467
 458,97;  410,969;18039,641;-2515,104
 459,56;  394,070;18190,479;-2760,565
 460,16;  394,339;17832,258;-2082,894
 460,75;  353,095;18157,518;-2072,146
 461,34;  353,717;18077,887;-2962,020
 461,93;  371,497;18381,186;-2200,853
 462,52;  354,350;19333,275;-2744,993
 463,11;  321,998;20546,688;-1989,639
 463,70;  343,970;19458,643;-2869,295
 464,29;  316,636;19945,082;-3150,376
 464,88;  331,869;20795,807;-2743,024
 465,47;  377,357;19885,285;-2748,139
 466,06;  298,015;20915,713;-3191,692
 466,65;  309,129;21667,572;-3018,635
 467,24;  333,896;22030,848;-2539,986
 467,84;  349,484;22443,164;-2020,371
 468,43;  363,615;22325,051;-2238,559
 469,02;  372,488;23517,170;-2702,135
 469,61;  342,747;24168,936;-2593,555
 470,20;  310,624;23781,063;-2841,085
 470,79;  331,647;22760,100;-3232,475
 471,38;  295,264;25266,463;-2192,395
 471,97;  340,027;26009,732; -666,983
 472,56;  290,919;25472,887;-3035,376
 473,15;  296,771;25296,975;-2825,135
 473,74;  307,899;26395,854;-3106,559
 474,33;  321,895;25866,848;-2957,796
 474,92;  311,395;27630,348;-3146,391
 475,51;  347,788;29609,002;-2873,380
 476,10;  256,779;29847,986;-3011,662
 476,69;  290,549;26101,268;-2855,586
 477,28;  360,759;25846,955;-2956,845
 477,87;  323,660;27035,121; -173,956
 478,46;  304,171;28695,639;-3029,460
 479,05;  310,646;30507,100;-2134,284
 479,64;  303,041;31679,756;-2718,655
 480,23;  288,292;29541,508;-2845,548
 480,82;  302,785;28549,996;-2736,807
 481,41;  280,294;29371,510;-1873,929
 482,00;  331,918;29284,885;-1364,185
 482,59;  298,786;29593,998;-2298,998
 483,18;  286,534;31702,244;-2376,723
 483,77;  308,671;31703,139;-2193,865
 484,36;  348,788;32475,002;-1701,380
 484,95;  273,434;32990,410; -788,643
 485,54;  278,808;35331,031;-1371,006
 486,13;  350,784;35762,996; -945,616
 486,72;  281,670;34334,137;  148,326
 487,31;  268,560;31046,285;-1109,686
 487,89;  309,167;32608,633; -193,697
 488,48;  246,686;33798,164;-1523,728
 489,07;  279,953;32913,941;-1248,674
 489,66;  248,175;33511,645;-1505,224
 490,25;  257,568;31095,299; -660,212
 490,84;  310,413;34127,375;-1683,635
 491,43;  312,161;34965,621; -701,552
 492,02;  281,179;36094,652;-1864,987
 492,61;  288,929;35362,902;-1043,094
 493,20;  279,445;33776,426;-2019,743
 493,79;  285,450;32749,434; 4824,494
 494,38;  312,815;33706,043;-1938,342
 494,97;  282,949;32583,934; -629,911
 495,55;  245,575;34690,309;-2325,548
 496,14;  305,306;35087,531;-2403,220
 496,73;  269,330;35451,566;-1952,609
 497,32;  279,333;34211,570;-2587,182
 497,91;  278,958;35005,949;-1921,629
 498,50;  266,706;34165,195;-2912,544
 499,09;  261,333;34554,570;-3088,182
 499,68;  214,831;32403,070;-2405,396
 500,27;  203,353;33321,605;-2490,999
 500,85;  258,715;32655,207;-2604,071
 501,44;  226,595;32478,342;-2576,175
 502,03;  252,464;33194,457;-3368,178
 502,62;  284,830;31275,068;-3438,205
 503,21;  265,216;29432,711;-3532,858
 503,80;  257,850;32028,100;-2976,831
 504,39;  204,862;32451,119;-3458,121
 504,97;  275,980;31774,982;-3577,636
 505,56;  234,344;31537,590;-2979,281
 506,15;  281,592;32302,336;-3991,602
 506,74;  227,361;32557,617;-2945,526
 507,33;  197,489;32185,498;-3165,949
 507,92;  268,106;33952,859;-3871,678
 508,51;  235,975;35926,973;-3735,682
 509,09;  195,370;34536,629;-3921,053
 509,68;  245,497;34318,508;-3748,286
 510,27;  207,639;33667,410;-3799,381
 510,86;  237,750;32572,264;-4081,751
 511,45;  229,498;33677,512;-3843,476
 512,03;  252,105;34524,855;-3829,488
 512,62;  255,967;36240,961;-3780,346
 513,21;  204,266;33870,789;-3186,209
 513,80;  195,765;34644,289;-3501,423
 514,39;  228,873;32752,137;-3905,221
 514,97;  178,261;35347,781;-4095,255
 515,56;  164,523;34167,551;-4198,248
 516,15;  189,031;35428,063;-3955,179
 516,74;  196,784;32584,318;-4420,049
 517,33;  190,404;33459,688;-3549,542
 517,91;  187,648;33935,426;-4188,099
 518,50;  188,628;32563,393;-3264,282
 519,09;  215,117;33942,875;-3157,778
 519,68;  208,512;35231,531;-4286,148
 520,26;  209,520;38679,547;-4232,675
 520,85;  180,389;39452,660;-4352,679
 521,44;  116,040;40826,078;-4358,897
 522,03;  175,516;39485,539;-4271,912
 522,61;  146,040;36773,078;-4364,897
 523,20;  146,047;33924,090;-4337,233
 523,79;  155,548;32040,590;-4337,828
 524,38;  142,908;32850,191;-4344,709
 524,96;  154,912;35883,199;-4321,473
 525,55;  155,662;36021,449;-4542,771
 526,14;  165,428;34018,723;-4434,931
 526,73;  203,038;32852,074;-4389,515
 527,31;  168,787;32903,324;-4488,622
 527,90;  182,662;33630,449;-4564,771
 528,49;  178,155;34155,938;-2529,839
 529,08;  152,800;34601,344;-3467,103
 529,66;  170,660;34848,445;-3911,389
 530,25;  184,293;35279,832;-4414,172
 530,84;  131,802;35334,348;-4583,485
 531,42;  182,058;38583,105;-4365,332
 532,01;  145,683;37528,480;-4291,588
 532,60;  113,068;34512,125;-4473,241
 533,18;  131,046;35538,086;-4078,042
 533,77;  161,184;34969,984;-4236,374
 534,36;  164,674;34459,469;-4374,061
 534,95;  150,680;35483,477;-4088,015
 535,53;  154,048;34236,090; -974,424
 536,12;  132,179;36469,977;-2657,420
 536,71;  139,931;36511,230;-3869,099
 537,29;  142,567;36073,621;-3618,454
 537,88;  170,040;33908,078;-3454,897
 538,47;  121,314;32497,867;-2840,180
 539,05;  155,936;36837,238;-2139,054
 539,64;   94,335;40414,898;-1785,997
 540,22;  106,574;37414,633; -764,790
 540,81;  111,453;37501,766; 1008,297
 541,40;  146,572;39018,629; 3425,591
 541,98;  119,933;38188,230; 4858,519
 542,57;  175,179;39368,977; 4597,580
 543,16;  154,562;38645,613; 4952,500
 543,74;  187,682;35774,480; 4083,603
 544,33;  138,325;36297,883; 3620,721
 544,92;  130,327;37217,887; 3973,339
 545,50;  132,687;37338,488;11456,648
 546,09;  159,172;40064,965;11359,916
 546,67;  190,429;41948,727; 2857,878
 547,26;  151,049;40050,094; -202,615
 547,85;  136,845;39208,414; -567,501
 548,43;  128,569;38452,625; -849,836
 549,02;  156,942;39427,246;-1040,008
 549,60;  164,695;40570,500; -984,878
 550,19;  157,192;41166,996;-2192,901
 550,78;  137,320;42660,875;-2328,325
 551,36;  119,084;45349,148;-2432,104
 551,95;  119,310;45443,859; -585,416
 552,53;  106,952;43280,262; -296,916
 553,12;   90,218;41420,035;-3431,672
 553,70;   73,723;43188,547;-2878,222
 554,29;   92,201;44058,008;-2869,428
 554,88;  105,597;41831,668;-4247,989
 555,46;  124,213;43723,027;-3881,718
 556,05;  101,435;45007,734;-4207,268
 556,63;  101,955;45206,266;-3396,489
 557,22;   99,060;43875,109;-3394,714
 557,80;  104,451;41749,762;-3568,321
 558,39;  100,944;44188,250;-4145,390
 558,97;   68,326;47993,887;-3699,470
 559,56;   88,077;49889,137;-4544,768
 560,15;  114,329;50117,891;-3611,042
 560,73;   59,088;49814,152;-4287,867
 561,32;   93,561;47024,609;-3741,309
 561,90;   65,342;46041,910;-4382,333
 562,49;   98,818;48487,371;-3786,348
 563,07;   38,826;48074,387;-4783,875
 563,66;   84,076;50064,133;-4352,577
 564,24;   67,081;49228,145;-4763,531
 564,83;   54,595;51344,664;-4603,607
 565,41;   74,819;53840,375;-4329,539
 566,00;   66,094;52202,164;-2755,012
 566,58;   81,820;56465,375;-3725,729
 567,17;   73,699;56909,508;-4280,642
 567,75;   62,316;52392,871;-4653,562
 568,34;   61,457;55893,770;-3216,466
 568,92;   54,471;55738,793;-3987,947
 569,51;   70,332;54852,895; 2680,576
 570,09;   91,830;58247,391;-4676,638
 570,68;   42,983;53188,313;-4788,833
 571,26;   93,941;50733,242;-3886,817
 571,85;  126,437;57347,738;-4822,649
 572,43;  123,822;57011,379;-4704,111
 573,01;   56,821;52662,375;-4873,920
 573,60;  100,203;53819,012;-3785,810
 574,18;   92,952;55122,262;-4514,917
 574,77;   52,961;53284,277;-4737,634
 575,35;   62,203;56113,012;-4452,810
 575,94;   78,456;57300,770;-4076,275
 576,52;   95,956;54049,270;-2249,680
 577,11;   20,973;51620,297;-3244,924
 577,69;   66,729;48685,555;-3183,176
 578,27;  128,192;51008,996;-3447,901
 578,86;   46,722;55198,543;-2994,031
 579,44;   40,197;60080,004;-2805,855
 580,03;  122,078;60164,137;-2493,958
 580,61;  149,958;60267,270;-3206,062
 581,19;   80,587;56429,652;-2538,271
 581,78;   54,483;55361,813;-2364,238
 582,36;   84,214;57656,031;-2911,909
 582,95;   62,098;56180,172;-1497,776
 583,53;   75,718;59586,539;-2319,268
 584,11;  105,324;61608,883;-2241,088
 584,70;  117,591;61691,660;-1948,035
 585,28;   81,835;62070,398;-1853,592
 585,87;   89,353;60436,930;-2889,432
 586,45;  105,722;63023,543;-2375,031
 587,03;   70,853;64945,430;-1150,027
 587,62;   99,579;61494,641;-1834,745
 588,20;  129,967;62236,285;-1020,779
 588,78;  100,501;58157,840;-3411,673
 589,37;  124,956;57765,270;-3360,680
 589,95;  139,458;62238,773;-3385,657
 590,54;  103,719;63633,539;-3461,459
 591,12;  127,976;62116,301;-3508,497
 591,70;  137,469;59586,789;-3331,565
 592,29;   92,478;62881,805;-2923,283
 592,87;  122,819;63542,375;-2394,538
 593,45;  111,477;63404,801; 1487,908
 594,04;  124,109;62800,188;-3676,875
 594,62;  130,342;59709,910;-3708,333
 595,20;   70,493;62066,828;-4371,146
 595,79;  112,966;62681,285;-4165,588
 596,37;  119,729;61108,555;-3657,176
 596,95;   70,095;56922,164;-4321,203
 597,53;   94,457;58806,770;-4226,466
 598,12;   91,349;61848,922;-3959,669
 598,70;  113,715;64932,531;-3776,695
 599,28;   92,819;64911,375;-3404,538
 599,87;  125,463;64929,777;-3061,420
 600,45;   98,971;64938,293;-3907,543
 601,03;   79,465;63145,781;-4100,802
 601,62;  103,109;61727,188;-4468,875
 602,20;   51,843;59786,414;-4541,119
 602,78;   63,239;64399,070;-4770,680
 603,36;   65,977;64783,301;-3166,688
 603,95;  128,961;58863,277;-4492,634
 604,53;   62,964;62401,281;-4574,207
 605,11;  117,950;59505,258;-2755,535
 605,69;  123,090;62362,156;-3365,249
 606,28;   71,478;62594,805;-4223,283
 606,86;  102,849;61629,422;-3946,264
 607,44;  103,723;60431,547;-3906,222
 608,02;   65,479;58047,805;-4037,474
 608,61;  136,597;60099,668;-2866,989
 609,19;   79,847;58582,418;-2582,882
 609,77;   86,848;57398,422; -710,073
 610,35;   44,468;55748,785; 5794,625
 610,94;  112,351;56509,926;14509,949
 611,52;  104,597;55803,668;12610,011
 612,10;   86,371;53026,957; 8432,133
 612,68;   28,365;56637,949; 2694,278
 613,26;   36,728;57037,551; 2032,015
 613,85;  105,352;61759,926; -599,241
 614,43;   77,346;62306,918;-1030,096
 615,01;   30,116;62272,199;-1215,211
 615,59;   40,995;64874,328; -972,932
 616,17;   78,585;59402,648;-2561,890
 616,76;   93,326;62178,887;-2993,470
 617,34;  137,188;62666,988;-2389,138
 617,92;   86,457;58547,770;-3399,466
 618,50;  118,587;61202,652;-2562,271
 619,08;   96,215;57928,031;-2514,100
 619,67;   77,094;55968,164;-3196,012
 620,25;   91,579;54290,641;-2743,745
 620,83;   94,971;50498,293;-3495,543
 621,41;   39,475;52314,797;-2800,711
 621,99;   48,599;54560,672;-2529,371
 622,57;   89,079;55529,141;-3707,149
 623,15;  115,826;56213,387;-3783,875
 623,74;   79,443;58266,746;-3892,794
 624,32;  106,448;59330,754;-2827,749
 624,90;   64,336;58625,898;-2311,188
 625,48;   33,222;57897,043;-3132,436
 626,06;   69,830;56898,391;-4006,638
 626,64;   27,197;57787,004;-4162,855
 627,22;  -16,792;58993,020;-3409,764
 627,81;  -11,936;58046,117;-4334,478
 628,39;   -6,918;57121,145;-4560,722
 628,97;   -0,028;56597,293;-4437,733
 629,55;   18,444;55377,750;-4219,985
 630,13;   17,958;55669,270;-2959,062
 630,71;    0,331;54162,891;-2747,233
 631,29;    5,961;53129,277;-3824,634
 631,87;   29,698;52776,504;-4223,451
 632,45;    4,585;52786,648;-4716,890
 633,03;   39,694;54183,500;-4191,688
 633,62;   -0,036;55423,281;-4714,207
 634,20;   49,099;54882,172;-4089,966
 634,78;   70,194;56497,000;-4430,283
 635,36;   11,583;56701,648;-4449,508
 635,94;   83,825;55183,383;-5398,684
 636,52;  109,581;51027,645;-5422,126
 637,10;   41,095;52116,164;-5488,203
 637,68;   74,712;50694,527;-4702,123
 638,26;   47,445;47618,750;-5536,176
 638,84;   46,338;48688,902;-5421,569
 639,42;   23,095;49235,164;-3756,203
 640,00;   50,079;51366,148;-5405,726
 640,58;   96,826;54579,402;-4806,027
 641,16;   48,573;55521,656;-5571,328
 641,74;   76,320;53214,906;-5433,630
 642,32;   54,067;50106,160;-5620,931
 642,90;   34,814;50434,414;-5856,232
 643,48;   40,562;49231,668;-5786,534
 644,06;   76,309;49280,922;-5796,835
 644,64;   70,056;49595,176;-5842,137
 645,22;   14,803;50513,430;-5562,438
 645,80;   24,550;50547,684;-4957,740
 646,39;   49,297;48107,938;-5515,041
 646,97;    9,045;49773,191;-5850,342
 647,54;   31,792;52328,441;-5717,644
 648,12;    0,539;54879,695;-5865,945
 648,70;   45,286;58954,949;-5885,247
 649,28;   57,033;56421,203;-6090,548
 649,86;   16,780;51091,457;-5609,850
 650,44;   38,528;48619,711;-5452,151
 651,02;   42,275;49970,965;-5474,452
 651,60;   19,022;51793,219;-5803,753
 652,18;   32,769;51320,473;-4735,055
 652,76;   -5,484;53277,723;-5934,356
 653,34;   33,263;54817,977;-5939,658
 653,92;    1,010;57729,230;-5784,959
 654,50;   42,758;59042,484;-5818,261
 655,08;   17,505;58048,738;-5841,562
 655,66;   28,252;55058,992;-5115,863
 656,24;  -10,001;56743,246;-5200,165
 656,82;   59,746;58989,500;-4979,466
 657,40;   26,493;58967,754;-5667,768
 657,98;   -2,759;60169,008;-5486,069
 658,56;   34,988;61114,258;-5717,371
 659,14;   49,735;61380,512;-5913,672
 659,72;   50,482;63381,766;-5916,973
 660,29;    1,229;62437,020;-5907,275
 660,87;   24,976;59738,273;-5212,576
 661,45;   17,724;58590,527;-5664,877
 662,03;   58,471;57513,781;-4971,179
 662,61;  -38,782;54945,035;-5638,480
 663,19;   33,965;54618,289;-5657,782
 663,77;   25,712;53917,543;-5939,083
 664,35;   20,459;56689,793;-5887,384
 664,93;   12,207;62595,047;-4922,686
 665,51;   37,954;61993,301;-6033,987
 666,08;   37,701;57747,555;-5652,289
 666,66;   15,448;51859,809;-4400,590
 667,24;   15,195;49420,063;-5952,892
 667,82;   28,942;50250,316;-5849,193
 668,40;   37,689;50723,570;-5932,494
 668,98;   41,437;51952,824;-5097,796
 669,56;    4,184;57957,078;-6096,097
 670,13;   53,931;61797,328;-6222,398
 670,71;    4,678;59698,582;-5900,700
 671,29;   40,425;57209,836;-6139,001
 671,87;   12,172;56814,090;-6051,303
 672,45;    1,920;51822,344;-6050,604
 673,03;   60,667;52592,598;-4769,906
 673,60;  -12,586;58431,852;-3503,207
 674,18;   43,161;63679,105;-5938,508
 674,76;   36,908;61159,359;-6226,810
 675,34;   19,655;56361,613;-5251,111
 675,92;  -18,597;55284,863;-6338,413
 676,50;   42,150;55051,117;-6085,714
 677,07;    5,897;56952,371;-6095,016
 677,65;   12,644;56680,625;-6163,317
 678,23;  -25,609;55997,879;-5057,618
 678,81;   27,138;58016,133;-5299,919
 679,38;   44,885;56669,387;-5969,221
 679,96;  -25,367;53267,641;-5846,522
 680,54;   32,380;55171,895;-5308,824
 681,12;   41,127;52485,148;-6126,125
 681,70;   12,874;54786,398;-4413,427
 682,27;   -4,379;54740,652;-5851,728
 682,85;    8,368;58265,906;-5991,029
 683,43;   -4,884;64943,160;-6140,331
 684,01;   13,863;64943,414;-5172,632
 684,58;   23,610;64307,668;-5138,934
 685,16;   20,357;64236,922;-4494,235
 685,74;   27,104;62790,176;-3853,536
 686,32;  -10,149;59009,430;-6012,838
 686,89;    3,599;59552,684;-6015,139
 687,47;    0,346;59534,934;-6076,441
 688,05;   -5,907;56416,188;-6019,742
 688,63;   15,840;59626,441;-6102,043
 689,20;   -5,413;62884,695;-5971,345
 689,78;   -2,666;58427,949;-5530,646
 690,36;   24,081;54291,203;-5381,948
 690,93;    8,829;54968,457;-6355,249
 691,51;   53,576;61453,711;-6326,550
 692,09;    2,323;64946,965;-6223,852
 692,67;   26,070;64947,219;-6047,153
 693,24;   28,817;60968,469;-5803,455
 693,82;   -0,436;59538,723;-6235,756
 694,40;   29,312;58049,977;-3570,058
 694,97;  -17,941;57456,230;-6046,359
 695,55;    5,806;59820,484;-5464,660
 696,13;   18,553;61729,738;-4454,962
 696,70;   -7,700;58594,992;-6029,263
 697,28;    5,047;59108,246;-6266,564
 697,86;   -5,205;60837,500;-6030,866
 698,43;   22,542;58827,754;-6198,167
 699,01;    5,289;55595,004;-6051,469
 699,59;   40,036;55751,258;-6402,770
 700,16;   57,783;54174,512;-5257,072
 700,74;   24,530;57040,766;-5497,373
 701,32;    4,278;56440,020;-6233,674
 701,89;    0,025;55792,273;-6049,976
 702,47;   58,772;60296,527;-6466,277
 703,05;   21,519;64951,781;-6309,579
 703,62;   -2,734;64952,035;-6227,880
 704,20;    9,013;64952,285;-5306,182
 704,77;   20,760;64952,539;-6118,483
 705,35;  -40,492;64213,793;-6006,784
 705,93;  -22,745;64327,047;-4922,085
 706,50;   31,002;63796,301;-5267,387
 707,08;  -15,251;60606,555;-5284,688
 707,65;   30,496;60046,809;-5620,990
 708,23;    1,243;64881,063;-5431,292
 708,81;   13,991;64954,316;-5019,593
 709,38;  -25,262;64954,570;-5001,894
 709,96;   67,485;64954,820;-6025,195
 710,53;   18,232;64955,074;-6007,497
 711,11;   -4,021;61503,328;-5752,798
 711,69;    7,726;61913,582;-3821,100
 712,26;    8,474;59012,836;-4642,401
 712,84;  -25,779;63346,090;-5947,703
 713,41;   25,968;64411,344;-6153,004
 713,99;  -17,285;64924,598;-6068,305
 714,56;    8,462;62057,852;-6326,607
 715,14;  -21,791;60312,105;-6198,908
 715,71;  -21,044;60246,355;-6210,209
 716,29;  -17,296;62893,609;-6648,511
 716,86;  -52,549;63573,863;-6510,813
 717,44;    4,198;63263,117;-6424,114
 718,02;  -11,055;62110,371;-6462,415
 718,59;  -21,308;61013,625;-5121,716
 719,17;   16,439;63488,879;-5649,018
 719,74;   25,187;62907,133;-5756,319
 720,32;    0,934;63502,387;-6451,621
 720,89;   49,681;64959,641;-6422,922
 721,47;  -47,572;64959,891;-6388,224
 722,04;    3,175;64960,145;-5502,525
 722,62;   -9,078;64252,398;-3979,826
 723,19;   14,670;60250,652;-4938,128
 723,77;  -44,583;57638,906;-5673,429
 724,34;   14,164;60150,160;-5576,730
 724,92;   21,911;63789,414;-6558,032
 725,49;  -42,342;64961,668;-5666,333
 726,07;    1,405;64961,922;-6491,635
 726,64;   15,153;64627,176;-6587,936
 727,21;   26,900;60249,426;-5627,238
 727,79;  -15,353;63706,680;-6444,539
 728,36;   22,394;64962,934;-6722,840
 728,94;   36,141;64963,188;-6535,142
 729,51;  -31,112;64963,441;-6365,443
 730,09;  -23,365;64963,695;-5545,745
 730,66;    1,383;64963,949;-6358,046
 731,24;   10,130;64964,203;-6577,348
 731,81;  -17,123;64964,457;-5151,649
 732,38;  -19,376;64964,711;-6492,950
 732,96;   10,371;64964,961;-6263,251
 733,53;   15,118;60347,215;-6389,553
 734,11;   20,866;61575,469;-6617,854
 734,68;    7,613;64965,723;-6211,156
 735,26;   14,360;64965,977;-6389,458
 735,83;   -0,893;64966,230;-6498,759
 736,40;    6,854;62243,484;-6516,060
 736,98;  -12,399;61999,738;-6374,361
 737,55;  -24,651;59236,992;-5827,663
 738,13;  -65,904;57707,246;-5702,964
 738,70;    6,843;60991,496;-5529,266
 739,27;    8,590;62504,750;-6452,567
 739,85;   20,337;62745,004;-6283,869
 740,42;   -9,916;64968,258;-6464,170
 740,99;   -6,169;64968,512;-5618,471
 741,57;   -4,421;64968,766;-4867,773
 742,14;  -15,674;64969,020;-5349,074
 742,72;  -21,927;64969,273;-4751,375
 743,29;   -5,180;64969,527;-6563,677
 743,86;  -37,433;64969,781;-6538,979
 744,44;   19,314;64970,031;-6113,280
 745,01;    0,062;64970,285;-5760,581
 745,58;   -7,191;64970,539;-6259,882
 746,16;   -1,444;64970,793;-6188,184
 746,73;   30,303;64971,047;-6479,485
 747,30;  -30,950;61139,301;-6536,787
 747,88;   10,797;59621,555;-5621,088
 748,45;   -6,455;64971,809;-5668,390
 749,02;   -1,708;64972,063;-6384,691
 749,60;  -19,961;62401,313;-6212,992
 750,17;    8,786;61766,566;-5269,294
 750,74;    5,533;62801,820;-6479,595
 751,31;   25,280;63306,074;-6347,896
 751,89;  -36,972;64232,328;-6546,198
 752,46;   37,775;64973,582;-6282,500
 753,03;    8,522;64973,836;-6160,801
 753,61;   -5,731;63755,090;-4858,102
 754,18;  -43,984;64573,344;-6434,404
 754,75;  -25,237;63888,598;-5191,705
 755,32;   -3,490;60715,848;-6332,006
 755,90;  -24,742;64975,102;-6493,308
 756,47;    8,005;64975,355;-4809,609
 757,04;  -15,248;64975,609;-6457,911
 757,61;   -3,501;64975,863;-5553,212
 758,19;   13,246;64976,117;-5253,514
 758,76;  -14,007;64976,371;-6603,815
 759,33;   -7,259;64976,625;-6664,116
 759,90;   12,488;64976,879;-5714,417
 760,48;   -3,765;64977,133;-6778,719
 761,05;  -11,018;64977,383;-6083,021
 761,62;   -1,271;62082,637;-4888,322
 762,19;    6,476;58992,891;-6144,624
 762,77;  -19,776;61730,145;-5963,925
 763,34;   -0,029;64978,398;-6610,226
 763,91;  -26,282;64978,652;-5818,527
 764,48;   20,465;64978,906;-6756,829
 765,05;   -3,788;64979,160;-6543,130
 765,63;    6,959;63215,414;-6417,432
 766,20;    2,706;59753,668;-6004,733
 766,77;  -36,546;57105,918;-5921,035
 767,34;  -14,799;58807,172;-6640,336
 767,91;  -27,052;59176,426;-6689,637
 768,49;   21,695;61368,680;-6772,939
 769,06;   -8,558;64980,934;-5832,240
 769,63;  -43,811;62272,188;-6636,542
 770,20;  -13,063;59567,441;-5868,843
 770,77;  -45,316;57921,695;-5645,145
 771,34;  -37,569;60065,949;-6615,446
 771,91;  -18,822;60549,203;-6102,747
 772,49;   -8,075;58558,453;-6369,048
 773,06;  -53,328;57687,707;-6203,350
 773,63;  -53,580;60204,961;-6639,651
 774,20;    8,167;58197,215;-5918,953
 774,77;   15,914;56475,469;-6631,254
 775,34;  -17,339;56707,723;-6214,556
 775,91;   -3,592;57056,977;-6417,857
 776,49;  -33,845;58787,230;-6590,158
 777,06;  -13,098;60761,484;-6015,460
 777,63;  -81,350;64224,738;-6367,761
 778,20;  -68,603;62572,988;-6250,063
 778,77;  -17,856;63316,242;-5763,364
 779,34;  -43,109;64985,496;-6585,666
 779,91;  -16,362;64985,750;-6534,967
 780,48;  -44,615;59144,004;-5853,268
 781,05;  -26,867;50716,258;-6586,570
 781,62;  -31,120;52124,512;-6604,871
 782,20;  -20,373;58813,766;-6500,172
 782,77;  -22,626;64987,020;-6529,474
 783,34;  -12,879;64052,273;-6522,775
 783,91;  -20,132;61362,523;-6509,077
 784,48;  -42,384;60480,777;-2126,378
 785,05;  -51,637;59144,031;-6540,680
 785,62;  -28,890;58221,285;-6452,981
 786,19;  -12,143;58149,539;-5100,282
 786,76;  -29,396;55130,793;-6677,583
 787,33;  -24,649;56202,047;-6515,885
 787,90;    0,099;59491,301;-6591,187
 788,47;  -16,154;60148,555;-5075,488
 789,04;  -14,407;58988,809;-5763,790
 789,61;  -30,660;58863,059;-5066,091
 790,18;  -40,913;55747,313;-6561,392
 790,75;  -18,166;50841,566;-6671,693
 791,32;   -8,419;52056,820;-6577,995
 791,89;  -19,671;55205,074;-6068,296
 792,46;  -15,924;60806,328;-5763,598
 793,03;  -27,177;62404,582;-6702,899
 793,60;  -44,430;55699,836;-6440,201
 794,17;   -7,683;52257,090;-5569,502
 794,74;   13,064;47273,344;-5886,803
 795,31;  -19,188;50096,594;-6099,105
 795,88;   -9,441;52579,848;-5572,406
 796,45;  -45,694;53365,102;-6529,708
 797,02;  -41,947;56004,355;-5046,009
 797,59;  -33,200;57922,609;-6675,311
 798,16;    0,547;54563,863;-5861,612
 798,73;  -78,705;53534,117;-6761,913
 799,30;  -60,958;55088,371;-6611,214
 799,87;  -89,211;55650,625;-6713,516
 800,44;  -35,464;55353,875;-6729,817
 801,01;  -94,717;56836,129;-6807,119
 801,58;  -13,970;58477,383;-6537,420
 802,15;  -11,223;52086,637;-6658,722
 802,72;   -9,475;48849,891;-6694,023
 803,28;  -66,728;52000,145;-6076,324
 803,85;   -8,981;57179,398;-6728,626
 804,42;  -12,234;55235,652;-5999,927
 804,99;  -55,487;53752,906;-6539,229
 805,56;  -64,740;52472,160;-6770,530
 806,13;  -58,992;53387,410;-6075,832
 806,70;  -40,245;52719,664;-6748,133
 807,27;  -22,498;54477,918;-6672,434
 807,84; -109,751;52786,172;-6693,736
 808,41;  -25,004;49728,426;-6022,037
 808,98;  -58,257;50479,680;-5986,338
 809,54;  -70,509;52469,934;-4958,640
 810,11;  -25,762;48281,188;-6782,941
 810,68;  -32,015;43021,441;-6680,243
 811,25;  -41,268;41394,695;-6760,544
 811,82;  -44,521;40374,945;-6886,846
 812,39;  -70,774;37710,199;-3331,147
 812,96;   25,974;38779,453;-6767,448
 813,52;  -13,279;41291,707;-6937,750
 814,09;  -66,532;44522,961;-6766,051
 814,66;  -47,785;50325,215;-6827,353
 815,23;  -45,038;51240,469;-6669,654
 815,80;  -71,291;50439,723;-5853,956
 816,37;  -16,544;50917,977;-6801,257
 816,93;  -41,796;49487,230;-6731,558
 817,50;  -32,049;46790,480;-6102,859
 818,07;  -33,302;46034,734;-6960,161
 818,64;  -74,555;46919,988;-6856,462
 819,21;  -64,808;46261,242;-6053,764
 819,77;    9,939;42742,496;-6571,065
 820,34;  -43,313;42053,750;-6677,367
 820,91;  -37,566;43276,004;-6469,668
 821,48;  -50,819;43873,258;-6689,969
 822,05;  -54,072;45571,512;-5875,271
 822,61;  -58,325;44296,766;-5631,572
 823,18;  -39,578;41860,016;-6620,874
 823,75;  -76,830;42585,270;-6957,175
 824,32;  -57,083;45286,523;-6923,477
 824,88;  -45,336;45073,777;-6882,778
 825,45;  -43,589;44018,031;-6899,079
 826,02;  -55,842;43798,285;-6643,380
 826,59;  -33,095;43974,539;-6639,682
 827,15;  -57,348;46077,793;-6906,983
 827,72;  -45,600;49519,047;-6723,285
 828,29;  -24,853;51523,301;-6895,586
 828,86;  -73,106;48827,551;-6791,888
 829,42;  -45,359;40797,805;-6812,189
 829,99;  -29,612;36802,059;-6647,490
 830,56;  -29,865;36252,313;-6869,792
 831,13;  -10,117;37220,566;-6060,093
 831,69;  -22,370;38022,820;-6506,395
 832,26;  -22,623;38832,074;-5062,696
 832,83;  -66,876;40408,328;-5452,998
 833,39;  -51,129;40187,582;-6904,299
 833,96;   -7,382;39167,836;-6687,600
 834,53;  -73,634;40039,086;-6928,902
 835,10;  -55,887;39930,340;-6529,203
 835,66;  -36,140;38972,594;-6920,504
 836,23;  -38,393;39801,848;-6803,806
 836,80;  -66,646;39428,102;-6790,107
 837,36;  -55,899;37086,355;-6810,409
 837,93;  -67,152;34475,609;-6902,710
 838,50;  -39,404;35084,863;-6789,012
 839,06;  -12,657;37684,117;-6288,313
 839,63;  -38,910;37191,371;-6895,614
 840,19;  -31,163;35132,621;-6607,916
 840,76;  -39,416;35364,875;-6404,217
 841,33;  -51,669;35892,129;-6509,519
 841,89;  -27,921;36779,383;-6949,820
 842,46;  -79,174;37103,637;-6751,122
 843,03;  -15,427;35389,891;-6089,423
 843,59;  -71,680;34224,145;-6403,724
 844,16;  -51,933;34994,398;-6181,025
 844,73;  -24,186;34249,652;-6067,327
 845,29;  -32,438;32937,902;-5695,628
 845,86;  -40,691;35699,156;-6800,930
 846,42; -104,944;36940,410;-7004,231
 846,99;  -35,197;36477,664;-6967,533
 847,56;  -57,450;36265,918;-5840,834
 848,12;  -29,703;36240,172;-6745,135
 848,69;  -45,955;35710,426;-6715,437
 849,25;  -56,208;34401,680;-6845,738
 849,82;  -65,461;34081,934;-3247,040
 850,38;  -46,714;35064,188;-6840,341
 850,95;  -58,967;32489,439;-6324,643
 851,52;  -55,220;32520,693;-6565,944
 852,08;  -66,473;32548,947;-6691,245
 852,65;  -74,725;30323,199;-7005,546
 853,21;  -93,978;27698,453;-6958,848
 853,78;  -64,231;27362,707;-6363,149
 854,34;  -56,484;28860,961;-6871,451
 854,91;  -89,737;29081,215;-5086,752
 855,47;  -57,990;29942,467;-5108,054
 856,04;   21,758;32027,721;-6746,355
 856,60;  -37,495;33961,973;-6104,656
 857,17;  -73,748;34979,227;-6840,958
 857,73;  -58,001;33553,480;-6811,259
 858,30;  -82,254;32532,734;-6985,561
 858,86;  -66,507;31110,988;-5926,862
 859,43;  -64,759;31430,242;-6226,164
 859,99;  -75,012;32011,496;-6852,465
 860,56;  -95,265;33126,750;-6903,766
 861,12;  -85,518;35190,004;-6737,068
 861,69;  -97,771;33669,258;-5924,369
 862,25;  -59,024;34731,508;-6821,670
 862,82;  -56,277;34419,762;-5972,972
 863,38;  -78,529;31196,018;-6843,273
 863,95;  -51,782;29305,270;-6239,575
 864,51;  -52,035;30403,523;-5287,876
 865,08;  -40,288;29284,777;-6090,178
 865,64;  -75,541;26795,031;-7018,479
 866,21;  -64,794;26131,285;-6745,780
 866,77;  -97,046;26051,537;-5552,082
 867,34;  -49,299;25734,791;-6672,383
 867,90;  -71,552;24632,045;-6303,685
 868,46;  -83,805;23835,299;-6041,986
 869,03;  -92,058;24389,551;-6929,288
 869,59;  -88,311;26353,805;-6884,589
 870,16;  -76,563;27647,059;-6052,890
 870,72;  -87,816;30060,313;-6657,191
 871,28; -108,069;32915,566;-5992,493
 871,85;  -26,322;33142,820;-6907,794
 872,41; -128,575;31569,072;-6004,096
 872,98;  -68,828;32738,326;-6050,397
 873,54; -101,080;33876,578;-5920,699
 874,10;  -27,333;32768,832;-5876,000
 874,67;  -76,333;32987,832;-6904,000
 875,23;  -63,333;31068,834;-7032,000
 875,80;  -41,333;28009,834;-6641,000
 876,36;  -77,333;25058,834;-6642,000
 876,92;  -44,333;22832,834;-6189,000
 877,49;  -70,333;23923,834;-6517,000
 878,05;  -82,333;24896,834;-6797,000
 878,61;  -21,333;26938,834;-6812,000
 879,18;  -65,333;27553,834;-6252,000
 879,74;  -66,333;28076,834;-6720,000
 880,30;  -83,333;28679,834;-5926,000
 880,87;  -91,333;28852,834;-6326,000
 881,43;  -55,333;29533,834;-6871,000
 881,99;  -57,333;27306,834;-6879,000
 882,56;  -13,333;27610,834;-6661,000
 883,12;  -62,333;29049,834;-5740,000
 883,68;  -86,333;29120,834;-6518,000
 884,25;  -44,333;28300,834;-6949,000
 884,81;  -69,333;26343,834;-6701,000
 885,37;  -41,333;24221,834;-6786,000
 885,94;  -71,333;22940,834;-6851,000
 886,50;  -43,333;23098,834;-6886,000
 887,06;  -88,333;24358,834;-6796,000
 887,62;  -51,333;25019,834;-6866,000
 888,19;  -87,333;25774,834;-5986,000
 888,75;  -84,333;26542,834;-6821,000
 889,31;  -42,333;29043,834;-6778,000
 889,87;  -66,333;30537,834;-6723,000
 890,44;  -54,333;30349,834;-6696,000
 891,00;  -60,333;28757,834;-6786,000
 891,56;  -66,333;26457,834;-6998,000
 892,12;  -21,333;24463,834;-6754,000
 892,69;  -71,333;25310,834;-6373,000
 893,25;  -71,333;28798,834;-6877,000
 893,81;  -44,333;31774,834;-6696,000
 894,37;  -55,333;31330,834;-6342,000
 894,94;  -47,333;28713,834;-6772,000
 895,50;  -44,333;26035,834; -212,000
 896,06;  -62,333;24749,834;-6810,000
 896,62;  -48,333;23405,834;-6707,000
 897,18;  -34,333;24661,834;-6518,000
 897,75;   -6,333;27406,834;-6895,000
 898,31;  -26,333;27887,834;-6849,000
 898,87;   -7,333;26274,834;-6860,000
 899,43;  -56,333;25164,834;-6469,000
 899,99;  -53,333;26592,834;-6866,000
 900,56;  -29,333;25515,834;-6791,000
 901,12;  -77,333;24875,834;-6890,000
 901,68;  -16,333;27903,834;-6267,000
 902,24;  -32,333;31800,834;-5930,000
 902,80;  -71,333;32652,834;-6794,000
 903,36;    8,667;31893,834;-6691,000
 903,93;  -13,333;32139,834;-6646,000
 904,49;    1,667;32761,834;-6913,000
 905,05;  -50,333;30952,834;-6732,000
 905,61;  -20,333;28208,834;-6832,000
 906,17;  -32,333;28086,834;-6901,000
 906,73;  -57,333;25975,834;-5380,000
 907,29;  -33,333;24960,834;-6910,000
 907,86;  -53,333;25118,834;-6827,000
 908,42;  -76,333;28092,834;-6795,000
 908,98;  -70,333;31123,834;-5908,000
 909,54;  -87,333;38813,832;-6885,000
 910,10;  -49,333;48220,832;-6634,000
 910,66;  -75,333;57581,832;-6781,000
 911,22;  -44,333;65027,832;-6761,000
 911,78;  -55,333;62593,832;-6841,000
 912,34;  -62,333;53256,832;-6080,000
 912,90;  -43,333;44610,832;-5232,000
 913,46;  -52,333;37052,832;-6876,000
 914,03;  -68,333;30620,834;-5746,000
 914,59;  -40,333;27452,834;-6682,000
 915,15;  -75,333;24908,834;-6891,000
 915,71;  -62,333;24217,834;-6863,000
 916,27;  -76,333;23800,834;-6723,000
 916,83;  -76,333;23006,834;-5824,000
 917,39;  -52,333;21742,834;-3512,000
 917,95;  -16,333;20224,834;-6009,000
 918,51;  -71,333;19972,834;-6583,000
 919,07;  -54,333;21780,834;-6791,000
 919,63; -120,333;23295,834;-6661,000
 920,19;  -96,333;23935,834;-6865,000
 920,75;  -36,333;23112,834;-6640,000
 921,31;  -98,333;21484,834;-4837,000
 921,87;  -91,333;20216,834;-6845,000
 922,43; -116,333;18019,834;-5626,000
 922,99;  -60,333;17321,834;-6706,000
 923,55;  -30,333;18674,834;-6655,000
 924,11;  -51,333;19094,834;-6976,000
 924,67;  -64,333;19310,834;-6962,000
 925,23;  -22,333;19485,834;-6778,000
 925,79;  -34,333;20122,834;-6710,000
 926,35;  -51,333;20219,834;-6573,000
 926,91;  -82,333;19401,834;-6909,000
 927,47;  -78,333;19367,834;-6660,000
 928,03;  -15,333;20294,834;-6786,000
 928,59;  -37,333;20503,834;-6678,000
 929,15;  -34,333;20781,834;-6792,000
 929,71;  -11,333;22016,834;-6840,000
 930,27;   26,667;23587,834;-6537,000
 930,82;  -18,333;25573,834;-6728,000
 931,38; -107,333;24317,834;-5852,000
 931,94;  -53,333;22672,834;-6843,000
 932,50;  -46,333;21252,834;-6481,000
 933,06;  -71,333;20895,834;-6768,000
 933,62;  -59,333;21092,834;-6443,000
 934,18;  -10,333;20632,834;-6727,000
 934,74;  -57,333;21320,834;-6709,000
 935,30;  -43,333;22030,834;-6484,000
 935,86;  -36,333;21213,834;-6505,000
 936,42;  -42,333;20702,834;-6873,000
 936,97;  -45,333;21656,834;-6563,000
 937,53;  -25,333;20552,834;-6826,000
 938,09;  -56,333;21087,834;  123,000
 938,65;  -90,333;21186,834;-6268,000
 939,21;  -73,333;20179,834;-6708,000
 939,77;  -73,333;18946,834;-6213,000
 940,33;  -57,333;18602,834;-6748,000
 940,88;  -38,333;19429,834;-5908,000
 941,44;  -25,333;21301,834;-6983,000
 942,00;  -69,333;23225,834;-6697,000
 942,56;  -13,333;24231,834;-6604,000
 943,12;  -65,333;23427,834;-5907,000
 943,68;  -53,333;22950,834;-5679,000
 944,23;  -53,333;23124,834;-6749,000
 944,79; -129,333;22674,834;-6102,000
 945,35;  -73,333;20741,834;-6599,000
 945,91;    4,667;19519,834;-6767,000
 946,47;  -41,333;19827,834;-3353,000
 947,03;  -47,333;19896,834;-6850,000
 947,58;  -53,333;19661,834;-6840,000
 948,14;    0,667;20790,834;-5897,000
 948,70;  -22,333;19573,834;-5855,000
 949,26;  -43,333;18881,834;-6616,000
 949,81;  -76,333;18342,834;-6644,000
 950,37;  -63,333;18686,834;-6695,000
 950,93;  -30,333;17993,834;-6224,000
 951,49;  -21,333;17568,834;-6057,000
 952,05;  -72,333;17926,834;-6571,000
 952,60;  -54,333;17299,834;-6951,000
 953,16;  -66,333;16933,834;-5783,000
 953,72;  -77,333;15628,833;-5813,000
 954,27;  -21,333;15524,833;-6566,000
 954,83;  -74,333;15317,833;-6703,000
 955,39;  -45,333;14917,833;-6691,000
 955,95;  -69,333;14456,833;-6849,000
 956,50;  -37,333;14272,833;-6698,000
 957,06;  -69,333;14126,833;-5922,000
 957,62;  -69,333;13780,833;-6559,000
 958,18;  -63,333;13872,833;-6741,000
 958,73;  -53,333;13326,833;-6820,000
 959,29;  -47,333;13518,833;-6106,000
 959,85;  -63,333;14785,833;-6864,000
 960,40;  -47,333;16746,834;-4263,000
 960,96;  -32,333;16386,834;-6738,000
 961,52;  -55,333;14755,833;-6643,000
 962,07;  -66,333;13711,833;-6742,000
 962,63;  -68,333;13208,833;-6723,000
 963,19;  -80,333;13435,833;-5779,000
 963,74;   -8,333;13877,833;-6582,000
 964,30;  -58,333;14475,833;-6595,000
 964,86;  -85,333;14281,833;-6484,000
 965,41;  -34,333;14290,833;-6705,000
 965,97;  -92,333;14185,833;-6569,000
 966,53;  -74,333;14792,833;-6750,000
 967,08;  -37,333;15311,833;-6611,000
 967,64;  -13,333;15082,833;-6705,000
 968,19;  -45,333;14471,833;-6684,000
 968,75;  -34,333;14662,833;-6566,000
 969,31;  -49,333;14880,833;-5626,000
 969,86;  -29,333;14995,833;-6505,000
 970,42;  -47,333;13195,833;-6620,000
 970,97;  -61,333;11567,833;-6437,000
 971,53;  -47,333;11625,833;-6490,000
 972,09;  -73,333;12998,833;-6646,000
 972,64;  -55,333;13523,833;-5812,000
 973,20;  -50,333;13815,833;-6599,000
 973,75;  -49,333;14605,833;-5760,000
 974,31;    3,667;14826,833;-6578,000
 974,87;  -37,333;14921,833;-6674,000
 975,42;  -86,333;14507,833;-6727,000
 975,98;  -99,333;13201,833;-6651,000
 976,53;  -39,333;12100,833;-6555,000
 977,09;  -76,333;11353,833;-4624,000
 977,64;  -51,333;11164,833;-6532,000
 978,20;  -31,333;10649,833;-6585,000
 978,75;  -90,333;10482,833;-6429,000
 979,31;  -66,333;10950,833;-6513,000
 979,86;  -40,333;12220,833;-6739,000
 980,42;  -82,333;12828,833;-5813,000
 980,97;  -82,333;13290,833;-6642,000
 981,53;  -45,333;14285,833;-6636,000
 982,08;  -57,333;13803,833;-5046,000
 982,64;  -36,333;12278,833;-6237,000
 983,19;  -69,333;11308,833;-6760,000
 983,75;  -67,333;10993,833;-6576,000
 984,30;  -71,333;10430,833;-5581,000
 984,86;  -75,333; 9867,833;-5898,000
 985,41;  -56,333; 9457,833;-6634,000
 985,97;  -45,333; 9632,833;-4797,000
 986,52;  -34,333; 9894,833;-5853,000
 987,08;  -66,333; 9953,833;-6174,000
 987,63;  -62,333;10165,833;-5608,000
 988,19;  -58,333;11252,833;-6266,000
 988,74;  -51,333;11710,833;-5682,000
 989,30;  -67,333;11529,833;-6568,000
 989,85;  -61,333;11470,833; -276,000
 990,40;  -57,333;11314,833;-6617,000
 990,96;  -43,333;11060,833;-6482,000
 991,51;  -44,333;11149,833;-6578,000
 992,07;  -46,333;10742,833;-6605,000
 992,62;  -57,333;10285,833;-6519,000
 993,18;  -65,333;10035,833;-6504,000
 993,73;  -40,333; 9986,833;-6440,000
 994,28;  -74,333; 9800,833;-6464,000
 994,84;  -23,333; 9019,833;-6240,000
 995,39;  -33,333; 8474,833;-2971,000
 995,94;  -47,333; 7953,833;-5673,000
 996,50;  -78,333; 7647,833;-6543,000
 997,05;  -43,333; 7872,833;-3481,000
 997,61;  -46,333; 8363,833;-6489,000
 998,16;  -71,333; 8581,833;-6555,000
 998,71;  -48,333; 8850,833;-6340,000
 999,27;  -79,333; 9115,833;-5223,000
 999,82;  -50,333; 8706,833;-4778,000
1000,37;  -57,333; 8661,833;-6520,000
1000,93;  -72,333; 8920,833;-6107,000
1001,48;  -80,333; 8799,833;-6543,000
1002,03;  -90,333; 8477,833;-6469,000
1002,59;  -35,333; 8715,833;-5972,000
1003,14;  -77,333; 8758,833;-6113,000
1003,69;  -36,333; 8484,833;-6513,000
1004,25;  -58,333; 8299,833;-6507,000
1004,80;  -47,333; 8322,833;-6266,000
1005,35;  -56,333; 8313,833;-6361,000
1005,91;  -23,333; 8515,833;-6558,000
1006,46;  -82,333; 8426,833;-6084,000
1007,01;  -27,333; 8227,833;-5479,000
1007,56;  -40,333; 8599,833;-6440,000
1008,12;  -48,333; 8342,833;-6178,000
1008,67;  -52,333; 7867,833;-6312,000
1009,22;  -27,333; 7509,833;-6481,000
1009,78;  -76,333; 7205,833;-6163,000
1010,33;  -80,333; 6649,833;-6443,000
1010,88;  -70,333; 6413,833;-5618,000
1011,43;  -68,333; 5995,833;-6433,000
1011,99;  -60,333; 5972,833;-6198,000
1012,54;  -44,333; 6320,833;-6387,000
1013,09;  -46,333; 6048,833;-6299,000
1013,64;  -75,333; 5802,833;-6362,000
1014,19;  -50,333; 5823,833;-6442,000
1014,75;  -42,333; 5928,833;-6408,000
1015,30;  -44,333; 6394,833;-6425,000
1015,85;  -71,333; 6370,833;-6367,000
1016,40; -116,333; 6247,833;-5436,000
1016,96;  -31,333; 6235,833;-6268,000
1017,51;  -53,333; 6150,833;-6351,000
1018,06;  -40,333; 6095,833;-6310,000
1018,61; -100,333; 5695,833;-6665,000
1019,16;  -78,333; 5609,833;-6697,000
1019,71;    1,667; 5663,833;-6373,000
1020,27;  -75,333; 5567,833;-6353,000
1020,82;  -86,333; 5375,833;-3700,000
1021,37;  -42,333; 5405,833;-4798,000
1021,92;  -81,333; 5984,833;-6454,000
1022,47;  -33,333; 5965,833;-6548,000
1023,02;  -60,333; 5463,833;-6512,000
1023,58;  -93,333; 5045,833;-6573,000
1024,13;  -49,333; 4730,833;-6258,000
1024,68;  -83,333; 4434,833;-6298,000
1025,23;  -67,333; 4324,833;-5525,000
1025,78;  -78,333; 4613,833;-6475,000
1026,33;  -87,333; 4932,833;-5510,000
1026,88;  -53,333; 4843,833;-6236,000
1027,43;  -54,333; 5167,833;-6276,000
1027,99;  -84,333; 5134,833;-6002,000
1028,54;  -55,333; 4732,833;-6395,000
1029,09;  -62,333; 4106,833;-2478,000
1029,64;  -75,333; 3919,833;-6303,000
1030,19;  -49,333; 4147,833;-3821,000
1030,74;  -26,333; 4243,833;-5134,000
1031,29;  -42,333; 4284,833;-4765,000
1031,84;  -75,333; 4491,833;-6300,000
1032,39;  -50,333; 4563,833;-5403,000
1032,94;  -77,333; 4617,833;-4326,000
1033,49;  -61,333; 4361,833;-5476,000
1034,04;  -39,333; 4236,833;-6312,000
1034,59;  -14,333; 4205,833;-6507,000
1035,14;  -87,333; 4117,833;-6145,000
1035,69;  -41,333; 4318,833;-6224,000
1036,24;  -85,333; 4104,833;-4477,000
1036,80;  -58,333; 3986,833;-5453,000
1037,35;  -79,333; 4138,833;-6347,000
1037,90;  -26,333; 4172,833;-6274,000
1038,45;  -69,333; 4201,833;-6419,000
1039,00;  -67,333; 4340,833;-5490,000
1039,55; -105,333; 4229,833;-6284,000
1040,10;  -70,333; 3977,833;-5615,000
1040,65;  -91,333; 3916,833;-5576,000
1041,20;  -69,333; 3850,833;-6325,000
1041,75;  -54,333; 4030,833;-4522,000
1042,30;  -55,333; 4164,833;-3585,000
1042,84;  -33,333; 4338,833;-4439,000
1043,39;  -76,333; 4248,833;-6313,000
1043,94;  -59,333; 4175,833;-5342,000
1044,49;  -29,333; 3887,833;-6246,000
1045,04;  -46,333; 3710,833;-5800,000
1045,59;  -67,333; 3809,833;-6299,000
1046,14;  -48,333; 3732,833;-6392,000
1046,69;  -38,333; 3591,833;-6294,000
1047,24;  -91,333; 3623,833;-5510,000
1047,79;  -39,333; 3737,833;-6139,000
1048,34;  -62,333; 4002,833;-5961,000
1048,89;  -72,333; 3948,833;-6259,000
1049,44;  -51,333; 3935,833;-5172,000
1049,99;  -70,333; 3855,833;-4844,000
1050,54;  -66,333; 3876,833;-6249,000
1051,08;  -57,333; 3961,833;-6178,000
1051,63;  -78,333; 4050,833;-5285,000
1052,18;  -66,333; 5051,833;-6127,000
1052,73;  -25,333; 7151,833;-6173,000
1053,28;  -13,333;10516,833;-6386,000
1053,83;  -61,333;15224,833;-6214,000
1054,38;  -77,333;19203,834;-6254,000
1054,93;  -21,333;21243,834;-6285,000
1055,47;  -71,333;23825,834;-5328,000
1056,02;  -37,333;26212,834;-5832,000
1056,57;  -45,333;27830,834;-6198,000
1057,12;  -27,333;30497,834;-6378,000
1057,67;  -45,333;33805,832;-6078,000
1058,22;  -56,333;36084,832;-6313,000
1058,76;  -53,333;38542,832;-6093,000
1059,31;  -25,333;44129,832;-3514,000
1059,86;  -54,333;48778,832;-6204,000
1060,41;  -53,333;49718,832;-6152,000
1060,96;  -42,333;51396,832;-6226,000
1061,51;  -69,333;53649,832;-5344,000
1062,05;  -17,333;54082,832;-6122,000
1062,60;  -71,333;50555,832;-6061,000
1063,15;  -11,333;45221,832;-6149,000
1063,70;  -85,333;41550,832;-6250,000
1064,24;  -29,333;43676,832;-6169,000
1064,79;  -45,333;45461,832;-6144,000
1065,34;  -54,333;43989,832;-6064,000
1065,89;  -26,333;41776,832;-6202,000
1066,44;  -33,333;37631,832;-6120,000
1066,98;  -41,333;32612,834;-6224,000
1067,53;  -47,333;30790,834;-5953,000
1068,08;  -33,333;30368,834;-4845,000
1068,63;  -53,333;27618,834;-6096,000
1069,17;  -81,333;24647,834;-5893,000
1069,72;  -17,333;22350,834;-5857,000
1070,27;  -36,333;20529,834;-6040,000
1070,81;  -71,333;20388,834;-5996,000
1071,36;  -41,333;20367,834;-3883,000
1071,91;  -31,333;18745,834;  966,000
1072,46;  -61,333;16791,834;-5058,000
1073,00;  -54,333;14646,833;-5239,000
1073,55;  -34,333;11404,833;-5935,000
1074,10;  -37,333; 7803,833;-5981,000
1074,64;  -32,333; 5240,833;-5860,000
1075,19;  -15,333; 3535,833;-4958,000
1075,74;  -57,333; 2551,833;-6091,000
1076,28;  -87,333; 2312,833;-6075,000
1076,83;   -7,333; 1951,833;-5286,000
1077,38;   45,667; 1820,833;-5653,000
1077,92;  -98,333; 1783,833;-6332,000
1078,47;  -41,333; 1629,833;-5507,000
1079,02;  -42,333; 1578,833;-5959,000
1079,56;  -56,333; 1557,833;-5328,000
1080,11;  -53,333; 1304,833;-6094,000
1080,65;  -41,333; 1241,833;-5039,000
1081,20;  -55,333; 1186,833;-6151,000
1081,75;  -13,333; 1125,833;-6039,000
1082,29;  -40,333; 1128,833; -139,000
1082,84;   -7,333; 1184,833;-2678,000
1083,39;  -53,333; 1294,833;-5061,000
1083,93;  -30,333; 1335,833;-5025,000
1084,48;  -47,333; 1196,833;-5961,000
1085,02;  -54,333; 1082,833;-5783,000
1085,57;  -24,333; 1074,833;-5994,000
1086,11;  -85,333; 1079,833;-5968,000
1086,66;  -71,333;  925,833;-5584,000
1087,21;  -24,333; 1060,833;-5802,000
1087,75;  -89,333;  939,833;-6125,000
1088,30;  -42,333;  815,833;-5040,000
1088,84;  -37,333;  783,833;-5963,000
1089,39;  -70,333;  656,833;-5965,000
1089,93;  -68,333;  664,833;-6100,000
1090,48;  -67,333;  649,833;-4394,000
1091,02;  -33,333;  733,833;-5181,000
1091,57;  -59,333;  629,833;-5479,000
1092,11;  -45,333;  642,833;-4094,000
1092,66;  -22,333;  624,833;-6031,000
1093,20;  -82,333;  580,833;-5180,000
1093,75;  -45,333;  566,833;-4998,000
1094,29;  -32,333;  486,833;-4979,000
1094,84;  -37,333;  525,833;-5890,000
1095,38;  -93,333;  528,833;-5097,000
1095,93;  -51,333;  584,833;-5981,000
1096,47;  -25,333;  615,833;-5612,000
1097,02;  -34,333;  587,833;-4985,000
1097,56;  -47,333;  614,833;-5772,000
1098,11;  -63,333;  552,833;-5774,000
1098,65;  -56,333;  508,833;-5992,000
1099,20;  -73,333;  577,833;-5935,000
1099,74;  -49,333;  487,833;-6002,000
1100,29;  -28,333;  513,833;-4879,000
1100,83;  -64,333;  496,833;-5934,000

