
Integration time [ms]:   0,030
Averaging Nr. [scans]: 1
Smoothing Nr. [pixels]: 0
Data measured with spectrometer [name]: 1703254U1
Wave   ;Sample   ;Dark     ;Reference;Scope
[nm]   ;[counts] ;[counts] ;[counts] 

 190,08;  -92,464; -370,119;11982,743
 190,69;  -74,505; -359,404;11603,049
 191,29;  -75,984; -311,651;11479,965
 191,90;  -85,386; -365,508;11440,717
 192,50;  -83,695; -379,511;10355,099
 193,10;  -63,623; -446,299;11244,381
 193,71;  -82,533; -367,888; 9821,736
 194,31;  -77,146; -399,273; 9436,327
 194,91;  -77,146; -382,273; 9291,327
 195,52;  -83,801; -338,386;10555,949
 196,12;  -60,454; -397,056; 8671,847
 196,72;  -79,575; -386,394; 8220,904
 197,32;  -82,533; -375,888; 8251,736
 197,93;  -66,053; -360,420; 8700,957
 198,53;  -78,941; -383,145; 7601,797
 199,13;  -85,703; -397,132; 8091,270
 199,74;  -71,124; -366,410; 7263,813
 200,34;  -67,532; -388,667; 7832,874
 200,94;  -65,102; -436,547; 6941,297
 201,55;  -74,505; -406,404; 7119,049
 202,15;  -77,568; -375,773; 6404,732
 202,75;  -68,725; -373,217; 6097,647
 203,36;  -43,222; -338,664; 6822,492
 203,96; -118,768; -357,943; 6332,678
 204,56;  -57,603; -355,657;10275,729
 205,16;  -68,892; -363,018; 5478,458
 205,77;  -69,358; -360,244; 4767,892
 206,37;  -80,737; -409,017; 5556,267
 206,97;  -84,329; -363,760; 5129,205
 207,58;  -66,955; -364,166; 5927,278
 208,18;  -40,393; -337,129; 5129,889
 208,78;  -21,857; -404,134; 5295,461
 209,38;  -63,589; -469,415; 4958,385
 209,99;  -30,483; -356,540; 3837,534
 210,59;  -48,068; -361,662; 3890,301
 211,19;  -14,328; -364,538; 3938,343
 211,79;  -33,250; -366,927; 4499,316
 212,40;  -63,506; -373,625; 3368,911
 213,00;  -41,843; -388,891; 3903,118
 213,60;  -70,914; -386,882; 2992,972
 214,20;  -42,964; -401,230; 3081,175
 214,81;  -88,886; -422,618; 2884,148
 215,41; -100,175; -376,979; 3235,877
 216,01;  -62,508; -373,067; 3109,636
 216,61;  -22,040; -367,399; 2814,476
 217,22;  -67,071; -381,326; 2358,888
 217,82;  -35,544; -325,173; 2262,495
 218,42;  -83,683; -383,711; 2389,480
 219,02;  -86,226; -288,327; 3432,079
 219,63;  -87,063; -357,483; 2044,854
 220,23;  -69,337; -366,602; 2425,239
 220,83;  -66,542; -395,730; 1901,770
 221,43; -117,712; -393,195; 1850,167
 222,03;  -88,459; -348,940; 2326,296
 222,64; -100,239; -380,348; 1769,560
 223,24;   -4,936; -298,966; 1625,350
 223,84;  -91,832; -376,313; 2637,361
 224,44;  -73,134; -316,695; 2381,571
 225,05;  -54,543; -313,952; 1440,632
 225,65;  -85,353; -301,065; 1227,445
 226,25;  -90,472; -364,961; 1139,777
 226,85;  -86,522; -294,309;  995,979
 227,45;  -60,219; -335,706; 1083,907
 228,06;  -50,423; -365,834; 1945,438
 228,66; -109,894; -349,460; 4049,182
 229,26;  -38,726; -313,438; 1131,510
 229,86;  -70,620; -396,342; 1760,797
 230,46; -118,557; -358,194;  891,976
 231,06;  -78,346; -320,444;  757,273
 231,67;  -68,696; -346,732; 1228,961
 232,27; -123,086; -343,789;  778,094
 232,87;  -73,945; -308,808;  526,384
 233,47; -137,150; -321,158;  525,777
 234,07;  -42,372; -268,486; 9912,235
 234,67;  -88,397; -291,013;  672,338
 235,28; -122,150; -319,158;   65,777
 235,88; -145,883; -316,882;  285,426
 236,48;  -63,184; -350,821;  165,911
 237,08;  -58,657; -267,669;  448,518
 237,68; -151,996; -369,378; -267,552
 238,28; -116,693; -304,774; -106,624
 238,89; -116,989; -212,756; -205,723
 239,49;  -89,326; -282,023; 1280,483
 240,09; -104,927; -284,608; -190,544
 240,69; -123,532; -251,373; -319,124
 241,29; -142,643; -289,647;  651,036
 241,89;  -92,066; -330,147; -260,559
 242,49; -103,652; -248,490; -358,930
 243,10; -117,271; -201,496; 3664,834
 243,70; -115,652; -284,490;  239,070
 244,30; -105,736; -275,501; -708,594
 244,90;  -79,449; -188,582; -568,598
 245,50; -110,828; -177,355; 3274,777
 246,10; -107,559; -307,636; -831,300
 246,70; -111,003; -300,999;   17,620
 247,30;  -92,024; -251,641;  326,273
 247,91; -128,850; -208,218; 5781,292
 248,51;  -76,779; -270,228; -806,563
 249,11;  -66,975; -239,514;  417,933
 249,71;  -87,933; -303,008; -667,235
 250,31;  -90,032; -265,483; -567,693
 250,91;  -55,581; -238,500;   75,216
 251,51;  -83,469; -199,225; -822,945
 252,11; -110,379; -239,813;  367,410
 252,71;  -67,278; -269,117;-1080,994
 253,31;  -84,209; -222,348; 3228,013
 253,91;  -93,984; -236,578; -676,170
 254,52;  -85,589; -237,342;-1063,750
 255,12;  -65,032; -293,483;-1104,693
 255,72;    8,088; -206,366;  557,112
 256,32; -103,858; -242,061; -966,674
 256,92;  -30,787; -190,070;-1147,529
 257,52;   -8,680; -173,974; -883,243
 258,12;  -81,336; -201,087;  -91,621
 258,72;  -87,069; -210,810;-1232,972
 259,32;  -44,970; -211,335;-1169,514
 259,92;  -59,505; -199,330;-1343,086
 260,52;  -13,525; -192,973;-1077,433
 261,12;  -60,703; -202,059; -662,865
 261,72;  -73,090; -238,452;-1312,319
 262,32;  -30,152; -215,600;-1561,498
 262,92; -109,612; -238,426;  405,627
 263,53;  -42,414; -189,698;-1277,594
 264,13; -107,118; -262,937; -268,632
 264,73;  -30,301; -217,202;-1694,617
 265,33;  -82,266; -188,317;-1708,613
 265,93;  -80,027; -147,304;-1345,140
 266,53;   -8,464; -161,046;-1544,392
 267,13;  -78,429; -139,161; -857,388
 267,73;  -48,119; -185,158;  270,230
 268,33;  -86,085; -166,274;-1788,766
 268,93;  -39,343; -213,708;-1702,449
 269,53;  -58,781; -204,670; -644,839
 270,13;  -37,830; -201,797;-1810,499
 270,73;  -53,324; -245,287;-1891,239
 271,33;  -29,555; -200,678;-1778,884
 271,93;  -58,415; -242,919;-1867,732
 272,53;  -22,184; -121,748;    8,776
 273,13;  -32,400; -146,677;-1117,075
 273,73;  -60,649; -119,753;-1955,652
 274,33;  -22,767; -148,428;-2041,182
 274,93;  -80,747; -188,007;-1843,972
 275,53;  -43,184;  -68,748;-1881,224
 276,13;  -81,721; -121,965;-2261,935
 276,73;  -68,417; -118,361;-1570,007
 277,33;  -65,719; -179,522;-1926,659
 277,93;   14,290; -213,680;-1864,693
 278,53;  -28,028; -194,526;-2112,278
 279,13;  -40,170; -125,506;-2152,568
 279,73;  -63,395; -140,498;-1388,522
 280,33;  -24,959; -154,756;-2179,270
 280,93;   27,492; -105,994;-2049,499
 281,53;  -47,895; -147,387;-2252,953
 282,13;  -21,572; -127,363;-2193,816
 282,73;  -79,233; -156,875; -385,885
 283,33;  -41,924; -137,872;-2307,266
 283,92;    1,618;  -74,477;-2028,003
 284,52;   16,527;  -94,109;-2365,496
 285,12;  -70,873; -138,524;-1425,469
 285,72;   -1,402; -126,898;-1041,213
 286,32;  -32,135;  -55,622;-1313,564
 286,92;  -36,564; -163,521;-2376,850
 287,52;   30,591;  -89,519;-2170,041
 288,12;   -8,578;  -97,763;-2542,507
 288,72;    5,317; -106,417;-1625,518
 289,32;   11,237;  -54,470; 1692,233
 289,92;  -30,775; -106,270;-2344,148
 290,52;  -49,884;  -91,809;-2485,710
 291,12;    4,337;  -57,996;-1570,308
 291,72;  -24,382;  -74,477;-1590,003
 292,32;   67,049;  -83,135;-2372,442
 292,92;  104,900;   -2,737;-2481,560
 293,51;   66,075;  -37,093;-2532,404
 294,11;   27,442;  -42,121;-1681,160
 294,71;   81,534;   -7,488;-2695,667
 295,31;   45,280;  -24,743;-1755,797
 295,91;  125,238;   46,751;-2713,629
 296,51;  109,286;   62,656;-1776,106
 297,11;  118,757;   35,061;-2900,988
 297,71;  108,386;    4,131;-2726,648
 298,31;  175,225;   38,730;-2329,148
 298,91;  193,703;   74,756;-2483,202
 299,50;  192,414;   41,395;-2689,473
 300,10;  293,217;  145,887;-2706,114
 300,70;  223,082;   95,528;-2492,576
 301,30;  284,971;   89,253;-2855,415
 301,90;  401,506;   96,248;-2004,843
 302,50;  521,738;  163,640;-2515,198
 303,10;  728,921;  124,126;-2530,076
 303,70;  738,596;  208,660;-3000,488
 304,29;  941,159;  189,918;-2658,740
 304,89; 1524,342;  266,183;-1090,755
 305,49; 2038,469;  163,922;-2773,122
 306,09; 2246,541;  214,133;-2874,839
 306,69; 2321,844;  262,736;-2915,911
 307,29; 3517,049;  312,865;-2008,442
 307,89; 5990,653;  303,408;-3029,000
 308,48; 7593,407;  341,774;-2453,301
 309,08; 8239,676;  369,492;-2743,377
 309,68; 6707,730;  377,019;-3094,026
 310,28; 3921,598;  371,102;-2576,213
 310,88; 2493,944;  321,211;-2936,453
 311,48; 1878,450;  447,500;-2875,331
 312,07; 1533,781;  408,367;-2963,228
 312,67; 1357,119;  497,855;-2128,297
 313,27; 1183,494;  494,448;-1105,224
 313,87; 1115,852;  583,357;-2164,083
 314,47;  963,536;  516,954;-3030,392
 315,06; 1059,086;  620,191; 2713,837
 315,66;  949,788;  579,988;-3245,400
 316,26;  936,987;  632,938;-1844,483
 316,86;  987,930;  777,969;-3140,110
 317,46; 1017,051;  720,307;-2115,167
 318,06;  997,093;  739,813; -825,335
 318,65;  988,009;  781,801;-2807,999
 319,25;  930,699;  821,798;-3195,617
 319,85;  904,875;  932,663;-2908,323
 320,45;  898,728;  986,283;-3213,304
 321,05;  920,644;  901,271;-2761,968
 321,64;  873,362;  889,531;-3219,411
 322,24;  983,708; 1056,861;-3265,513
 322,84; 1000,666; 1080,356;-3261,345
 323,44; 1038,441; 1133,364;-3219,300
 324,03; 1030,025; 1194,486;-3072,067
 324,63; 1122,773; 1250,452;-2310,059
 325,23; 1122,028; 1241,928;-3097,792
 325,83; 1115,825; 1367,021;-2876,123
 326,42; 1184,973; 1442,622;-3285,005
 327,02; 1217,159; 1476,551;-3076,607
 327,62; 1299,562; 1439,629;-2505,221
 328,22; 1297,964; 1553,486;-3234,973
 328,82; 1347,312; 1577,037;-2229,938
 329,41; 1412,688; 1658,852;-3016,728
 330,01; 1585,931; 1652,750;-2961,704
 330,61; 1551,574; 1806,062;-2928,707
 331,20; 1586,602; 1778,325;-2868,531
 331,80; 1649,351; 1762,512;-2794,386
 332,40; 1622,416; 1752,102;-2896,932
 333,00; 1762,002; 1933,667;-2790,423
 333,59; 1808,884; 1748,771;-2855,091
 334,19; 1821,406; 1920,745;-1771,037
 334,79; 1857,047; 1712,615;-2861,316
 335,39; 1826,946; 1729,919;-2978,912
 335,98; 1717,494; 1726,714;-3126,958
 336,58; 1684,533; 1659,777;-3191,401
 337,18; 1692,688; 1720,779;-2958,592
 337,77; 1567,264; 1782,837;-2098,463
 338,37; 1616,854; 1806,359;-2021,540
 338,97; 1659,177; 1907,384;-2912,402
 339,57; 1598,764; 1862,948;-3044,894
 340,16; 1565,638; 1836,431;-2881,390
 340,76; 1546,369; 1962,712;-3053,314
 341,36; 1512,131; 1861,920;-3195,650
 341,95; 1588,731; 1934,506;-3027,623
 342,55; 1564,535; 1918,998;  703,736
 343,15; 1603,371; 2048,155;-3094,039
 343,74; 1672,865; 1924,644;-2382,298
 344,34; 1574,027; 1860,267;-3015,661
 344,94; 1693,054; 2068,530;-3069,485
 345,53; 1782,759; 2110,769;-2860,447
 346,13; 1738,541; 2174,398;-1283,573
 346,73; 1794,634; 1966,473;-2254,805
 347,32; 1758,329; 2268,649;-3080,871
 347,92; 1778,683; 2312,600;-2277,145
 348,52; 1711,435; 2270,523;-1878,722
 349,11; 1712,068; 2336,551;  975,034
 349,71; 1792,259; 2330,658;-3240,016
 350,31; 1896,457; 2441,387;-2672,237
 350,90; 1989,399; 2483,418;-2326,863
 351,50; 2178,627; 2390,852;-2105,634
 352,10; 2257,964; 2471,119;-3114,840
 352,69; 2497,646; 2532,273;-3182,424
 353,29; 2582,012; 2563,024;-3191,317
 353,89; 2676,745; 2645,527;-3255,104
 354,48; 2989,964; 2693,119;-3208,840
 355,08; 3338,831; 2871,980;-1117,164
 355,67; 3783,716; 2850,042;-2951,417
 356,27; 4526,894; 2839,128;-3232,985
 356,87; 5857,040; 3010,288;-3383,142
 357,46; 8535,638; 3049,431;-2351,390
 358,06;12614,350; 3306,291;-3073,523
 358,66;13893,576; 3337,504;-3109,432
 359,25;12231,928; 3260,792;-2344,119
 359,85;12004,033; 3365,667;-3215,970
 360,44;11476,083; 3389,015;-3292,172
 361,04; 9747,371; 3567,155;-2367,039
 361,64; 7939,372; 3696,155;-2309,039
 362,23; 6068,815; 3772,517;-2932,958
 362,83; 4782,400; 3755,639;-2990,726
 363,42; 4090,759; 3938,769;-2836,447
 364,02; 3542,942; 3910,034;-2973,462
 364,62; 3114,541; 3816,398;-2486,573
 365,21; 2925,680; 3857,937;-1741,558
 365,81; 2872,405; 3935,818;-2792,173
 366,40; 2669,574; 3970,062;-2080,707
 367,00; 2579,913; 4021,550;-2952,776
 367,59; 2516,644; 4071,831;-2979,699
 368,19; 2508,117; 4221,678;-3237,306
 368,79; 2473,144; 4198,720;-3125,268
 369,38; 2564,708; 4107,200;-2250,383
 369,98; 2579,990; 4101,940;-2935,940
 370,57; 2834,630; 4188,588;-3331,356
 371,17; 3025,432; 4164,860;-3326,135
 371,76; 2924,904; 4277,486;-3442,879
 372,36; 2937,559; 4057,598;-3195,501
 372,95; 2728,093; 4115,372;  667,934
 373,55; 2613,565; 4105,998;-3393,811
 374,14; 2415,136; 4300,099;-3405,097
 374,74; 2310,536; 4256,514;-3224,124
 375,34; 2169,707; 4286,979;-3189,521
 375,93; 2064,284; 4295,479;-2706,116
 376,53; 2063,320; 4344,585;-3575,974
 377,12; 2105,343; 4405,670;-1465,352
 377,72; 1980,073; 4480,730;-3410,414
 378,31; 2014,322; 4511,027;-2274,699
 378,91; 1970,483; 4291,429;-3262,199
 379,50; 2073,916; 4588,213;-3331,363
 380,10; 1990,155; 4327,226;-3398,890
 380,69; 2034,697; 4094,621;-2343,626
 381,29; 2051,507; 4586,735;-2550,439
 381,88; 2202,675; 4518,758;-1605,111
 382,48; 2256,733; 4519,727;-3286,485
 383,07; 2228,669; 4495,358;-3457,802
 383,67; 2207,675; 4635,758;-1847,111
 384,26; 2057,338; 4667,491;-2467,905
 384,86; 2128,317; 4921,849;-3182,252
 385,45; 2096,090; 4932,636;-3325,344
 386,05; 2061,458; 5073,608;-3419,100
 386,64; 2034,147; 4911,384;-3524,855
 387,24; 2174,105; 5016,878;-2585,688
 387,83; 2078,351; 4993,512;-2489,386
 388,42; 2146,585; 5182,346;-2109,466
 389,02; 2314,746; 5423,748;-3235,966
 389,61; 2378,096; 5688,036;-3413,653
 390,21; 2513,105; 5729,878;-3463,688
 390,80; 2632,921; 5816,392;-3208,810
 391,40; 2758,118; 6137,899;-2293,168
 391,99; 3301,106; 5981,099;-3195,550
 392,59; 4200,633; 6435,252;-2416,943
 393,18; 6960,541; 6683,398;-2491,573
 393,77;16289,553; 6883,198;-3238,192
 394,37;23532,104; 7145,657;-2198,825
 394,96;20624,006; 7098,403;-2296,146
 395,56;24779,629; 7264,588;-2834,356
 396,15;30593,393; 6867,797;-3125,692
 396,75;23129,146; 7343,163;-2889,993
 397,34;13079,990; 7669,940;-2620,940
 397,93; 8495,624; 7720,188;-3358,047
 398,53; 6413,562; 7595,262;-2525,088
 399,12; 4966,928; 8192,013;-2154,981
 399,72; 3988,964; 8013,119;-2274,840
 400,31; 3589,471; 8034,629;-3169,581
 400,91; 3327,773; 8446,012;-2959,791
 401,50; 3030,553; 8820,198;-2330,192
 402,09; 2871,757; 8550,327;-2894,722
 402,69; 2877,469; 8691,187;-3072,856
 403,28; 2800,723; 9052,663;-2983,588
 403,88; 2770,842; 9162,560; 1927,079
 404,47; 2669,644; 9689,831;  884,300
 405,06; 2628,920; 9684,171;  -68,947
 405,66; 2667,461; 9753,565;-2875,684
 406,25; 2606,144;10085,720;-3119,268
 406,84; 2674,540;10446,177;-2892,711
 407,44; 2648,277;10847,858;-2219,944
 408,03; 2599,128;10422,257;-2906,063
 408,63; 2567,742;10373,085;-3011,379
 409,22; 2781,165;10191,584;-1945,783
 409,81; 2703,339;10681,007;-1849,765
 410,41; 2949,123;11553,078;-2857,615
 411,00; 2898,164;11336,362;-1814,921
 411,59; 2788,150;11251,120;-2826,578
 412,19; 2821,925;11468,350;-2245,394
 412,78; 2852,186;11399,226;-2830,436
 413,37; 2771,135;12151,878;-2704,234
 413,97; 2762,381;12410,512;-2618,933
 414,56; 2852,762;12071,506;-2503,169
 415,15; 2935,106;12410,394;-2121,547
 415,75; 3017,431;12408,639;-2698,272
 416,34; 2994,818;12590,254;-1893,681
 416,93; 3026,211;12922,047;-2777,536
 417,53; 2875,796;12696,169;-1423,303
 418,12; 2862,338;12570,785;-2217,903
 418,71; 2924,970;12907,592;-2673,285
 419,31; 2775,851;13054,695;-1884,952
 419,90; 2683,394;13470,313;-2786,552
 420,49; 2639,000;13619,298;-1733,834
 421,08; 2660,000;14201,298;-1674,834
 421,68; 2646,739;14723,421;-1908,792
 422,27; 2797,829;14035,832;-2004,437
 422,86; 2726,689;13874,073; -437,590
 423,46; 2438,941;14080,107;-2575,598
 424,05; 2391,222;14376,626;-2928,293
 424,64; 2351,259;13888,953;-2640,014
 425,24; 2294,012;14092,098;-2903,453
 425,83; 2274,243;13992,269;-2680,945
 426,42; 2324,222;12987,626;-2760,293
 427,01; 2291,568;13424,734;-2674,533
 427,61; 2152,701;14347,873;-2609,209
 428,20; 2246,123;14036,151;-1764,751
 428,79; 2280,706;14414,052;-2859,656
 429,38; 2229,588;14092,377;-1781,186
 429,98; 2158,341;14922,521; -994,625
 430,57; 2206,701;15058,873;-2193,209
 431,16; 2164,672;14580,389;-2784,522
 431,75; 2216,108;14357,909; -561,407
 432,35; 2193,179;13435,899;-1951,262
 432,94; 2179,375;14429,186;-2324,759
 433,53; 2134,433;14560,375;-1152,995
 434,12; 2187,030;14431,298;-2267,381
 434,72; 2206,282;14188,331;-1413,389
 435,31; 2196,191;14167,699; 7395,119
 435,90; 2322,445;14308,954; 8338,249
 436,49; 2260,015;13427,834; -683,175
 437,08; 2324,135;13895,951; -675,370
 437,68; 2358,395;14442,827;-2987,412
 438,27; 2459,331;14610,237;-2610,866
 438,86; 2388,860;14612,832;-1147,984
 439,45; 2415,676;15313,346;-1937,106
 440,05; 2351,323;15955,616;-2982,694
 440,64; 2640,970;15054,886;-1902,282
 441,23; 2534,681;14152,525;-1415,553
 441,82; 2611,472;13700,218;-2631,576
 442,41; 2571,202;14351,277;-3014,637
 443,00; 2658,688;13625,925;-2724,863
 443,60; 2861,506;14373,881;-3136,710
 444,19; 2864,230;15026,541;-1440,462
 444,78; 3017,153;14960,151;-3012,298
 445,37; 3230,061;15728,297;-2522,928
 445,96; 3434,415;15331,249;-3116,202
 446,56; 3597,611;15596,535;-1144,698
 447,15; 3781,208;16225,678; -884,947
 447,74; 3921,026;17097,412;-2709,931
 448,33; 4008,130;16443,066;-1985,920
 448,92; 4012,659;15422,440;-2964,176
 449,51; 4140,497;15095,817;-2848,813
 450,10; 4309,214;15133,078;-3063,256
 450,70; 4840,081;14904,939;-1957,581
 451,29; 5285,180;15329,193;-1112,260
 451,88; 5570,589;15513,671;-2929,183
 452,47; 6047,046;16565,055;-2795,584
 453,06; 6136,234;16495,498;-2401,047
 453,65; 5789,917;16071,874;-2873,493
 454,24; 5114,290;17329,246;-2173,558
 454,84; 4422,729;17793,209;-1379,168
 455,43; 3966,924;18732,496;-2219,665
 456,02; 3758,530;18879,480;-2927,947
 456,61; 3349,362;17317,459;-2925,275
 457,20; 3091,410;16921,363;-2786,753
 457,79; 2928,325;17588,131;-2922,554
 458,38; 2648,839;18338,264;-2132,467
 458,97; 2725,677;18039,641;-2515,104
 459,56; 2622,221;18190,479;-2760,565
 460,16; 2431,374;17832,258;-2082,894
 460,75; 2401,938;18157,518;-2072,146
 461,34; 2316,156;18077,887;-2962,020
 461,93; 2292,436;18381,186;-2200,853
 462,52; 2331,078;19333,275;-2744,993
 463,11; 2356,168;20546,688;-1989,639
 463,70; 2411,832;19458,643;-2869,295
 464,29; 2485,709;19945,082;-3150,376
 464,88; 2695,443;20795,807;-2743,024
 465,47; 3149,007;19885,285;-2748,139
 466,06; 3795,646;20915,713;-3191,692
 466,65; 3912,203;21667,572;-3018,635
 467,24; 3480,469;22030,848;-2539,986
 467,84; 2947,423;22443,164;-2020,371
 468,43; 2706,612;22325,051;-2238,559
 469,02; 2594,042;23517,170;-2702,135
 469,61; 2508,647;24168,936;-2593,555
 470,20; 2587,851;23781,063;-2841,085
 470,79; 2334,413;22760,100;-3232,475
 471,38; 2315,857;25266,463;-2192,395
 471,97; 2241,504;26009,732; -666,983
 472,56; 2166,031;25472,887;-3035,376
 473,15; 2086,364;25296,975;-2825,135
 473,74; 2084,934;26395,854;-3106,559
 474,33; 2003,315;25866,848;-2957,796
 474,92; 1994,892;27630,348;-3146,391
 475,51; 2005,997;29609,002;-2873,380
 476,10; 1885,603;29847,986;-3011,662
 476,69; 1892,334;26101,268;-2855,586
 477,28; 1912,505;25846,955;-2956,845
 477,87; 1850,426;27035,121; -173,956
 478,46; 1806,552;28695,639;-3029,460
 479,05; 1705,258;30507,100;-2134,284
 479,64; 1800,672;31679,756;-2718,655
 480,23; 1769,039;29541,508;-2845,548
 480,82; 1620,532;28549,996;-2736,807
 481,41; 1650,348;29371,510;-1873,929
 482,00; 1617,877;29284,885;-1364,185
 482,59; 1685,687;29593,998;-2298,998
 483,18; 1716,011;31702,244;-2376,723
 483,77; 2154,975;31703,139;-2193,865
 484,36; 2689,997;32475,002;-1701,380
 484,95; 2549,777;32990,410; -788,643
 485,54; 2545,939;35331,031;-1371,006
 486,13; 2519,377;35762,996; -945,616
 486,72; 2711,820;34334,137;  148,326
 487,31; 2577,038;31046,285;-1109,686
 487,89; 2420,933;32608,633; -193,697
 488,48; 2420,298;33798,164;-1523,728
 489,07; 2301,142;32913,941;-1248,674
 489,66; 2111,172;33511,645;-1505,224
 490,25; 2089,277;31095,299; -660,212
 490,84; 2042,525;34127,375;-1683,635
 491,43; 1982,004;34965,621; -701,552
 492,02; 1897,791;36094,652;-1864,987
 492,61; 1850,425;35362,902;-1043,094
 493,20; 1798,481;33776,426;-2019,743
 493,79; 1735,100;32749,434; 4824,494
 494,38; 1702,023;33706,043;-1938,342
 494,97; 1664,523;32583,934; -629,911
 495,55; 1591,361;34690,309;-2325,548
 496,14; 1584,207;35087,531;-2403,220
 496,73; 1540,769;35451,566;-1952,609
 497,32; 1525,233;34211,570;-2587,182
 497,91; 1521,916;35005,949;-1921,629
 498,50; 1591,395;34165,195;-2912,544
 499,09; 1609,233;34554,570;-3088,182
 499,68; 1546,501;32403,070;-2405,396
 500,27; 1735,331;33321,605;-2490,999
 500,85; 1581,634;32655,207;-2604,071
 501,44; 1475,303;32478,342;-2576,175
 502,03; 1431,268;33194,457;-3368,178
 502,62; 1378,346;31275,068;-3438,205
 503,21; 1381,367;29432,711;-3532,858
 503,80; 1465,289;32028,100;-2976,831
 504,39; 1360,147;32451,119;-3458,121
 504,97; 1446,169;31774,982;-3577,636
 505,56; 1370,937;31537,590;-2979,281
 506,15; 1316,839;32302,336;-3991,602
 506,74; 1325,570;32557,617;-2945,526
 507,33; 1300,140;32185,498;-3165,949
 507,92; 1539,429;33952,859;-3871,678
 508,51; 1476,394;35926,973;-3735,682
 509,09; 1471,809;34536,629;-3921,053
 509,68; 1524,224;34318,508;-3748,286
 510,27; 1676,962;33667,410;-3799,381
 510,86; 1628,055;32572,264;-4081,751
 511,45; 1626,379;33677,512;-3843,476
 512,03; 1685,274;34524,855;-3829,488
 512,62; 1764,310;36240,961;-3780,346
 513,21; 1644,955;33870,789;-3186,209
 513,80; 1686,223;34644,289;-3501,423
 514,39; 1661,851;32752,137;-3905,221
 514,97; 1539,181;35347,781;-4095,255
 515,56; 1502,250;34167,551;-4198,248
 516,15; 1509,912;35428,063;-3955,179
 516,74; 1505,165;32584,318;-4420,049
 517,33; 1500,074;33459,688;-3549,542
 517,91; 1469,356;33935,426;-4188,099
 518,50; 1439,259;32563,393;-3264,282
 519,09; 1363,133;33942,875;-3157,778
 519,68; 1349,547;35231,531;-4286,148
 520,26; 1325,786;38679,547;-4232,675
 520,85; 1278,751;39452,660;-4352,679
 521,44; 1224,306;40826,078;-4358,897
 522,03; 1231,167;39485,539;-4271,912
 522,61; 1157,306;36773,078;-4364,897
 523,20; 1184,390;33924,090;-4337,233
 523,79; 1135,967;32040,590;-4337,828
 524,38; 1126,116;32850,191;-4344,709
 524,96; 1093,736;35883,199;-4321,473
 525,55; 1098,524;36021,449;-4542,771
 526,14; 1070,636;34018,723;-4434,931
 526,73; 1006,996;32852,074;-4389,515
 527,31; 1130,630;32903,324;-4488,622
 527,90; 1091,524;33630,449;-4564,771
 528,49; 1098,863;34155,938;-2529,839
 529,08;  981,643;34601,344;-3467,103
 529,66;  984,215;34848,445;-3911,389
 530,25;  973,982;35279,832;-4414,172
 530,84;  967,953;35334,348;-4583,485
 531,42; 1060,094;38583,105;-4365,332
 532,01;  952,622;37528,480;-4291,588
 532,60;  914,642;34512,125;-4473,241
 533,18; 1001,235;35538,086;-4078,042
 533,77;  953,354;34969,984;-4236,374
 534,36;  997,383;34459,469;-4374,061
 534,95;  905,157;35483,477;-4088,015
 535,53;  956,545;34236,090; -974,424
 536,12;  957,580;36469,977;-2657,420
 536,71;  952,678;36511,230;-3869,099
 537,29; 1023,910;36073,621;-3618,454
 537,88; 1042,306;33908,078;-3454,897
 538,47;  973,234;32497,867;-2840,180
 539,05; 1024,453;36837,238;-2139,054
 539,64; 1012,331;40414,898;-1785,997
 540,22; 1018,994;37414,633; -764,790
 540,81; 1031,508;37501,766; 1008,297
 541,40; 1049,684;39018,629; 3425,591
 541,98;  993,988;38188,230; 4858,519
 542,57; 1054,580;39368,977; 4597,580
 543,16; 1015,136;38645,613; 4952,500
 543,74; 1025,467;35774,480; 4083,603
 544,33; 1010,938;36297,883; 3620,721
 544,92; 1009,247;37217,887; 3973,339
 545,50; 1049,241;37338,488;11456,648
 546,09; 1088,496;40064,965;11359,916
 546,67; 1081,791;41948,727; 2857,878
 547,26; 1028,700;40050,094; -202,615
 547,85; 1018,457;39208,414; -567,501
 548,43; 1017,220;38452,625; -849,836
 549,02; 1009,227;39427,246;-1040,008
 549,60; 1043,480;40570,500; -984,878
 550,19; 1019,593;41166,996;-2192,901
 550,78;  971,163;42660,875;-2328,325
 551,36;  995,965;45349,148;-2432,104
 551,95;  966,615;45443,859; -585,416
 552,53; 1033,776;43280,262; -296,916
 553,12; 1085,465;41420,035;-3431,672
 553,70; 1057,816;43188,547;-2878,222
 554,29; 1028,832;44058,008;-2869,428
 554,88; 1058,401;41831,668;-4247,989
 555,46; 1074,690;43723,027;-3881,718
 556,05; 1113,720;45007,734;-4207,268
 556,63; 1112,240;45206,266;-3396,489
 557,22; 1164,403;43875,109;-3394,714
 557,80; 1200,198;41749,762;-3568,321
 558,39; 1275,536;44188,250;-4145,390
 558,97; 1183,092;47993,887;-3699,470
 559,56; 1291,881;49889,137;-4544,768
 560,15; 1251,557;50117,891;-3611,042
 560,73; 1257,585;49814,152;-4287,867
 561,32; 1217,981;47024,609;-3741,309
 561,90; 1189,415;46041,910;-4382,333
 562,49; 1184,276;48487,371;-3786,348
 563,07; 1126,515;48074,387;-4783,875
 563,66; 1202,726;50064,133;-4352,577
 564,24; 1245,501;49228,145;-4763,531
 564,83; 1237,091;51344,664;-4603,607
 565,41; 1303,431;53840,375;-4329,539
 566,00; 1341,514;52202,164;-2755,012
 566,58; 1497,586;56465,375;-3725,729
 567,17; 1809,100;56909,508;-4280,642
 567,75; 1913,544;52392,871;-4653,562
 568,34; 2424,127;55893,770;-3216,466
 568,92; 2861,141;55738,793;-3987,947
 569,51; 2912,867;54852,895; 2680,576
 570,09; 2595,135;58247,391;-4676,638
 570,68; 2254,576;53188,313;-4788,833
 571,26; 2268,072;50733,242;-3886,817
 571,85; 2293,030;57347,738;-4822,649
 572,43; 1952,896;57011,379;-4704,111
 573,01; 1622,741;52662,375;-4873,920
 573,60; 1432,142;53819,012;-3785,810
 574,18; 1327,776;55122,262;-4514,917
 574,77; 1185,169;53284,277;-4737,634
 575,35; 1122,142;56113,012;-4452,810
 575,94; 1093,972;57300,770;-4076,275
 576,52; 1053,395;54049,270;-2249,680
 577,11;  999,028;51620,297;-3244,924
 577,69;  996,591;48685,555;-3183,176
 578,27;  997,593;51008,996;-3447,901
 578,86;  986,662;55198,543;-2994,031
 579,44; 1000,367;60080,004;-2805,855
 580,03;  990,036;60164,137;-2493,958
 580,61;  982,705;60267,270;-3206,062
 581,19;  987,007;56429,652;-2538,271
 581,78; 1000,999;55361,813;-2364,238
 582,36;  930,845;57656,031;-2911,909
 582,95;  948,133;56180,172;-1497,776
 583,53;  931,042;59586,539;-2319,268
 584,11; 1000,783;61608,883;-2241,088
 584,70;  989,627;61691,660;-1948,035
 585,28;  929,909;62070,398;-1853,592
 585,87;  930,119;60436,930;-2889,432
 586,45;  883,662;63023,543;-2375,031
 587,03;  969,696;64945,430;-1150,027
 587,62; 1015,768;61494,641;-1834,745
 588,20; 1354,099;62236,285;-1020,779
 588,78; 1789,787;58157,840;-3411,673
 589,37; 1601,395;57765,270;-3360,680
 589,95; 1173,282;62238,773;-3385,657
 590,54;  901,197;63633,539;-3461,459
 591,12;  965,492;62116,301;-3508,497
 591,70;  965,831;59586,789;-3331,565
 592,29;  989,225;62881,805;-2923,283
 592,87;  998,431;63542,375;-2394,538
 593,45;  940,070;63404,801; 1487,908
 594,04;  896,837;62800,188;-3676,875
 594,62;  924,415;59709,910;-3708,333
 595,20;  905,548;62066,828;-4371,146
 595,79;  978,944;62681,285;-4165,588
 596,37;  992,591;61108,555;-3657,176
 596,95;  923,669;56922,164;-4321,203
 597,53;  924,127;58806,770;-4226,466
 598,12;  926,500;61848,922;-3959,669
 598,70;  906,577;64932,531;-3776,695
 599,28;  940,431;64911,375;-3404,538
 599,87;  898,902;64929,777;-3061,420
 600,45;  938,718;64938,293;-3907,543
 601,03;  900,211;63145,781;-4100,802
 601,62;  882,837;61727,188;-4468,875
 602,20;  860,148;59786,414;-4541,119
 602,78;  873,717;64399,070;-4770,680
 603,36;  912,647;64783,301;-3166,688
 603,95;  918,169;58863,277;-4492,634
 604,53;  931,634;62401,281;-4574,207
 605,11;  915,466;59505,258;-2755,535
 605,69;  871,894;62362,156;-3365,249
 606,28;  926,225;62594,805;-4223,283
 606,86; 1011,077;61629,422;-3946,264
 607,44;  917,816;60431,547;-3906,222
 608,02;  845,379;58047,805;-4037,474
 608,61;  897,401;60099,668;-2866,989
 609,19;  881,767;58582,418;-2582,882
 609,77;  887,922;57398,422; -710,073
 610,35;  821,676;55748,785; 5794,625
 610,94;  842,809;56509,926;14509,949
 611,52;  847,401;55803,668;12610,011
 612,10;  776,907;53026,957; 8432,133
 612,68;  771,977;56637,949; 2694,278
 613,26;  778,436;57037,551; 2032,015
 613,85;  826,964;61759,926; -599,241
 614,43;  855,035;62306,918;-1030,096
 615,01;  758,921;62272,199;-1215,211
 615,59;  767,280;64874,328; -972,932
 616,17;  821,698;59402,648;-2561,890
 616,76;  861,092;62178,887;-2993,470
 617,34;  952,973;62666,988;-2389,138
 617,92;  932,127;58547,770;-3399,466
 618,50;  931,007;61202,652;-2562,271
 619,08; 1024,000;57928,031;-2514,100
 619,67;  982,514;55968,164;-3196,012
 620,25; 1051,768;54290,641;-2743,745
 620,83; 1004,718;50498,293;-3495,543
 621,41; 1113,760;52314,797;-2800,711
 621,99; 1127,711;54560,672;-2529,371
 622,57; 1329,191;55529,141;-3707,149
 623,15; 1380,515;56213,387;-3783,875
 623,74; 1575,959;58266,746;-3892,794
 624,32; 1681,733;59330,754;-2827,749
 624,90; 1720,486;58625,898;-2311,188
 625,48; 1733,084;57897,043;-3132,436
 626,06; 1642,134;56898,391;-4006,638
 626,64; 1542,367;57787,004;-4162,855
 627,22; 1416,916;58993,020;-3409,764
 627,81; 1439,023;58046,117;-4334,478
 628,39; 1285,655;57121,145;-4560,722
 628,97; 1389,873;56597,293;-4437,733
 629,55; 1230,114;55377,750;-4219,985
 630,13; 1154,705;55669,270;-2959,062
 630,71; 1177,712;54162,891;-2747,233
 631,29; 1100,169;53129,277;-3824,634
 631,87; 1118,945;52776,504;-4223,451
 632,45; 1041,698;52786,648;-4716,890
 633,03; 1041,325;54183,500;-4191,688
 633,62;  980,634;55423,281;-4714,207
 634,20;  902,288;54882,172;-4089,966
 634,78;  938,903;56497,000;-4430,283
 635,36;  905,388;56701,648;-4449,508
 635,94;  893,360;55183,383;-5398,684
 636,52;  918,078;51027,645;-5422,126
 637,10;  849,669;52116,164;-5488,203
 637,68;  784,113;50694,527;-4702,123
 638,26;  787,269;47618,750;-5536,176
 638,84;  741,796;48688,902;-5421,569
 639,42;  702,669;49235,164;-3756,203
 640,00;  696,653;51366,148;-5405,726
 640,58;  796,439;54579,402;-4806,027
 641,16;  723,225;55521,656;-5571,328
 641,74;  699,011;53214,906;-5433,630
 642,32;  654,797;50106,160;-5620,931
 642,90;  661,583;50434,414;-5856,232
 643,48;  673,369;49231,668;-5786,534
 644,06;  703,156;49280,922;-5796,835
 644,64;  630,942;49595,176;-5842,137
 645,22;  574,728;50513,430;-5562,438
 645,80;  591,514;50547,684;-4957,740
 646,39;  575,300;48107,938;-5515,041
 646,97;  610,086;49773,191;-5850,342
 647,54;  607,872;52328,441;-5717,644
 648,12;  577,658;54879,695;-5865,945
 648,70;  600,444;58954,949;-5885,247
 649,28;  622,230;56421,203;-6090,548
 649,86;  539,016;51091,457;-5609,850
 650,44;  599,803;48619,711;-5452,151
 651,02;  616,589;49970,965;-5474,452
 651,60;  598,375;51793,219;-5803,753
 652,18;  605,161;51320,473;-4735,055
 652,76;  640,947;53277,723;-5934,356
 653,34;  517,733;54817,977;-5939,658
 653,92;  533,519;57729,230;-5784,959
 654,50;  626,305;59042,484;-5818,261
 655,08;  614,091;58048,738;-5841,562
 655,66;  615,877;55058,992;-5115,863
 656,24;  619,664;56743,246;-5200,165
 656,82;  689,450;58989,500;-4979,466
 657,40;  612,236;58967,754;-5667,768
 657,98;  624,022;60169,008;-5486,069
 658,56;  582,808;61114,258;-5717,371
 659,14;  598,594;61380,512;-5913,672
 659,72;  625,380;63381,766;-5916,973
 660,29;  588,166;62437,020;-5907,275
 660,87;  621,952;59738,273;-5212,576
 661,45;  607,738;58590,527;-5664,877
 662,03;  575,525;57513,781;-4971,179
 662,61;  554,311;54945,035;-5638,480
 663,19;  492,097;54618,289;-5657,782
 663,77;  536,883;53917,543;-5939,083
 664,35;  531,669;56689,793;-5887,384
 664,93;  545,455;62595,047;-4922,686
 665,51;  524,241;61993,301;-6033,987
 666,08;  467,027;57747,555;-5652,289
 666,66;  469,813;51859,809;-4400,590
 667,24;  524,599;49420,063;-5952,892
 667,82;  539,385;50250,316;-5849,193
 668,40;  525,172;50723,570;-5932,494
 668,98;  639,958;51952,824;-5097,796
 669,56;  661,744;57957,078;-6096,097
 670,13;  680,530;61797,328;-6222,398
 670,71;  608,316;59698,582;-5900,700
 671,29;  567,102;57209,836;-6139,001
 671,87;  503,888;56814,090;-6051,303
 672,45;  462,674;51822,344;-6050,604
 673,03;  506,460;52592,598;-4769,906
 673,60;  488,246;58431,852;-3503,207
 674,18;  551,033;63679,105;-5938,508
 674,76;  479,819;61159,359;-6226,810
 675,34;  498,605;56361,613;-5251,111
 675,92;  450,391;55284,863;-6338,413
 676,50;  469,177;55051,117;-6085,714
 677,07;  424,963;56952,371;-6095,016
 677,65;  420,749;56680,625;-6163,317
 678,23;  470,535;55997,879;-5057,618
 678,81;  478,321;58016,133;-5299,919
 679,38;  551,107;56669,387;-5969,221
 679,96;  524,894;53267,641;-5846,522
 680,54;  522,680;55171,895;-5308,824
 681,12;  481,466;52485,148;-6126,125
 681,70;  509,252;54786,398;-4413,427
 682,27;  490,038;54740,652;-5851,728
 682,85;  548,824;58265,906;-5991,029
 683,43;  533,610;64943,160;-6140,331
 684,01;  602,396;64943,414;-5172,632
 684,58;  656,182;64307,668;-5138,934
 685,16;  616,968;64236,922;-4494,235
 685,74;  611,755;62790,176;-3853,536
 686,32;  618,541;59009,430;-6012,838
 686,89;  552,327;59552,684;-6015,139
 687,47;  549,113;59534,934;-6076,441
 688,05;  537,899;56416,188;-6019,742
 688,63;  486,685;59626,441;-6102,043
 689,20;  496,471;62884,695;-5971,345
 689,78;  511,257;58427,949;-5530,646
 690,36;  507,043;54291,203;-5381,948
 690,93;  463,829;54968,457;-6355,249
 691,51;  623,615;61453,711;-6326,550
 692,09;  496,402;64946,965;-6223,852
 692,67;  536,188;64947,219;-6047,153
 693,24;  505,974;60968,469;-5803,455
 693,82;  485,760;59538,723;-6235,756
 694,40;  599,546;58049,977;-3570,058
 694,97;  532,332;57456,230;-6046,359
 695,55;  528,118;59820,484;-5464,660
 696,13;  564,904;61729,738;-4454,962
 696,70;  522,690;58594,992;-6029,263
 697,28;  551,477;59108,246;-6266,564
 697,86;  567,263;60837,500;-6030,866
 698,43;  597,049;58827,754;-6198,167
 699,01;  641,835;55595,004;-6051,469
 699,59;  666,621;55751,258;-6402,770
 700,16;  696,407;54174,512;-5257,072
 700,74;  722,193;57040,766;-5497,373
 701,32;  806,979;56440,020;-6233,674
 701,89; 1029,765;55792,273;-6049,976
 702,47; 1203,551;60296,527;-6466,277
 703,05; 1370,337;64951,781;-6309,579
 703,62; 1717,124;64952,035;-6227,880
 704,20; 1747,910;64952,285;-5306,182
 704,77; 1578,696;64952,539;-6118,483
 705,35; 1469,482;64213,793;-6006,784
 705,93; 1247,268;64327,047;-4922,085
 706,50; 1066,054;63796,301;-5267,387
 707,08;  815,840;60606,555;-5284,688
 707,65;  748,626;60046,809;-5620,990
 708,23;  636,412;64881,063;-5431,292
 708,81;  589,198;64954,316;-5019,593
 709,38;  521,984;64954,570;-5001,894
 709,96;  558,771;64954,820;-6025,195
 710,53;  575,557;64955,074;-6007,497
 711,11;  495,343;61503,328;-5752,798
 711,69;  489,129;61913,582;-3821,100
 712,26;  485,915;59012,836;-4642,401
 712,84;  353,701;63346,090;-5947,703
 713,41;  424,487;64411,344;-6153,004
 713,99;  418,273;64924,598;-6068,305
 714,56;  411,059;62057,852;-6326,607
 715,14;  430,845;60312,105;-6198,908
 715,71;  384,632;60246,355;-6210,209
 716,29;  404,418;62893,609;-6648,511
 716,86;  421,204;63573,863;-6510,813
 717,44;  398,990;63263,117;-6424,114
 718,02;  384,776;62110,371;-6462,415
 718,59;  327,562;61013,625;-5121,716
 719,17;  359,348;63488,879;-5649,018
 719,74;  404,134;62907,133;-5756,319
 720,32;  324,920;63502,387;-6451,621
 720,89;  393,706;64959,641;-6422,922
 721,47;  316,493;64959,891;-6388,224
 722,04;  376,279;64960,145;-5502,525
 722,62;  379,065;64252,398;-3979,826
 723,19;  380,851;60250,652;-4938,128
 723,77;  411,637;57638,906;-5673,429
 724,34;  380,423;60150,160;-5576,730
 724,92;  366,209;63789,414;-6558,032
 725,49;  365,995;64961,668;-5666,333
 726,07;  400,781;64961,922;-6491,635
 726,64;  409,567;64627,176;-6587,936
 727,21;  438,354;60249,426;-5627,238
 727,79;  345,140;63706,680;-6444,539
 728,36;  388,926;64962,934;-6722,840
 728,94;  425,712;64963,188;-6535,142
 729,51;  390,498;64963,441;-6365,443
 730,09;  406,284;64963,695;-5545,745
 730,66;  408,070;64963,949;-6358,046
 731,24;  403,856;64964,203;-6577,348
 731,81;  449,642;64964,457;-5151,649
 732,38;  394,428;64964,711;-6492,950
 732,96;  436,215;64964,961;-6263,251
 733,53;  445,001;60347,215;-6389,553
 734,11;  432,787;61575,469;-6617,854
 734,68;  473,573;64965,723;-6211,156
 735,26;  515,359;64965,977;-6389,458
 735,83;  430,145;64966,230;-6498,759
 736,40;  476,931;62243,484;-6516,060
 736,98;  534,717;61999,738;-6374,361
 737,55;  514,503;59236,992;-5827,663
 738,13;  475,289;57707,246;-5702,964
 738,70;  495,076;60991,496;-5529,266
 739,27;  491,862;62504,750;-6452,567
 739,85;  522,648;62745,004;-6283,869
 740,42;  532,434;64968,258;-6464,170
 740,99;  499,220;64968,512;-5618,471
 741,57;  575,006;64968,766;-4867,773
 742,14;  608,792;64969,020;-5349,074
 742,72;  572,578;64969,273;-4751,375
 743,29;  605,364;64969,527;-6563,677
 743,86;  568,150;64969,781;-6538,979
 744,44;  629,936;64970,031;-6113,280
 745,01;  610,723;64970,285;-5760,581
 745,58;  556,509;64970,539;-6259,882
 746,16;  581,295;64970,793;-6188,184
 746,73;  716,081;64971,047;-6479,485
 747,30;  654,867;61139,301;-6536,787
 747,88;  737,653;59621,555;-5621,088
 748,45;  670,439;64971,809;-5668,390
 749,02;  772,225;64972,063;-6384,691
 749,60;  668,011;62401,313;-6212,992
 750,17;  722,797;61766,566;-5269,294
 750,74;  770,584;62801,820;-6479,595
 751,31;  728,370;63306,074;-6347,896
 751,89;  757,156;64232,328;-6546,198
 752,46;  826,942;64973,582;-6282,500
 753,03;  768,728;64973,836;-6160,801
 753,61;  734,514;63755,090;-4858,102
 754,18;  709,300;64573,344;-6434,404
 754,75;  677,086;63888,598;-5191,705
 755,32;  691,872;60715,848;-6332,006
 755,90;  672,658;64975,102;-6493,308
 756,47;  605,445;64975,355;-4809,609
 757,04;  559,231;64975,609;-6457,911
 757,61;  563,017;64975,863;-5553,212
 758,19;  581,803;64976,117;-5253,514
 758,76;  516,589;64976,371;-6603,815
 759,33;  486,375;64976,625;-6664,116
 759,90;  485,161;64976,879;-5714,417
 760,48;  428,947;64977,133;-6778,719
 761,05;  476,733;64977,383;-6083,021
 761,62;  421,519;62082,637;-4888,322
 762,19;  400,305;58992,891;-6144,624
 762,77;  408,092;61730,145;-5963,925
 763,34;  349,878;64978,398;-6610,226
 763,91;  391,664;64978,652;-5818,527
 764,48;  371,450;64978,906;-6756,829
 765,05;  373,236;64979,160;-6543,130
 765,63;  465,022;63215,414;-6417,432
 766,20;  451,808;59753,668;-6004,733
 766,77;  476,594;57105,918;-5921,035
 767,34;  374,380;58807,172;-6640,336
 767,91;  303,166;59176,426;-6689,637
 768,49;  348,953;61368,680;-6772,939
 769,06;  363,739;64980,934;-5832,240
 769,63;  408,525;62272,188;-6636,542
 770,20;  405,311;59567,441;-5868,843
 770,77;  297,097;57921,695;-5645,145
 771,34;  269,883;60065,949;-6615,446
 771,91;  331,669;60549,203;-6102,747
 772,49;  347,455;58558,453;-6369,048
 773,06;  292,241;57687,707;-6203,350
 773,63;  314,027;60204,961;-6639,651
 774,20;  317,814;58197,215;-5918,953
 774,77;  366,600;56475,469;-6631,254
 775,34;  306,386;56707,723;-6214,556
 775,91;  387,172;57056,977;-6417,857
 776,49;  485,958;58787,230;-6590,158
 777,06;  545,744;60761,484;-6015,460
 777,63;  441,530;64224,738;-6367,761
 778,20;  359,316;62572,988;-6250,063
 778,77;  320,102;63316,242;-5763,364
 779,34;  296,888;64985,496;-6585,666
 779,91;  330,674;64985,750;-6534,967
 780,48;  296,461;59144,004;-5853,268
 781,05;  271,247;50716,258;-6586,570
 781,62;  294,033;52124,512;-6604,871
 782,20;  293,819;58813,766;-6500,172
 782,77;  292,605;64987,020;-6529,474
 783,34;  305,391;64052,273;-6522,775
 783,91;  297,177;61362,523;-6509,077
 784,48;  263,963;60480,777;-2126,378
 785,05;  343,749;59144,031;-6540,680
 785,62;  305,535;58221,285;-6452,981
 786,19;  297,322;58149,539;-5100,282
 786,76;  293,108;55130,793;-6677,583
 787,33;  310,894;56202,047;-6515,885
 787,90;  276,680;59491,301;-6591,187
 788,47;  275,466;60148,555;-5075,488
 789,04;  305,252;58988,809;-5763,790
 789,61;  289,038;58863,059;-5066,091
 790,18;  245,824;55747,313;-6561,392
 790,75;  270,610;50841,566;-6671,693
 791,32;  275,396;52056,820;-6577,995
 791,89;  292,183;55205,074;-6068,296
 792,46;  267,969;60806,328;-5763,598
 793,03;  302,755;62404,582;-6702,899
 793,60;  262,541;55699,836;-6440,201
 794,17;  287,327;52257,090;-5569,502
 794,74;  321,113;47273,344;-5886,803
 795,31;  276,899;50096,594;-6099,105
 795,88;  246,685;52579,848;-5572,406
 796,45;  190,471;53365,102;-6529,708
 797,02;  206,257;56004,355;-5046,009
 797,59;  249,044;57922,609;-6675,311
 798,16;  222,830;54563,863;-5861,612
 798,73;  199,616;53534,117;-6761,913
 799,30;  171,402;55088,371;-6611,214
 799,87;  143,188;55650,625;-6713,516
 800,44;  196,974;55353,875;-6729,817
 801,01;  197,760;56836,129;-6807,119
 801,58;  225,546;58477,383;-6537,420
 802,15;  227,332;52086,637;-6658,722
 802,72;  231,118;48849,891;-6694,023
 803,28;  153,904;52000,145;-6076,324
 803,85;  238,691;57179,398;-6728,626
 804,42;  236,477;55235,652;-5999,927
 804,99;  209,263;53752,906;-6539,229
 805,56;  219,049;52472,160;-6770,530
 806,13;  177,835;53387,410;-6075,832
 806,70;  194,621;52719,664;-6748,133
 807,27;  183,407;54477,918;-6672,434
 807,84;  155,193;52786,172;-6693,736
 808,41;  205,979;49728,426;-6022,037
 808,98;  159,765;50479,680;-5986,338
 809,54;  159,552;52469,934;-4958,640
 810,11;  168,338;48281,188;-6782,941
 810,68;  202,124;43021,441;-6680,243
 811,25;  138,910;41394,695;-6760,544
 811,82;  197,696;40374,945;-6886,846
 812,39;  195,482;37710,199;-3331,147
 812,96;  194,268;38779,453;-6767,448
 813,52;  215,054;41291,707;-6937,750
 814,09;  166,840;44522,961;-6766,051
 814,66;  130,626;50325,215;-6827,353
 815,23;  137,413;51240,469;-6669,654
 815,80;  158,199;50439,723;-5853,956
 816,37;  178,985;50917,977;-6801,257
 816,93;  144,771;49487,230;-6731,558
 817,50;  202,557;46790,480;-6102,859
 818,07;  201,343;46034,734;-6960,161
 818,64;  188,129;46919,988;-6856,462
 819,21;  223,915;46261,242;-6053,764
 819,77;  274,701;42742,496;-6571,065
 820,34;  223,487;42053,750;-6677,367
 820,91;  277,273;43276,004;-6469,668
 821,48;  244,060;43873,258;-6689,969
 822,05;  287,846;45571,512;-5875,271
 822,61;  211,632;44296,766;-5631,572
 823,18;  247,418;41860,016;-6620,874
 823,75;  192,204;42585,270;-6957,175
 824,32;  181,990;45286,523;-6923,477
 824,88;  217,776;45073,777;-6882,778
 825,45;  171,562;44018,031;-6899,079
 826,02;  201,348;43798,285;-6643,380
 826,59;  163,134;43974,539;-6639,682
 827,15;  179,921;46077,793;-6906,983
 827,72;  187,707;49519,047;-6723,285
 828,29;  142,493;51523,301;-6895,586
 828,86;  157,279;48827,551;-6791,888
 829,42;  182,065;40797,805;-6812,189
 829,99;  208,851;36802,059;-6647,490
 830,56;  184,637;36252,313;-6869,792
 831,13;  145,423;37220,566;-6060,093
 831,69;  159,209;38022,820;-6506,395
 832,26;  154,995;38832,074;-5062,696
 832,83;  132,782;40408,328;-5452,998
 833,39;  170,568;40187,582;-6904,299
 833,96;  206,354;39167,836;-6687,600
 834,53;  145,140;40039,086;-6928,902
 835,10;   86,926;39930,340;-6529,203
 835,66;  103,712;38972,594;-6920,504
 836,23;  126,498;39801,848;-6803,806
 836,80;  104,284;39428,102;-6790,107
 837,36;  132,070;37086,355;-6810,409
 837,93;  146,856;34475,609;-6902,710
 838,50;  182,643;35084,863;-6789,012
 839,06;  140,429;37684,117;-6288,313
 839,63;  135,215;37191,371;-6895,614
 840,19;  161,001;35132,621;-6607,916
 840,76;  121,787;35364,875;-6404,217
 841,33;  119,573;35892,129;-6509,519
 841,89;  118,359;36779,383;-6949,820
 842,46;   92,145;37103,637;-6751,122
 843,03;  160,931;35389,891;-6089,423
 843,59;  108,717;34224,145;-6403,724
 844,16;   97,504;34994,398;-6181,025
 844,73;  181,290;34249,652;-6067,327
 845,29;  160,076;32937,902;-5695,628
 845,86;  151,862;35699,156;-6800,930
 846,42;   59,648;36940,410;-7004,231
 846,99;  120,434;36477,664;-6967,533
 847,56;  112,220;36265,918;-5840,834
 848,12;   57,006;36240,172;-6745,135
 848,69;   84,792;35710,426;-6715,437
 849,25;   80,578;34401,680;-6845,738
 849,82;  115,364;34081,934;-3247,040
 850,38;  117,151;35064,188;-6840,341
 850,95;   74,937;32489,439;-6324,643
 851,52;  132,723;32520,693;-6565,944
 852,08;   82,509;32548,947;-6691,245
 852,65;   56,295;30323,199;-7005,546
 853,21;   31,081;27698,453;-6958,848
 853,78;   95,867;27362,707;-6363,149
 854,34;   74,653;28860,961;-6871,451
 854,91;   43,439;29081,215;-5086,752
 855,47;   90,225;29942,467;-5108,054
 856,04;  185,012;32027,721;-6746,355
 856,60;   69,798;33961,973;-6104,656
 857,17;  124,584;34979,227;-6840,958
 857,73;   75,370;33553,480;-6811,259
 858,30;   92,156;32532,734;-6985,561
 858,86;   91,942;31110,988;-5926,862
 859,43;   99,728;31430,242;-6226,164
 859,99;   63,514;32011,496;-6852,465
 860,56;  104,300;33126,750;-6903,766
 861,12;   61,086;35190,004;-6737,068
 861,69;   88,873;33669,258;-5924,369
 862,25;  112,659;34731,508;-6821,670
 862,82;  122,445;34419,762;-5972,972
 863,38;  120,231;31196,018;-6843,273
 863,95;  143,017;29305,270;-6239,575
 864,51;  178,803;30403,523;-5287,876
 865,08;  126,589;29284,777;-6090,178
 865,64;  161,375;26795,031;-7018,479
 866,21;  114,161;26131,285;-6745,780
 866,77;  156,947;26051,537;-5552,082
 867,34;  144,734;25734,791;-6672,383
 867,90;  120,520;24632,045;-6303,685
 868,46;  130,306;23835,299;-6041,986
 869,03;  128,092;24389,551;-6929,288
 869,59;  125,878;26353,805;-6884,589
 870,16;  107,664;27647,059;-6052,890
 870,72;  121,450;30060,313;-6657,191
 871,28;   98,236;32915,566;-5992,493
 871,85;  119,022;33142,820;-6907,794
 872,41;   81,808;31569,072;-6004,096
 872,98;  100,594;32738,326;-6050,397
 873,54;  103,381;33876,578;-5920,699
 874,10;  151,167;32768,832;-5876,000
 874,67;  106,167;32987,832;-6904,000
 875,23;   51,167;31068,834;-7032,000
 875,80;   97,167;28009,834;-6641,000
 876,36;   74,167;25058,834;-6642,000
 876,92;  108,167;22832,834;-6189,000
 877,49;  122,167;23923,834;-6517,000
 878,05;  116,167;24896,834;-6797,000
 878,61;  105,167;26938,834;-6812,000
 879,18;   48,167;27553,834;-6252,000
 879,74;  125,167;28076,834;-6720,000
 880,30;   80,167;28679,834;-5926,000
 880,87;   35,167;28852,834;-6326,000
 881,43;   73,167;29533,834;-6871,000
 881,99;   63,167;27306,834;-6879,000
 882,56;   83,167;27610,834;-6661,000
 883,12;   51,167;29049,834;-5740,000
 883,68;   68,167;29120,834;-6518,000
 884,25;   77,167;28300,834;-6949,000
 884,81;   72,167;26343,834;-6701,000
 885,37;   64,167;24221,834;-6786,000
 885,94;   68,167;22940,834;-6851,000
 886,50;  103,167;23098,834;-6886,000
 887,06;   63,167;24358,834;-6796,000
 887,62;  105,167;25019,834;-6866,000
 888,19;   67,167;25774,834;-5986,000
 888,75;   85,167;26542,834;-6821,000
 889,31;   86,167;29043,834;-6778,000
 889,87;  122,167;30537,834;-6723,000
 890,44;  135,167;30349,834;-6696,000
 891,00;   72,167;28757,834;-6786,000
 891,56;   95,167;26457,834;-6998,000
 892,12;  152,167;24463,834;-6754,000
 892,69;  112,167;25310,834;-6373,000
 893,25;  130,167;28798,834;-6877,000
 893,81;  149,167;31774,834;-6696,000
 894,37;  170,167;31330,834;-6342,000
 894,94;  113,167;28713,834;-6772,000
 895,50;  163,167;26035,834; -212,000
 896,06;  238,167;24749,834;-6810,000
 896,62;  235,167;23405,834;-6707,000
 897,18;  282,167;24661,834;-6518,000
 897,75;  229,167;27406,834;-6895,000
 898,31;  312,167;27887,834;-6849,000
 898,87;  274,167;26274,834;-6860,000
 899,43;  266,167;25164,834;-6469,000
 899,99;  256,167;26592,834;-6866,000
 900,56;  293,167;25515,834;-6791,000
 901,12;  239,167;24875,834;-6890,000
 901,68;  334,167;27903,834;-6267,000
 902,24;  304,167;31800,834;-5930,000
 902,80;  323,167;32652,834;-6794,000
 903,36;  479,167;31893,834;-6691,000
 903,93;  792,167;32139,834;-6646,000
 904,49; 1734,167;32761,834;-6913,000
 905,05; 4841,167;30952,834;-6732,000
 905,61;11792,167;28208,834;-6832,000
 906,17;21840,166;28086,834;-6901,000
 906,73;33327,168;25975,834;-5380,000
 907,29;43450,168;24960,834;-6910,000
 907,86;49939,168;25118,834;-6827,000
 908,42;50313,168;28092,834;-6795,000
 908,98;40211,168;31123,834;-5908,000
 909,54;22192,166;38813,832;-6885,000
 910,10; 7194,167;48220,832;-6634,000
 910,66; 1642,167;57581,832;-6781,000
 911,22;  657,167;65027,832;-6761,000
 911,78;  482,167;62593,832;-6841,000
 912,34;  365,167;53256,832;-6080,000
 912,90;  326,167;44610,832;-5232,000
 913,46;  284,167;37052,832;-6876,000
 914,03;  227,167;30620,834;-5746,000
 914,59;  236,167;27452,834;-6682,000
 915,15;  181,167;24908,834;-6891,000
 915,71;  132,167;24217,834;-6863,000
 916,27;  165,167;23800,834;-6723,000
 916,83;  128,167;23006,834;-5824,000
 917,39;  159,167;21742,834;-3512,000
 917,95;  129,167;20224,834;-6009,000
 918,51;   91,167;19972,834;-6583,000
 919,07;  111,167;21780,834;-6791,000
 919,63;   39,167;23295,834;-6661,000
 920,19;   62,167;23935,834;-6865,000
 920,75;  107,167;23112,834;-6640,000
 921,31;   36,167;21484,834;-4837,000
 921,87;   82,167;20216,834;-6845,000
 922,43;   86,167;18019,834;-5626,000
 922,99;  128,167;17321,834;-6706,000
 923,55;  108,167;18674,834;-6655,000
 924,11;   89,167;19094,834;-6976,000
 924,67;   74,167;19310,834;-6962,000
 925,23;   74,167;19485,834;-6778,000
 925,79;   83,167;20122,834;-6710,000
 926,35;   87,167;20219,834;-6573,000
 926,91;   99,167;19401,834;-6909,000
 927,47;   56,167;19367,834;-6660,000
 928,03;  102,167;20294,834;-6786,000
 928,59;   96,167;20503,834;-6678,000
 929,15;  140,167;20781,834;-6792,000
 929,71;  134,167;22016,834;-6840,000
 930,27;  109,167;23587,834;-6537,000
 930,82;  106,167;25573,834;-6728,000
 931,38;   57,167;24317,834;-5852,000
 931,94;   71,167;22672,834;-6843,000
 932,50;   68,167;21252,834;-6481,000
 933,06;   69,167;20895,834;-6768,000
 933,62;   86,167;21092,834;-6443,000
 934,18;   57,167;20632,834;-6727,000
 934,74;   60,167;21320,834;-6709,000
 935,30;   73,167;22030,834;-6484,000
 935,86;   75,167;21213,834;-6505,000
 936,42;   66,167;20702,834;-6873,000
 936,97;   55,167;21656,834;-6563,000
 937,53;   67,167;20552,834;-6826,000
 938,09;   91,167;21087,834;  123,000
 938,65;   56,167;21186,834;-6268,000
 939,21;   80,167;20179,834;-6708,000
 939,77;   78,167;18946,834;-6213,000
 940,33;   60,167;18602,834;-6748,000
 940,88;   46,167;19429,834;-5908,000
 941,44;   85,167;21301,834;-6983,000
 942,00;   57,167;23225,834;-6697,000
 942,56;   80,167;24231,834;-6604,000
 943,12;   35,167;23427,834;-5907,000
 943,68;   50,167;22950,834;-5679,000
 944,23;   31,167;23124,834;-6749,000
 944,79;   43,167;22674,834;-6102,000
 945,35;   41,167;20741,834;-6599,000
 945,91;   36,167;19519,834;-6767,000
 946,47;   92,167;19827,834;-3353,000
 947,03;   20,167;19896,834;-6850,000
 947,58;   54,167;19661,834;-6840,000
 948,14;   83,167;20790,834;-5897,000
 948,70;   51,167;19573,834;-5855,000
 949,26;   67,167;18881,834;-6616,000
 949,81;   21,167;18342,834;-6644,000
 950,37;   20,167;18686,834;-6695,000
 950,93;   10,167;17993,834;-6224,000
 951,49;   62,167;17568,834;-6057,000
 952,05;   20,167;17926,834;-6571,000
 952,60;    5,167;17299,834;-6951,000
 953,16;    7,167;16933,834;-5783,000
 953,72;   38,167;15628,833;-5813,000
 954,27;   16,167;15524,833;-6566,000
 954,83;    7,167;15317,833;-6703,000
 955,39;   -4,833;14917,833;-6691,000
 955,95;    6,167;14456,833;-6849,000
 956,50;    2,167;14272,833;-6698,000
 957,06;   17,167;14126,833;-5922,000
 957,62;    6,167;13780,833;-6559,000
 958,18;   26,167;13872,833;-6741,000
 958,73;   30,167;13326,833;-6820,000
 959,29;    4,167;13518,833;-6106,000
 959,85;    3,167;14785,833;-6864,000
 960,40;   66,167;16746,834;-4263,000
 960,96;   58,167;16386,834;-6738,000
 961,52;   16,167;14755,833;-6643,000
 962,07;   15,167;13711,833;-6742,000
 962,63;   -9,833;13208,833;-6723,000
 963,19;  -55,833;13435,833;-5779,000
 963,74;   54,167;13877,833;-6582,000
 964,30;   45,167;14475,833;-6595,000
 964,86;   26,167;14281,833;-6484,000
 965,41;   68,167;14290,833;-6705,000
 965,97;  -24,833;14185,833;-6569,000
 966,53;   36,167;14792,833;-6750,000
 967,08;   49,167;15311,833;-6611,000
 967,64;   68,167;15082,833;-6705,000
 968,19;   55,167;14471,833;-6684,000
 968,75;   36,167;14662,833;-6566,000
 969,31;   27,167;14880,833;-5626,000
 969,86;   33,167;14995,833;-6505,000
 970,42;   37,167;13195,833;-6620,000
 970,97;   90,167;11567,833;-6437,000
 971,53;   27,167;11625,833;-6490,000
 972,09;   24,167;12998,833;-6646,000
 972,64;   49,167;13523,833;-5812,000
 973,20;   51,167;13815,833;-6599,000
 973,75;   42,167;14605,833;-5760,000
 974,31;  100,167;14826,833;-6578,000
 974,87;   61,167;14921,833;-6674,000
 975,42;   33,167;14507,833;-6727,000
 975,98;   40,167;13201,833;-6651,000
 976,53;   82,167;12100,833;-6555,000
 977,09;   31,167;11353,833;-4624,000
 977,64;   47,167;11164,833;-6532,000
 978,20;   63,167;10649,833;-6585,000
 978,75;    7,167;10482,833;-6429,000
 979,31;   40,167;10950,833;-6513,000
 979,86;   50,167;12220,833;-6739,000
 980,42;   10,167;12828,833;-5813,000
 980,97;   52,167;13290,833;-6642,000
 981,53;   94,167;14285,833;-6636,000
 982,08;   27,167;13803,833;-5046,000
 982,64;   64,167;12278,833;-6237,000
 983,19;   36,167;11308,833;-6760,000
 983,75;   31,167;10993,833;-6576,000
 984,30;   72,167;10430,833;-5581,000
 984,86;   50,167; 9867,833;-5898,000
 985,41;   49,167; 9457,833;-6634,000
 985,97;   71,167; 9632,833;-4797,000
 986,52;   72,167; 9894,833;-5853,000
 987,08;    7,167; 9953,833;-6174,000
 987,63;   42,167;10165,833;-5608,000
 988,19;   81,167;11252,833;-6266,000
 988,74;    6,167;11710,833;-5682,000
 989,30;   31,167;11529,833;-6568,000
 989,85;  102,167;11470,833; -276,000
 990,40;   52,167;11314,833;-6617,000
 990,96;  101,167;11060,833;-6482,000
 991,51;   46,167;11149,833;-6578,000
 992,07;   28,167;10742,833;-6605,000
 992,62;   56,167;10285,833;-6519,000
 993,18;   57,167;10035,833;-6504,000
 993,73;   53,167; 9986,833;-6440,000
 994,28;   92,167; 9800,833;-6464,000
 994,84;   53,167; 9019,833;-6240,000
 995,39;   63,167; 8474,833;-2971,000
 995,94;  109,167; 7953,833;-5673,000
 996,50;   45,167; 7647,833;-6543,000
 997,05;   71,167; 7872,833;-3481,000
 997,61;   71,167; 8363,833;-6489,000
 998,16;   42,167; 8581,833;-6555,000
 998,71;   95,167; 8850,833;-6340,000
 999,27;   35,167; 9115,833;-5223,000
 999,82;   80,167; 8706,833;-4778,000
1000,37;   36,167; 8661,833;-6520,000
1000,93;   68,167; 8920,833;-6107,000
1001,48;   92,167; 8799,833;-6543,000
1002,03;   26,167; 8477,833;-6469,000
1002,59;   67,167; 8715,833;-5972,000
1003,14;   27,167; 8758,833;-6113,000
1003,69;   45,167; 8484,833;-6513,000
1004,25;   85,167; 8299,833;-6507,000
1004,80;  112,167; 8322,833;-6266,000
1005,35;   22,167; 8313,833;-6361,000
1005,91;   72,167; 8515,833;-6558,000
1006,46;   69,167; 8426,833;-6084,000
1007,01;  105,167; 8227,833;-5479,000
1007,56;   75,167; 8599,833;-6440,000
1008,12;   88,167; 8342,833;-6178,000
1008,67;   89,167; 7867,833;-6312,000
1009,22;   89,167; 7509,833;-6481,000
1009,78;   63,167; 7205,833;-6163,000
1010,33;   46,167; 6649,833;-6443,000
1010,88;   73,167; 6413,833;-5618,000
1011,43;   85,167; 5995,833;-6433,000
1011,99;  115,167; 5972,833;-6198,000
1012,54;   86,167; 6320,833;-6387,000
1013,09;  118,167; 6048,833;-6299,000
1013,64;   89,167; 5802,833;-6362,000
1014,19;  107,167; 5823,833;-6442,000
1014,75;  130,167; 5928,833;-6408,000
1015,30;  142,167; 6394,833;-6425,000
1015,85;  126,167; 6370,833;-6367,000
1016,40;  127,167; 6247,833;-5436,000
1016,96;  166,167; 6235,833;-6268,000
1017,51;  130,167; 6150,833;-6351,000
1018,06;  132,167; 6095,833;-6310,000
1018,61;  136,167; 5695,833;-6665,000
1019,16;  134,167; 5609,833;-6697,000
1019,71;  242,167; 5663,833;-6373,000
1020,27;  136,167; 5567,833;-6353,000
1020,82;  205,167; 5375,833;-3700,000
1021,37;  179,167; 5405,833;-4798,000
1021,92;  174,167; 5984,833;-6454,000
1022,47;  182,167; 5965,833;-6548,000
1023,02;  201,167; 5463,833;-6512,000
1023,58;  183,167; 5045,833;-6573,000
1024,13;  284,167; 4730,833;-6258,000
1024,68;  182,167; 4434,833;-6298,000
1025,23;  266,167; 4324,833;-5525,000
1025,78;  263,167; 4613,833;-6475,000
1026,33;  256,167; 4932,833;-5510,000
1026,88;  301,167; 4843,833;-6236,000
1027,43;  302,167; 5167,833;-6276,000
1027,99;  324,167; 5134,833;-6002,000
1028,54;  348,167; 4732,833;-6395,000
1029,09;  389,167; 4106,833;-2478,000
1029,64;  445,167; 3919,833;-6303,000
1030,19;  594,167; 4147,833;-3821,000
1030,74;  603,167; 4243,833;-5134,000
1031,29;  653,167; 4284,833;-4765,000
1031,84;  739,167; 4491,833;-6300,000
1032,39;  781,167; 4563,833;-5403,000
1032,94;  910,167; 4617,833;-4326,000
1033,49; 1004,167; 4361,833;-5476,000
1034,04; 1107,167; 4236,833;-6312,000
1034,59; 1330,167; 4205,833;-6507,000
1035,14; 1291,167; 4117,833;-6145,000
1035,69; 1384,167; 4318,833;-6224,000
1036,24; 1507,167; 4104,833;-4477,000
1036,80; 1766,167; 3986,833;-5453,000
1037,35; 2008,167; 4138,833;-6347,000
1037,90; 2162,167; 4172,833;-6274,000
1038,45; 2275,167; 4201,833;-6419,000
1039,00; 2470,167; 4340,833;-5490,000
1039,55; 2536,167; 4229,833;-6284,000
1040,10; 2821,167; 3977,833;-5615,000
1040,65; 2892,167; 3916,833;-5576,000
1041,20; 3070,167; 3850,833;-6325,000
1041,75; 3236,167; 4030,833;-4522,000
1042,30; 3363,167; 4164,833;-3585,000
1042,84; 3603,167; 4338,833;-4439,000
1043,39; 3845,167; 4248,833;-6313,000
1043,94; 4084,167; 4175,833;-5342,000
1044,49; 4487,167; 3887,833;-6246,000
1045,04; 4938,167; 3710,833;-5800,000
1045,59; 5226,167; 3809,833;-6299,000
1046,14; 6039,167; 3732,833;-6392,000
1046,69; 6709,167; 3591,833;-6294,000
1047,24; 7570,167; 3623,833;-5510,000
1047,79; 8522,167; 3737,833;-6139,000
1048,34; 9388,167; 4002,833;-5961,000
1048,89;10468,167; 3948,833;-6259,000
1049,44;11729,167; 3935,833;-5172,000
1049,99;13420,167; 3855,833;-4844,000
1050,54;15572,167; 3876,833;-6249,000
1051,08;19515,166; 3961,833;-6178,000
1051,63;28279,166; 4050,833;-5285,000
1052,18;43755,168; 5051,833;-6127,000
1052,73;65153,168; 7151,833;-6173,000
1053,28;65153,168;10516,833;-6386,000
1053,83;65153,168;15224,833;-6214,000
1054,38;65153,168;19203,834;-6254,000
1054,93;65153,168;21243,834;-6285,000
1055,47;65153,168;23825,834;-5328,000
1056,02;65153,168;26212,834;-5832,000
1056,57;65153,168;27830,834;-6198,000
1057,12;65153,168;30497,834;-6378,000
1057,67;65153,168;33805,832;-6078,000
1058,22;65153,168;36084,832;-6313,000
1058,76;65153,168;38542,832;-6093,000
1059,31;65153,168;44129,832;-3514,000
1059,86;65153,168;48778,832;-6204,000
1060,41;65153,168;49718,832;-6152,000
1060,96;65153,168;51396,832;-6226,000
1061,51;65153,168;53649,832;-5344,000
1062,05;65153,168;54082,832;-6122,000
1062,60;65153,168;50555,832;-6061,000
1063,15;65153,168;45221,832;-6149,000
1063,70;65153,168;41550,832;-6250,000
1064,24;65153,168;43676,832;-6169,000
1064,79;65153,168;45461,832;-6144,000
1065,34;65153,168;43989,832;-6064,000
1065,89;65153,168;41776,832;-6202,000
1066,44;65153,168;37631,832;-6120,000
1066,98;65153,168;32612,834;-6224,000
1067,53;65153,168;30790,834;-5953,000
1068,08;65153,168;30368,834;-4845,000
1068,63;65153,168;27618,834;-6096,000
1069,17;65153,168;24647,834;-5893,000
1069,72;65153,168;22350,834;-5857,000
1070,27;65153,168;20529,834;-6040,000
1070,81;65153,168;20388,834;-5996,000
1071,36;65153,168;20367,834;-3883,000
1071,91;65153,168;18745,834;  966,000
1072,46;65153,168;16791,834;-5058,000
1073,00;65153,168;14646,833;-5239,000
1073,55;65153,168;11404,833;-5935,000
1074,10;65153,168; 7803,833;-5981,000
1074,64;42115,168; 5240,833;-5860,000
1075,19;27328,166; 3535,833;-4958,000
1075,74;19542,166; 2551,833;-6091,000
1076,28;15562,167; 2312,833;-6075,000
1076,83;12499,167; 1951,833;-5286,000
1077,38;10338,167; 1820,833;-5653,000
1077,92; 8809,167; 1783,833;-6332,000
1078,47; 7572,167; 1629,833;-5507,000
1079,02; 6422,167; 1578,833;-5959,000
1079,56; 5586,167; 1557,833;-5328,000
1080,11; 4916,167; 1304,833;-6094,000
1080,65; 4275,167; 1241,833;-5039,000
1081,20; 3751,167; 1186,833;-6151,000
1081,75; 3456,167; 1125,833;-6039,000
1082,29; 3096,167; 1128,833; -139,000
1082,84; 2715,167; 1184,833;-2678,000
1083,39; 2426,167; 1294,833;-5061,000
1083,93; 2276,167; 1335,833;-5025,000
1084,48; 2187,167; 1196,833;-5961,000
1085,02; 1941,167; 1082,833;-5783,000
1085,57; 1866,167; 1074,833;-5994,000
1086,11; 1662,167; 1079,833;-5968,000
1086,66; 1561,167;  925,833;-5584,000
1087,21; 1526,167; 1060,833;-5802,000
1087,75; 1379,167;  939,833;-6125,000
1088,30; 1204,167;  815,833;-5040,000
1088,84; 1134,167;  783,833;-5963,000
1089,39;  993,167;  656,833;-5965,000
1089,93;  950,167;  664,833;-6100,000
1090,48;  830,167;  649,833;-4394,000
1091,02;  809,167;  733,833;-5181,000
1091,57;  734,167;  629,833;-5479,000
1092,11;  785,167;  642,833;-4094,000
1092,66;  732,167;  624,833;-6031,000
1093,20;  636,167;  580,833;-5180,000
1093,75;  597,167;  566,833;-4998,000
1094,29;  586,167;  486,833;-4979,000
1094,84;  569,167;  525,833;-5890,000
1095,38;  535,167;  528,833;-5097,000
1095,93;  485,167;  584,833;-5981,000
1096,47;  417,167;  615,833;-5612,000
1097,02;  474,167;  587,833;-4985,000
1097,56;  403,167;  614,833;-5772,000
1098,11;  384,167;  552,833;-5774,000
1098,65;  405,167;  508,833;-5992,000
1099,20;  325,167;  577,833;-5935,000
1099,74;  308,167;  487,833;-6002,000
1100,29;  300,167;  513,833;-4879,000
1100,83;  273,167;  496,833;-5934,000

