
Integration time [ms]:   0,030
Averaging Nr. [scans]: 1
Smoothing Nr. [pixels]: 0
Data measured with spectrometer [name]: 1703254U1
Wave   ;Sample   ;Dark     ;Reference;Scope
[nm]   ;[counts] ;[counts] ;[counts] 

 190,08;  -95,868; -370,119;11982,743
 190,69;   11,077; -359,404;11603,049
 191,29;   20,599; -311,651;11479,965
 191,90;    0,205; -365,508;11440,717
 192,50;  -27,107; -379,511;10355,099
 193,10;  -25,051; -446,299;11244,381
 193,71;   52,055; -367,888; 9821,736
 194,31;    1,438; -399,273; 9436,327
 194,91;   59,438; -382,273; 9291,327
 195,52;  -19,212; -338,386;10555,949
 196,12;   73,116; -397,056; 8671,847
 196,72;   44,010; -386,394; 8220,904
 197,32;   39,055; -375,888; 8251,736
 197,93;   80,521; -360,420; 8700,957
 198,53;   41,643; -383,145; 7601,797
 199,13;   74,888; -397,132; 8091,270
 199,74;   44,454; -366,410; 7263,813
 200,34;   99,043; -388,667; 7832,874
 200,94;   66,471; -436,547; 6941,297
 201,55;   40,077; -406,404; 7119,049
 202,15;  123,016; -375,773; 6404,732
 202,75;   90,882; -373,217; 6097,647
 203,36;  138,354; -338,664; 6822,492
 203,96;   42,849; -357,943; 6332,678
 204,56;  106,977; -355,657;10275,729
 205,16;  118,693; -363,018; 5478,458
 205,77;  114,238; -360,244; 4767,892
 206,37;   84,849; -409,017; 5556,267
 206,97;   84,260; -363,760; 5129,205
 207,58;  145,621; -364,166; 5927,278
 208,18;   90,199; -337,129; 5129,889
 208,78;   80,732; -404,134; 5295,461
 209,38;  115,988; -469,415; 4958,385
 209,99;  160,093; -356,540; 3837,534
 210,59;  120,510; -361,662; 3890,301
 211,19;  107,249; -364,538; 3938,343
 211,79;  114,321; -366,927; 4499,316
 212,40;   53,088; -373,625; 3368,911
 213,00;  113,743; -388,891; 3903,118
 213,60;   87,677; -386,882; 2992,972
 214,20;  112,638; -401,230; 3081,175
 214,81;   73,710; -422,618; 2884,148
 215,41;   53,427; -376,979; 3235,877
 216,01;   70,110; -373,067; 3109,636
 216,61;   65,543; -367,399; 2814,476
 217,22;   75,544; -381,326; 2358,888
 217,82;   28,083; -325,173; 2262,495
 218,42;   40,927; -383,711; 2389,480
 219,02;   14,388; -288,327; 3432,079
 219,63;   19,538; -357,483; 2044,854
 220,23;   48,266; -366,602; 2425,239
 220,83;   53,060; -395,730; 1901,770
 221,43;   -6,095; -393,195; 1850,167
 222,03;   38,160; -348,940; 2326,296
 222,64;   39,366; -380,348; 1769,560
 223,24;   83,671; -298,966; 1625,350
 223,84;   18,788; -376,313; 2637,361
 224,44;   73,483; -316,695; 2381,571
 225,05;   37,071; -313,952; 1440,632
 225,65;   35,266; -301,065; 1227,445
 226,25;    0,138; -364,961; 1139,777
 226,85;   39,099; -294,309;  995,979
 227,45;    5,394; -335,706; 1083,907
 228,06;   29,188; -365,834; 1945,438
 228,66;   21,716; -349,460; 4049,182
 229,26;   20,894; -313,438; 1131,510
 229,86;  -47,012; -396,342; 1760,797
 230,46;    6,060; -358,194;  891,976
 231,06;   -6,729; -320,444;  757,273
 231,67;  -23,095; -346,732; 1228,961
 232,27;  -64,456; -343,789;  778,094
 232,87;  -24,323; -308,808;  526,384
 233,47;  -68,517; -321,158;  525,777
 234,07;  -16,773; -268,486; 9912,235
 234,67;  -17,756; -291,013;  672,338
 235,28;  -52,517; -319,158;   65,777
 235,88;  -45,239; -316,882;  285,426
 236,48;  -26,567; -350,821;  165,911
 237,08;   -6,028; -267,669;  448,518
 237,68;  -98,351; -369,378; -267,552
 238,28;  -71,056; -304,774; -106,624
 238,89;  -34,345; -212,756; -205,723
 239,49;  -56,689; -282,023; 1280,483
 240,09;  -44,273; -284,608; -190,544
 240,69;  -85,884; -251,373; -319,124
 241,29;  -65,006; -289,647;  651,036
 241,89;  -44,428; -330,147; -260,559
 242,49;  -15,000; -248,490; -358,930
 243,10;  -44,623; -201,496; 3664,834
 243,70;  -63,000; -284,490;  239,070
 244,30;  -39,089; -275,501; -708,594
 244,90;  -72,784; -188,582; -568,598
 245,50;  -22,173; -177,355; 3274,777
 246,10;  -36,917; -307,636; -831,300
 246,70;  -74,356; -300,999;   17,620
 247,30;  -40,384; -251,641;  326,273
 247,91;  -65,189; -208,218; 5781,292
 248,51;  -42,123; -270,228; -806,563
 249,11;  -33,334; -239,514;  417,933
 249,71;  -45,289; -303,008; -667,235
 250,31;   15,622; -265,483; -567,693
 250,91;   18,066; -238,500;   75,216
 251,51;  -47,812; -199,225; -822,945
 252,11;  -11,706; -239,813;  367,410
 252,71;  -61,628; -269,117;-1080,994
 253,31;  -48,550; -222,348; 3228,013
 253,91;  -24,317; -236,578; -676,170
 254,52;  -19,928; -237,342;-1063,750
 255,12;  -15,378; -293,483;-1104,693
 255,72;   43,738; -206,366;  557,112
 256,32;  -34,184; -242,061; -966,674
 256,92;   18,883; -190,070;-1147,529
 257,52;   17,977; -173,974; -883,243
 258,12;  -26,673; -201,087;  -91,621
 258,72;  -38,395; -210,810;-1232,972
 259,32;   19,694; -211,335;-1169,514
 259,92;    7,161; -199,330;-1343,086
 260,52;   20,133; -192,973;-1077,433
 261,12;  -39,028; -202,059; -662,865
 261,72;  -10,423; -238,452;-1312,319
 262,32;   32,505; -215,600;-1561,498
 262,92;  -69,934; -238,426;  405,627
 263,53;   -6,745; -189,698;-1277,594
 264,13;  -24,445; -262,937; -268,632
 264,73;  -30,634; -217,202;-1694,617
 265,33;   -8,595; -188,317;-1708,613
 265,93;   12,650; -147,304;-1345,140
 266,53;  -23,784; -161,046;-1544,392
 267,13;  -48,745; -139,161; -857,388
 267,73;   18,566; -185,158;  270,230
 268,33;  -51,395; -166,274;-1788,766
 268,93;  -12,678; -213,708;-1702,449
 269,53;  -30,100; -204,670; -644,839
 270,13;   30,850; -201,797;-1810,499
 270,73;  -39,639; -245,287;-1891,239
 271,33;   10,122; -200,678;-1778,884
 271,93;  -12,734; -242,919;-1867,732
 272,53;   16,517; -121,748;    8,776
 273,13;   -3,723; -146,677;-1117,075
 273,73;  -34,950; -119,753;-1955,652
 274,33;   -3,089; -148,428;-2041,182
 274,93;  -24,050; -188,007;-1843,972
 275,53;   44,517;  -68,748;-1881,224
 276,13;  -33,006; -121,965;-2261,935
 276,73;  -60,711; -118,361;-1570,007
 277,33;  -25,028; -179,522;-1926,659
 277,93;   -1,034; -213,680;-1864,693
 278,53;    4,661; -194,526;-2112,278
 279,13;   18,528; -125,506;-2152,568
 279,73;   -7,695; -140,498;-1388,522
 280,33;   31,739; -154,756;-2179,270
 280,93;   70,194; -105,994;-2049,499
 281,53;   -5,200; -147,387;-2252,953
 282,13;    2,133; -127,363;-2193,816
 282,73;  -32,533; -156,875; -385,885
 283,33;  -19,222; -137,872;-2307,266
 283,92;   45,328;  -74,477;-2028,003
 284,52;    8,233;  -94,109;-2365,496
 285,12;   14,816; -138,524;-1425,469
 285,72;   32,289; -126,898;-1041,213
 286,32;   29,567;  -55,622;-1313,564
 286,92;   18,128; -163,521;-2376,850
 287,52;  102,283;  -89,519;-2170,041
 288,12;   72,117;  -97,763;-2542,507
 288,72;   96,000; -106,417;-1625,518
 289,32;   64,950;  -54,470; 1692,233
 289,92;   56,916; -106,270;-2344,148
 290,52;  -16,155;  -91,809;-2485,710
 291,12;   77,039;  -57,996;-1570,308
 291,72;   85,328;  -74,477;-1590,003
 292,32;  121,744;  -83,135;-2372,442
 292,92;   96,605;   -2,737;-2481,560
 293,51;   90,789;  -37,093;-2532,404
 294,11;   92,144;  -42,121;-1681,160
 294,71;  167,239;   -7,488;-2695,667
 295,31;   84,983;  -24,743;-1755,797
 295,91;  193,939;   46,751;-2713,629
 296,51;  182,000;   62,656;-1776,106
 297,11;  217,483;   35,061;-2900,988
 297,71;  152,089;    4,131;-2726,648
 298,31;  290,916;   38,730;-2329,148
 298,91;  250,405;   74,756;-2483,202
 299,50;  297,122;   41,395;-2689,473
 300,10;  330,922;  145,887;-2706,114
 300,70;  297,794;   95,528;-2492,576
 301,30;  372,672;   89,253;-2855,415
 301,90;  426,205;   96,248;-2004,843
 302,50;  516,444;  163,640;-2515,198
 303,10;  758,622;  124,126;-2530,076
 303,70;  814,311;  208,660;-3000,488
 304,29; 1096,878;  189,918;-2658,740
 304,89; 1625,067;  266,183;-1090,755
 305,49; 2246,189;  163,922;-2773,122
 306,09; 2460,244;  214,133;-2874,839
 306,69; 2513,539;  262,736;-2915,911
 307,29; 3503,744;  312,865;-2008,442
 307,89; 5957,367;  303,408;-3029,000
 308,48; 7775,117;  341,774;-2453,301
 309,08; 8248,372;  369,492;-2743,377
 309,68; 6801,439;  377,019;-3094,026
 310,28; 4013,289;  371,102;-2576,213
 310,88; 2625,627;  321,211;-2936,453
 311,48; 2006,150;  447,500;-2875,331
 312,07; 1616,478;  408,367;-2963,228
 312,67; 1514,811;  497,855;-2128,297
 313,27; 1360,172;  494,448;-1105,224
 313,87; 1146,544;  583,357;-2164,083
 314,47; 1109,216;  516,954;-3030,392
 315,06; 1142,761;  620,191; 2713,837
 315,66; 1062,483;  579,988;-3245,400
 316,26; 1033,661;  632,938;-1844,483
 316,86; 1093,616;  777,969;-3140,110
 317,46; 1102,722;  720,307;-2115,167
 318,06; 1156,766;  739,813; -825,335
 318,65; 1132,677;  781,801;-2807,999
 319,25; 1007,366;  821,798;-3195,617
 319,85;  986,538;  932,663;-2908,323
 320,45; 1044,388;  986,283;-3213,304
 321,05; 1048,300;  901,271;-2761,968
 321,64; 1002,022;  889,531;-3219,411
 322,24; 1146,349; 1056,861;-3265,513
 322,84; 1164,305; 1080,356;-3261,345
 323,44; 1153,083; 1133,364;-3219,300
 324,03; 1217,666; 1194,486;-3072,067
 324,63; 1367,399; 1250,452;-2310,059
 325,23; 1259,644; 1241,928;-3097,792
 325,83; 1352,427; 1367,021;-2876,123
 326,42; 1442,566; 1442,622;-3285,005
 327,02; 1561,721; 1476,551;-3076,607
 327,62; 1566,104; 1439,629;-2505,221
 328,22; 1655,499; 1553,486;-3234,973
 328,82; 1581,815; 1577,037;-2229,938
 329,41; 1788,165; 1658,852;-3016,728
 330,01; 1902,365; 1652,750;-2961,704
 330,61; 1924,981; 1806,062;-2928,707
 331,20; 1960,014; 1778,325;-2868,531
 331,80; 2166,736; 1762,512;-2794,386
 332,40; 2125,786; 1752,102;-2896,932
 333,00; 2206,347; 1933,667;-2790,423
 333,59; 2314,219; 1748,771;-2855,091
 334,19; 2338,730; 1920,745;-1771,037
 334,79; 2356,369; 1712,615;-2861,316
 335,39; 2434,292; 1729,919;-2978,912
 335,98; 2271,858; 1726,714;-3126,958
 336,58; 2206,925; 1659,777;-3191,401
 337,18; 2222,081; 1720,779;-2958,592
 337,77; 2140,681; 1782,837;-2098,463
 338,37; 2160,281; 1806,359;-2021,540
 338,97; 2112,615; 1907,384;-2912,402
 339,57; 2034,175; 1862,948;-3044,894
 340,16; 2037,042; 1836,431;-2881,390
 340,76; 1964,786; 1962,712;-3053,314
 341,36; 1956,531; 1861,920;-3195,650
 341,95; 1955,114; 1934,506;-3027,623
 342,55; 1947,914; 1918,998;  703,736
 343,15; 1986,764; 2048,155;-3094,039
 343,74; 1982,253; 1924,644;-2382,298
 344,34; 2034,414; 1860,267;-3015,661
 344,94; 2132,448; 2068,530;-3069,485
 345,53; 2155,147; 2110,769;-2860,447
 346,13; 2157,931; 2174,398;-1283,573
 346,73; 2173,003; 1966,473;-2254,805
 347,32; 2186,720; 2268,649;-3080,871
 347,92; 2196,053; 2312,600;-2277,145
 348,52; 2093,825; 2270,523;-1878,722
 349,11; 2053,470; 2336,551;  975,034
 349,71; 2171,653; 2330,658;-3240,016
 350,31; 2260,842; 2441,387;-2672,237
 350,90; 2302,797; 2483,418;-2326,863
 351,50; 2501,997; 2390,852;-2105,634
 352,10; 2628,342; 2471,119;-3114,840
 352,69; 3004,036; 2532,273;-3182,424
 353,29; 3072,403; 2563,024;-3191,317
 353,89; 3064,136; 2645,527;-3255,104
 354,48; 3317,342; 2693,119;-3208,840
 355,08; 3652,203; 2871,980;-1117,164
 355,67; 4097,114; 2850,042;-2951,417
 356,27; 5010,275; 2839,128;-3232,985
 356,87; 6360,437; 3010,288;-3383,142
 357,46; 9201,042; 3049,431;-2351,390
 358,06;13330,748; 3306,291;-3073,523
 358,66;14784,959; 3337,504;-3109,432
 359,25;12713,325; 3260,792;-2344,119
 359,85;12371,431; 3365,667;-3215,970
 360,44;11924,470; 3389,015;-3292,172
 361,04;10475,764; 3567,155;-2367,039
 361,64; 8435,764; 3696,155;-2309,039
 362,23; 6436,203; 3772,517;-2932,958
 362,83; 5216,786; 3755,639;-2990,726
 363,42; 4485,147; 3938,769;-2836,447
 364,02; 3945,336; 3910,034;-2973,462
 364,62; 3544,931; 3816,398;-2486,573
 365,21; 3156,086; 3857,937;-1741,558
 365,81; 3099,814; 3935,818;-2792,173
 366,40; 2924,981; 3970,062;-2080,707
 367,00; 2899,314; 4021,550;-2952,776
 367,59; 2762,059; 4071,831;-2979,699
 368,19; 2717,520; 4221,678;-3237,306
 368,79; 2669,564; 4198,720;-3125,268
 369,38; 2769,120; 4107,200;-2250,383
 369,98; 2806,397; 4101,940;-2935,940
 370,57; 3073,048; 4188,588;-3331,356
 371,17; 3084,859; 4164,860;-3326,135
 371,76; 3031,331; 4277,486;-3442,879
 372,36; 3071,981; 4057,598;-3195,501
 372,95; 2759,526; 4115,372;  667,934
 373,55; 2736,998; 4105,998;-3393,811
 374,14; 2574,559; 4300,099;-3405,097
 374,74; 2519,976; 4256,514;-3224,124
 375,34; 2317,131; 4286,979;-3189,521
 375,93; 2266,709; 4295,479;-2706,116
 376,53; 2217,737; 4344,585;-3575,974
 377,12; 2180,742; 4405,670;-1465,352
 377,72; 2132,498; 4480,730;-3410,414
 378,31; 2142,714; 4511,027;-2274,699
 378,91; 2057,886; 4291,429;-3262,199
 379,50; 2181,281; 4588,213;-3331,363
 380,10; 2159,525; 4327,226;-3398,890
 380,69; 2143,075; 4094,621;-2343,626
 381,29; 2197,881; 4586,735;-2550,439
 381,88; 2360,059; 4518,758;-1605,111
 382,48; 2390,103; 4519,727;-3286,485
 383,07; 2432,042; 4495,358;-3457,802
 383,67; 2362,059; 4635,758;-1847,111
 384,26; 2248,714; 4667,491;-2467,905
 384,86; 2188,686; 4921,849;-3182,252
 385,45; 2212,475; 4932,636;-3325,344
 386,05; 2195,831; 5073,608;-3419,100
 386,64; 2161,531; 4911,384;-3524,855
 387,24; 2185,486; 5016,878;-2585,688
 387,83; 2222,736; 4993,512;-2489,386
 388,42; 2366,953; 5182,346;-2109,466
 389,02; 2382,125; 5423,748;-3235,966
 389,61; 2573,492; 5688,036;-3413,653
 390,21; 2619,486; 5729,878;-3463,688
 390,80; 2627,309; 5816,392;-3208,810
 391,40; 2976,509; 6137,899;-2293,168
 391,99; 3361,475; 5981,099;-3195,550
 392,59; 4446,014; 6435,252;-2416,943
 393,18; 7071,931; 6683,398;-2491,573
 393,77;16282,964; 6883,198;-3238,192
 394,37;23605,498; 7145,657;-2198,825
 394,96;20578,398; 7098,403;-2296,146
 395,56;24707,047; 7264,588;-2834,356
 396,15;30818,793; 6867,797;-3125,692
 396,75;23120,541; 7343,163;-2889,993
 397,34;13322,397; 7669,940;-2620,940
 397,93; 8825,031; 7720,188;-3358,047
 398,53; 6431,947; 7595,262;-2525,088
 399,12; 5082,314; 8192,013;-2154,981
 399,72; 4150,342; 8013,119;-2274,840
 400,31; 3660,853; 8034,629;-3169,581
 400,91; 3542,159; 8446,012;-2959,791
 401,50; 3161,964; 8820,198;-2330,192
 402,09; 3052,170; 8550,327;-2894,722
 402,69; 2942,875; 8691,187;-3072,856
 403,28; 2827,120; 9052,663;-2983,588
 403,88; 2824,248; 9162,560; 1927,079
 404,47; 2713,059; 9689,831;  884,300
 405,06; 2811,320; 9684,171;  -68,947
 405,66; 2774,870; 9753,565;-2875,684
 406,25; 2701,564;10085,720;-3119,268
 406,84; 2875,942;10446,177;-2892,711
 407,44; 2794,703;10847,858;-2219,944
 408,03; 2726,564;10422,257;-2906,063
 408,63; 2750,159;10373,085;-3011,379
 409,22; 2847,581;10191,584;-1945,783
 409,81; 2846,776;10681,007;-1849,765
 410,41; 2986,537;11553,078;-2857,615
 411,00; 2884,592;11336,362;-1814,921
 411,59; 3021,581;11251,120;-2826,578
 412,19; 2975,348;11468,350;-2245,394
 412,78; 3022,609;11399,226;-2830,436
 413,37; 2888,570;12151,878;-2704,234
 413,97; 2895,820;12410,512;-2618,933
 414,56; 2909,198;12071,506;-2503,169
 415,15; 3022,548;12410,394;-2121,547
 415,75; 3144,870;12408,639;-2698,272
 416,34; 3074,253;12590,254;-1893,681
 416,93; 3059,665;12922,047;-2777,536
 417,53; 3002,248;12696,169;-1423,303
 418,12; 2950,787;12570,785;-2217,903
 418,71; 2895,443;12907,592;-2673,285
 419,31; 2868,315;13054,695;-1884,952
 419,90; 2772,854;13470,313;-2786,552
 420,49; 2798,454;13619,298;-1733,834
 421,08; 2716,454;14201,298;-1674,834
 421,68; 2718,192;14723,421;-1908,792
 422,27; 2930,298;14035,832;-2004,437
 422,86; 2811,154;13874,073; -437,590
 423,46; 2634,420;14080,107;-2575,598
 424,05; 2471,709;14376,626;-2928,293
 424,64; 2443,726;13888,953;-2640,014
 425,24; 2458,487;14092,098;-2903,453
 425,83; 2402,737;13992,269;-2680,945
 426,42; 2322,709;12987,626;-2760,293
 427,01; 2320,048;13424,734;-2674,533
 427,61; 2335,187;14347,873;-2609,209
 428,20; 2384,621;14036,151;-1764,751
 428,79; 2319,215;14414,052;-2859,656
 429,38; 2351,076;14092,377;-1781,186
 429,98; 2332,837;14922,521; -994,625
 430,57; 2284,187;15058,873;-2193,209
 431,16; 2272,165;14580,389;-2784,522
 431,75; 2299,609;14357,909; -561,407
 432,35; 2307,676;13435,899;-1951,262
 432,94; 2312,887;14429,186;-2324,759
 433,53; 2291,920;14560,375;-1152,995
 434,12; 2415,537;14431,298;-2267,381
 434,72; 2398,804;14188,331;-1413,389
 435,31; 2371,709;14167,699; 7395,119
 435,90; 2362,965;14308,954; 8338,249
 436,49; 2320,537;13427,834; -683,175
 437,08; 2416,654;13895,951; -675,370
 437,68; 2502,915;14442,827;-2987,412
 438,27; 2574,865;14610,237;-2610,866
 438,86; 2569,382;14612,832;-1147,984
 439,45; 2594,204;15313,346;-1937,106
 440,05; 2675,860;15955,616;-2982,694
 440,64; 2647,515;15054,886;-1902,282
 441,23; 2727,232;14152,525;-1415,553
 441,82; 2613,999;13700,218;-2631,576
 442,41; 2654,754;14351,277;-3014,637
 443,00; 2683,249;13625,925;-2724,863
 443,60; 2949,049;14373,881;-3136,710
 444,19; 3036,788;15026,541;-1440,462
 444,78; 3170,704;14960,151;-3012,298
 445,37; 3289,621;15728,297;-2522,928
 445,96; 3638,954;15331,249;-3116,202
 446,56; 3698,166;15596,535;-1144,698
 447,15; 3827,771;16225,678; -884,947
 447,74; 3928,582;17097,412;-2709,931
 448,33; 4182,699;16443,066;-1985,920
 448,92; 4157,227;15422,440;-2964,176
 449,51; 4333,065;15095,817;-2848,813
 450,10; 4460,788;15133,078;-3063,256
 450,70; 4968,649;14904,939;-1957,581
 451,29; 5472,749;15329,193;-1112,260
 451,88; 5671,149;15513,671;-2929,183
 452,47; 6177,610;16565,055;-2795,584
 453,06; 6383,827;16495,498;-2401,047
 453,65; 6040,510;16071,874;-2873,493
 454,24; 5188,882;17329,246;-2173,558
 454,84; 4525,305;17793,209;-1379,168
 455,43; 4040,516;18732,496;-2219,665
 456,02; 3775,116;18879,480;-2927,947
 456,61; 3474,938;17317,459;-2925,275
 457,20; 3264,999;16921,363;-2786,753
 457,79; 3073,921;17588,131;-2922,554
 458,38; 2913,438;18338,264;-2132,467
 458,97; 2758,277;18039,641;-2515,104
 459,56; 2673,804;18190,479;-2760,565
 460,16; 2620,971;17832,258;-2082,894
 460,75; 2539,538;18157,518;-2072,146
 461,34; 2442,755;18077,887;-2962,020
 461,93; 2395,055;18381,186;-2200,853
 462,52; 2420,682;19333,275;-2744,993
 463,11; 2413,788;20546,688;-1989,639
 463,70; 2464,432;19458,643;-2869,295
 464,29; 2663,338;19945,082;-3150,376
 464,88; 2851,060;20795,807;-2743,024
 465,47; 3231,616;19885,285;-2748,139
 466,06; 3936,277;20915,713;-3191,692
 466,65; 4174,827;21667,572;-3018,635
 467,24; 3837,105;22030,848;-2539,986
 467,84; 3185,032;22443,164;-2020,371
 468,43; 2830,227;22325,051;-2238,559
 469,02; 2796,655;23517,170;-2702,135
 469,61; 2684,266;24168,936;-2593,555
 470,20; 2598,471;23781,063;-2841,085
 470,79; 2422,049;22760,100;-3232,475
 471,38; 2369,488;25266,463;-2192,395
 471,97; 2319,144;26009,732; -666,983
 472,56; 2234,683;25472,887;-3035,376
 473,15; 2295,999;25296,975;-2825,135
 473,74; 2170,572;26395,854;-3106,559
 474,33; 2134,949;25866,848;-2957,796
 474,92; 2098,527;27630,348;-3146,391
 475,51; 2122,644;29609,002;-2873,380
 476,10; 2011,244;29847,986;-3011,662
 476,69; 2034,988;26101,268;-2855,586
 477,28; 2037,133;25846,955;-2956,845
 477,87; 1925,072;27035,121; -173,956
 478,46; 1865,205;28695,639;-3029,460
 479,05; 1890,894;30507,100;-2134,284
 479,64; 1850,322;31679,756;-2718,655
 480,23; 1835,688;29541,508;-2845,548
 480,82; 1742,177;28549,996;-2736,807
 481,41; 1756,000;29371,510;-1873,929
 482,00; 1780,527;29284,885;-1364,185
 482,59; 1672,333;29593,998;-2298,998
 483,18; 1751,655;31702,244;-2376,723
 483,77; 2344,627;31703,139;-2193,865
 484,36; 2876,644;32475,002;-1701,380
 484,95; 2723,438;32990,410; -788,643
 485,54; 2679,600;35331,031;-1371,006
 486,13; 2748,022;35762,996; -945,616
 486,72; 2818,472;34334,137;  148,326
 487,31; 2618,699;31046,285;-1109,686
 487,89; 2567,583;32608,633; -193,697
 488,48; 2433,961;33798,164;-1523,728
 489,07; 2439,816;32913,941;-1248,674
 489,66; 2378,827;33511,645;-1505,224
 490,25; 2185,944;31095,299; -660,212
 490,84; 2134,172;34127,375;-1683,635
 491,43; 2082,649;34965,621; -701,552
 492,02; 1983,450;36094,652;-1864,987
 492,61; 1930,083;35362,902;-1043,094
 493,20; 1811,150;33776,426;-2019,743
 493,79; 1901,772;32749,434; 4824,494
 494,38; 1770,688;33706,043;-1938,342
 494,97; 1769,194;32583,934; -629,911
 495,55; 1647,033;34690,309;-2325,548
 496,14; 1688,866;35087,531;-2403,220
 496,73; 1584,444;35451,566;-1952,609
 497,32; 1577,911;34211,570;-2587,182
 497,91; 1618,594;35005,949;-1921,629
 498,50; 1654,072;34165,195;-2912,544
 499,09; 1647,911;34554,570;-3088,182
 499,68; 1644,177;32403,070;-2405,396
 500,27; 1758,022;33321,605;-2490,999
 500,85; 1724,316;32655,207;-2604,071
 501,44; 1544,989;32478,342;-2576,175
 502,03; 1498,950;33194,457;-3368,178
 502,62; 1544,022;31275,068;-3438,205
 503,21; 1483,050;29432,711;-3532,858
 503,80; 1510,978;32028,100;-2976,831
 504,39; 1451,844;32451,119;-3458,121
 504,97; 1515,861;31774,982;-3577,636
 505,56; 1469,622;31537,590;-2979,281
 506,15; 1397,522;32302,336;-3991,602
 506,74; 1387,266;32557,617;-2945,526
 507,33; 1431,839;32185,498;-3165,949
 507,92; 1648,122;33952,859;-3871,678
 508,51; 1620,083;35926,973;-3735,682
 509,09; 1524,511;34536,629;-3921,053
 509,68; 1671,928;34318,508;-3748,286
 510,27; 1692,678;33667,410;-3799,381
 510,86; 1744,761;32572,264;-4081,751
 511,45; 1598,083;33677,512;-3843,476
 512,03; 1843,967;34524,855;-3829,488
 512,62; 1839,994;36240,961;-3780,346
 513,21; 1769,672;33870,789;-3186,209
 513,80; 1782,939;34644,289;-3501,423
 514,39; 1754,555;32752,137;-3905,221
 514,97; 1666,894;35347,781;-4095,255
 515,56; 1581,972;34167,551;-4198,248
 516,15; 1624,639;35428,063;-3955,179
 516,74; 1661,895;32584,318;-4420,049
 517,33; 1562,800;33459,688;-3549,542
 517,91; 1598,078;33935,426;-4188,099
 518,50; 1552,967;32563,393;-3264,282
 519,09; 1548,833;33942,875;-3157,778
 519,68; 1440,261;35231,531;-4286,148
 520,26; 1357,506;38679,547;-4232,675
 520,85; 1307,467;39452,660;-4352,679
 521,44; 1273,039;40826,078;-4358,897
 522,03; 1376,883;39485,539;-4271,912
 522,61; 1295,039;36773,078;-4364,897
 523,20; 1259,128;33924,090;-4337,233
 523,79; 1216,706;32040,590;-4337,828
 524,38; 1204,845;32850,191;-4344,709
 524,96; 1147,467;35883,199;-4321,473
 525,55; 1154,256;36021,449;-4542,771
 526,14; 1082,378;34018,723;-4434,931
 526,73; 1157,728;32852,074;-4389,515
 527,31; 1130,361;32903,324;-4488,622
 527,90; 1243,256;33630,449;-4564,771
 528,49; 1134,589;34155,938;-2529,839
 529,08; 1028,384;34601,344;-3467,103
 529,66; 1105,945;34848,445;-3911,389
 530,25; 1111,717;35279,832;-4414,172
 530,84; 1018,695;35334,348;-4583,485
 531,42; 1055,839;38583,105;-4365,332
 532,01; 1012,367;37528,480;-4291,588
 532,60; 1033,395;34512,125;-4473,241
 533,18; 1033,972;35538,086;-4078,042
 533,77;  995,100;34969,984;-4236,374
 534,36;  976,122;34459,469;-4374,061
 534,95;  927,900;35483,477;-4088,015
 535,53; 1038,284;34236,090; -974,424
 536,12; 1032,322;36469,977;-2657,420
 536,71;  992,422;36511,230;-3869,099
 537,29; 1041,661;36073,621;-3618,454
 537,88; 1080,039;33908,078;-3454,897
 538,47; 1074,984;32497,867;-2840,180
 539,05; 1076,200;36837,238;-2139,054
 539,64; 1080,095;40414,898;-1785,997
 540,22; 1051,750;37414,633; -764,790
 540,81; 1128,267;37501,766; 1008,297
 541,40; 1083,439;39018,629; 3425,591
 541,98; 1097,734;38188,230; 4858,519
 542,57; 1115,322;39368,977; 4597,580
 543,16; 1109,884;38645,613; 4952,500
 543,74; 1150,211;35774,480; 4083,603
 544,33; 1163,695;36297,883; 3620,721
 544,92; 1166,006;37217,887; 3973,339
 545,50; 1145,989;37338,488;11456,648
 546,09; 1178,234;40064,965;11359,916
 546,67; 1100,534;41948,727; 2857,878
 547,26; 1085,439;40050,094; -202,615
 547,85; 1097,228;39208,414; -567,501
 548,43; 1153,973;38452,625; -849,836
 549,02; 1069,978;39427,246;-1040,008
 549,60; 1081,234;40570,500; -984,878
 550,19; 1114,345;41166,996;-2192,901
 550,78; 1058,917;42660,875;-2328,325
 551,36; 1112,728;45349,148;-2432,104
 551,95; 1105,361;45443,859; -585,416
 552,53; 1110,534;43280,262; -296,916
 553,12; 1103,234;41420,035;-3431,672
 553,70; 1149,589;43188,547;-2878,222
 554,29; 1081,589;44058,008;-2869,428
 554,88; 1078,173;41831,668;-4247,989
 555,46; 1139,456;43723,027;-3881,718
 556,05; 1201,467;45007,734;-4207,268
 556,63; 1164,000;45206,266;-3396,489
 557,22; 1261,150;43875,109;-3394,714
 557,80; 1230,956;41749,762;-3568,321
 558,39; 1264,289;44188,250;-4145,390
 558,97; 1290,850;47993,887;-3699,470
 559,56; 1318,639;49889,137;-4544,768
 560,15; 1376,317;50117,891;-3611,042
 560,73; 1291,350;49814,152;-4287,867
 561,32; 1364,728;47024,609;-3741,309
 561,90; 1214,184;46041,910;-4382,333
 562,49; 1274,028;48487,371;-3786,348
 563,07; 1265,273;48074,387;-4783,875
 563,66; 1322,484;50064,133;-4352,577
 564,24; 1281,261;49228,145;-4763,531
 564,83; 1405,862;51344,664;-4603,607
 565,41; 1445,184;53840,375;-4329,539
 566,00; 1513,284;52202,164;-2755,012
 566,58; 1619,339;56465,375;-3725,729
 567,17; 1837,856;56909,508;-4280,642
 567,75; 2088,295;52392,871;-4653,562
 568,34; 2513,889;55893,770;-3216,466
 568,92; 2978,912;55738,793;-3987,947
 569,51; 2997,628;54852,895; 2680,576
 570,09; 2715,895;58247,391;-4676,638
 570,68; 2302,356;53188,313;-4788,833
 571,26; 2359,823;50733,242;-3886,817
 571,85; 2372,778;57347,738;-4822,649
 572,43; 2065,650;57011,379;-4704,111
 573,01; 1675,495;52662,375;-4873,920
 573,60; 1462,900;53819,012;-3785,810
 574,18; 1380,534;55122,262;-4514,917
 574,77; 1257,934;53284,277;-4737,634
 575,35; 1242,900;56113,012;-4452,810
 575,94; 1162,734;57300,770;-4076,275
 576,52; 1111,156;54049,270;-2249,680
 577,11; 1077,800;51620,297;-3244,924
 577,69; 1095,367;48685,555;-3183,176
 578,27; 1058,345;51008,996;-3447,901
 578,86; 1029,434;55198,543;-2994,031
 579,44; 1104,123;60080,004;-2805,855
 580,03; 1151,795;60164,137;-2493,958
 580,61; 1096,467;60267,270;-3206,062
 581,19; 1049,773;56429,652;-2538,271
 581,78; 1030,778;55361,813;-2364,238
 582,36; 1009,612;57656,031;-2911,909
 582,95; 1027,906;56180,172;-1497,776
 583,53;  969,812;59586,539;-2319,268
 584,11; 1068,539;61608,883;-2241,088
 584,70; 1003,395;61691,660;-1948,035
 585,28; 1033,673;62070,398;-1853,592
 585,87; 1031,895;60436,930;-2889,432
 586,45; 1017,434;63023,543;-2375,031
 587,03; 1030,473;64945,430;-1150,027
 587,62; 1048,528;61494,641;-1834,745
 588,20; 1472,867;62236,285;-1020,779
 588,78; 1970,578;58157,840;-3411,673
 589,37; 1831,156;57765,270;-3360,680
 589,95; 1316,045;62238,773;-3385,657
 590,54; 1019,967;63633,539;-3461,459
 591,12; 1065,267;62116,301;-3508,497
 591,70; 1034,600;59586,789;-3331,565
 592,29; 1007,000;62881,805;-2923,283
 592,87; 1066,184;63542,375;-2394,538
 593,45; 1025,845;63404,801; 1487,908
 594,04;  932,617;62800,188;-3676,875
 594,62; 1017,184;59709,910;-3708,333
 595,20; 1009,334;62066,828;-4371,146
 595,79;  998,712;62681,285;-4165,588
 596,37;  992,367;61108,555;-3657,176
 596,95;  997,439;56922,164;-4321,203
 597,53;  938,889;58806,770;-4226,466
 598,12;  952,273;61848,922;-3959,669
 598,70;  963,345;64932,531;-3776,695
 599,28; 1031,184;64911,375;-3404,538
 599,87; 1044,667;64929,777;-3061,420
 600,45; 1006,489;64938,293;-3907,543
 601,03;  963,978;63145,781;-4100,802
 601,62; 1011,617;61727,188;-4468,875
 602,20; 1011,917;59786,414;-4541,119
 602,78;  962,501;64399,070;-4770,680
 603,36;  995,423;64783,301;-3166,688
 603,95; 1034,934;58863,277;-4492,634
 604,53; 1098,400;62401,281;-4574,207
 605,11; 1041,223;59505,258;-2755,535
 605,69; 1004,661;62362,156;-3365,249
 606,28;  998,000;62594,805;-4223,283
 606,86;  943,850;61629,422;-3946,264
 607,44;  981,589;60431,547;-3906,222
 608,02;  954,156;58047,805;-4037,474
 608,61; 1016,173;60099,668;-2866,989
 609,19;  917,539;58582,418;-2582,882
 609,77; 1008,695;57398,422; -710,073
 610,35;  963,445;55748,785; 5794,625
 610,94;  997,584;56509,926;14509,949
 611,52;  979,173;55803,668;12610,011
 612,10;  893,695;53026,957; 8432,133
 612,68;  826,762;56637,949; 2694,278
 613,26;  896,212;57037,551; 2032,015
 613,85;  882,739;61759,926; -599,241
 614,43;  814,806;62306,918;-1030,096
 615,01;  825,706;62272,199;-1215,211
 615,59;  815,067;64874,328; -972,932
 616,17;  904,461;59402,648;-2561,890
 616,76;  922,850;62178,887;-2993,470
 617,34; 1071,723;62666,988;-2389,138
 617,92; 1013,889;58547,770;-3399,466
 618,50; 1035,773;61202,652;-2562,271
 619,08; 1059,767;57928,031;-2514,100
 619,67; 1074,284;55968,164;-3196,012
 620,25; 1107,528;54290,641;-2743,745
 620,83; 1162,489;50498,293;-3495,543
 621,41; 1208,534;52314,797;-2800,711
 621,99; 1242,484;54560,672;-2529,371
 622,57; 1417,950;55529,141;-3707,149
 623,15; 1406,273;56213,387;-3783,875
 623,74; 1685,711;58266,746;-3892,794
 624,32; 1791,489;59330,754;-2827,749
 624,90; 1840,250;58625,898;-2311,188
 625,48; 1813,856;57897,043;-3132,436
 626,06; 1828,895;56898,391;-4006,638
 626,64; 1672,123;57787,004;-4162,855
 627,22; 1504,678;58993,020;-3409,764
 627,81; 1540,772;58046,117;-4334,478
 628,39; 1464,417;57121,145;-4560,722
 628,97; 1463,645;56597,293;-4437,733
 629,55; 1295,867;55377,750;-4219,985
 630,13; 1350,467;55669,270;-2959,062
 630,71; 1305,473;54162,891;-2747,233
 631,29; 1271,934;53129,277;-3824,634
 631,87; 1190,700;52776,504;-4223,451
 632,45; 1140,462;52786,648;-4716,890
 633,03; 1039,078;54183,500;-4191,688
 633,62; 1079,400;55423,281;-4714,207
 634,20;  980,062;54882,172;-4089,966
 634,78; 1018,656;56497,000;-4430,283
 635,36;  983,150;56701,648;-4449,508
 635,94;  981,117;55183,383;-5398,684
 636,52;  939,839;51027,645;-5422,126
 637,10;  799,439;52116,164;-5488,203
 637,68;  910,878;50694,527;-4702,123
 638,26;  883,023;47618,750;-5536,176
 638,84;  793,562;48688,902;-5421,569
 639,42;  771,439;49235,164;-3756,203
 640,00;  766,414;51366,148;-5405,726
 640,58;  848,201;54579,402;-4806,027
 641,16;  764,987;55521,656;-5571,328
 641,74;  791,773;53214,906;-5433,630
 642,32;  733,560;50106,160;-5620,931
 642,90;  701,346;50434,414;-5856,232
 643,48;  728,132;49231,668;-5786,534
 644,06;  765,918;49280,922;-5796,835
 644,64;  739,705;49595,176;-5842,137
 645,22;  652,491;50513,430;-5562,438
 645,80;  728,277;50547,684;-4957,740
 646,39;  689,063;48107,938;-5515,041
 646,97;  617,850;49773,191;-5850,342
 647,54;  622,636;52328,441;-5717,644
 648,12;  605,422;54879,695;-5865,945
 648,70;  669,208;58954,949;-5885,247
 649,28;  702,995;56421,203;-6090,548
 649,86;  647,781;51091,457;-5609,850
 650,44;  629,567;48619,711;-5452,151
 651,02;  663,354;49970,965;-5474,452
 651,60;  617,140;51793,219;-5803,753
 652,18;  671,926;51320,473;-4735,055
 652,76;  649,712;53277,723;-5934,356
 653,34;  670,499;54817,977;-5939,658
 653,92;  649,285;57729,230;-5784,959
 654,50;  658,071;59042,484;-5818,261
 655,08;  641,857;58048,738;-5841,562
 655,66;  684,644;55058,992;-5115,863
 656,24;  730,430;56743,246;-5200,165
 656,82;  694,216;58989,500;-4979,466
 657,40;  700,003;58967,754;-5667,768
 657,98;  639,789;60169,008;-5486,069
 658,56;  617,575;61114,258;-5717,371
 659,14;  656,361;61380,512;-5913,672
 659,72;  660,148;63381,766;-5916,973
 660,29;  606,934;62437,020;-5907,275
 660,87;  686,720;59738,273;-5212,576
 661,45;  693,507;58590,527;-5664,877
 662,03;  618,293;57513,781;-4971,179
 662,61;  598,079;54945,035;-5638,480
 663,19;  543,865;54618,289;-5657,782
 663,77;  551,652;53917,543;-5939,083
 664,35;  586,438;56689,793;-5887,384
 664,93;  511,224;62595,047;-4922,686
 665,51;  523,010;61993,301;-6033,987
 666,08;  537,797;57747,555;-5652,289
 666,66;  493,583;51859,809;-4400,590
 667,24;  578,369;49420,063;-5952,892
 667,82;  571,156;50250,316;-5849,193
 668,40;  586,942;50723,570;-5932,494
 668,98;  647,728;51952,824;-5097,796
 669,56;  691,514;57957,078;-6096,097
 670,13;  718,301;61797,328;-6222,398
 670,71;  712,087;59698,582;-5900,700
 671,29;  581,873;57209,836;-6139,001
 671,87;  556,659;56814,090;-6051,303
 672,45;  516,446;51822,344;-6050,604
 673,03;  547,232;52592,598;-4769,906
 673,60;  536,018;58431,852;-3503,207
 674,18;  586,805;63679,105;-5938,508
 674,76;  552,591;61159,359;-6226,810
 675,34;  568,377;56361,613;-5251,111
 675,92;  487,163;55284,863;-6338,413
 676,50;  513,950;55051,117;-6085,714
 677,07;  498,736;56952,371;-6095,016
 677,65;  527,522;56680,625;-6163,317
 678,23;  519,308;55997,879;-5057,618
 678,81;  587,095;58016,133;-5299,919
 679,38;  531,881;56669,387;-5969,221
 679,96;  526,667;53267,641;-5846,522
 680,54;  532,453;55171,895;-5308,824
 681,12;  516,240;52485,148;-6126,125
 681,70;  568,026;54786,398;-4413,427
 682,27;  606,812;54740,652;-5851,728
 682,85;  561,599;58265,906;-5991,029
 683,43;  636,385;64943,160;-6140,331
 684,01;  642,171;64943,414;-5172,632
 684,58;  671,957;64307,668;-5138,934
 685,16;  709,744;64236,922;-4494,235
 685,74;  706,530;62790,176;-3853,536
 686,32;  632,316;59009,430;-6012,838
 686,89;  661,103;59552,684;-6015,139
 687,47;  589,889;59534,934;-6076,441
 688,05;  654,675;56416,188;-6019,742
 688,63;  572,461;59626,441;-6102,043
 689,20;  581,248;62884,695;-5971,345
 689,78;  598,034;58427,949;-5530,646
 690,36;  549,820;54291,203;-5381,948
 690,93;  552,606;54968,457;-6355,249
 691,51;  597,393;61453,711;-6326,550
 692,09;  591,179;64946,965;-6223,852
 692,67;  545,965;64947,219;-6047,153
 693,24;  567,752;60968,469;-5803,455
 693,82;  624,538;59538,723;-6235,756
 694,40;  683,324;58049,977;-3570,058
 694,97;  572,110;57456,230;-6046,359
 695,55;  594,897;59820,484;-5464,660
 696,13;  645,683;61729,738;-4454,962
 696,70;  652,469;58594,992;-6029,263
 697,28;  631,255;59108,246;-6266,564
 697,86;  586,042;60837,500;-6030,866
 698,43;  702,828;58827,754;-6198,167
 699,01;  630,614;55595,004;-6051,469
 699,59;  735,401;55751,258;-6402,770
 700,16;  707,187;54174,512;-5257,072
 700,74;  789,973;57040,766;-5497,373
 701,32;  922,759;56440,020;-6233,674
 701,89; 1038,546;55792,273;-6049,976
 702,47; 1202,332;60296,527;-6466,277
 703,05; 1540,118;64951,781;-6309,579
 703,62; 1753,904;64952,035;-6227,880
 704,20; 1809,691;64952,285;-5306,182
 704,77; 1731,477;64952,539;-6118,483
 705,35; 1551,263;64213,793;-6006,784
 705,93; 1398,050;64327,047;-4922,085
 706,50; 1194,836;63796,301;-5267,387
 707,08;  902,622;60606,555;-5284,688
 707,65;  777,408;60046,809;-5620,990
 708,23;  741,195;64881,063;-5431,292
 708,81;  642,981;64954,316;-5019,593
 709,38;  602,767;64954,570;-5001,894
 709,96;  636,553;64954,820;-6025,195
 710,53;  622,340;64955,074;-6007,497
 711,11;  590,126;61503,328;-5752,798
 711,69;  574,912;61913,582;-3821,100
 712,26;  524,698;59012,836;-4642,401
 712,84;  445,485;63346,090;-5947,703
 713,41;  482,271;64411,344;-6153,004
 713,99;  534,057;64924,598;-6068,305
 714,56;  525,844;62057,852;-6326,607
 715,14;  492,630;60312,105;-6198,908
 715,71;  463,416;60246,355;-6210,209
 716,29;  417,202;62893,609;-6648,511
 716,86;  440,989;63573,863;-6510,813
 717,44;  496,775;63263,117;-6424,114
 718,02;  418,561;62110,371;-6462,415
 718,59;  373,348;61013,625;-5121,716
 719,17;  408,134;63488,879;-5649,018
 719,74;  447,920;62907,133;-5756,319
 720,32;  375,706;63502,387;-6451,621
 720,89;  414,493;64959,641;-6422,922
 721,47;  416,279;64959,891;-6388,224
 722,04;  429,065;64960,145;-5502,525
 722,62;  406,851;64252,398;-3979,826
 723,19;  406,638;60250,652;-4938,128
 723,77;  398,424;57638,906;-5673,429
 724,34;  423,210;60150,160;-5576,730
 724,92;  454,997;63789,414;-6558,032
 725,49;  401,783;64961,668;-5666,333
 726,07;  425,569;64961,922;-6491,635
 726,64;  487,355;64627,176;-6587,936
 727,21;  464,142;60249,426;-5627,238
 727,79;  399,928;63706,680;-6444,539
 728,36;  470,714;64962,934;-6722,840
 728,94;  456,500;64963,188;-6535,142
 729,51;  471,287;64963,441;-6365,443
 730,09;  518,073;64963,695;-5545,745
 730,66;  489,859;64963,949;-6358,046
 731,24;  536,646;64964,203;-6577,348
 731,81;  531,432;64964,457;-5151,649
 732,38;  517,218;64964,711;-6492,950
 732,96;  556,004;64964,961;-6263,251
 733,53;  549,791;60347,215;-6389,553
 734,11;  599,577;61575,469;-6617,854
 734,68;  588,363;64965,723;-6211,156
 735,26;  653,149;64965,977;-6389,458
 735,83;  674,936;64966,230;-6498,759
 736,40;  691,722;62243,484;-6516,060
 736,98;  646,508;61999,738;-6374,361
 737,55;  646,294;59236,992;-5827,663
 738,13;  657,081;57707,246;-5702,964
 738,70;  597,867;60991,496;-5529,266
 739,27;  635,653;62504,750;-6452,567
 739,85;  719,440;62745,004;-6283,869
 740,42;  771,226;64968,258;-6464,170
 740,99;  844,012;64968,512;-5618,471
 741,57;  826,798;64968,766;-4867,773
 742,14;  847,585;64969,020;-5349,074
 742,72;  919,371;64969,273;-4751,375
 743,29;  953,157;64969,527;-6563,677
 743,86;  856,944;64969,781;-6538,979
 744,44;  916,730;64970,031;-6113,280
 745,01;  882,516;64970,285;-5760,581
 745,58;  918,302;64970,539;-6259,882
 746,16;  921,089;64970,793;-6188,184
 746,73;  988,875;64971,047;-6479,485
 747,30; 1012,661;61139,301;-6536,787
 747,88; 1025,447;59621,555;-5621,088
 748,45; 1069,234;64971,809;-5668,390
 749,02; 1065,020;64972,063;-6384,691
 749,60; 1086,806;62401,313;-6212,992
 750,17; 1180,593;61766,566;-5269,294
 750,74; 1170,379;62801,820;-6479,595
 751,31; 1256,165;63306,074;-6347,896
 751,89; 1273,951;64232,328;-6546,198
 752,46; 1298,738;64973,582;-6282,500
 753,03; 1301,524;64973,836;-6160,801
 753,61; 1246,310;63755,090;-4858,102
 754,18; 1211,096;64573,344;-6434,404
 754,75; 1169,883;63888,598;-5191,705
 755,32; 1094,669;60715,848;-6332,006
 755,90; 1051,455;64975,102;-6493,308
 756,47; 1004,242;64975,355;-4809,609
 757,04;  940,028;64975,609;-6457,911
 757,61;  931,814;64975,863;-5553,212
 758,19;  915,600;64976,117;-5253,514
 758,76;  778,387;64976,371;-6603,815
 759,33;  776,173;64976,625;-6664,116
 759,90;  715,959;64976,879;-5714,417
 760,48;  639,745;64977,133;-6778,719
 761,05;  659,532;64977,383;-6083,021
 761,62;  607,318;62082,637;-4888,322
 762,19;  550,104;58992,891;-6144,624
 762,77;  587,891;61730,145;-5963,925
 763,34;  461,677;64978,398;-6610,226
 763,91;  481,463;64978,652;-5818,527
 764,48;  453,249;64978,906;-6756,829
 765,05;  492,036;64979,160;-6543,130
 765,63;  516,822;63215,414;-6417,432
 766,20;  631,608;59753,668;-6004,733
 766,77;  525,394;57105,918;-5921,035
 767,34;  435,181;58807,172;-6640,336
 767,91;  412,967;59176,426;-6689,637
 768,49;  406,753;61368,680;-6772,939
 769,06;  434,540;64980,934;-5832,240
 769,63;  471,326;62272,188;-6636,542
 770,20;  444,112;59567,441;-5868,843
 770,77;  392,898;57921,695;-5645,145
 771,34;  367,685;60065,949;-6615,446
 771,91;  405,471;60549,203;-6102,747
 772,49;  373,257;58558,453;-6369,048
 773,06;  334,043;57687,707;-6203,350
 773,63;  367,830;60204,961;-6639,651
 774,20;  411,616;58197,215;-5918,953
 774,77;  396,402;56475,469;-6631,254
 775,34;  414,189;56707,723;-6214,556
 775,91;  403,975;57056,977;-6417,857
 776,49;  530,761;58787,230;-6590,158
 777,06;  592,547;60761,484;-6015,460
 777,63;  569,334;64224,738;-6367,761
 778,20;  490,120;62572,988;-6250,063
 778,77;  440,906;63316,242;-5763,364
 779,34;  363,692;64985,496;-6585,666
 779,91;  416,479;64985,750;-6534,967
 780,48;  367,265;59144,004;-5853,268
 781,05;  355,051;50716,258;-6586,570
 781,62;  388,838;52124,512;-6604,871
 782,20;  361,624;58813,766;-6500,172
 782,77;  330,410;64987,020;-6529,474
 783,34;  373,196;64052,273;-6522,775
 783,91;  384,983;61362,523;-6509,077
 784,48;  357,769;60480,777;-2126,378
 785,05;  352,555;59144,031;-6540,680
 785,62;  356,341;58221,285;-6452,981
 786,19;  360,128;58149,539;-5100,282
 786,76;  379,914;55130,793;-6677,583
 787,33;  345,700;56202,047;-6515,885
 787,90;  353,487;59491,301;-6591,187
 788,47;  335,273;60148,555;-5075,488
 789,04;  355,059;58988,809;-5763,790
 789,61;  346,845;58863,059;-5066,091
 790,18;  343,632;55747,313;-6561,392
 790,75;  345,418;50841,566;-6671,693
 791,32;  346,204;52056,820;-6577,995
 791,89;  277,990;55205,074;-6068,296
 792,46;  351,777;60806,328;-5763,598
 793,03;  301,563;62404,582;-6702,899
 793,60;  288,349;55699,836;-6440,201
 794,17;  295,136;52257,090;-5569,502
 794,74;  330,922;47273,344;-5886,803
 795,31;  347,708;50096,594;-6099,105
 795,88;  304,494;52579,848;-5572,406
 796,45;  251,281;53365,102;-6529,708
 797,02;  267,067;56004,355;-5046,009
 797,59;  270,853;57922,609;-6675,311
 798,16;  334,639;54563,863;-5861,612
 798,73;  237,426;53534,117;-6761,913
 799,30;  250,212;55088,371;-6611,214
 799,87;  235,998;55650,625;-6713,516
 800,44;  239,785;55353,875;-6729,817
 801,01;  253,571;56836,129;-6807,119
 801,58;  275,357;58477,383;-6537,420
 802,15;  267,143;52086,637;-6658,722
 802,72;  263,930;48849,891;-6694,023
 803,28;  221,716;52000,145;-6076,324
 803,85;  228,502;57179,398;-6728,626
 804,42;  295,288;55235,652;-5999,927
 804,99;  223,075;53752,906;-6539,229
 805,56;  219,861;52472,160;-6770,530
 806,13;  228,647;53387,410;-6075,832
 806,70;  299,434;52719,664;-6748,133
 807,27;  253,220;54477,918;-6672,434
 807,84;  199,006;52786,172;-6693,736
 808,41;  228,792;49728,426;-6022,037
 808,98;  229,579;50479,680;-5986,338
 809,54;  214,365;52469,934;-4958,640
 810,11;  219,151;48281,188;-6782,941
 810,68;  245,937;43021,441;-6680,243
 811,25;  208,724;41394,695;-6760,544
 811,82;  245,510;40374,945;-6886,846
 812,39;  203,296;37710,199;-3331,147
 812,96;  242,083;38779,453;-6767,448
 813,52;  236,869;41291,707;-6937,750
 814,09;  180,655;44522,961;-6766,051
 814,66;  208,441;50325,215;-6827,353
 815,23;  199,228;51240,469;-6669,654
 815,80;  231,014;50439,723;-5853,956
 816,37;  221,800;50917,977;-6801,257
 816,93;  203,586;49487,230;-6731,558
 817,50;  221,373;46790,480;-6102,859
 818,07;  255,159;46034,734;-6960,161
 818,64;  232,945;46919,988;-6856,462
 819,21;  265,732;46261,242;-6053,764
 819,77;  276,518;42742,496;-6571,065
 820,34;  219,304;42053,750;-6677,367
 820,91;  268,090;43276,004;-6469,668
 821,48;  302,877;43873,258;-6689,969
 822,05;  329,663;45571,512;-5875,271
 822,61;  284,449;44296,766;-5631,572
 823,18;  264,235;41860,016;-6620,874
 823,75;  228,022;42585,270;-6957,175
 824,32;  257,808;45286,523;-6923,477
 824,88;  234,594;45073,777;-6882,778
 825,45;  206,381;44018,031;-6899,079
 826,02;  252,167;43798,285;-6643,380
 826,59;  289,953;43974,539;-6639,682
 827,15;  204,739;46077,793;-6906,983
 827,72;  214,526;49519,047;-6723,285
 828,29;  242,312;51523,301;-6895,586
 828,86;  213,098;48827,551;-6791,888
 829,42;  193,884;40797,805;-6812,189
 829,99;  219,671;36802,059;-6647,490
 830,56;  184,457;36252,313;-6869,792
 831,13;  168,243;37220,566;-6060,093
 831,69;  207,030;38022,820;-6506,395
 832,26;  167,816;38832,074;-5062,696
 832,83;  180,602;40408,328;-5452,998
 833,39;  202,388;40187,582;-6904,299
 833,96;  204,175;39167,836;-6687,600
 834,53;  141,961;40039,086;-6928,902
 835,10;  157,747;39930,340;-6529,203
 835,66;  186,533;38972,594;-6920,504
 836,23;  199,320;39801,848;-6803,806
 836,80;  154,106;39428,102;-6790,107
 837,36;  176,892;37086,355;-6810,409
 837,93;  200,679;34475,609;-6902,710
 838,50;  204,465;35084,863;-6789,012
 839,06;  183,251;37684,117;-6288,313
 839,63;  150,037;37191,371;-6895,614
 840,19;  177,824;35132,621;-6607,916
 840,76;  191,610;35364,875;-6404,217
 841,33;  149,396;35892,129;-6509,519
 841,89;  170,182;36779,383;-6949,820
 842,46;  151,969;37103,637;-6751,122
 843,03;  217,755;35389,891;-6089,423
 843,59;  210,541;34224,145;-6403,724
 844,16;  201,328;34994,398;-6181,025
 844,73;  229,114;34249,652;-6067,327
 845,29;  213,900;32937,902;-5695,628
 845,86;  200,686;35699,156;-6800,930
 846,42;  161,473;36940,410;-7004,231
 846,99;  158,259;36477,664;-6967,533
 847,56;  124,045;36265,918;-5840,834
 848,12;  128,831;36240,172;-6745,135
 848,69;  157,618;35710,426;-6715,437
 849,25;  146,404;34401,680;-6845,738
 849,82;  170,190;34081,934;-3247,040
 850,38;  160,977;35064,188;-6840,341
 850,95;  125,763;32489,439;-6324,643
 851,52;  143,549;32520,693;-6565,944
 852,08;  144,335;32548,947;-6691,245
 852,65;   92,122;30323,199;-7005,546
 853,21;  114,908;27698,453;-6958,848
 853,78;  137,694;27362,707;-6363,149
 854,34;  124,480;28860,961;-6871,451
 854,91;  140,267;29081,215;-5086,752
 855,47;  212,053;29942,467;-5108,054
 856,04;  161,839;32027,721;-6746,355
 856,60;  102,626;33961,973;-6104,656
 857,17;  152,412;34979,227;-6840,958
 857,73;  140,198;33553,480;-6811,259
 858,30;  103,984;32532,734;-6985,561
 858,86;  132,771;31110,988;-5926,862
 859,43;  102,557;31430,242;-6226,164
 859,99;  119,343;32011,496;-6852,465
 860,56;  107,129;33126,750;-6903,766
 861,12;   94,916;35190,004;-6737,068
 861,69;  129,702;33669,258;-5924,369
 862,25;  204,488;34731,508;-6821,670
 862,82;  190,275;34419,762;-5972,972
 863,38;  174,061;31196,018;-6843,273
 863,95;  183,847;29305,270;-6239,575
 864,51;  193,633;30403,523;-5287,876
 865,08;  166,420;29284,777;-6090,178
 865,64;  137,206;26795,031;-7018,479
 866,21;   98,992;26131,285;-6745,780
 866,77;  125,778;26051,537;-5552,082
 867,34;  174,565;25734,791;-6672,383
 867,90;  171,351;24632,045;-6303,685
 868,46;  170,137;23835,299;-6041,986
 869,03;  100,924;24389,551;-6929,288
 869,59;  134,710;26353,805;-6884,589
 870,16;  172,496;27647,059;-6052,890
 870,72;  113,282;30060,313;-6657,191
 871,28;   92,069;32915,566;-5992,493
 871,85;  157,855;33142,820;-6907,794
 872,41;  130,641;31569,072;-6004,096
 872,98;  151,427;32738,326;-6050,397
 873,54;  101,214;33876,578;-5920,699
 874,10;  165,000;32768,832;-5876,000
 874,67;   84,000;32987,832;-6904,000
 875,23;  126,000;31068,834;-7032,000
 875,80;  121,000;28009,834;-6641,000
 876,36;  118,000;25058,834;-6642,000
 876,92;  170,000;22832,834;-6189,000
 877,49;  131,000;23923,834;-6517,000
 878,05;  116,000;24896,834;-6797,000
 878,61;  160,000;26938,834;-6812,000
 879,18;  122,000;27553,834;-6252,000
 879,74;  124,000;28076,834;-6720,000
 880,30;   75,000;28679,834;-5926,000
 880,87;   85,000;28852,834;-6326,000
 881,43;  133,000;29533,834;-6871,000
 881,99;   98,000;27306,834;-6879,000
 882,56;   85,000;27610,834;-6661,000
 883,12;  153,000;29049,834;-5740,000
 883,68;  100,000;29120,834;-6518,000
 884,25;  140,000;28300,834;-6949,000
 884,81;   84,000;26343,834;-6701,000
 885,37;   70,000;24221,834;-6786,000
 885,94;   98,000;22940,834;-6851,000
 886,50;   77,000;23098,834;-6886,000
 887,06;   77,000;24358,834;-6796,000
 887,62;   93,000;25019,834;-6866,000
 888,19;   70,000;25774,834;-5986,000
 888,75;   80,000;26542,834;-6821,000
 889,31;  138,000;29043,834;-6778,000
 889,87;   96,000;30537,834;-6723,000
 890,44;  104,000;30349,834;-6696,000
 891,00;   76,000;28757,834;-6786,000
 891,56;   83,000;26457,834;-6998,000
 892,12;  138,000;24463,834;-6754,000
 892,69;  109,000;25310,834;-6373,000
 893,25;   45,000;28798,834;-6877,000
 893,81;  123,000;31774,834;-6696,000
 894,37;  119,000;31330,834;-6342,000
 894,94;   78,000;28713,834;-6772,000
 895,50;  126,000;26035,834; -212,000
 896,06;  108,000;24749,834;-6810,000
 896,62;  119,000;23405,834;-6707,000
 897,18;  119,000;24661,834;-6518,000
 897,75;  152,000;27406,834;-6895,000
 898,31;  168,000;27887,834;-6849,000
 898,87;  123,000;26274,834;-6860,000
 899,43;  137,000;25164,834;-6469,000
 899,99;  101,000;26592,834;-6866,000
 900,56;  149,000;25515,834;-6791,000
 901,12;  147,000;24875,834;-6890,000
 901,68;  153,000;27903,834;-6267,000
 902,24;  140,000;31800,834;-5930,000
 902,80;  134,000;32652,834;-6794,000
 903,36;  180,000;31893,834;-6691,000
 903,93;  185,000;32139,834;-6646,000
 904,49;  268,000;32761,834;-6913,000
 905,05;  607,000;30952,834;-6732,000
 905,61; 1380,000;28208,834;-6832,000
 906,17; 2487,000;28086,834;-6901,000
 906,73; 3632,000;25975,834;-5380,000
 907,29; 4805,000;24960,834;-6910,000
 907,86; 5543,000;25118,834;-6827,000
 908,42; 5493,000;28092,834;-6795,000
 908,98; 4339,000;31123,834;-5908,000
 909,54; 2279,000;38813,832;-6885,000
 910,10;  778,000;48220,832;-6634,000
 910,66;  217,000;57581,832;-6781,000
 911,22;  182,000;65027,832;-6761,000
 911,78;   87,000;62593,832;-6841,000
 912,34;  119,000;53256,832;-6080,000
 912,90;  164,000;44610,832;-5232,000
 913,46;  136,000;37052,832;-6876,000
 914,03;  126,000;30620,834;-5746,000
 914,59;  155,000;27452,834;-6682,000
 915,15;   87,000;24908,834;-6891,000
 915,71;  139,000;24217,834;-6863,000
 916,27;   71,000;23800,834;-6723,000
 916,83;   76,000;23006,834;-5824,000
 917,39;   93,000;21742,834;-3512,000
 917,95;  107,000;20224,834;-6009,000
 918,51;  169,000;19972,834;-6583,000
 919,07;  109,000;21780,834;-6791,000
 919,63;   95,000;23295,834;-6661,000
 920,19;   58,000;23935,834;-6865,000
 920,75;   83,000;23112,834;-6640,000
 921,31;   80,000;21484,834;-4837,000
 921,87;   98,000;20216,834;-6845,000
 922,43;   81,000;18019,834;-5626,000
 922,99;  120,000;17321,834;-6706,000
 923,55;  115,000;18674,834;-6655,000
 924,11;  111,000;19094,834;-6976,000
 924,67;  120,000;19310,834;-6962,000
 925,23;  116,000;19485,834;-6778,000
 925,79;  113,000;20122,834;-6710,000
 926,35;  119,000;20219,834;-6573,000
 926,91;   97,000;19401,834;-6909,000
 927,47;   97,000;19367,834;-6660,000
 928,03;  151,000;20294,834;-6786,000
 928,59;  130,000;20503,834;-6678,000
 929,15;  145,000;20781,834;-6792,000
 929,71;  144,000;22016,834;-6840,000
 930,27;  174,000;23587,834;-6537,000
 930,82;  159,000;25573,834;-6728,000
 931,38;   90,000;24317,834;-5852,000
 931,94;   78,000;22672,834;-6843,000
 932,50;  141,000;21252,834;-6481,000
 933,06;  104,000;20895,834;-6768,000
 933,62;  101,000;21092,834;-6443,000
 934,18;  114,000;20632,834;-6727,000
 934,74;  112,000;21320,834;-6709,000
 935,30;  146,000;22030,834;-6484,000
 935,86;  103,000;21213,834;-6505,000
 936,42;  100,000;20702,834;-6873,000
 936,97;   90,000;21656,834;-6563,000
 937,53;  109,000;20552,834;-6826,000
 938,09;   92,000;21087,834;  123,000
 938,65;  113,000;21186,834;-6268,000
 939,21;  107,000;20179,834;-6708,000
 939,77;   90,000;18946,834;-6213,000
 940,33;   74,000;18602,834;-6748,000
 940,88;   97,000;19429,834;-5908,000
 941,44;  118,000;21301,834;-6983,000
 942,00;  101,000;23225,834;-6697,000
 942,56;   98,000;24231,834;-6604,000
 943,12;   88,000;23427,834;-5907,000
 943,68;  116,000;22950,834;-5679,000
 944,23;  122,000;23124,834;-6749,000
 944,79;   16,000;22674,834;-6102,000
 945,35;   76,000;20741,834;-6599,000
 945,91;  117,000;19519,834;-6767,000
 946,47;  129,000;19827,834;-3353,000
 947,03;   94,000;19896,834;-6850,000
 947,58;  117,000;19661,834;-6840,000
 948,14;  131,000;20790,834;-5897,000
 948,70;  114,000;19573,834;-5855,000
 949,26;   90,000;18881,834;-6616,000
 949,81;   84,000;18342,834;-6644,000
 950,37;   62,000;18686,834;-6695,000
 950,93;  125,000;17993,834;-6224,000
 951,49;   68,000;17568,834;-6057,000
 952,05;   80,000;17926,834;-6571,000
 952,60;   77,000;17299,834;-6951,000
 953,16;   72,000;16933,834;-5783,000
 953,72;   66,000;15628,833;-5813,000
 954,27;   81,000;15524,833;-6566,000
 954,83;   89,000;15317,833;-6703,000
 955,39;   96,000;14917,833;-6691,000
 955,95;   63,000;14456,833;-6849,000
 956,50;  110,000;14272,833;-6698,000
 957,06;   46,000;14126,833;-5922,000
 957,62;   70,000;13780,833;-6559,000
 958,18;   93,000;13872,833;-6741,000
 958,73;   99,000;13326,833;-6820,000
 959,29;   80,000;13518,833;-6106,000
 959,85;   78,000;14785,833;-6864,000
 960,40;  108,000;16746,834;-4263,000
 960,96;  138,000;16386,834;-6738,000
 961,52;  137,000;14755,833;-6643,000
 962,07;  101,000;13711,833;-6742,000
 962,63;   94,000;13208,833;-6723,000
 963,19;   77,000;13435,833;-5779,000
 963,74;  122,000;13877,833;-6582,000
 964,30;   76,000;14475,833;-6595,000
 964,86;   90,000;14281,833;-6484,000
 965,41;  142,000;14290,833;-6705,000
 965,97;   60,000;14185,833;-6569,000
 966,53;   78,000;14792,833;-6750,000
 967,08;   95,000;15311,833;-6611,000
 967,64;  104,000;15082,833;-6705,000
 968,19;  132,000;14471,833;-6684,000
 968,75;   97,000;14662,833;-6566,000
 969,31;   92,000;14880,833;-5626,000
 969,86;  115,000;14995,833;-6505,000
 970,42;  125,000;13195,833;-6620,000
 970,97;  115,000;11567,833;-6437,000
 971,53;  108,000;11625,833;-6490,000
 972,09;   81,000;12998,833;-6646,000
 972,64;  125,000;13523,833;-5812,000
 973,20;  108,000;13815,833;-6599,000
 973,75;   97,000;14605,833;-5760,000
 974,31;  143,000;14826,833;-6578,000
 974,87;  106,000;14921,833;-6674,000
 975,42;   98,000;14507,833;-6727,000
 975,98;   89,000;13201,833;-6651,000
 976,53;  140,000;12100,833;-6555,000
 977,09;  101,000;11353,833;-4624,000
 977,64;   94,000;11164,833;-6532,000
 978,20;  110,000;10649,833;-6585,000
 978,75;  122,000;10482,833;-6429,000
 979,31;  119,000;10950,833;-6513,000
 979,86;  102,000;12220,833;-6739,000
 980,42;  116,000;12828,833;-5813,000
 980,97;  136,000;13290,833;-6642,000
 981,53;  202,000;14285,833;-6636,000
 982,08;  145,000;13803,833;-5046,000
 982,64;  158,000;12278,833;-6237,000
 983,19;   77,000;11308,833;-6760,000
 983,75;  173,000;10993,833;-6576,000
 984,30;  110,000;10430,833;-5581,000
 984,86;  104,000; 9867,833;-5898,000
 985,41;  142,000; 9457,833;-6634,000
 985,97;  170,000; 9632,833;-4797,000
 986,52;  120,000; 9894,833;-5853,000
 987,08;  124,000; 9953,833;-6174,000
 987,63;  113,000;10165,833;-5608,000
 988,19;  136,000;11252,833;-6266,000
 988,74;  112,000;11710,833;-5682,000
 989,30;  137,000;11529,833;-6568,000
 989,85;  153,000;11470,833; -276,000
 990,40;  156,000;11314,833;-6617,000
 990,96;  137,000;11060,833;-6482,000
 991,51;  207,000;11149,833;-6578,000
 992,07;   98,000;10742,833;-6605,000
 992,62;  104,000;10285,833;-6519,000
 993,18;   97,000;10035,833;-6504,000
 993,73;  154,000; 9986,833;-6440,000
 994,28;  155,000; 9800,833;-6464,000
 994,84;  152,000; 9019,833;-6240,000
 995,39;  137,000; 8474,833;-2971,000
 995,94;  158,000; 7953,833;-5673,000
 996,50;  142,000; 7647,833;-6543,000
 997,05;  139,000; 7872,833;-3481,000
 997,61;  153,000; 8363,833;-6489,000
 998,16;  150,000; 8581,833;-6555,000
 998,71;  178,000; 8850,833;-6340,000
 999,27;  124,000; 9115,833;-5223,000
 999,82;  177,000; 8706,833;-4778,000
1000,37;  154,000; 8661,833;-6520,000
1000,93;  154,000; 8920,833;-6107,000
1001,48;  154,000; 8799,833;-6543,000
1002,03;  131,000; 8477,833;-6469,000
1002,59;  194,000; 8715,833;-5972,000
1003,14;  154,000; 8758,833;-6113,000
1003,69;  196,000; 8484,833;-6513,000
1004,25;  152,000; 8299,833;-6507,000
1004,80;  203,000; 8322,833;-6266,000
1005,35;  196,000; 8313,833;-6361,000
1005,91;  206,000; 8515,833;-6558,000
1006,46;  149,000; 8426,833;-6084,000
1007,01;  203,000; 8227,833;-5479,000
1007,56;  213,000; 8599,833;-6440,000
1008,12;  191,000; 8342,833;-6178,000
1008,67;  212,000; 7867,833;-6312,000
1009,22;  220,000; 7509,833;-6481,000
1009,78;  229,000; 7205,833;-6163,000
1010,33;  262,000; 6649,833;-6443,000
1010,88;  211,000; 6413,833;-5618,000
1011,43;  199,000; 5995,833;-6433,000
1011,99;  209,000; 5972,833;-6198,000
1012,54;  206,000; 6320,833;-6387,000
1013,09;  232,000; 6048,833;-6299,000
1013,64;  237,000; 5802,833;-6362,000
1014,19;  227,000; 5823,833;-6442,000
1014,75;  242,000; 5928,833;-6408,000
1015,30;  274,000; 6394,833;-6425,000
1015,85;  245,000; 6370,833;-6367,000
1016,40;  268,000; 6247,833;-5436,000
1016,96;  307,000; 6235,833;-6268,000
1017,51;  290,000; 6150,833;-6351,000
1018,06;  284,000; 6095,833;-6310,000
1018,61;  280,000; 5695,833;-6665,000
1019,16;  293,000; 5609,833;-6697,000
1019,71;  377,000; 5663,833;-6373,000
1020,27;  348,000; 5567,833;-6353,000
1020,82;  401,000; 5375,833;-3700,000
1021,37;  415,000; 5405,833;-4798,000
1021,92;  384,000; 5984,833;-6454,000
1022,47;  360,000; 5965,833;-6548,000
1023,02;  397,000; 5463,833;-6512,000
1023,58;  492,000; 5045,833;-6573,000
1024,13;  521,000; 4730,833;-6258,000
1024,68;  491,000; 4434,833;-6298,000
1025,23;  473,000; 4324,833;-5525,000
1025,78;  542,000; 4613,833;-6475,000
1026,33;  515,000; 4932,833;-5510,000
1026,88;  620,000; 4843,833;-6236,000
1027,43;  589,000; 5167,833;-6276,000
1027,99;  688,000; 5134,833;-6002,000
1028,54;  716,000; 4732,833;-6395,000
1029,09;  775,000; 4106,833;-2478,000
1029,64;  861,000; 3919,833;-6303,000
1030,19;  934,000; 4147,833;-3821,000
1030,74;  993,000; 4243,833;-5134,000
1031,29; 1033,000; 4284,833;-4765,000
1031,84; 1135,000; 4491,833;-6300,000
1032,39; 1158,000; 4563,833;-5403,000
1032,94; 1238,000; 4617,833;-4326,000
1033,49; 1364,000; 4361,833;-5476,000
1034,04; 1426,000; 4236,833;-6312,000
1034,59; 1559,000; 4205,833;-6507,000
1035,14; 1632,000; 4117,833;-6145,000
1035,69; 1770,000; 4318,833;-6224,000
1036,24; 1891,000; 4104,833;-4477,000
1036,80; 2060,000; 3986,833;-5453,000
1037,35; 2191,000; 4138,833;-6347,000
1037,90; 2453,000; 4172,833;-6274,000
1038,45; 2506,000; 4201,833;-6419,000
1039,00; 2691,000; 4340,833;-5490,000
1039,55; 2853,000; 4229,833;-6284,000
1040,10; 3029,000; 3977,833;-5615,000
1040,65; 3254,000; 3916,833;-5576,000
1041,20; 3500,000; 3850,833;-6325,000
1041,75; 3827,000; 4030,833;-4522,000
1042,30; 4088,000; 4164,833;-3585,000
1042,84; 4524,000; 4338,833;-4439,000
1043,39; 4966,000; 4248,833;-6313,000
1043,94; 5459,000; 4175,833;-5342,000
1044,49; 6061,000; 3887,833;-6246,000
1045,04; 6673,000; 3710,833;-5800,000
1045,59; 7461,000; 3809,833;-6299,000
1046,14; 8402,000; 3732,833;-6392,000
1046,69; 9555,000; 3591,833;-6294,000
1047,24;10630,000; 3623,833;-5510,000
1047,79;11986,000; 3737,833;-6139,000
1048,34;13542,000; 4002,833;-5961,000
1048,89;15750,000; 3948,833;-6259,000
1049,44;17939,000; 3935,833;-5172,000
1049,99;21932,000; 3855,833;-4844,000
1050,54;27464,000; 3876,833;-6249,000
1051,08;37402,000; 3961,833;-6178,000
1051,63;56134,000; 4050,833;-5285,000
1052,18;65146,000; 5051,833;-6127,000
1052,73;65146,000; 7151,833;-6173,000
1053,28;65146,000;10516,833;-6386,000
1053,83;65146,000;15224,833;-6214,000
1054,38;65146,000;19203,834;-6254,000
1054,93;65146,000;21243,834;-6285,000
1055,47;65146,000;23825,834;-5328,000
1056,02;65146,000;26212,834;-5832,000
1056,57;65146,000;27830,834;-6198,000
1057,12;65146,000;30497,834;-6378,000
1057,67;65146,000;33805,832;-6078,000
1058,22;65146,000;36084,832;-6313,000
1058,76;65146,000;38542,832;-6093,000
1059,31;65146,000;44129,832;-3514,000
1059,86;65146,000;48778,832;-6204,000
1060,41;65146,000;49718,832;-6152,000
1060,96;65146,000;51396,832;-6226,000
1061,51;65146,000;53649,832;-5344,000
1062,05;65146,000;54082,832;-6122,000
1062,60;65146,000;50555,832;-6061,000
1063,15;65146,000;45221,832;-6149,000
1063,70;65146,000;41550,832;-6250,000
1064,24;65146,000;43676,832;-6169,000
1064,79;65146,000;45461,832;-6144,000
1065,34;65146,000;43989,832;-6064,000
1065,89;65146,000;41776,832;-6202,000
1066,44;65146,000;37631,832;-6120,000
1066,98;65146,000;32612,834;-6224,000
1067,53;65146,000;30790,834;-5953,000
1068,08;65146,000;30368,834;-4845,000
1068,63;65146,000;27618,834;-6096,000
1069,17;65146,000;24647,834;-5893,000
1069,72;65146,000;22350,834;-5857,000
1070,27;65146,000;20529,834;-6040,000
1070,81;65146,000;20388,834;-5996,000
1071,36;65146,000;20367,834;-3883,000
1071,91;65146,000;18745,834;  966,000
1072,46;65146,000;16791,834;-5058,000
1073,00;65146,000;14646,833;-5239,000
1073,55;65146,000;11404,833;-5935,000
1074,10;65146,000; 7803,833;-5981,000
1074,64;65146,000; 5240,833;-5860,000
1075,19;50714,000; 3535,833;-4958,000
1075,74;32806,000; 2551,833;-6091,000
1076,28;23429,000; 2312,833;-6075,000
1076,83;18098,000; 1951,833;-5286,000
1077,38;14525,000; 1820,833;-5653,000
1077,92;11986,000; 1783,833;-6332,000
1078,47; 9952,000; 1629,833;-5507,000
1079,02; 8374,000; 1578,833;-5959,000
1079,56; 7176,000; 1557,833;-5328,000
1080,11; 5980,000; 1304,833;-6094,000
1080,65; 5238,000; 1241,833;-5039,000
1081,20; 4479,000; 1186,833;-6151,000
1081,75; 3882,000; 1125,833;-6039,000
1082,29; 3445,000; 1128,833; -139,000
1082,84; 2969,000; 1184,833;-2678,000
1083,39; 2638,000; 1294,833;-5061,000
1083,93; 2379,000; 1335,833;-5025,000
1084,48; 2284,000; 1196,833;-5961,000
1085,02; 2088,000; 1082,833;-5783,000
1085,57; 1896,000; 1074,833;-5994,000
1086,11; 1826,000; 1079,833;-5968,000
1086,66; 1711,000;  925,833;-5584,000
1087,21; 1667,000; 1060,833;-5802,000
1087,75; 1521,000;  939,833;-6125,000
1088,30; 1415,000;  815,833;-5040,000
1088,84; 1274,000;  783,833;-5963,000
1089,39; 1265,000;  656,833;-5965,000
1089,93; 1221,000;  664,833;-6100,000
1090,48; 1036,000;  649,833;-4394,000
1091,02; 1121,000;  733,833;-5181,000
1091,57; 1040,000;  629,833;-5479,000
1092,11;  970,000;  642,833;-4094,000
1092,66;  966,000;  624,833;-6031,000
1093,20;  921,000;  580,833;-5180,000
1093,75;  976,000;  566,833;-4998,000
1094,29;  865,000;  486,833;-4979,000
1094,84;  844,000;  525,833;-5890,000
1095,38;  786,000;  528,833;-5097,000
1095,93;  812,000;  584,833;-5981,000
1096,47;  735,000;  615,833;-5612,000
1097,02;  692,000;  587,833;-4985,000
1097,56;  689,000;  614,833;-5772,000
1098,11;  652,000;  552,833;-5774,000
1098,65;  665,000;  508,833;-5992,000
1099,20;  585,000;  577,833;-5935,000
1099,74;  589,000;  487,833;-6002,000
1100,29;  566,000;  513,833;-4879,000
1100,83;  499,000;  496,833;-5934,000

