
Integration time [ms]:   0,030
Averaging Nr. [scans]: 1
Smoothing Nr. [pixels]: 0
Data measured with spectrometer [name]: 1703254U1
Wave   ;Sample   ;Dark     ;Reference;Scope
[nm]   ;[counts] ;[counts] ;[counts] 

 190,08;  -74,520; -370,119;11982,743
 190,69;  -55,835; -359,404;11603,049
 191,29;  -57,374; -311,651;11479,965
 191,90;  -67,156; -365,508;11440,717
 192,50;  -65,397; -379,511;10355,099
 193,10;  -44,514; -446,299;11244,381
 193,71;  -64,188; -367,888; 9821,736
 194,31;  -58,583; -399,273; 9436,327
 194,91;  -58,583; -382,273; 9291,327
 195,52;  -65,507; -338,386;10555,949
 196,12;  -41,217; -397,056; 8671,847
 196,72;  -61,111; -386,394; 8220,904
 197,32;  -64,188; -375,888; 8251,736
 197,93;  -47,042; -360,420; 8700,957
 198,53;  -60,451; -383,145; 7601,797
 199,13;  -67,485; -397,132; 8091,270
 199,74;  -52,318; -366,410; 7263,813
 200,34;  -48,581; -388,667; 7832,874
 200,94;  -46,053; -436,547; 6941,297
 201,55;  -55,835; -406,404; 7119,049
 202,15;  -59,022; -375,773; 6404,732
 202,75;  -89,358; -373,217; 6097,647
 203,36;  -50,339; -338,664; 6822,492
 203,96; -101,887; -357,943; 6332,678
 204,56;  -53,856; -355,657;10275,729
 205,16;  -61,440; -363,018; 5478,458
 205,77;  -74,410; -360,244; 4767,892
 206,37;  -62,320; -409,017; 5556,267
 206,97;  -66,057; -363,760; 5129,205
 207,58;  -49,020; -364,166; 5927,278
 208,18;  -69,244; -337,129; 5129,889
 208,78;  -66,606; -404,134; 5295,461
 209,38;  -49,680; -469,415; 4958,385
 209,99;  -49,570; -356,540; 3837,534
 210,59;  -51,219; -361,662; 3890,301
 211,19;  -50,449; -364,538; 3938,343
 211,79;  -43,085; -366,927; 4499,316
 212,40;  -71,442; -373,625; 3368,911
 213,00;  -62,430; -388,891; 3903,118
 213,60;  -67,705; -386,882; 2992,972
 214,20;  -82,323; -401,230; 3081,175
 214,81;  -74,959; -422,618; 2884,148
 215,41;  -82,543; -376,979; 3235,877
 216,01; -102,657; -373,067; 3109,636
 216,61;  -58,473; -367,399; 2814,476
 217,22;  -98,041; -381,326; 2358,888
 217,82;  -94,098; -325,173; 2262,495
 218,42;  -92,435; -383,711; 2389,480
 219,02;  -97,161; -288,327; 3432,079
 219,63;  -80,345; -357,483; 2044,854
 220,23;  -83,752; -366,602; 2425,239
 220,83;  -81,884; -395,730; 1901,770
 221,43; -100,788; -393,195; 1850,167
 222,03; -103,646; -348,940; 2326,296
 222,64;  -85,731; -380,348; 1769,560
 223,24;  -89,577; -298,966; 1625,350
 223,84; -105,075; -376,313; 2637,361
 224,44; -101,228; -316,695; 2381,571
 225,05;  -97,491; -313,952; 1440,632
 225,65; -103,536; -301,065; 1227,445
 226,25;  -89,215; -364,961; 1139,777
 226,85; -106,833; -294,309;  995,979
 227,45;  -95,073; -335,706; 1083,907
 228,06;  -93,205; -365,834; 1945,438
 228,66;  -92,655; -349,460; 4049,182
 229,26;  -91,965; -313,438; 1131,510
 229,86;  -89,248; -396,342; 1760,797
 230,46; -101,668; -358,194;  891,976
 231,06; -101,448; -320,444;  757,273
 231,67;  -81,004; -346,732; 1228,961
 232,27; -117,825; -343,789;  778,094
 232,87; -107,273; -308,808;  526,384
 233,47; -121,012; -321,158;  525,777
 234,07;  -78,586; -268,486; 9912,235
 234,67; -131,673; -291,013;  672,338
 235,28; -121,012; -319,158;   65,777
 235,88; -135,300; -316,882;  285,426
 236,48; -100,239; -350,821;  165,911
 237,08; -110,297; -267,669;  448,518
 237,68; -137,499; -369,378; -267,552
 238,28; -115,738; -304,774; -106,624
 238,89; -124,410; -212,756; -205,723
 239,49; -126,398; -282,023; 1280,483
 240,09; -125,830; -284,608; -190,544
 240,69; -140,136; -251,373; -319,124
 241,29; -123,727; -289,647;  651,036
 241,89; -127,167; -330,147; -260,559
 242,49; -102,423; -248,490; -358,930
 243,10; -140,906; -201,496; 3664,834
 243,70; -117,423; -284,490;  239,070
 244,30;  -87,268; -275,501; -708,594
 244,90;  -97,899; -188,582; -568,598
 245,50; -148,809; -177,355; 3274,777
 246,10; -131,882; -307,636; -831,300
 246,70; -139,587; -300,999;   17,620
 247,30; -115,244; -251,641;  326,273
 247,91; -156,073; -208,218; 5781,292
 248,51; -102,798; -270,228; -806,563
 249,11; -101,234; -239,514;  417,933
 249,71;  -84,311; -303,008; -667,235
 250,31; -104,940; -265,483; -567,693
 250,91;  -83,147; -238,500;   75,216
 251,51; -112,556; -199,225; -822,945
 252,11;  -99,230; -239,813;  367,410
 252,71; -111,994; -269,117;-1080,994
 253,31;  -94,326; -222,348; 3228,013
 253,91;  -94,537; -236,578; -676,170
 254,52; -132,843; -237,342;-1063,750
 255,12; -103,940; -293,483;-1104,693
 255,72;   -8,654; -206,366;  557,112
 256,32; -150,769; -242,061; -966,674
 256,92;  -87,493; -190,070;-1147,529
 257,52;  -46,776; -173,974; -883,243
 258,12;  -91,700; -201,087;  -91,621
 258,72; -120,989; -210,810;-1232,972
 259,32;  -51,360; -211,335;-1169,514
 259,92;  -64,998; -199,330;-1343,086
 260,52;  -32,655; -192,973;-1077,433
 261,12;  -48,648; -202,059; -662,865
 261,72; -134,646; -238,452;-1312,319
 262,32;  -54,227; -215,600;-1561,498
 262,92; -117,715; -238,426;  405,627
 263,53;  -51,065; -189,698;-1277,594
 264,13; -104,000; -262,937; -268,632
 264,73;  -71,866; -217,202;-1694,617
 265,33;  -21,032; -188,317;-1708,613
 265,93;  -61,066; -147,304;-1345,140
 266,53;  -65,683; -161,046;-1544,392
 267,13;  -98,848; -139,161; -857,388
 267,73;  -72,607; -185,158;  270,230
 268,33; -109,773; -166,274;-1788,766
 268,93;  -63,789; -213,708;-1702,449
 269,53;  -62,012; -204,670; -644,839
 270,13;  -79,023; -201,797;-1810,499
 270,73;  -88,739; -245,287;-1891,239
 271,33;  -69,616; -200,678;-1778,884
 271,93;  -51,672; -242,919;-1867,732
 272,53;  -27,402; -121,748;    8,776
 273,13;  -37,495; -146,677;-1117,075
 273,73; -101,764; -119,753;-1955,652
 274,33;  -57,836; -148,428;-2041,182
 274,93;  -51,785; -188,007;-1843,972
 275,53;  -47,402;  -68,748;-1881,224
 276,13; -101,647; -121,965;-2261,935
 276,73; -104,886; -118,361;-1570,007
 277,33;  -74,432; -179,522;-1926,659
 277,93;  -21,737; -213,680;-1864,693
 278,53;  -46,674; -194,526;-2112,278
 279,13;  -49,225; -125,506;-2152,568
 279,73;  -61,622; -140,498;-1388,522
 280,33;  -57,005; -154,756;-2179,270
 280,93;    5,180; -105,994;-2049,499
 281,53;  -52,818; -147,387;-2252,953
 282,13;  -48,007; -127,363;-2193,816
 282,73;  -99,413; -156,875; -385,885
 283,33;  -35,171; -137,872;-2307,266
 283,92;   11,948;  -74,477;-2028,003
 284,52;  -51,986;  -94,109;-2365,496
 285,12;  -35,553; -138,524;-1425,469
 285,72;  -17,103; -126,898;-1041,213
 286,32;   -6,391;  -55,622;-1313,564
 286,92;  -52,312; -163,521;-2376,850
 287,52;  -25,191;  -89,519;-2170,041
 288,12;   -6,488;  -97,763;-2542,507
 288,72;  -11,991; -106,417;-1625,518
 289,32;    0,431;  -54,470; 1692,233
 289,92;    5,469; -106,270;-2344,148
 290,52; -103,463;  -91,809;-2485,710
 291,12;  -16,940;  -57,996;-1570,308
 291,72;  -43,052;  -74,477;-1590,003
 292,32;   12,083;  -83,135;-2372,442
 292,92;   36,443;   -2,737;-2481,560
 293,51;   -8,778;  -37,093;-2532,404
 294,11;   13,169;  -42,121;-1681,160
 294,71;    9,103;   -7,488;-2695,667
 295,31;  -10,040;  -24,743;-1755,797
 295,91;   68,038;   46,751;-2713,629
 296,51;   57,441;   62,656;-1776,106
 297,11;   33,285;   35,061;-2900,988
 297,71;    9,070;    4,131;-2726,648
 298,31;  104,469;   38,730;-2329,148
 298,91;  115,400;   74,756;-2483,202
 299,50;   52,816;   41,395;-2689,473
 300,10;  200,773;  145,887;-2706,114
 300,70;  171,310;   95,528;-2492,576
 301,30;  195,719;   89,253;-2855,415
 301,90;  246,357;   96,248;-2004,843
 302,50;  292,234;  163,640;-2515,198
 303,10;  395,708;  124,126;-2530,076
 303,70;  434,683;  208,660;-3000,488
 304,29;  586,067;  189,918;-2658,740
 304,89;  895,933;  266,183;-1090,755
 305,49; 1285,308;  163,922;-2773,122
 306,09; 1402,191;  214,133;-2874,839
 306,69; 1504,952;  262,736;-2915,911
 307,29; 2175,083;  312,865;-2008,442
 307,89; 3918,782;  303,408;-3029,000
 308,48; 5028,728;  341,774;-2453,301
 309,08; 5279,654;  369,492;-2743,377
 309,68; 4227,146;  377,019;-3094,026
 310,28; 2531,897;  371,102;-2576,213
 310,88; 1617,580;  321,211;-2936,453
 311,48; 1319,258;  447,500;-2875,331
 312,07; 1064,764;  408,367;-2963,228
 312,67; 1010,359;  497,855;-2128,297
 313,27;  886,395;  494,448;-1105,224
 313,87;  786,040;  583,357;-2164,083
 314,47;  755,317;  516,954;-3030,392
 315,06;  806,132;  620,191; 2713,837
 315,66;  824,852;  579,988;-3245,400
 316,26;  791,110;  632,938;-1844,483
 316,86;  793,404;  777,969;-3140,110
 317,46;  998,298;  720,307;-2115,167
 318,06; 1041,220;  739,813; -825,335
 318,65; 1075,375;  781,801;-2807,999
 319,25;  809,134;  821,798;-3195,617
 319,85;  737,519;  932,663;-2908,323
 320,45;  733,487;  986,283;-3213,304
 321,05;  762,642;  901,271;-2761,968
 321,64;  655,146;  889,531;-3219,411
 322,24;  765,437; 1056,861;-3265,513
 322,84;  791,514; 1080,356;-3261,345
 323,44;  708,118; 1133,364;-3219,300
 324,03;  830,766; 1194,486;-3072,067
 324,63;  896,231; 1250,452;-2310,059
 325,23;  865,981; 1241,928;-3097,792
 325,83;  859,457; 1367,021;-2876,123
 326,42;  926,096; 1442,622;-3285,005
 327,02; 1039,785; 1476,551;-3076,607
 327,62; 1070,174; 1439,629;-2505,221
 328,22; 1018,956; 1553,486;-3234,973
 328,82;  972,854; 1577,037;-2229,938
 329,41; 1074,498; 1658,852;-3016,728
 330,01; 1172,893; 1652,750;-2961,704
 330,61; 1199,855; 1806,062;-2928,707
 331,20; 1115,601; 1778,325;-2868,531
 331,80; 1222,673; 1762,512;-2794,386
 332,40; 1212,468; 1752,102;-2896,932
 333,00; 1308,331; 1933,667;-2790,423
 333,59; 1298,652; 1748,771;-2855,091
 334,19; 1369,720; 1920,745;-1771,037
 334,79; 1305,468; 1712,615;-2861,316
 335,39; 1247,232; 1729,919;-2978,912
 335,98; 1252,832; 1726,714;-3126,958
 336,58; 1149,540; 1659,777;-3191,401
 337,18; 1163,660; 1720,779;-2958,592
 337,77; 1134,006; 1782,837;-2098,463
 338,37; 1188,136; 1806,359;-2021,540
 338,97; 1161,947; 1907,384;-2912,402
 339,57; 1181,810; 1862,948;-3044,894
 340,16; 1211,042; 1836,431;-2881,390
 340,76; 1157,116; 1962,712;-3053,314
 341,36; 1198,758; 1861,920;-3195,650
 341,95; 1201,190; 1934,506;-3027,623
 342,55; 1237,147; 1918,998;  703,736
 343,15; 1240,331; 2048,155;-3094,039
 343,74; 1285,046; 1924,644;-2382,298
 344,34; 1222,255; 1860,267;-3015,661
 344,94; 1227,001; 2068,530;-3069,485
 345,53; 1288,936; 2110,769;-2860,447
 346,13; 1304,628; 2174,398;-1283,573
 346,73; 1327,776; 1966,473;-2254,805
 347,32; 1440,408; 2268,649;-3080,871
 347,92; 1390,787; 2312,600;-2277,145
 348,52; 1450,518; 2270,523;-1878,722
 349,11; 1332,570; 2336,551;  975,034
 349,71; 1456,132; 2330,658;-3240,016
 350,31; 1547,783; 2441,387;-2672,237
 350,90; 1599,077; 2483,418;-2326,863
 351,50; 1745,688; 2390,852;-2105,634
 352,10; 1938,675; 2471,119;-3114,840
 352,69; 2237,738; 2532,273;-3182,424
 353,29; 2239,078; 2563,024;-3191,317
 353,89; 2305,760; 2645,527;-3255,104
 354,48; 2611,675; 2693,119;-3208,840
 355,08; 2929,819; 2871,980;-1117,164
 355,67; 3215,406; 2850,042;-2951,417
 356,27; 4035,399; 2839,128;-3232,985
 356,87; 5320,824; 3010,288;-3383,142
 357,46; 7931,042; 3049,431;-2351,390
 358,06;11655,065; 3306,291;-3073,523
 358,66;12764,069; 3337,504;-3109,432
 359,25;11049,626; 3260,792;-2344,119
 359,85;10453,736; 3365,667;-3215,970
 360,44; 9904,354; 3389,015;-3292,172
 361,04; 8434,331; 3567,155;-2367,039
 361,64; 6624,331; 3696,155;-2309,039
 362,23; 5066,035; 3772,517;-2932,958
 362,83; 4077,684; 3755,639;-2990,726
 363,42; 3460,936; 3938,769;-2836,447
 364,02; 3053,803; 3910,034;-2973,462
 364,62; 2936,628; 3816,398;-2486,573
 365,21; 2553,965; 3857,937;-1741,558
 365,81; 2537,558; 3935,818;-2792,173
 366,40; 2421,855; 3970,062;-2080,707
 367,00; 2338,449; 4021,550;-2952,776
 367,59; 2304,523; 4071,831;-2979,699
 368,19; 2312,581; 4221,678;-3237,306
 368,79; 2296,720; 4198,720;-3125,268
 369,38; 2322,711; 4107,200;-2250,383
 369,98; 2473,206; 4101,940;-2935,940
 370,57; 2609,347; 4188,588;-3331,356
 371,17; 2602,696; 4164,860;-3326,135
 371,76; 2601,146; 4277,486;-3442,879
 372,36; 2650,071; 4057,598;-3195,501
 372,95; 2409,102; 4115,372;  667,934
 373,55; 2377,552; 4105,998;-3393,811
 374,14; 2370,631; 4300,099;-3405,097
 374,74; 2179,199; 4256,514;-3224,124
 375,34; 2025,103; 4286,979;-3189,521
 375,93; 1924,664; 4295,479;-2706,116
 376,53; 1927,105; 4344,585;-3575,974
 377,12; 1868,977; 4405,670;-1465,352
 377,72; 1805,444; 4480,730;-3410,414
 378,31; 1867,320; 4511,027;-2274,699
 378,91; 1814,922; 4291,429;-3262,199
 379,50; 1944,271; 4588,213;-3331,363
 380,10; 1981,237; 4327,226;-3398,890
 380,69; 1962,356; 4094,621;-2343,626
 381,29; 2072,401; 4586,735;-2550,439
 381,88; 2151,091; 4518,758;-1605,111
 382,48; 2349,798; 4519,727;-3286,485
 383,07; 2484,610; 4495,358;-3457,802
 383,67; 2319,091; 4635,758;-1847,111
 384,26; 2188,104; 4667,491;-2467,905
 384,86; 2157,446; 4921,849;-3182,252
 385,45; 2030,443; 4932,636;-3325,344
 386,05; 2000,390; 5073,608;-3419,100
 386,64; 2082,542; 4911,384;-3524,855
 387,24; 2075,619; 5016,878;-2585,688
 387,83; 2072,673; 4993,512;-2489,386
 388,42; 2182,765; 5182,346;-2109,466
 389,02; 2268,367; 5423,748;-3235,966
 389,61; 2361,923; 5688,036;-3413,653
 390,21; 2420,619; 5729,878;-3463,688
 390,80; 2620,145; 5816,392;-3208,810
 391,40; 2960,188; 6137,899;-2293,168
 391,99; 3529,226; 5981,099;-3195,550
 392,59; 5403,168; 6435,252;-2416,943
 393,18; 8531,628; 6683,398;-2491,573
 393,77;15850,590; 6883,198;-3238,192
 394,37;21169,012; 7145,657;-2198,825
 394,96;18773,990; 7098,403;-2296,146
 395,56;22563,348; 7264,588;-2834,356
 396,15;28487,988; 6867,797;-3125,692
 396,75;21585,934; 7343,163;-2889,993
 397,34;12673,206; 7669,940;-2620,940
 397,93; 8463,865; 7720,188;-3358,047
 398,53; 6226,893; 7595,262;-2525,088
 399,12; 4879,233; 8192,013;-2154,981
 399,72; 3969,675; 8013,119;-2274,840
 400,31; 3504,960; 8034,629;-3169,581
 400,91; 3304,113; 8446,012;-2959,791
 401,50; 3006,590; 8820,198;-2330,192
 402,09; 2798,721; 8550,327;-2894,722
 402,69; 2822,745; 8691,187;-3072,856
 403,28; 2738,495; 9052,663;-2983,588
 403,88; 2676,174; 9162,560; 1927,079
 404,47; 2634,523; 9689,831;  884,300
 405,06; 2606,538; 9684,171;  -68,947
 405,66; 2491,657; 9753,565;-2875,684
 406,25; 2495,720;10085,720;-3119,268
 406,84; 2691,021;10446,177;-2892,711
 407,44; 2565,575;10847,858;-2219,944
 408,03; 2419,936;10422,257;-2906,063
 408,63; 2465,545;10373,085;-3011,379
 409,22; 2707,985;10191,584;-1945,783
 409,81; 2662,156;10681,007;-1849,765
 410,41; 2859,062;11553,078;-2857,615
 411,00; 2800,377;11336,362;-1814,921
 411,59; 2764,201;11251,120;-2826,578
 412,19; 2782,412;11468,350;-2245,394
 412,78; 2723,642;11399,226;-2830,436
 413,37; 2803,024;12151,878;-2704,234
 413,97; 2648,078;12410,512;-2618,933
 414,56; 2643,595;12071,506;-2503,169
 415,15; 2747,671;12410,394;-2121,547
 415,75; 2829,089;12408,639;-2698,272
 416,34; 2821,694;12590,254;-1893,681
 416,93; 2821,173;12922,047;-2777,536
 417,53; 2740,822;12696,169;-1423,303
 418,12; 2763,548;12570,785;-2217,903
 418,71; 2599,993;12907,592;-2673,285
 419,31; 2617,314;13054,695;-1884,952
 419,90; 2605,040;13470,313;-2786,552
 420,49; 2487,954;13619,298;-1733,834
 421,08; 2436,954;14201,298;-1674,834
 421,68; 2889,723;14723,421;-1908,792
 422,27; 4339,049;14035,832;-2004,437
 422,86; 3949,105;13874,073; -437,590
 423,46; 2502,640;14080,107;-2575,598
 424,05; 2266,528;14376,626;-2928,293
 424,64; 2280,577;13888,953;-2640,014
 425,24; 2190,916;14092,098;-2903,453
 425,83; 2248,186;13992,269;-2680,945
 426,42; 2143,528;12987,626;-2760,293
 427,01; 2293,211;13424,734;-2674,533
 427,61; 2192,067;14347,873;-2609,209
 428,20; 2325,899;14036,151;-1764,751
 428,79; 2204,940;14414,052;-2859,656
 429,38; 2378,869;14092,377;-1781,186
 429,98; 2482,207;14922,521; -994,625
 430,57; 2400,067;15058,873;-2193,209
 431,16; 2192,714;14580,389;-2784,522
 431,75; 2135,723;14357,909; -561,407
 432,35; 2104,998;13435,899;-1951,262
 432,94; 2150,434;14429,186;-2324,759
 433,53; 2214,748;14560,375;-1152,995
 434,12; 2158,359;14431,298;-2267,381
 434,72; 2110,894;14188,331;-1413,389
 435,31; 2192,960;14167,699; 7395,119
 435,90; 2122,103;14308,954; 8338,249
 436,49; 2079,575;13427,834; -683,175
 437,08; 2274,861;13895,951; -675,370
 437,68; 2399,092;14442,827;-2987,412
 438,27; 2525,297;14610,237;-2610,866
 438,86; 2489,454;14612,832;-1147,984
 439,45; 2363,980;15313,346;-1937,106
 440,05; 2431,209;15955,616;-2982,694
 440,64; 2504,438;15054,886;-1902,282
 441,23; 2505,854;14152,525;-1415,553
 441,82; 2524,848;13700,218;-2631,576
 442,41; 2585,315;14351,277;-3014,637
 443,00; 2706,335;13625,925;-2724,863
 443,60; 2822,075;14373,881;-3136,710
 444,19; 2821,061;15026,541;-1440,462
 444,78; 3113,304;14960,151;-3012,298
 445,37; 3284,763;15728,297;-2522,928
 445,96; 3389,142;15331,249;-3116,202
 446,56; 3395,578;15596,535;-1144,698
 447,15; 3600,796;16225,678; -884,947
 447,74; 3678,929;17097,412;-2709,931
 448,33; 3633,432;16443,066;-1985,920
 448,92; 3762,981;15422,440;-2964,176
 449,51; 4004,772;15095,817;-2848,813
 450,10; 4124,277;15133,078;-3063,256
 450,70; 4428,421;14904,939;-1957,581
 451,29; 5011,443;15329,193;-1112,260
 451,88; 5280,313;15513,671;-2929,183
 452,47; 5596,587;16565,055;-2795,584
 453,06; 5748,327;16495,498;-2401,047
 453,65; 5387,998;16071,874;-2873,493
 454,24; 4638,426;17329,246;-2173,558
 454,84; 4220,650;17793,209;-1379,168
 455,43; 3692,086;18732,496;-2219,665
 456,02; 3475,999;18879,480;-2927,947
 456,61; 3148,309;17317,459;-2925,275
 457,20; 2990,713;16921,363;-2786,753
 457,79; 2790,260;17588,131;-2922,554
 458,38; 2605,633;18338,264;-2132,467
 458,97; 2512,424;18039,641;-2515,104
 459,56; 2470,758;18190,479;-2760,565
 460,16; 2348,271;17832,258;-2082,894
 460,75; 2331,655;18157,518;-2072,146
 461,34; 2189,963;18077,887;-2962,020
 461,93; 2224,244;18381,186;-2200,853
 462,52; 2187,599;19333,275;-2744,993
 463,11; 2198,925;20546,688;-1989,639
 463,70; 2305,545;19458,643;-2869,295
 464,29; 2342,044;19945,082;-3150,376
 464,88; 2602,332;20795,807;-2743,024
 465,47; 3079,323;19885,285;-2748,139
 466,06; 3704,856;20915,713;-3191,692
 466,65; 3862,759;21667,572;-3018,635
 467,24; 3496,471;22030,848;-2539,986
 467,84; 3029,675;22443,164;-2020,371
 468,43; 2662,630;22325,051;-2238,559
 469,02; 2638,158;23517,170;-2702,135
 469,61; 2484,464;24168,936;-2593,555
 470,20; 2572,595;23781,063;-2841,085
 470,79; 2301,372;22760,100;-3232,475
 471,38; 2239,076;25266,463;-2192,395
 471,97; 2205,305;26009,732; -666,983
 472,56; 2051,247;25472,887;-3035,376
 473,15; 2046,361;25296,975;-2825,135
 473,74; 1983,833;26395,854;-3106,559
 474,33; 1925,350;25866,848;-2957,796
 474,92; 1938,911;27630,348;-3146,391
 475,51; 1934,413;29609,002;-2873,380
 476,10; 1891,327;29847,986;-3011,662
 476,69; 1796,401;26101,268;-2855,586
 477,28; 1841,912;25846,955;-2956,845
 477,87; 1753,941;27035,121; -173,956
 478,46; 1760,709;28695,639;-3029,460
 479,05; 1692,251;30507,100;-2134,284
 479,64; 1719,995;31679,756;-2718,655
 480,23; 1693,336;29541,508;-2845,548
 480,82; 1640,051;28549,996;-2736,807
 481,41; 1602,577;29371,510;-1873,929
 482,00; 1552,127;29284,885;-1364,185
 482,59; 1591,172;29593,998;-2298,998
 483,18; 1588,590;31702,244;-2376,723
 483,77; 2144,148;31703,139;-2193,865
 484,36; 2849,413;32475,002;-1701,380
 484,95; 2740,498;32990,410; -788,643
 485,54; 2475,707;35331,031;-1371,006
 486,13; 2557,930;35762,996; -945,616
 486,72; 2694,028;34334,137;  148,326
 487,31; 2571,728;31046,285;-1109,686
 487,89; 2472,226;32608,633; -193,697
 488,48; 2406,959;33798,164;-1523,728
 489,07; 2263,231;32913,941;-1248,674
 489,66; 2203,191;33511,645;-1505,224
 490,25; 2039,694;31095,299; -660,212
 490,84; 2015,963;34127,375;-1683,635
 491,43; 1895,501;34965,621; -701,552
 492,02; 1872,674;36094,652;-1864,987
 492,61; 1757,334;35362,902;-1043,094
 493,20; 1764,826;33776,426;-2019,743
 493,79; 1692,308;32749,434; 4824,494
 494,38; 1651,552;33706,043;-1938,342
 494,97; 1628,748;32583,934; -629,911
 495,55; 1475,539;34690,309;-2325,548
 496,14; 1497,026;35087,531;-2403,220
 496,73; 1477,802;35451,566;-1952,609
 497,32; 1529,164;34211,570;-2587,182
 497,91; 1454,834;35005,949;-1921,629
 498,50; 1444,373;34165,195;-2912,544
 499,09; 1518,164;34554,570;-3088,182
 499,68; 1493,483;32403,070;-2405,396
 500,27; 1597,579;33321,605;-2490,999
 500,85; 1474,339;32655,207;-2604,071
 501,44; 1337,833;32478,342;-2576,175
 502,03; 1448,998;33194,457;-3368,178
 502,62; 1333,362;31275,068;-3438,205
 503,21; 1343,020;29432,711;-3532,858
 503,80; 1336,656;32028,100;-2976,831
 504,39; 1272,105;32451,119;-3458,121
 504,97; 1339,370;31774,982;-3577,636
 505,56; 1262,492;31537,590;-2979,281
 506,15; 1312,470;32302,336;-3991,602
 506,74; 1167,544;32557,617;-2945,526
 507,33; 1266,016;32185,498;-3165,949
 507,92; 1546,600;33952,859;-3871,678
 508,51; 1522,766;35926,973;-3735,682
 509,09; 1419,510;34536,629;-3921,053
 509,68; 1557,861;34318,508;-3748,286
 510,27; 1597,023;33667,410;-3799,381
 510,86; 1531,564;32572,264;-4081,751
 511,45; 1498,982;33677,512;-3843,476
 512,03; 1695,479;34524,855;-3829,488
 512,62; 1721,921;36240,961;-3780,346
 513,21; 1610,935;33870,789;-3186,209
 513,80; 1634,254;34644,289;-3501,423
 514,39; 1614,432;32752,137;-3905,221
 514,97; 1554,332;35347,781;-4095,255
 515,56; 1490,000;34167,551;-4198,248
 516,15; 1572,405;35428,063;-3955,179
 516,74; 1630,548;32584,318;-4420,049
 517,33; 1577,614;33459,688;-3549,542
 517,91; 1565,110;33935,426;-4188,099
 518,50; 1551,696;32563,393;-3264,282
 519,09; 1426,928;33942,875;-3157,778
 519,68; 1360,672;35231,531;-4286,148
 520,26; 1302,638;38679,547;-4232,675
 520,85; 1234,804;39452,660;-4352,679
 521,44; 1201,492;40826,078;-4358,897
 522,03; 1209,155;39485,539;-4271,912
 522,61; 1093,492;36773,078;-4364,897
 523,20; 1136,337;33924,090;-4337,233
 523,79; 1112,897;32040,590;-4337,828
 524,38; 1126,537;32850,191;-4344,709
 524,96; 1102,020;35883,199;-4321,473
 525,55; 1118,800;36021,449;-4542,771
 526,14; 1107,391;34018,723;-4434,931
 526,73; 1163,250;32852,074;-4389,515
 527,31;  993,910;32903,324;-4488,622
 527,90; 1071,800;33630,449;-4564,771
 528,49;  982,394;34155,938;-2529,839
 529,08;  931,479;34601,344;-3467,103
 529,66;  962,558;34848,445;-3911,389
 530,25;  931,074;35279,832;-4414,172
 530,84;  945,720;35334,348;-4583,485
 531,42;  956,665;38583,105;-4365,332
 532,01;  880,214;37528,480;-4291,588
 532,60;  899,872;34512,125;-4473,241
 533,18;  871,216;35538,086;-4078,042
 533,77;  918,895;34969,984;-4236,374
 534,36;  923,248;34459,469;-4374,061
 534,95;  906,852;35483,477;-4088,015
 535,53;  940,457;34236,090; -974,424
 536,12;  897,292;36469,977;-2657,420
 536,71;  935,313;36511,230;-3869,099
 537,29;  908,191;36073,621;-3618,454
 537,88;  995,492;33908,078;-3454,897
 538,47;  924,609;32497,867;-2840,180
 539,05;  961,917;36837,238;-2139,054
 539,64;  906,023;40414,898;-1785,997
 540,22;  932,036;37414,633; -764,790
 540,81;  988,409;37501,766; 1008,297
 541,40;  974,794;39018,629; 3425,591
 541,98;  961,555;38188,230; 4858,519
 542,57;  985,292;39368,977; 4597,580
 543,16;  931,587;38645,613; 4952,500
 543,74;  996,093;35774,480; 4083,603
 544,33;  965,937;36297,883; 3620,721
 544,92; 1040,178;37217,887; 3973,339
 545,50; 1035,697;37338,488;11456,648
 546,09; 1076,447;40064,965;11359,916
 546,67; 1002,511;41948,727; 2857,878
 547,26;  997,578;40050,094; -202,615
 547,85;  977,790;39208,414; -567,501
 548,43;  945,432;38452,625; -849,836
 549,02;  961,520;39427,246;-1040,008
 549,60;  990,663;40570,500; -984,878
 550,19; 1026,861;41166,996;-2192,901
 550,78;  950,333;42660,875;-2328,325
 551,36;  940,682;45349,148;-2432,104
 551,95;  996,126;45443,859; -585,416
 552,53;  933,728;43280,262; -296,916
 553,12; 1016,879;41420,035;-3431,672
 553,70; 1001,043;43188,547;-2878,222
 554,29;  945,827;44058,008;-2869,428
 554,88; 1009,691;41831,668;-4247,989
 555,46;  973,275;43723,027;-3881,718
 556,05; 1013,236;45007,734;-4207,268
 556,63; 1023,090;45206,266;-3396,489
 557,22; 1137,906;43875,109;-3394,714
 557,80; 1221,167;41749,762;-3568,321
 558,39; 1377,762;44188,250;-4145,390
 558,97; 1509,057;47993,887;-3699,470
 559,56; 1428,837;49889,137;-4544,768
 560,15; 1359,419;50117,891;-3611,042
 560,73; 1176,165;49814,152;-4287,867
 561,32; 1212,466;47024,609;-3741,309
 561,90; 1122,868;46041,910;-4382,333
 562,49; 1159,531;48487,371;-3786,348
 563,07; 1043,497;48074,387;-4783,875
 563,66; 1127,717;50064,133;-4352,577
 564,24; 1209,320;49228,145;-4763,531
 564,83; 1202,450;51344,664;-4603,607
 565,41; 1254,652;53840,375;-4329,539
 566,00; 1275,890;52202,164;-2755,012
 566,58; 1470,773;56465,375;-3725,729
 567,17; 1682,146;56909,508;-4280,642
 567,75; 1879,850;52392,871;-4653,562
 568,34; 2318,891;55893,770;-3216,466
 568,92; 2684,461;55738,793;-3987,947
 569,51; 2777,661;54852,895; 2680,576
 570,09; 2428,980;58247,391;-4676,638
 570,68; 2097,470;53188,313;-4788,833
 571,26; 2147,400;50733,242;-3886,817
 571,85; 2198,477;57347,738;-4822,649
 572,43; 1927,014;57011,379;-4704,111
 573,01; 1498,893;52662,375;-4873,920
 573,60; 1363,068;53819,012;-3785,810
 574,18; 1160,728;55122,262;-4514,917
 574,77; 1160,814;53284,277;-4737,634
 575,35; 1088,068;56113,012;-4452,810
 575,94; 1082,771;57300,770;-4076,275
 576,52; 1008,210;54049,270;-2249,680
 577,11; 1031,263;51620,297;-3244,924
 577,69;  962,646;48685,555;-3183,176
 578,27;  875,861;51008,996;-3447,901
 578,86;  906,922;55198,543;-2994,031
 579,44;  919,464;60080,004;-2805,855
 580,03;  937,958;60164,137;-2493,958
 580,61;  917,452;60267,270;-3206,062
 581,19;  968,605;56429,652;-2538,271
 581,78;  874,909;55361,813;-2364,238
 582,36;  879,396;57656,031;-2911,909
 582,95;  812,372;56180,172;-1497,776
 583,53;  916,439;59586,539;-2319,268
 584,11;  908,816;61608,883;-2241,088
 584,70;  896,088;61691,660;-1948,035
 585,28;  945,583;62070,398;-1853,592
 585,87;  924,196;60436,930;-2889,432
 586,45;  918,922;63023,543;-2375,031
 587,03;  857,756;64945,430;-1150,027
 587,62;  977,639;61494,641;-1834,745
 588,20; 1384,538;62236,285;-1020,779
 588,78; 1998,082;58157,840;-3411,673
 589,37; 1846,210;57765,270;-3360,680
 589,95; 1206,012;62238,773;-3385,657
 590,54;  910,560;63633,539;-3461,459
 591,12;  937,625;62116,301;-3508,497
 591,70;  933,219;59586,789;-3331,565
 592,29;  918,306;62881,805;-2923,283
 592,87;  926,652;63542,375;-2394,538
 593,45;  947,185;63404,801; 1487,908
 594,04;  904,700;62800,188;-3676,875
 594,62;  928,868;59709,910;-3708,333
 595,20;  878,116;62066,828;-4371,146
 595,79;  917,418;62681,285;-4165,588
 596,37;  950,646;61108,555;-3657,176
 596,95;  906,010;56922,164;-4321,203
 597,53;  899,891;58806,770;-4226,466
 598,12;  829,713;61848,922;-3959,669
 598,70;  859,077;64932,531;-3776,695
 599,28;  861,652;64911,375;-3404,538
 599,87;  857,495;64929,777;-3061,420
 600,45;  863,021;64938,293;-3907,543
 601,03;  884,736;63145,781;-4100,802
 601,62;  874,700;61727,188;-4468,875
 602,20;  838,549;59786,414;-4541,119
 602,78;  772,414;64399,070;-4770,680
 603,36;  805,745;64783,301;-3166,688
 603,95;  857,814;58863,277;-4492,634
 604,53;  852,176;62401,281;-4574,207
 605,11;  937,486;59505,258;-2755,535
 605,69;  928,407;62362,156;-3365,249
 606,28;  907,306;62594,805;-4223,283
 606,86;  931,273;61629,422;-3946,264
 607,44;  870,043;60431,547;-3906,222
 608,02;  848,426;58047,805;-4037,474
 608,61;  946,691;60099,668;-2866,989
 609,19;  897,032;58582,418;-2582,882
 609,77;  876,153;57398,422; -710,073
 610,35;  870,099;55748,785; 5794,625
 610,94;  902,954;56509,926;14509,949
 611,52;  964,691;55803,668;12610,011
 612,10;  942,369;53026,957; 8432,133
 612,68;  835,644;56637,949; 2694,278
 613,26;  765,526;57037,551; 2032,015
 613,85;  790,075;61759,926; -599,241
 614,43;  770,351;62306,918;-1030,096
 615,01;  771,545;62272,199;-1215,211
 615,59;  936,798;64874,328; -972,932
 616,17; 1040,364;59402,648;-2561,890
 616,76;  948,057;62178,887;-2993,470
 617,34;  976,378;62666,988;-2389,138
 617,92;  889,891;58547,770;-3399,466
 618,50;  959,605;61202,652;-2562,271
 619,08; 1006,517;57928,031;-2514,100
 619,67; 1032,890;55968,164;-3196,012
 620,25; 1091,639;54290,641;-2743,745
 620,83; 1076,021;50498,293;-3495,543
 621,41; 1083,944;52314,797;-2800,711
 621,99; 1121,933;54560,672;-2529,371
 622,57; 1362,079;55529,141;-3707,149
 623,15; 1447,497;56213,387;-3783,875
 623,74; 1595,201;58266,746;-3892,794
 624,32; 1636,805;59330,754;-2827,749
 624,90; 1766,144;58625,898;-2311,188
 625,48; 1764,362;57897,043;-3132,436
 626,06; 1765,980;56898,391;-4006,638
 626,64; 1633,464;57787,004;-4162,855
 627,22; 1419,672;58993,020;-3409,764
 627,81; 1371,389;58046,117;-4334,478
 628,39; 1392,441;57121,145;-4560,722
 628,97; 1386,142;56597,293;-4437,733
 629,55; 1235,322;55377,750;-4219,985
 630,13; 1162,452;55669,270;-2959,062
 630,71; 1172,540;54162,891;-2747,233
 631,29; 1089,814;53129,277;-3824,634
 631,87; 1083,025;52776,504;-4223,451
 632,45; 1052,364;52786,648;-4716,890
 633,03;  934,542;54183,500;-4191,688
 633,62;  969,176;55423,281;-4714,207
 634,20;  863,493;54882,172;-4089,966
 634,78;  878,102;56497,000;-4430,283
 635,36;  832,122;56701,648;-4449,508
 635,94;  849,376;55183,383;-5398,684
 636,52;  873,881;51027,645;-5422,126
 637,10;  777,010;52116,164;-5488,203
 637,68;  756,715;50694,527;-4702,123
 638,26;  766,443;47618,750;-5536,176
 638,84;  722,385;48688,902;-5421,569
 639,42;  663,010;49235,164;-3756,203
 640,00;  707,438;51366,148;-5405,726
 640,58;  702,216;54579,402;-4806,027
 641,16;  722,993;55521,656;-5571,328
 641,74;  692,771;53214,906;-5433,630
 642,32;  645,548;50106,160;-5620,931
 642,90;  636,326;50434,414;-5856,232
 643,48;  713,103;49231,668;-5786,534
 644,06;  729,880;49280,922;-5796,835
 644,64;  652,658;49595,176;-5842,137
 645,22;  536,435;50513,430;-5562,438
 645,80;  702,213;50547,684;-4957,740
 646,39;  747,990;48107,938;-5515,041
 646,97;  548,768;49773,191;-5850,342
 647,54;  563,545;52328,441;-5717,644
 648,12;  573,323;54879,695;-5865,945
 648,70;  632,100;58954,949;-5885,247
 649,28;  604,878;56421,203;-6090,548
 649,86;  519,655;51091,457;-5609,850
 650,44;  564,432;48619,711;-5452,151
 651,02;  563,210;49970,965;-5474,452
 651,60;  544,987;51793,219;-5803,753
 652,18;  620,765;51320,473;-4735,055
 652,76;  576,542;53277,723;-5934,356
 653,34;  550,320;54817,977;-5939,658
 653,92;  510,097;57729,230;-5784,959
 654,50;  558,875;59042,484;-5818,261
 655,08;  540,652;58048,738;-5841,562
 655,66;  566,430;55058,992;-5115,863
 656,24;  575,207;56743,246;-5200,165
 656,82;  648,984;58989,500;-4979,466
 657,40;  554,762;58967,754;-5667,768
 657,98;  547,539;60169,008;-5486,069
 658,56;  582,317;61114,258;-5717,371
 659,14;  603,094;61380,512;-5913,672
 659,72;  623,872;63381,766;-5916,973
 660,29;  576,649;62437,020;-5907,275
 660,87;  560,427;59738,273;-5212,576
 661,45;  626,204;58590,527;-5664,877
 662,03;  535,982;57513,781;-4971,179
 662,61;  444,759;54945,035;-5638,480
 663,19;  512,536;54618,289;-5657,782
 663,77;  464,314;53917,543;-5939,083
 664,35;  483,091;56689,793;-5887,384
 664,93;  509,869;62595,047;-4922,686
 665,51;  486,646;61993,301;-6033,987
 666,08;  482,424;57747,555;-5652,289
 666,66;  454,201;51859,809;-4400,590
 667,24;  424,979;49420,063;-5952,892
 667,82;  484,756;50250,316;-5849,193
 668,40;  518,534;50723,570;-5932,494
 668,98;  536,311;51952,824;-5097,796
 669,56;  660,088;57957,078;-6096,097
 670,13;  671,866;61797,328;-6222,398
 670,71;  649,643;59698,582;-5900,700
 671,29;  528,421;57209,836;-6139,001
 671,87;  509,198;56814,090;-6051,303
 672,45;  446,976;51822,344;-6050,604
 673,03;  526,753;52592,598;-4769,906
 673,60;  399,531;58431,852;-3503,207
 674,18;  426,308;63679,105;-5938,508
 674,76;  465,085;61159,359;-6226,810
 675,34;  469,863;56361,613;-5251,111
 675,92;  447,640;55284,863;-6338,413
 676,50;  409,418;55051,117;-6085,714
 677,07;  389,195;56952,371;-6095,016
 677,65;  405,973;56680,625;-6163,317
 678,23;  432,750;55997,879;-5057,618
 678,81;  415,528;58016,133;-5299,919
 679,38;  462,305;56669,387;-5969,221
 679,96;  418,083;53267,641;-5846,522
 680,54;  477,860;55171,895;-5308,824
 681,12;  487,637;52485,148;-6126,125
 681,70;  518,415;54786,398;-4413,427
 682,27;  482,192;54740,652;-5851,728
 682,85;  499,970;58265,906;-5991,029
 683,43;  551,747;64943,160;-6140,331
 684,01;  580,525;64943,414;-5172,632
 684,58;  567,302;64307,668;-5138,934
 685,16;  611,080;64236,922;-4494,235
 685,74;  583,857;62790,176;-3853,536
 686,32;  565,635;59009,430;-6012,838
 686,89;  532,412;59552,684;-6015,139
 687,47;  545,189;59534,934;-6076,441
 688,05;  542,967;56416,188;-6019,742
 688,63;  453,744;59626,441;-6102,043
 689,20;  480,522;62884,695;-5971,345
 689,78;  495,299;58427,949;-5530,646
 690,36;  492,077;54291,203;-5381,948
 690,93;  466,854;54968,457;-6355,249
 691,51;  543,632;61453,711;-6326,550
 692,09;  543,409;64946,965;-6223,852
 692,67;  468,187;64947,219;-6047,153
 693,24;  512,964;60968,469;-5803,455
 693,82;  507,741;59538,723;-6235,756
 694,40;  508,519;58049,977;-3570,058
 694,97;  492,296;57456,230;-6046,359
 695,55;  520,074;59820,484;-5464,660
 696,13;  622,851;61729,738;-4454,962
 696,70;  547,629;58594,992;-6029,263
 697,28;  556,406;59108,246;-6266,564
 697,86;  548,184;60837,500;-6030,866
 698,43;  535,961;58827,754;-6198,167
 699,01;  570,739;55595,004;-6051,469
 699,59;  661,516;55751,258;-6402,770
 700,16;  721,293;54174,512;-5257,072
 700,74;  733,071;57040,766;-5497,373
 701,32;  812,848;56440,020;-6233,674
 701,89;  970,626;55792,273;-6049,976
 702,47; 1185,403;60296,527;-6466,277
 703,05; 1433,181;64951,781;-6309,579
 703,62; 1742,958;64952,035;-6227,880
 704,20; 1778,736;64952,285;-5306,182
 704,77; 1625,513;64952,539;-6118,483
 705,35; 1547,291;64213,793;-6006,784
 705,93; 1267,068;64327,047;-4922,085
 706,50; 1107,845;63796,301;-5267,387
 707,08;  837,623;60606,555;-5284,688
 707,65;  712,400;60046,809;-5620,990
 708,23;  585,178;64881,063;-5431,292
 708,81;  532,955;64954,316;-5019,593
 709,38;  527,733;64954,570;-5001,894
 709,96;  538,510;64954,820;-6025,195
 710,53;  469,288;64955,074;-6007,497
 711,11;  438,065;61503,328;-5752,798
 711,69;  461,842;61913,582;-3821,100
 712,26;  412,620;59012,836;-4642,401
 712,84;  408,397;63346,090;-5947,703
 713,41;  427,175;64411,344;-6153,004
 713,99;  421,952;64924,598;-6068,305
 714,56;  479,730;62057,852;-6326,607
 715,14;  426,507;60312,105;-6198,908
 715,71;  386,285;60246,355;-6210,209
 716,29;  350,062;62893,609;-6648,511
 716,86;  382,840;63573,863;-6510,813
 717,44;  367,617;63263,117;-6424,114
 718,02;  359,394;62110,371;-6462,415
 718,59;  367,172;61013,625;-5121,716
 719,17;  298,949;63488,879;-5649,018
 719,74;  366,727;62907,133;-5756,319
 720,32;  333,504;63502,387;-6451,621
 720,89;  365,282;64959,641;-6422,922
 721,47;  307,059;64959,891;-6388,224
 722,04;  342,837;64960,145;-5502,525
 722,62;  344,614;64252,398;-3979,826
 723,19;  341,392;60250,652;-4938,128
 723,77;  309,169;57638,906;-5673,429
 724,34;  373,946;60150,160;-5576,730
 724,92;  337,724;63789,414;-6558,032
 725,49;  330,501;64961,668;-5666,333
 726,07;  383,279;64961,922;-6491,635
 726,64;  323,056;64627,176;-6587,936
 727,21;  376,834;60249,426;-5627,238
 727,79;  328,611;63706,680;-6444,539
 728,36;  361,389;64962,934;-6722,840
 728,94;  335,166;64963,188;-6535,142
 729,51;  346,944;64963,441;-6365,443
 730,09;  361,721;64963,695;-5545,745
 730,66;  313,498;64963,949;-6358,046
 731,24;  352,276;64964,203;-6577,348
 731,81;  359,053;64964,457;-5151,649
 732,38;  378,831;64964,711;-6492,950
 732,96;  383,608;64964,961;-6263,251
 733,53;  387,386;60347,215;-6389,553
 734,11;  365,163;61575,469;-6617,854
 734,68;  327,941;64965,723;-6211,156
 735,26;  361,718;64965,977;-6389,458
 735,83;  360,496;64966,230;-6498,759
 736,40;  332,273;62243,484;-6516,060
 736,98;  407,050;61999,738;-6374,361
 737,55;  379,828;59236,992;-5827,663
 738,13;  350,605;57707,246;-5702,964
 738,70;  314,383;60991,496;-5529,266
 739,27;  334,160;62504,750;-6452,567
 739,85;  380,938;62745,004;-6283,869
 740,42;  373,715;64968,258;-6464,170
 740,99;  350,493;64968,512;-5618,471
 741,57;  390,270;64968,766;-4867,773
 742,14;  350,048;64969,020;-5349,074
 742,72;  377,825;64969,273;-4751,375
 743,29;  419,602;64969,527;-6563,677
 743,86;  448,380;64969,781;-6538,979
 744,44;  428,157;64970,031;-6113,280
 745,01;  467,935;64970,285;-5760,581
 745,58;  425,712;64970,539;-6259,882
 746,16;  454,490;64970,793;-6188,184
 746,73;  512,267;64971,047;-6479,485
 747,30;  520,045;61139,301;-6536,787
 747,88;  577,822;59621,555;-5621,088
 748,45;  532,599;64971,809;-5668,390
 749,02;  541,377;64972,063;-6384,691
 749,60;  470,154;62401,313;-6212,992
 750,17;  487,932;61766,566;-5269,294
 750,74;  496,709;62801,820;-6479,595
 751,31;  503,487;63306,074;-6347,896
 751,89;  488,264;64232,328;-6546,198
 752,46;  502,042;64973,582;-6282,500
 753,03;  466,819;64973,836;-6160,801
 753,61;  391,597;63755,090;-4858,102
 754,18;  416,374;64573,344;-6434,404
 754,75;  387,151;63888,598;-5191,705
 755,32;  397,929;60715,848;-6332,006
 755,90;  411,706;64975,102;-6493,308
 756,47;  430,484;64975,355;-4809,609
 757,04;  382,261;64975,609;-6457,911
 757,61;  344,039;64975,863;-5553,212
 758,19;  358,816;64976,117;-5253,514
 758,76;  319,594;64976,371;-6603,815
 759,33;  301,371;64976,625;-6664,116
 759,90;  383,149;64976,879;-5714,417
 760,48;  323,926;64977,133;-6778,719
 761,05;  310,703;64977,383;-6083,021
 761,62;  333,481;62082,637;-4888,322
 762,19;  334,258;58992,891;-6144,624
 762,77;  299,036;61730,145;-5963,925
 763,34;  266,813;64978,398;-6610,226
 763,91;  292,591;64978,652;-5818,527
 764,48;  291,368;64978,906;-6756,829
 765,05;  332,146;64979,160;-6543,130
 765,63;  385,923;63215,414;-6417,432
 766,20;  449,701;59753,668;-6004,733
 766,77;  410,478;57105,918;-5921,035
 767,34;  326,255;58807,172;-6640,336
 767,91;  270,033;59176,426;-6689,637
 768,49;  260,810;61368,680;-6772,939
 769,06;  312,588;64980,934;-5832,240
 769,63;  337,365;62272,188;-6636,542
 770,20;  281,143;59567,441;-5868,843
 770,77;  250,920;57921,695;-5645,145
 771,34;  261,698;60065,949;-6615,446
 771,91;  273,475;60549,203;-6102,747
 772,49;  320,253;58558,453;-6369,048
 773,06;  270,030;57687,707;-6203,350
 773,63;  268,807;60204,961;-6639,651
 774,20;  247,585;58197,215;-5918,953
 774,77;  341,362;56475,469;-6631,254
 775,34;  277,140;56707,723;-6214,556
 775,91;  347,917;57056,977;-6417,857
 776,49;  450,695;58787,230;-6590,158
 777,06;  566,472;60761,484;-6015,460
 777,63;  455,250;64224,738;-6367,761
 778,20;  319,027;62572,988;-6250,063
 778,77;  309,805;63316,242;-5763,364
 779,34;  239,582;64985,496;-6585,666
 779,91;  237,359;64985,750;-6534,967
 780,48;  289,137;59144,004;-5853,268
 781,05;  260,914;50716,258;-6586,570
 781,62;  308,692;52124,512;-6604,871
 782,20;  319,469;58813,766;-6500,172
 782,77;  260,247;64987,020;-6529,474
 783,34;  270,024;64052,273;-6522,775
 783,91;  309,802;61362,523;-6509,077
 784,48;  253,579;60480,777;-2126,378
 785,05;  276,357;59144,031;-6540,680
 785,62;  267,134;58221,285;-6452,981
 786,19;  349,911;58149,539;-5100,282
 786,76;  265,689;55130,793;-6677,583
 787,33;  257,466;56202,047;-6515,885
 787,90;  282,244;59491,301;-6591,187
 788,47;  248,021;60148,555;-5075,488
 789,04;  282,799;58988,809;-5763,790
 789,61;  282,576;58863,059;-5066,091
 790,18;  248,354;55747,313;-6561,392
 790,75;  207,131;50841,566;-6671,693
 791,32;  271,908;52056,820;-6577,995
 791,89;  188,686;55205,074;-6068,296
 792,46;  230,463;60806,328;-5763,598
 793,03;  255,241;62404,582;-6702,899
 793,60;  241,018;55699,836;-6440,201
 794,17;  234,796;52257,090;-5569,502
 794,74;  267,573;47273,344;-5886,803
 795,31;  218,351;50096,594;-6099,105
 795,88;  196,128;52579,848;-5572,406
 796,45;  148,906;53365,102;-6529,708
 797,02;  171,683;56004,355;-5046,009
 797,59;  194,460;57922,609;-6675,311
 798,16;  215,238;54563,863;-5861,612
 798,73;  180,015;53534,117;-6761,913
 799,30;  130,793;55088,371;-6611,214
 799,87;  153,570;55650,625;-6713,516
 800,44;  177,348;55353,875;-6729,817
 801,01;  139,125;56836,129;-6807,119
 801,58;  193,903;58477,383;-6537,420
 802,15;  210,680;52086,637;-6658,722
 802,72;  194,458;48849,891;-6694,023
 803,28;  152,235;52000,145;-6076,324
 803,85;  153,012;57179,398;-6728,626
 804,42;  227,790;55235,652;-5999,927
 804,99;  174,567;53752,906;-6539,229
 805,56;  122,345;52472,160;-6770,530
 806,13;  125,122;53387,410;-6075,832
 806,70;  156,900;52719,664;-6748,133
 807,27;  174,677;54477,918;-6672,434
 807,84;  151,455;52786,172;-6693,736
 808,41;  143,232;49728,426;-6022,037
 808,98;  155,010;50479,680;-5986,338
 809,54;  166,787;52469,934;-4958,640
 810,11;  139,564;48281,188;-6782,941
 810,68;  165,342;43021,441;-6680,243
 811,25;  137,119;41394,695;-6760,544
 811,82;   98,897;40374,945;-6886,846
 812,39;  134,674;37710,199;-3331,147
 812,96;  193,452;38779,453;-6767,448
 813,52;  144,229;41291,707;-6937,750
 814,09;  138,007;44522,961;-6766,051
 814,66;  136,784;50325,215;-6827,353
 815,23;  122,562;51240,469;-6669,654
 815,80;  153,339;50439,723;-5853,956
 816,37;  151,116;50917,977;-6801,257
 816,93;  143,894;49487,230;-6731,558
 817,50;  190,671;46790,480;-6102,859
 818,07;  203,449;46034,734;-6960,161
 818,64;  207,226;46919,988;-6856,462
 819,21;  232,004;46261,242;-6053,764
 819,77;  261,781;42742,496;-6571,065
 820,34;  213,559;42053,750;-6677,367
 820,91;  169,336;43276,004;-6469,668
 821,48;  227,114;43873,258;-6689,969
 822,05;  215,891;45571,512;-5875,271
 822,61;  228,668;44296,766;-5631,572
 823,18;  234,446;41860,016;-6620,874
 823,75;  134,223;42585,270;-6957,175
 824,32;  139,001;45286,523;-6923,477
 824,88;  180,778;45073,777;-6882,778
 825,45;  141,556;44018,031;-6899,079
 826,02;  140,333;43798,285;-6643,380
 826,59;  190,111;43974,539;-6639,682
 827,15;  129,888;46077,793;-6906,983
 827,72;  122,665;49519,047;-6723,285
 828,29;  157,443;51523,301;-6895,586
 828,86;  124,220;48827,551;-6791,888
 829,42;  142,998;40797,805;-6812,189
 829,99;  178,775;36802,059;-6647,490
 830,56;  167,553;36252,313;-6869,792
 831,13;   96,330;37220,566;-6060,093
 831,69;  158,108;38022,820;-6506,395
 832,26;  170,885;38832,074;-5062,696
 832,83;  126,663;40408,328;-5452,998
 833,39;  157,440;40187,582;-6904,299
 833,96;  173,217;39167,836;-6687,600
 834,53;   87,995;40039,086;-6928,902
 835,10;  110,772;39930,340;-6529,203
 835,66;  102,550;38972,594;-6920,504
 836,23;  105,327;39801,848;-6803,806
 836,80;  103,105;39428,102;-6790,107
 837,36;  154,882;37086,355;-6810,409
 837,93;  129,660;34475,609;-6902,710
 838,50;  147,437;35084,863;-6789,012
 839,06;  131,215;37684,117;-6288,313
 839,63;   99,992;37191,371;-6895,614
 840,19;   71,769;35132,621;-6607,916
 840,76;  120,547;35364,875;-6404,217
 841,33;   83,324;35892,129;-6509,519
 841,89;  131,102;36779,383;-6949,820
 842,46;   65,879;37103,637;-6751,122
 843,03;   79,657;35389,891;-6089,423
 843,59;   85,434;34224,145;-6403,724
 844,16;  147,212;34994,398;-6181,025
 844,73;  142,989;34249,652;-6067,327
 845,29;  153,767;32937,902;-5695,628
 845,86;   66,544;35699,156;-6800,930
 846,42;   35,321;36940,410;-7004,231
 846,99;   76,099;36477,664;-6967,533
 847,56;  103,876;36265,918;-5840,834
 848,12;   63,654;36240,172;-6745,135
 848,69;   99,431;35710,426;-6715,437
 849,25;   78,209;34401,680;-6845,738
 849,82;   69,986;34081,934;-3247,040
 850,38;   79,764;35064,188;-6840,341
 850,95;   75,541;32489,439;-6324,643
 851,52;   63,319;32520,693;-6565,944
 852,08;   83,096;32548,947;-6691,245
 852,65;   52,873;30323,199;-7005,546
 853,21;   65,651;27698,453;-6958,848
 853,78;   59,428;27362,707;-6363,149
 854,34;   99,206;28860,961;-6871,451
 854,91;   56,983;29081,215;-5086,752
 855,47;  105,761;29942,467;-5108,054
 856,04;   95,538;32027,721;-6746,355
 856,60;   60,316;33961,973;-6104,656
 857,17;   54,093;34979,227;-6840,958
 857,73;   74,871;33553,480;-6811,259
 858,30;   61,648;32532,734;-6985,561
 858,86;   98,425;31110,988;-5926,862
 859,43;   94,203;31430,242;-6226,164
 859,99;   74,980;32011,496;-6852,465
 860,56;   31,758;33126,750;-6903,766
 861,12;   20,535;35190,004;-6737,068
 861,69;   75,313;33669,258;-5924,369
 862,25;  111,090;34731,508;-6821,670
 862,82;  100,868;34419,762;-5972,972
 863,38;  121,645;31196,018;-6843,273
 863,95;   85,423;29305,270;-6239,575
 864,51;  135,200;30403,523;-5287,876
 865,08;  132,977;29284,777;-6090,178
 865,64;   99,755;26795,031;-7018,479
 866,21;   77,532;26131,285;-6745,780
 866,77;   95,310;26051,537;-5552,082
 867,34;  106,087;25734,791;-6672,383
 867,90;  152,865;24632,045;-6303,685
 868,46;  118,642;23835,299;-6041,986
 869,03;   89,420;24389,551;-6929,288
 869,59;   76,197;26353,805;-6884,589
 870,16;  100,974;27647,059;-6052,890
 870,72;   78,752;30060,313;-6657,191
 871,28;   61,529;32915,566;-5992,493
 871,85;  108,307;33142,820;-6907,794
 872,41;   74,084;31569,072;-6004,096
 872,98;   61,862;32738,326;-6050,397
 873,54;   52,639;33876,578;-5920,699
 874,10;  124,417;32768,832;-5876,000
 874,67;   43,417;32987,832;-6904,000
 875,23;   80,417;31068,834;-7032,000
 875,80;   72,417;28009,834;-6641,000
 876,36;  104,417;25058,834;-6642,000
 876,92;   72,417;22832,834;-6189,000
 877,49;   71,417;23923,834;-6517,000
 878,05;   70,417;24896,834;-6797,000
 878,61;   94,417;26938,834;-6812,000
 879,18;   70,417;27553,834;-6252,000
 879,74;   36,417;28076,834;-6720,000
 880,30;   27,417;28679,834;-5926,000
 880,87;   19,417;28852,834;-6326,000
 881,43;   83,417;29533,834;-6871,000
 881,99;   47,417;27306,834;-6879,000
 882,56;   44,417;27610,834;-6661,000
 883,12;   45,417;29049,834;-5740,000
 883,68;   61,417;29120,834;-6518,000
 884,25;   87,417;28300,834;-6949,000
 884,81;   43,417;26343,834;-6701,000
 885,37;   30,417;24221,834;-6786,000
 885,94;   40,417;22940,834;-6851,000
 886,50;   62,417;23098,834;-6886,000
 887,06;   29,417;24358,834;-6796,000
 887,62;   35,417;25019,834;-6866,000
 888,19;   31,417;25774,834;-5986,000
 888,75;   56,417;26542,834;-6821,000
 889,31;   47,417;29043,834;-6778,000
 889,87;   44,417;30537,834;-6723,000
 890,44;   81,417;30349,834;-6696,000
 891,00;   45,417;28757,834;-6786,000
 891,56;   54,417;26457,834;-6998,000
 892,12;   41,417;24463,834;-6754,000
 892,69;   58,417;25310,834;-6373,000
 893,25;   58,417;28798,834;-6877,000
 893,81;   12,417;31774,834;-6696,000
 894,37;   75,417;31330,834;-6342,000
 894,94;   40,417;28713,834;-6772,000
 895,50;   45,417;26035,834; -212,000
 896,06;   45,417;24749,834;-6810,000
 896,62;   80,417;23405,834;-6707,000
 897,18;   65,417;24661,834;-6518,000
 897,75;   36,417;27406,834;-6895,000
 898,31;   80,417;27887,834;-6849,000
 898,87;   38,417;26274,834;-6860,000
 899,43;   88,417;25164,834;-6469,000
 899,99;   48,417;26592,834;-6866,000
 900,56;   62,417;25515,834;-6791,000
 901,12;   54,417;24875,834;-6890,000
 901,68;   47,417;27903,834;-6267,000
 902,24;   44,417;31800,834;-5930,000
 902,80;   86,417;32652,834;-6794,000
 903,36;   85,417;31893,834;-6691,000
 903,93;  137,417;32139,834;-6646,000
 904,49;  215,417;32761,834;-6913,000
 905,05;  372,417;30952,834;-6732,000
 905,61;  887,417;28208,834;-6832,000
 906,17; 1670,417;28086,834;-6901,000
 906,73; 2518,417;25975,834;-5380,000
 907,29; 3453,417;24960,834;-6910,000
 907,86; 4018,417;25118,834;-6827,000
 908,42; 4037,417;28092,834;-6795,000
 908,98; 3219,417;31123,834;-5908,000
 909,54; 1655,417;38813,832;-6885,000
 910,10;  618,417;48220,832;-6634,000
 910,66;  155,417;57581,832;-6781,000
 911,22;  100,417;65027,832;-6761,000
 911,78;   35,417;62593,832;-6841,000
 912,34;   19,417;53256,832;-6080,000
 912,90;   63,417;44610,832;-5232,000
 913,46;   45,417;37052,832;-6876,000
 914,03;  -11,583;30620,834;-5746,000
 914,59;   17,417;27452,834;-6682,000
 915,15;   19,417;24908,834;-6891,000
 915,71;   33,417;24217,834;-6863,000
 916,27;   42,417;23800,834;-6723,000
 916,83;   22,417;23006,834;-5824,000
 917,39;   10,417;21742,834;-3512,000
 917,95;   73,417;20224,834;-6009,000
 918,51;   22,417;19972,834;-6583,000
 919,07;   53,417;21780,834;-6791,000
 919,63;   -6,583;23295,834;-6661,000
 920,19;  -32,583;23935,834;-6865,000
 920,75;   68,417;23112,834;-6640,000
 921,31;    1,417;21484,834;-4837,000
 921,87;   10,417;20216,834;-6845,000
 922,43;    4,417;18019,834;-5626,000
 922,99;   47,417;17321,834;-6706,000
 923,55;   36,417;18674,834;-6655,000
 924,11;   30,417;19094,834;-6976,000
 924,67;    7,417;19310,834;-6962,000
 925,23;   20,417;19485,834;-6778,000
 925,79;   41,417;20122,834;-6710,000
 926,35;   60,417;20219,834;-6573,000
 926,91;   61,417;19401,834;-6909,000
 927,47;   17,417;19367,834;-6660,000
 928,03;   78,417;20294,834;-6786,000
 928,59;   56,417;20503,834;-6678,000
 929,15;   82,417;20781,834;-6792,000
 929,71;   36,417;22016,834;-6840,000
 930,27;   52,417;23587,834;-6537,000
 930,82;   79,417;25573,834;-6728,000
 931,38;  -23,583;24317,834;-5852,000
 931,94;   11,417;22672,834;-6843,000
 932,50;   66,417;21252,834;-6481,000
 933,06;   46,417;20895,834;-6768,000
 933,62;   43,417;21092,834;-6443,000
 934,18;   78,417;20632,834;-6727,000
 934,74;   23,417;21320,834;-6709,000
 935,30;   69,417;22030,834;-6484,000
 935,86;    5,417;21213,834;-6505,000
 936,42;    5,417;20702,834;-6873,000
 936,97;   15,417;21656,834;-6563,000
 937,53;   27,417;20552,834;-6826,000
 938,09;   64,417;21087,834;  123,000
 938,65;   16,417;21186,834;-6268,000
 939,21;   22,417;20179,834;-6708,000
 939,77;   23,417;18946,834;-6213,000
 940,33;   45,417;18602,834;-6748,000
 940,88;   10,417;19429,834;-5908,000
 941,44;   72,417;21301,834;-6983,000
 942,00;    1,417;23225,834;-6697,000
 942,56;   23,417;24231,834;-6604,000
 943,12;   34,417;23427,834;-5907,000
 943,68;   43,417;22950,834;-5679,000
 944,23;   36,417;23124,834;-6749,000
 944,79;  -29,583;22674,834;-6102,000
 945,35;   -6,583;20741,834;-6599,000
 945,91;   47,417;19519,834;-6767,000
 946,47;   19,417;19827,834;-3353,000
 947,03;  -25,583;19896,834;-6850,000
 947,58;    5,417;19661,834;-6840,000
 948,14;   48,417;20790,834;-5897,000
 948,70;   -2,583;19573,834;-5855,000
 949,26;   45,417;18881,834;-6616,000
 949,81;    9,417;18342,834;-6644,000
 950,37;   14,417;18686,834;-6695,000
 950,93;   12,417;17993,834;-6224,000
 951,49;  -17,583;17568,834;-6057,000
 952,05;   48,417;17926,834;-6571,000
 952,60;  -17,583;17299,834;-6951,000
 953,16;   39,417;16933,834;-5783,000
 953,72;  -47,583;15628,833;-5813,000
 954,27;  -24,583;15524,833;-6566,000
 954,83;  -25,583;15317,833;-6703,000
 955,39;    9,417;14917,833;-6691,000
 955,95;  -18,583;14456,833;-6849,000
 956,50;  -11,583;14272,833;-6698,000
 957,06;   -8,583;14126,833;-5922,000
 957,62;   25,417;13780,833;-6559,000
 958,18;    8,417;13872,833;-6741,000
 958,73;    2,417;13326,833;-6820,000
 959,29;  -11,583;13518,833;-6106,000
 959,85;  -18,583;14785,833;-6864,000
 960,40;  -11,583;16746,834;-4263,000
 960,96;    0,417;16386,834;-6738,000
 961,52;   -4,583;14755,833;-6643,000
 962,07;   -5,583;13711,833;-6742,000
 962,63;  -47,583;13208,833;-6723,000
 963,19;  -33,583;13435,833;-5779,000
 963,74;   32,417;13877,833;-6582,000
 964,30;  -18,583;14475,833;-6595,000
 964,86;   -2,583;14281,833;-6484,000
 965,41;   14,417;14290,833;-6705,000
 965,97;  -28,583;14185,833;-6569,000
 966,53;  -21,583;14792,833;-6750,000
 967,08;   -5,583;15311,833;-6611,000
 967,64;   -9,583;15082,833;-6705,000
 968,19;   13,417;14471,833;-6684,000
 968,75;   37,417;14662,833;-6566,000
 969,31;   -2,583;14880,833;-5626,000
 969,86;  -12,583;14995,833;-6505,000
 970,42;  -28,583;13195,833;-6620,000
 970,97;   10,417;11567,833;-6437,000
 971,53;   -9,583;11625,833;-6490,000
 972,09;   -1,583;12998,833;-6646,000
 972,64;    9,417;13523,833;-5812,000
 973,20;  -16,583;13815,833;-6599,000
 973,75;   -6,583;14605,833;-5760,000
 974,31;   21,417;14826,833;-6578,000
 974,87;   -0,583;14921,833;-6674,000
 975,42;  -33,583;14507,833;-6727,000
 975,98;  -34,583;13201,833;-6651,000
 976,53;  -13,583;12100,833;-6555,000
 977,09;    0,417;11353,833;-4624,000
 977,64;  -22,583;11164,833;-6532,000
 978,20;   17,417;10649,833;-6585,000
 978,75;  -11,583;10482,833;-6429,000
 979,31;   27,417;10950,833;-6513,000
 979,86;   -9,583;12220,833;-6739,000
 980,42;  -47,583;12828,833;-5813,000
 980,97;    0,417;13290,833;-6642,000
 981,53;   36,417;14285,833;-6636,000
 982,08;  -14,583;13803,833;-5046,000
 982,64;   29,417;12278,833;-6237,000
 983,19;  -23,583;11308,833;-6760,000
 983,75;    6,417;10993,833;-6576,000
 984,30;  -37,583;10430,833;-5581,000
 984,86;    0,417; 9867,833;-5898,000
 985,41;   10,417; 9457,833;-6634,000
 985,97;   16,417; 9632,833;-4797,000
 986,52;   -8,583; 9894,833;-5853,000
 987,08;  -20,583; 9953,833;-6174,000
 987,63;  -19,583;10165,833;-5608,000
 988,19;    3,417;11252,833;-6266,000
 988,74;  -25,583;11710,833;-5682,000
 989,30;  -22,583;11529,833;-6568,000
 989,85;  -12,583;11470,833; -276,000
 990,40;   -7,583;11314,833;-6617,000
 990,96;    3,417;11060,833;-6482,000
 991,51;    1,417;11149,833;-6578,000
 992,07;  -31,583;10742,833;-6605,000
 992,62;  -28,583;10285,833;-6519,000
 993,18;  -15,583;10035,833;-6504,000
 993,73;   17,417; 9986,833;-6440,000
 994,28;   -5,583; 9800,833;-6464,000
 994,84;  -33,583; 9019,833;-6240,000
 995,39;  -16,583; 8474,833;-2971,000
 995,94;   20,417; 7953,833;-5673,000
 996,50;  -19,583; 7647,833;-6543,000
 997,05;   15,417; 7872,833;-3481,000
 997,61;  -28,583; 8363,833;-6489,000
 998,16;  -26,583; 8581,833;-6555,000
 998,71;  -23,583; 8850,833;-6340,000
 999,27;  -21,583; 9115,833;-5223,000
 999,82;   -8,583; 8706,833;-4778,000
1000,37;   -4,583; 8661,833;-6520,000
1000,93;   -9,583; 8920,833;-6107,000
1001,48;  -17,583; 8799,833;-6543,000
1002,03;  -28,583; 8477,833;-6469,000
1002,59;   17,417; 8715,833;-5972,000
1003,14;  -14,583; 8758,833;-6113,000
1003,69;   29,417; 8484,833;-6513,000
1004,25;  -24,583; 8299,833;-6507,000
1004,80;   39,417; 8322,833;-6266,000
1005,35;    6,417; 8313,833;-6361,000
1005,91;   22,417; 8515,833;-6558,000
1006,46;  -13,583; 8426,833;-6084,000
1007,01;   25,417; 8227,833;-5479,000
1007,56;   17,417; 8599,833;-6440,000
1008,12;  -10,583; 8342,833;-6178,000
1008,67;   33,417; 7867,833;-6312,000
1009,22;   15,417; 7509,833;-6481,000
1009,78;  -11,583; 7205,833;-6163,000
1010,33;   18,417; 6649,833;-6443,000
1010,88;   -3,583; 6413,833;-5618,000
1011,43;   18,417; 5995,833;-6433,000
1011,99;    9,417; 5972,833;-6198,000
1012,54;   44,417; 6320,833;-6387,000
1013,09;    3,417; 6048,833;-6299,000
1013,64;  -25,583; 5802,833;-6362,000
1014,19;  -24,583; 5823,833;-6442,000
1014,75;    4,417; 5928,833;-6408,000
1015,30;   24,417; 6394,833;-6425,000
1015,85;   57,417; 6370,833;-6367,000
1016,40;    9,417; 6247,833;-5436,000
1016,96;   37,417; 6235,833;-6268,000
1017,51;  -11,583; 6150,833;-6351,000
1018,06;   30,417; 6095,833;-6310,000
1018,61;    6,417; 5695,833;-6665,000
1019,16;  -39,583; 5609,833;-6697,000
1019,71;   92,417; 5663,833;-6373,000
1020,27;    4,417; 5567,833;-6353,000
1020,82;   -8,583; 5375,833;-3700,000
1021,37;   37,417; 5405,833;-4798,000
1021,92;   42,417; 5984,833;-6454,000
1022,47;    0,417; 5965,833;-6548,000
1023,02;    8,417; 5463,833;-6512,000
1023,58;   25,417; 5045,833;-6573,000
1024,13;   36,417; 4730,833;-6258,000
1024,68;   31,417; 4434,833;-6298,000
1025,23;   30,417; 4324,833;-5525,000
1025,78;   36,417; 4613,833;-6475,000
1026,33;   40,417; 4932,833;-5510,000
1026,88;   40,417; 4843,833;-6236,000
1027,43;   45,417; 5167,833;-6276,000
1027,99;   57,417; 5134,833;-6002,000
1028,54;   86,417; 4732,833;-6395,000
1029,09;   78,417; 4106,833;-2478,000
1029,64;  126,417; 3919,833;-6303,000
1030,19;   92,417; 4147,833;-3821,000
1030,74;  120,417; 4243,833;-5134,000
1031,29;  131,417; 4284,833;-4765,000
1031,84;  137,417; 4491,833;-6300,000
1032,39;  169,417; 4563,833;-5403,000
1032,94;  188,417; 4617,833;-4326,000
1033,49;  218,417; 4361,833;-5476,000
1034,04;  257,417; 4236,833;-6312,000
1034,59;  264,417; 4205,833;-6507,000
1035,14;  278,417; 4117,833;-6145,000
1035,69;  312,417; 4318,833;-6224,000
1036,24;  311,417; 4104,833;-4477,000
1036,80;  340,417; 3986,833;-5453,000
1037,35;  380,417; 4138,833;-6347,000
1037,90;  403,417; 4172,833;-6274,000
1038,45;  424,417; 4201,833;-6419,000
1039,00;  441,417; 4340,833;-5490,000
1039,55;  494,417; 4229,833;-6284,000
1040,10;  514,417; 3977,833;-5615,000
1040,65;  577,417; 3916,833;-5576,000
1041,20;  612,417; 3850,833;-6325,000
1041,75;  684,417; 4030,833;-4522,000
1042,30;  673,417; 4164,833;-3585,000
1042,84;  773,417; 4338,833;-4439,000
1043,39;  810,417; 4248,833;-6313,000
1043,94;  910,417; 4175,833;-5342,000
1044,49;  994,417; 3887,833;-6246,000
1045,04; 1168,417; 3710,833;-5800,000
1045,59; 1268,417; 3809,833;-6299,000
1046,14; 1347,417; 3732,833;-6392,000
1046,69; 1579,417; 3591,833;-6294,000
1047,24; 1763,417; 3623,833;-5510,000
1047,79; 2106,417; 3737,833;-6139,000
1048,34; 2344,417; 4002,833;-5961,000
1048,89; 2589,417; 3948,833;-6259,000
1049,44; 2999,417; 3935,833;-5172,000
1049,99; 3579,417; 3855,833;-4844,000
1050,54; 4239,417; 3876,833;-6249,000
1051,08; 5482,417; 3961,833;-6178,000
1051,63; 8058,417; 4050,833;-5285,000
1052,18;12821,417; 5051,833;-6127,000
1052,73;21551,416; 7151,833;-6173,000
1053,28;32669,416;10516,833;-6386,000
1053,83;46545,418;15224,833;-6214,000
1054,38;58555,418;19203,834;-6254,000
1054,93;65159,418;21243,834;-6285,000
1055,47;65159,418;23825,834;-5328,000
1056,02;65159,418;26212,834;-5832,000
1056,57;65159,418;27830,834;-6198,000
1057,12;65159,418;30497,834;-6378,000
1057,67;65159,418;33805,832;-6078,000
1058,22;65159,418;36084,832;-6313,000
1058,76;65159,418;38542,832;-6093,000
1059,31;65159,418;44129,832;-3514,000
1059,86;65159,418;48778,832;-6204,000
1060,41;65159,418;49718,832;-6152,000
1060,96;65159,418;51396,832;-6226,000
1061,51;65159,418;53649,832;-5344,000
1062,05;65159,418;54082,832;-6122,000
1062,60;65159,418;50555,832;-6061,000
1063,15;65159,418;45221,832;-6149,000
1063,70;65159,418;41550,832;-6250,000
1064,24;65159,418;43676,832;-6169,000
1064,79;65159,418;45461,832;-6144,000
1065,34;65159,418;43989,832;-6064,000
1065,89;65159,418;41776,832;-6202,000
1066,44;65159,418;37631,832;-6120,000
1066,98;65159,418;32612,834;-6224,000
1067,53;65159,418;30790,834;-5953,000
1068,08;65159,418;30368,834;-4845,000
1068,63;65159,418;27618,834;-6096,000
1069,17;65159,418;24647,834;-5893,000
1069,72;65159,418;22350,834;-5857,000
1070,27;65159,418;20529,834;-6040,000
1070,81;65159,418;20388,834;-5996,000
1071,36;65159,418;20367,834;-3883,000
1071,91;65159,418;18745,834;  966,000
1072,46;65159,418;16791,834;-5058,000
1073,00;60094,418;14646,833;-5239,000
1073,55;46863,418;11404,833;-5935,000
1074,10;31447,416; 7803,833;-5981,000
1074,64;18647,416; 5240,833;-5860,000
1075,19;11007,417; 3535,833;-4958,000
1075,74; 7333,417; 2551,833;-6091,000
1076,28; 5235,417; 2312,833;-6075,000
1076,83; 4311,417; 1951,833;-5286,000
1077,38; 3513,417; 1820,833;-5653,000
1077,92; 2941,417; 1783,833;-6332,000
1078,47; 2494,417; 1629,833;-5507,000
1079,02; 2111,417; 1578,833;-5959,000
1079,56; 1743,417; 1557,833;-5328,000
1080,11; 1560,417; 1304,833;-6094,000
1080,65; 1362,417; 1241,833;-5039,000
1081,20; 1223,417; 1186,833;-6151,000
1081,75; 1077,417; 1125,833;-6039,000
1082,29;  851,417; 1128,833; -139,000
1082,84;  822,417; 1184,833;-2678,000
1083,39;  719,417; 1294,833;-5061,000
1083,93;  661,417; 1335,833;-5025,000
1084,48;  634,417; 1196,833;-5961,000
1085,02;  543,417; 1082,833;-5783,000
1085,57;  515,417; 1074,833;-5994,000
1086,11;  427,417; 1079,833;-5968,000
1086,66;  398,417;  925,833;-5584,000
1087,21;  455,417; 1060,833;-5802,000
1087,75;  381,417;  939,833;-6125,000
1088,30;  327,417;  815,833;-5040,000
1088,84;  299,417;  783,833;-5963,000
1089,39;  247,417;  656,833;-5965,000
1089,93;  253,417;  664,833;-6100,000
1090,48;  246,417;  649,833;-4394,000
1091,02;  281,417;  733,833;-5181,000
1091,57;  205,417;  629,833;-5479,000
1092,11;  221,417;  642,833;-4094,000
1092,66;  206,417;  624,833;-6031,000
1093,20;  195,417;  580,833;-5180,000
1093,75;  146,417;  566,833;-4998,000
1094,29;  166,417;  486,833;-4979,000
1094,84;  170,417;  525,833;-5890,000
1095,38;  101,417;  528,833;-5097,000
1095,93;  153,417;  584,833;-5981,000
1096,47;  103,417;  615,833;-5612,000
1097,02;   99,417;  587,833;-4985,000
1097,56;  101,417;  614,833;-5772,000
1098,11;   62,417;  552,833;-5774,000
1098,65;   46,417;  508,833;-5992,000
1099,20;   79,417;  577,833;-5935,000
1099,74;   69,417;  487,833;-6002,000
1100,29;   78,417;  513,833;-4879,000
1100,83;   27,417;  496,833;-5934,000

