
Integration time [ms]:   1,000
Averaging Nr. [scans]: 1
Smoothing Nr. [pixels]: 0
Data measured with spectrometer [name]: 1703254U1
Wave   ;Sample   ;Dark     ;Reference;Scope
[nm]   ;[counts] ;[counts] ;[counts] 

 190,08; -100,891; -370,119;11982,743
 190,69;  -82,669; -359,404;11603,049
 191,29;  -84,169; -311,651;11479,965
 191,90;  -93,709; -365,508;11440,717
 192,50;  -91,994; -379,511;10355,099
 193,10;  -71,628; -446,299;11244,381
 193,71;  -90,815; -367,888; 9821,736
 194,31;  -85,348; -399,273; 9436,327
 194,91;  -85,348; -382,273; 9291,327
 195,52;  -92,101; -338,386;10555,949
 196,12;  -68,412; -397,056; 8671,847
 196,72;  -87,814; -386,394; 8220,904
 197,32;  -90,815; -375,888; 8251,736
 197,93;  -74,093; -360,420; 8700,957
 198,53;  -87,170; -383,145; 7601,797
 199,13;  -94,031; -397,132; 8091,270
 199,74;  -79,238; -366,410; 7263,813
 200,34;  -75,594; -388,667; 7832,874
 200,94;  -73,129; -436,547; 6941,297
 201,55;  -82,669; -406,404; 7119,049
 202,15;  -85,777; -375,773; 6404,732
 202,75; -115,361; -373,217; 6097,647
 203,36;  -77,309; -338,664; 6822,492
 203,96; -127,581; -357,943; 6332,678
 204,56;  -80,739; -355,657;10275,729
 205,16;  -88,135; -363,018; 5478,458
 205,77; -100,784; -360,244; 4767,892
 206,37;  -88,993; -409,017; 5556,267
 206,97;  -92,637; -363,760; 5129,205
 207,58;  -76,023; -364,166; 5927,278
 208,18;  -95,746; -337,129; 5129,889
 208,78;  -93,173; -404,134; 5295,461
 209,38;  -76,666; -469,415; 4958,385
 209,99;  -73,559; -356,540; 3837,534
 210,59;  -78,167; -361,662; 3890,301
 211,19;  -70,416; -364,538; 3938,343
 211,79;  -44,235; -366,927; 4499,316
 212,40;  -97,889; -373,625; 3368,911
 213,00;  -89,100; -388,891; 3903,118
 213,60;  -94,245; -386,882; 2992,972
 214,20; -108,501; -401,230; 3081,175
 214,81; -101,319; -422,618; 2884,148
 215,41; -108,716; -376,979; 3235,877
 216,01; -128,331; -373,067; 3109,636
 216,61;  -58,241; -367,399; 2814,476
 217,22; -123,829; -381,326; 2358,888
 217,82; -138,514; -325,173; 2262,495
 218,42; -118,363; -383,711; 2389,480
 219,02; -122,972; -288,327; 3432,079
 219,63; -106,572; -357,483; 2044,854
 220,23; -109,895; -366,602; 2425,239
 220,83; -108,072; -395,730; 1901,770
 221,43; -126,509; -393,195; 1850,167
 222,03; -109,296; -348,940; 2326,296
 222,64;  -94,824; -380,348; 1769,560
 223,24;  -64,576; -298,966; 1625,350
 223,84;  -98,689; -376,313; 2637,361
 224,44; -126,938; -316,695; 2381,571
 225,05;  -77,293; -313,952; 1440,632
 225,65; -123,189; -301,065; 1227,445
 226,25;  -95,148; -364,961; 1139,777
 226,85;  -74,404; -294,309;  995,979
 227,45; -101,935; -335,706; 1083,907
 228,06; -112,113; -365,834; 1945,438
 228,66; -118,577; -349,460; 4049,182
 229,26;  -85,582; -313,438; 1131,510
 229,86;  -92,254; -396,342; 1760,797
 230,46; -127,366; -358,194;  891,976
 231,06; -120,152; -320,444;  757,273
 231,67;  -84,215; -346,732; 1228,961
 232,27; -143,123; -343,789;  778,094
 232,87; -131,833; -308,808;  526,384
 233,47; -146,232; -321,158;  525,777
 234,07;  -69,857; -268,486; 9912,235
 234,67; -143,629; -291,013;  672,338
 235,28; -146,232; -319,158;   65,777
 235,88; -160,166; -316,882;  285,426
 236,48; -104,973; -350,821;  165,911
 237,08;  -77,658; -267,669;  448,518
 237,68; -162,310; -369,378; -267,552
 238,28; -136,841; -304,774; -106,624
 238,89; -143,274; -212,756; -205,723
 239,49; -129,484; -282,023; 1280,483
 240,09; -169,386; -284,608; -190,544
 240,69; -138,883; -251,373; -319,124
 241,29; -120,806; -289,647;  651,036
 241,89; -152,234; -330,147; -260,559
 242,49; -112,063; -248,490; -358,930
 243,10; -106,633; -201,496; 3664,834
 243,70; -140,063; -284,490;  239,070
 244,30; -146,060; -275,501; -708,594
 244,90;  -87,106; -188,582; -568,598
 245,50; -130,315; -177,355; 3274,777
 246,10; -156,808; -307,636; -831,300
 246,70; -164,347; -300,999;   17,620
 247,30;  -85,236; -251,641;  326,273
 247,91; -133,425; -208,218; 5781,292
 248,51; -127,280; -270,228; -806,563
 249,11;  -94,200; -239,514;  417,933
 249,71; -100,202; -303,008; -667,235
 250,31;  -95,493; -265,483; -567,693
 250,91;  -78,918; -238,500;   75,216
 251,51;  -76,995; -199,225; -822,945
 252,11; -111,182; -239,813;  367,410
 252,71; -146,670; -269,117;-1080,994
 253,31; -119,745; -222,348; 3228,013
 253,91; -108,679; -236,578; -676,170
 254,52; -115,175; -237,342;-1063,750
 255,12; -126,493; -293,483;-1104,693
 255,72;  -64,313; -206,366;  557,112
 256,32; -150,683; -242,061; -966,674
 256,92;  -64,538; -190,070;-1147,529
 257,52;  -70,209; -173,974; -883,243
 258,12; -124,962; -201,087;  -91,621
 258,72;  -95,897; -210,810;-1232,972
 259,32;  -85,606; -211,335;-1169,514
 259,92;  -57,178; -199,330;-1343,086
 260,52;  -29,067; -192,973;-1077,433
 261,12;  -53,540; -202,059; -662,865
 261,72;  -91,786; -238,452;-1312,319
 262,32;  -49,674; -215,600;-1561,498
 262,92; -123,506; -238,426;  405,627
 263,53;  -49,144; -189,698;-1277,594
 264,13; -104,932; -262,937; -268,632
 264,73;  -61,000; -217,202;-1694,617
 265,33;  -95,038; -188,317;-1708,613
 265,93;  -53,898; -147,304;-1345,140
 266,53;  -88,400; -161,046;-1544,392
 267,13;  -68,438; -139,161; -857,388
 267,73;  -56,153; -185,158;  270,230
 268,33; -114,191; -166,274;-1788,766
 268,93;  -78,999; -213,708;-1702,449
 269,53;  -83,722; -204,670; -644,839
 270,13;  -47,757; -201,797;-1810,499
 270,73;  -90,331; -245,287;-1891,239
 271,33;  -66,434; -200,678;-1778,884
 271,93;  -81,365; -242,919;-1867,732
 272,53;  -19,483; -121,748;    8,776
 273,13;  -40,292; -146,677;-1117,075
 273,73;  -67,910; -119,753;-1955,652
 274,33;  -12,649; -148,428;-2041,182
 274,93;  -93,981; -188,007;-1843,972
 275,53;  -29,483;  -68,748;-1881,224
 276,13; -107,276; -121,965;-2261,935
 276,73; -100,807; -118,361;-1570,007
 277,33; -101,834; -179,522;-1926,659
 277,93;  -28,577; -213,680;-1864,693
 278,53;  -38,119; -194,526;-2112,278
 279,13;  -50,409; -125,506;-2152,568
 279,73;  -60,697; -140,498;-1388,522
 280,33;  -60,195; -154,756;-2179,270
 280,93;   23,159; -105,994;-2049,499
 281,53;  -90,086; -147,387;-2252,953
 282,13;  -41,949; -127,363;-2193,816
 282,73;  -68,518; -156,875; -385,885
 283,33;  -78,233; -137,872;-2307,266
 283,92;   10,155;  -74,477;-2028,003
 284,52;  -31,879;  -94,109;-2365,496
 285,12;   -1,977; -138,524;-1425,469
 285,72;  -17,513; -126,898;-1041,213
 286,32;   22,553;  -55,622;-1313,564
 286,92;  -32,692; -163,521;-2376,850
 287,52;   25,451;  -89,519;-2170,041
 288,12;   14,235;  -97,763;-2542,507
 288,72;  -13,651; -106,417;-1625,518
 289,32;    9,725;  -54,470; 1692,233
 289,92;   20,094; -106,270;-2344,148
 290,52;   -6,676;  -91,809;-2485,710
 291,12;   -1,983;  -57,996;-1570,308
 291,72;   51,155;  -74,477;-1590,003
 292,32;  126,842;  -83,135;-2372,442
 292,92;   92,515;   -2,737;-2481,560
 293,51;   76,546;  -37,093;-2532,404
 294,11;  219,124;  -42,121;-1681,160
 294,71;  288,158;   -7,488;-2695,667
 295,31;  205,945;  -24,743;-1755,797
 295,91;  375,946;   46,751;-2713,629
 296,51;  356,761;   62,656;-1776,106
 297,11;  363,004;   35,061;-2900,988
 297,71;  415,052;    4,131;-2726,648
 298,31;  750,094;   38,730;-2329,148
 298,91;  582,374;   74,756;-2483,202
 299,50;  550,978;   41,395;-2689,473
 300,10;  721,836;  145,887;-2706,114
 300,70;  597,583;   95,528;-2492,576
 301,30;  608,660;   89,253;-2855,415
 301,90;  806,232;   96,248;-2004,843
 302,50;  695,336;  163,640;-2515,198
 303,10;  570,625;  124,126;-2530,076
 303,70;  571,046;  208,660;-3000,488
 304,29;  609,544;  189,918;-2658,740
 304,89;  644,612;  266,183;-1090,755
 305,49;  759,829;  163,922;-2773,122
 306,09;  806,195;  214,133;-2874,839
 306,69;  806,664;  262,736;-2915,911
 307,29;  834,842;  312,865;-2008,442
 307,89;  839,117;  303,408;-3029,000
 308,48;  624,941;  341,774;-2453,301
 309,08;  760,448;  369,492;-2743,377
 309,68;  892,299;  377,019;-3094,026
 310,28;  907,487;  371,102;-2576,213
 310,88;  651,955;  321,211;-2936,453
 311,48;  743,161;  447,500;-2875,331
 312,07;  767,555;  408,367;-2963,228
 312,67;  856,987;  497,855;-2128,297
 313,27;  857,601;  494,448;-1105,224
 313,87;  901,700;  583,357;-2164,083
 314,47; 1110,600;  516,954;-3030,392
 315,06; 1467,245;  620,191; 2713,837
 315,66; 1456,592;  579,988;-3245,400
 316,26; 1501,175;  632,938;-1844,483
 316,86; 1573,882;  777,969;-3140,110
 317,46; 1730,283;  720,307;-2115,167
 318,06; 1898,282;  739,813; -825,335
 318,65; 2167,285;  781,801;-2807,999
 319,25; 2488,000;  821,798;-3195,617
 319,85; 2323,252;  932,663;-2908,323
 320,45; 2689,146;  986,283;-3213,304
 321,05; 3650,149;  901,271;-2761,968
 321,64; 3824,789;  889,531;-3219,411
 322,24; 4137,478; 1056,861;-3265,513
 322,84; 3495,479; 1080,356;-3261,345
 323,44; 2567,192; 1133,364;-3219,300
 324,03; 2271,800; 1194,486;-3072,067
 324,63; 2259,807; 1250,452;-2310,059
 325,23; 2173,241; 1241,928;-3097,792
 325,83; 2129,284; 1367,021;-2876,123
 326,42; 1985,611; 1442,622;-3285,005
 327,02; 1961,342; 1476,551;-3076,607
 327,62; 2053,103; 1439,629;-2505,221
 328,22; 2376,643; 1553,486;-3234,973
 328,82; 2395,552; 1577,037;-2229,938
 329,41; 2103,387; 1658,852;-3016,728
 330,01; 2370,411; 1652,750;-2961,704
 330,61; 2616,532; 1806,062;-2928,707
 331,20; 2196,458; 1778,325;-2868,531
 331,80; 2113,687; 1762,512;-2794,386
 332,40; 2152,016; 1752,102;-2896,932
 333,00; 2145,065; 1933,667;-2790,423
 333,59; 2032,106; 1748,771;-2855,091
 334,19; 2133,826; 1920,745;-1771,037
 334,79; 2058,506; 1712,615;-2861,316
 335,39; 2155,994; 1729,919;-2978,912
 335,98; 2064,198; 1726,714;-3126,958
 336,58; 2174,754; 1659,777;-3191,401
 337,18; 2211,897; 1720,779;-2958,592
 337,77; 2184,026; 1782,837;-2098,463
 338,37; 2305,450; 1806,359;-2021,540
 338,97; 2288,587; 1907,384;-2912,402
 339,57; 2590,637; 1862,948;-3044,894
 340,16; 3104,641; 1836,431;-2881,390
 340,76; 3058,134; 1962,712;-3053,314
 341,36; 2866,215; 1861,920;-3195,650
 341,95; 3285,116; 1934,506;-3027,623
 342,55; 3491,975; 1918,998;  703,736
 343,15; 3330,575; 2048,155;-3094,039
 343,74; 3957,149; 1924,644;-2382,298
 344,34; 3957,328; 1860,267;-3015,661
 344,94; 3053,254; 2068,530;-3069,485
 345,53; 2722,042; 2110,769;-2860,447
 346,13; 2971,791; 2174,398;-1283,573
 346,73; 3154,267; 1966,473;-2254,805
 347,32; 3367,577; 2268,649;-3080,871
 347,92; 3204,302; 2312,600;-2277,145
 348,52; 3040,684; 2270,523;-1878,722
 349,11; 3262,106; 2336,551;  975,034
 349,71; 2949,432; 2330,658;-3240,016
 350,31; 2620,794; 2441,387;-2672,237
 350,90; 2799,501; 2483,418;-2326,863
 351,50; 3135,230; 2390,852;-2105,634
 352,10; 3940,441; 2471,119;-3114,840
 352,69; 4465,898; 2532,273;-3182,424
 353,29; 4623,255; 2563,024;-3191,317
 353,89; 4631,969; 2645,527;-3255,104
 354,48; 4585,440; 2693,119;-3208,840
 355,08; 5237,408; 2871,980;-1117,164
 355,67; 5887,822; 2850,042;-2951,417
 356,27; 7315,295; 2839,128;-3232,985
 356,87; 8162,181; 3010,288;-3383,142
 357,46; 8330,641; 3049,431;-2351,390
 358,06; 9544,466; 3306,291;-3073,523
 358,66; 7755,974; 3337,504;-3109,432
 359,25; 5045,037; 3260,792;-2344,119
 359,85; 5562,144; 3365,667;-3215,970
 360,44; 7369,400; 3389,015;-3292,172
 361,04; 7418,575; 3567,155;-2367,039
 361,64; 7336,575; 3696,155;-2309,039
 362,23; 6987,114; 3772,517;-2932,958
 362,83; 6481,722; 3755,639;-2990,726
 363,42; 6245,042; 3938,769;-2836,447
 364,02; 6012,110; 3910,034;-2973,462
 364,62; 6416,791; 3816,398;-2486,573
 365,21; 5110,640; 3857,937;-1741,558
 365,81; 3609,317; 3935,818;-2792,173
 366,40; 3585,532; 3970,062;-2080,707
 367,00; 3935,964; 4021,550;-2952,776
 367,59; 4670,457; 4071,831;-2979,699
 368,19; 5318,142; 4221,678;-3237,306
 368,79; 5078,846; 4198,720;-3125,268
 369,38; 4350,565; 4107,200;-2250,383
 369,98; 4893,924; 4101,940;-2935,940
 370,57; 5500,383; 4188,588;-3331,356
 371,17; 5304,021; 4164,860;-3326,135
 371,76; 5970,485; 4277,486;-3442,879
 372,36; 6762,238; 4057,598;-3195,501
 372,95; 8438,590; 4115,372;  667,934
 373,55; 9693,054; 4105,998;-3393,811
 374,14; 9283,810; 4300,099;-3405,097
 374,74; 9087,907; 4256,514;-3224,124
 375,34; 8049,344; 4286,979;-3189,521
 375,93; 7890,916; 4295,479;-2706,116
 376,53; 7101,098; 4344,585;-3575,974
 377,12; 4719,429; 4405,670;-1465,352
 377,72; 3537,701; 4480,730;-3410,414
 378,31; 3858,540; 4511,027;-2274,699
 378,91; 4293,498; 4291,429;-3262,199
 379,50; 4857,626; 4588,213;-3331,363
 380,10; 4888,766; 4327,226;-3398,890
 380,69; 5035,154; 4094,621;-2343,626
 381,29; 6969,050; 4586,735;-2550,439
 381,88; 9010,045; 4518,758;-1605,111
 382,48; 8854,338; 4519,727;-3286,485
 383,07; 7636,229; 4495,358;-3457,802
 383,67; 7211,044; 4635,758;-1847,111
 384,26; 6585,834; 4667,491;-2467,905
 384,86; 5133,945; 4921,849;-3182,252
 385,45; 5078,437; 4932,636;-3325,344
 386,05; 4853,015; 5073,608;-3419,100
 386,64; 4205,509; 4911,384;-3524,855
 387,24; 4461,510; 5016,878;-2585,688
 387,83; 4608,687; 4993,512;-2489,386
 388,42; 4914,231; 5182,346;-2109,466
 389,02; 4476,189; 5423,748;-3235,966
 389,61; 4315,252; 5688,036;-3413,653
 390,21; 4176,510; 5729,878;-3463,688
 390,80; 3369,221; 5816,392;-3208,810
 391,40; 3389,362; 6137,899;-2293,168
 391,99; 3857,731; 5981,099;-3195,550
 392,59; 4049,046; 6435,252;-2416,943
 393,18; 3471,791; 6683,398;-2491,573
 393,77; 2863,422; 6883,198;-3238,192
 394,37; 3185,289; 7145,657;-2198,825
 394,96; 3568,219; 7098,403;-2296,146
 395,56; 3383,383; 7264,588;-2834,356
 396,15; 3858,464; 6867,797;-3125,692
 396,75; 4484,288; 7343,163;-2889,993
 397,34; 3527,924; 7669,940;-2620,940
 397,93; 2956,568; 7720,188;-3358,047
 398,53; 2751,901; 7595,262;-2525,088
 399,12; 2905,258; 8192,013;-2154,981
 399,72; 3470,441; 8013,119;-2274,840
 400,31; 3795,867; 8034,629;-3169,581
 400,91; 3260,115; 8446,012;-2959,791
 401,50; 2841,422; 8820,198;-2330,192
 402,09; 2756,600; 8550,327;-2894,722
 402,69; 2815,425; 8691,187;-3072,856
 403,28; 3147,859; 9052,663;-2983,588
 403,88; 5492,818; 9162,560; 1927,079
 404,47; 7078,457; 9689,831;  884,300
 405,06; 4519,000; 9684,171;  -68,947
 405,66; 5226,389; 9753,565;-2875,684
 406,25; 7248,846;10085,720;-3119,268
 406,84; 7555,570;10446,177;-2892,711
 407,44; 5991,879;10847,858;-2219,944
 408,03; 3756,552;10422,257;-2906,063
 408,63; 3328,527;10373,085;-3011,379
 409,22; 3163,956;10191,584;-1945,783
 409,81; 3228,766;10681,007;-1849,765
 410,41; 3399,957;11553,078;-2857,615
 411,00; 3664,735;11336,362;-1814,921
 411,59; 4351,662;11251,120;-2826,578
 412,19; 4126,595;11468,350;-2245,394
 412,78; 4758,845;11399,226;-2830,436
 413,37; 4929,588;12151,878;-2704,234
 413,97; 5270,765;12410,512;-2618,933
 414,56; 4949,195;12071,506;-2503,169
 415,15; 4362,442;12410,394;-2121,547
 415,75; 3961,800;12408,639;-2698,272
 416,34; 3253,267;12590,254;-1893,681
 416,93; 3621,329;12922,047;-2777,536
 417,53; 4166,937;12696,169;-1423,303
 418,12; 5073,545;12570,785;-2217,903
 418,71; 5157,747;12907,592;-2673,285
 419,31; 5803,787;13054,695;-1884,952
 419,90; 6262,396;13470,313;-2786,552
 420,49; 4502,114;13619,298;-1733,834
 421,08; 3685,114;14201,298;-1674,834
 421,68; 4004,865;14723,421;-1908,792
 422,27; 4726,678;14035,832;-2004,437
 422,86; 5112,608;13874,073; -437,590
 423,46; 4814,601;14080,107;-2575,598
 424,05; 4428,739;14376,626;-2928,293
 424,64; 5049,143;13888,953;-2640,014
 425,24; 5321,746;14092,098;-2903,453
 425,83; 5219,628;13992,269;-2680,945
 426,42; 5878,739;12987,626;-2760,293
 427,01; 6157,207;13424,734;-2674,533
 427,61; 4412,240;14347,873;-2609,209
 428,20; 3220,448;14036,151;-1764,751
 428,79; 3285,834;14414,052;-2859,656
 429,38; 3961,096;14092,377;-1781,186
 429,98; 4723,699;14922,521; -994,625
 430,57; 5747,240;15058,873;-2193,209
 431,16; 4695,093;14580,389;-2784,522
 431,75; 4407,375;14357,909; -561,407
 432,35; 5625,520;13435,899;-1951,262
 432,94; 4462,440;14429,186;-2324,759
 433,53; 3075,953;14560,375;-1152,995
 434,12; 2993,193;14431,298;-2267,381
 434,72; 3076,185;14188,331;-1413,389
 435,31; 2977,151;14167,699; 7395,119
 435,90; 2550,364;14308,954; 8338,249
 436,49; 2570,899;13427,834; -683,175
 437,08; 2696,079;13895,951; -675,370
 437,68; 4731,329;14442,827;-2987,412
 438,27; 5924,000;14610,237;-2610,866
 438,86; 3421,756;14612,832;-1147,984
 439,45; 2703,467;15313,346;-1937,106
 440,05; 4213,963;15955,616;-2982,694
 440,64; 4415,458;15054,886;-1902,282
 441,23; 3477,062;14152,525;-1415,553
 441,82; 2832,290;13700,218;-2631,576
 442,41; 2079,562;14351,277;-3014,637
 443,00; 1951,878;13625,925;-2724,863
 443,60; 2013,031;14373,881;-3136,710
 444,19; 2121,487;15026,541;-1440,462
 444,78; 1987,526;14960,151;-3012,298
 445,37; 2042,271;15728,297;-2522,928
 445,96; 2259,997;15331,249;-3116,202
 446,56; 2167,917;15596,535;-1144,698
 447,15; 2119,377;16225,678; -884,947
 447,74; 2014,309;17097,412;-2709,931
 448,33; 1816,196;16443,066;-1985,920
 448,92; 1814,731;15422,440;-2964,176
 449,51; 1719,552;15095,817;-2848,813
 450,10; 1522,193;15133,078;-3063,256
 450,70; 1505,160;14904,939;-1957,581
 451,29; 1463,231;15329,193;-1112,260
 451,88; 1581,807;15513,671;-2929,183
 452,47; 2040,198;16565,055;-2795,584
 453,06; 1729,861;16495,498;-2401,047
 453,65; 1459,539;16071,874;-2873,493
 454,24; 1436,933;17329,246;-2173,558
 454,84; 1560,656;17793,209;-1379,168
 455,43; 1524,576;18732,496;-2219,665
 456,02; 1379,294;18879,480;-2927,947
 456,61; 1408,299;17317,459;-2925,275
 457,20; 1414,113;16921,363;-2786,753
 457,79; 1566,895;17588,131;-2922,554
 458,38; 1591,358;18338,264;-2132,467
 458,97; 1661,179;18039,641;-2515,104
 459,56; 1666,009;18190,479;-2760,565
 460,16; 1656,930;17832,258;-2082,894
 460,75; 1595,428;18157,518;-2072,146
 461,34; 1449,679;18077,887;-2962,020
 461,93; 1371,597;18381,186;-2200,853
 462,52; 1586,498;19333,275;-2744,993
 463,11; 1708,311;20546,688;-1989,639
 463,70; 1942,321;19458,643;-2869,295
 464,29; 2065,699;19945,082;-3150,376
 464,88; 2034,634;20795,807;-2743,024
 465,47; 1728,353;19885,285;-2748,139
 466,06; 1726,590;20915,713;-3191,692
 466,65; 1808,273;21667,572;-3018,635
 467,24; 1841,338;22030,848;-2539,986
 467,84; 1762,745;22443,164;-2020,371
 468,43; 1717,849;22325,051;-2238,559
 469,02; 1723,315;23517,170;-2702,135
 469,61; 1860,811;24168,936;-2593,555
 470,20; 2005,989;23781,063;-2841,085
 470,79; 1889,266;22760,100;-3232,475
 471,38; 1598,805;25266,463;-2192,395
 471,97; 1511,300;26009,732; -666,983
 472,56; 1553,615;25472,887;-3035,376
 473,15; 1654,231;25296,975;-2825,135
 473,74; 1657,766;26395,854;-3106,559
 474,33; 1592,196;25866,848;-2957,796
 474,92; 1579,767;27630,348;-3146,391
 475,51; 1446,653;29609,002;-2873,380
 476,10; 1493,371;29847,986;-3011,662
 476,69; 1525,864;26101,268;-2855,586
 477,28; 1510,521;25846,955;-2956,845
 477,87; 1408,119;27035,121; -173,956
 478,46; 1520,115;28695,639;-3029,460
 479,05; 1429,124;30507,100;-2134,284
 479,64; 1394,295;31679,756;-2718,655
 480,23; 1445,652;29541,508;-2845,548
 480,82; 1439,226;28549,996;-2736,807
 481,41; 1335,937;29371,510;-1873,929
 482,00; 1368,473;29284,885;-1364,185
 482,59; 1449,368;29593,998;-2298,998
 483,18; 1491,726;31702,244;-2376,723
 483,77; 1467,543;31703,139;-2193,865
 484,36; 1557,653;32475,002;-1701,380
 484,95; 1562,181;32990,410; -788,643
 485,54; 1763,360;35331,031;-1371,006
 486,13; 2067,083;35762,996; -945,616
 486,72; 2569,401;34334,137;  148,326
 487,31; 2646,431;31046,285;-1109,686
 487,89; 2262,545;32608,633; -193,697
 488,48; 2822,681;33798,164;-1523,728
 489,07; 3382,317;32913,941;-1248,674
 489,66; 2414,685;33511,645;-1505,224
 490,25; 1948,571;31095,299; -660,212
 490,84; 2055,189;34127,375;-1683,635
 491,43; 3384,690;34965,621; -701,552
 492,02; 4228,254;36094,652;-1864,987
 492,61; 2826,898;35362,902;-1043,094
 493,20; 2049,749;33776,426;-2019,743
 493,79; 2086,319;32749,434; 4824,494
 494,38; 2000,358;33706,043;-1938,342
 494,97; 2936,748;32583,934; -629,911
 495,55; 4314,568;34690,309;-2325,548
 496,14; 3406,647;35087,531;-2403,220
 496,73; 2164,924;35451,566;-1952,609
 497,32; 1963,351;34211,570;-2587,182
 497,91; 2193,030;35005,949;-1921,629
 498,50; 2296,531;34165,195;-2912,544
 499,09; 2147,351;34554,570;-3088,182
 499,68; 2363,638;32403,070;-2405,396
 500,27; 2959,201;33321,605;-2490,999
 500,85; 2881,670;32655,207;-2604,071
 501,44; 2674,276;32478,342;-2576,175
 502,03; 2399,313;33194,457;-3368,178
 502,62; 2076,495;31275,068;-3438,205
 503,21; 1878,384;29432,711;-3532,858
 503,80; 1904,202;32028,100;-2976,831
 504,39; 1958,912;32451,119;-3458,121
 504,97; 1891,022;31774,982;-3577,636
 505,56; 1716,919;31537,590;-2979,281
 506,15; 1879,848;32302,336;-3991,602
 506,74; 1990,341;32557,617;-2945,526
 507,33; 1919,876;32185,498;-3165,949
 507,92; 1916,272;33952,859;-3871,678
 508,51; 1736,310;35926,973;-3735,682
 509,09; 1809,481;34536,629;-3921,053
 509,68; 1901,873;34318,508;-3748,286
 510,27; 1847,402;33667,410;-3799,381
 510,86; 1856,657;32572,264;-4081,751
 511,45; 1799,016;33677,512;-3843,476
 512,03; 1951,129;34524,855;-3829,488
 512,62; 2226,312;36240,961;-3780,346
 513,21; 2429,366;33870,789;-3186,209
 513,80; 2697,652;34644,289;-3501,423
 514,39; 2473,479;32752,137;-3905,221
 514,97; 2392,653;35347,781;-4095,255
 515,56; 2325,578;34167,551;-4198,248
 516,15; 3175,146;35428,063;-3955,179
 516,74; 3511,359;32584,318;-4420,049
 517,33; 2592,325;33459,688;-3549,542
 517,91; 2106,685;33935,426;-4188,099
 518,50; 2395,835;32563,393;-3264,282
 519,09; 2940,839;33942,875;-3157,778
 519,68; 2669,010;35231,531;-4286,148
 520,26; 2397,150;38679,547;-4232,675
 520,85; 2362,188;39452,660;-4352,679
 521,44; 2332,429;40826,078;-4358,897
 522,03; 2814,580;39485,539;-4271,912
 522,61; 3375,429;36773,078;-4364,897
 523,20; 3298,426;33924,090;-4337,233
 523,79; 2593,997;32040,590;-4337,828
 524,38; 2096,324;32850,191;-4344,709
 524,96; 2055,894;35883,199;-4321,473
 525,55; 2080,680;36021,449;-4542,771
 526,14; 2679,603;34018,723;-4434,931
 526,73; 3310,144;32852,074;-4389,515
 527,31; 2609,787;32903,324;-4488,622
 527,90; 2167,680;33630,449;-4564,771
 528,49; 1944,111;34155,938;-2529,839
 529,08; 1740,639;34601,344;-3467,103
 529,66; 1674,395;34848,445;-3911,389
 530,25; 1642,071;35279,832;-4414,172
 530,84; 1548,924;35334,348;-4583,485
 531,42; 1718,993;38583,105;-4365,332
 532,01; 2212,529;37528,480;-4291,588
 532,60; 2493,418;34512,125;-4473,241
 533,18; 1923,284;35538,086;-4078,042
 533,77; 1620,243;34969,984;-4236,374
 534,36; 1613,390;34459,469;-4374,061
 534,95; 1430,102;35483,477;-4088,015
 535,53; 1612,569;34236,090; -974,424
 536,12; 2000,531;36469,977;-2657,420
 536,71; 2372,601;36511,230;-3869,099
 537,29; 2138,705;36073,621;-3618,454
 537,88; 1857,429;33908,078;-3454,897
 538,47; 1874,063;32497,867;-2840,180
 539,05; 2006,314;36837,238;-2139,054
 539,64; 2275,912;40414,898;-1785,997
 540,22; 2428,702;37414,633; -764,790
 540,81; 2335,165;37501,766; 1008,297
 541,40; 1912,417;39018,629; 3425,591
 541,98; 1814,886;38188,230; 4858,519
 542,57; 2011,531;39368,977; 4597,580
 543,16; 1796,992;38645,613; 4952,500
 543,74; 1544,387;35774,480; 4083,603
 544,33; 1614,630;36297,883; 3620,721
 544,92; 1755,915;37217,887; 3973,339
 545,50; 1600,099;37338,488;11456,648
 546,09; 1536,533;40064,965;11359,916
 546,67; 1407,745;41948,727; 2857,878
 547,26; 1392,711;40050,094; -202,615
 547,85; 1263,909;39208,414; -567,501
 548,43; 1298,990;38452,625; -849,836
 549,02; 1279,026;39427,246;-1040,008
 549,60; 1311,239;40570,500; -984,878
 550,19; 1267,383;41166,996;-2192,901
 550,78; 1263,918;42660,875;-2328,325
 551,36; 1123,556;45349,148;-2432,104
 551,95; 1112,493;45443,859; -585,416
 552,53; 1069,451;43280,262; -296,916
 553,12; 1134,945;41420,035;-3431,672
 553,70; 1086,229;43188,547;-2878,222
 554,29; 1132,523;44058,008;-2869,428
 554,88; 1083,837;41831,668;-4247,989
 555,46; 1016,233;43723,027;-3881,718
 556,05; 1171,600;45007,734;-4207,268
 556,63; 1430,878;45206,266;-3396,489
 557,22; 1474,278;43875,109;-3394,714
 557,80; 1373,880;41749,762;-3568,321
 558,39; 1484,311;44188,250;-4145,390
 558,97; 1243,773;47993,887;-3699,470
 559,56; 1149,558;49889,137;-4544,768
 560,15; 1165,200;50117,891;-3611,042
 560,73; 1192,125;49814,152;-4287,867
 561,32; 1582,850;47024,609;-3741,309
 561,90; 1369,910;46041,910;-4382,333
 562,49; 1123,061;48487,371;-3786,348
 563,07; 1019,201;48074,387;-4783,875
 563,66; 1122,416;50064,133;-4352,577
 564,24; 1062,128;49228,145;-4763,531
 564,83; 1049,552;51344,664;-4603,607
 565,41; 1145,204;53840,375;-4329,539
 566,00; 1137,980;52202,164;-2755,012
 566,58; 1053,346;56465,375;-3725,729
 567,17; 1053,809;56909,508;-4280,642
 567,75;  954,348;52392,871;-4653,562
 568,34;  899,735;55893,770;-3216,466
 568,92;  939,587;55738,793;-3987,947
 569,51;  980,485;54852,895; 2680,576
 570,09; 1017,771;58247,391;-4676,638
 570,68; 1022,868;53188,313;-4788,833
 571,26; 1010,884;50733,242;-3886,817
 571,85;  950,885;57347,738;-4822,649
 572,43;  965,631;57011,379;-4704,111
 573,01;  848,489;52662,375;-4873,920
 573,60;  890,808;53819,012;-3785,810
 574,18;  913,451;55122,262;-4514,917
 574,77;  880,733;53284,277;-4737,634
 575,35;  966,808;56113,012;-4452,810
 575,94; 1006,592;57300,770;-4076,275
 576,52;  895,021;54049,270;-2249,680
 577,11;  877,443;51620,297;-3244,924
 577,69;  880,941;48685,555;-3183,176
 578,27;  954,383;51008,996;-3447,901
 578,86;  911,086;55198,543;-2994,031
 579,44;  990,095;60080,004;-2805,855
 580,03;  971,701;60164,137;-2493,958
 580,61;  943,306;60267,270;-3206,062
 581,19; 1005,554;56429,652;-2538,271
 581,78;  963,297;55361,813;-2364,238
 582,36;  918,375;57656,031;-2911,909
 582,95;  983,550;56180,172;-1497,776
 583,53;  913,516;59586,539;-2319,268
 584,11;  966,488;61608,883;-2241,088
 584,70; 1035,124;61691,660;-1948,035
 585,28;  966,484;62070,398;-1853,592
 585,87;  961,477;60436,930;-2889,432
 586,45; 1023,086;63023,543;-2375,031
 587,03;  963,048;64945,430;-1150,027
 587,62; 1000,414;61494,641;-1834,745
 588,20; 1056,588;62236,285;-1020,779
 588,78; 1096,862;58157,840;-3411,673
 589,37; 1092,021;57765,270;-3360,680
 589,95; 1151,877;62238,773;-3385,657
 590,54; 1193,659;63633,539;-3461,459
 591,12; 1140,871;62116,301;-3508,497
 591,70; 1128,302;59586,789;-3331,565
 592,29; 1094,584;62881,805;-2923,283
 592,87; 1122,204;63542,375;-2394,538
 593,45; 1064,442;63404,801; 1487,908
 594,04;  990,118;62800,188;-3676,875
 594,62; 1055,910;59709,910;-3708,333
 595,20; 1006,722;62066,828;-4371,146
 595,79;  922,446;62681,285;-4165,588
 596,37; 1052,941;61108,555;-3657,176
 596,95;  986,123;56922,164;-4321,203
 597,53;  994,735;58806,770;-4226,466
 598,12;  932,907;61848,922;-3959,669
 598,70;  923,089;64932,531;-3776,695
 599,28;  965,204;64911,375;-3404,538
 599,87; 1016,447;64929,777;-3061,420
 600,45; 1024,158;64938,293;-3907,543
 601,03; 1021,732;63145,781;-4100,802
 601,62; 1027,118;61727,188;-4468,875
 602,20; 1038,624;59786,414;-4541,119
 602,78;  981,937;64399,070;-4770,680
 603,36;  946,013;64783,301;-3166,688
 603,95;  935,733;58863,277;-4492,634
 604,53;  836,161;62401,281;-4574,207
 605,11;  927,166;59505,258;-2755,535
 605,69;  908,410;62362,156;-3365,249
 606,28;  884,584;62594,805;-4223,283
 606,86;  781,478;61629,422;-3946,264
 607,44;  816,229;60431,547;-3906,222
 608,02;  790,727;58047,805;-4037,474
 608,61;  809,837;60099,668;-2866,989
 609,19;  757,193;58582,418;-2582,882
 609,77;  835,336;57398,422; -710,073
 610,35;  791,159;55748,785; 5794,625
 610,94;  777,192;56509,926;14509,949
 611,52;  729,837;55803,668;12610,011
 612,10;  691,042;53026,957; 8432,133
 612,68;  659,187;56637,949; 2694,278
 613,26;  797,799;57037,551; 2032,015
 613,85;  802,335;61759,926; -599,241
 614,43;  642,480;62306,918;-1030,096
 615,01;  648,115;62272,199;-1215,211
 615,59;  620,435;64874,328; -972,932
 616,17;  673,269;59402,648;-2561,890
 616,76;  714,773;62178,887;-2993,470
 617,34;  765,813;62666,988;-2389,138
 617,92;  662,735;58547,770;-3399,466
 618,50;  724,554;61202,652;-2562,271
 619,08;  738,518;57928,031;-2514,100
 619,67;  709,980;55968,164;-3196,012
 620,25;  714,414;54290,641;-2743,745
 620,83;  686,158;50498,293;-3495,543
 621,41;  672,157;52314,797;-2800,711
 621,99;  635,122;54560,672;-2529,371
 622,57;  739,843;55529,141;-3707,149
 623,15;  772,201;56213,387;-3783,875
 623,74;  725,740;58266,746;-3892,794
 624,32;  721,452;59330,754;-2827,749
 624,90;  738,055;58625,898;-2311,188
 625,48;  658,515;57897,043;-3132,436
 626,06;  653,771;56898,391;-4006,638
 626,64;  590,095;57787,004;-4162,855
 627,22;  519,520;58993,020;-3409,764
 627,81;  517,848;58046,117;-4334,478
 628,39;  550,271;57121,145;-4560,722
 628,97;  546,301;56597,293;-4437,733
 629,55;  584,882;55377,750;-4219,985
 630,13;  546,306;55669,270;-2959,062
 630,71;  559,342;54162,891;-2747,233
 631,29;  586,733;53129,277;-3824,634
 631,87;  541,667;52776,504;-4223,451
 632,45;  539,269;52786,648;-4716,890
 633,03;  555,097;54183,500;-4191,688
 633,62;  580,161;55423,281;-4714,207
 634,20;  519,693;54882,172;-4089,966
 634,78;  578,668;56497,000;-4430,283
 635,36;  520,984;56701,648;-4449,508
 635,94;  547,059;55183,383;-5398,684
 636,52;  606,699;51027,645;-5422,126
 637,10;  499,123;52116,164;-5488,203
 637,68;  538,661;50694,527;-4702,123
 638,26;  558,025;47618,750;-5536,176
 638,84;  574,340;48688,902;-5421,569
 639,42;  615,123;49235,164;-3756,203
 640,00;  654,268;51366,148;-5405,726
 640,58;  710,051;54579,402;-4806,027
 641,16;  632,834;55521,656;-5571,328
 641,74;  605,617;53214,906;-5433,630
 642,32;  571,400;50106,160;-5620,931
 642,90;  535,183;50434,414;-5856,232
 643,48;  522,966;49231,668;-5786,534
 644,06;  543,749;49280,922;-5796,835
 644,64;  494,532;49595,176;-5842,137
 645,22;  439,315;50513,430;-5562,438
 645,80;  469,098;50547,684;-4957,740
 646,39;  458,881;48107,938;-5515,041
 646,97;  426,663;49773,191;-5850,342
 647,54;  454,446;52328,441;-5717,644
 648,12;  450,229;54879,695;-5865,945
 648,70;  515,012;58954,949;-5885,247
 649,28;  555,795;56421,203;-6090,548
 649,86;  533,578;51091,457;-5609,850
 650,44;  451,361;48619,711;-5452,151
 651,02;  459,144;49970,965;-5474,452
 651,60;  403,927;51793,219;-5803,753
 652,18;  511,710;51320,473;-4735,055
 652,76;  410,493;53277,723;-5934,356
 653,34;  411,276;54817,977;-5939,658
 653,92;  397,059;57729,230;-5784,959
 654,50;  495,842;59042,484;-5818,261
 655,08;  489,625;58048,738;-5841,562
 655,66;  478,408;55058,992;-5115,863
 656,24;  533,191;56743,246;-5200,165
 656,82;  605,974;58989,500;-4979,466
 657,40;  542,757;58967,754;-5667,768
 657,98;  445,540;60169,008;-5486,069
 658,56;  472,323;61114,258;-5717,371
 659,14;  437,106;61380,512;-5913,672
 659,72;  473,889;63381,766;-5916,973
 660,29;  423,672;62437,020;-5907,275
 660,87;  433,455;59738,273;-5212,576
 661,45;  406,238;58590,527;-5664,877
 662,03;  411,021;57513,781;-4971,179
 662,61;  344,803;54945,035;-5638,480
 663,19;  411,586;54618,289;-5657,782
 663,77;  428,369;53917,543;-5939,083
 664,35;  359,152;56689,793;-5887,384
 664,93;  352,935;62595,047;-4922,686
 665,51;  347,718;61993,301;-6033,987
 666,08;  379,501;57747,555;-5652,289
 666,66;  361,284;51859,809;-4400,590
 667,24;  385,067;49420,063;-5952,892
 667,82;  443,850;50250,316;-5849,193
 668,40;  392,633;50723,570;-5932,494
 668,98;  392,416;51952,824;-5097,796
 669,56;  355,199;57957,078;-6096,097
 670,13;  460,982;61797,328;-6222,398
 670,71;  434,765;59698,582;-5900,700
 671,29;  406,548;57209,836;-6139,001
 671,87;  420,331;56814,090;-6051,303
 672,45;  348,114;51822,344;-6050,604
 673,03;  420,897;52592,598;-4769,906
 673,60;  387,680;58431,852;-3503,207
 674,18;  413,463;63679,105;-5938,508
 674,76;  440,246;61159,359;-6226,810
 675,34;  412,029;56361,613;-5251,111
 675,92;  329,812;55284,863;-6338,413
 676,50;  373,595;55051,117;-6085,714
 677,07;  318,378;56952,371;-6095,016
 677,65;  381,161;56680,625;-6163,317
 678,23;  366,944;55997,879;-5057,618
 678,81;  397,727;58016,133;-5299,919
 679,38;  409,509;56669,387;-5969,221
 679,96;  324,292;53267,641;-5846,522
 680,54;  375,075;55171,895;-5308,824
 681,12;  345,858;52485,148;-6126,125
 681,70;  377,641;54786,398;-4413,427
 682,27;  389,424;54740,652;-5851,728
 682,85;  362,207;58265,906;-5991,029
 683,43;  363,990;64943,160;-6140,331
 684,01;  400,773;64943,414;-5172,632
 684,58;  384,556;64307,668;-5138,934
 685,16;  414,339;64236,922;-4494,235
 685,74;  401,122;62790,176;-3853,536
 686,32;  399,905;59009,430;-6012,838
 686,89;  397,688;59552,684;-6015,139
 687,47;  351,471;59534,934;-6076,441
 688,05;  382,254;56416,188;-6019,742
 688,63;  334,037;59626,441;-6102,043
 689,20;  364,820;62884,695;-5971,345
 689,78;  409,603;58427,949;-5530,646
 690,36;  342,386;54291,203;-5381,948
 690,93;  308,169;54968,457;-6355,249
 691,51;  385,952;61453,711;-6326,550
 692,09;  362,735;64946,965;-6223,852
 692,67;  319,518;64947,219;-6047,153
 693,24;  335,301;60968,469;-5803,455
 693,82;  352,084;59538,723;-6235,756
 694,40;  366,867;58049,977;-3570,058
 694,97;  301,649;57456,230;-6046,359
 695,55;  329,432;59820,484;-5464,660
 696,13;  307,215;61729,738;-4454,962
 696,70;  335,998;58594,992;-6029,263
 697,28;  312,781;59108,246;-6266,564
 697,86;  336,564;60837,500;-6030,866
 698,43;  356,347;58827,754;-6198,167
 699,01;  327,130;55595,004;-6051,469
 699,59;  342,913;55751,258;-6402,770
 700,16;  299,696;54174,512;-5257,072
 700,74;  297,479;57040,766;-5497,373
 701,32;  279,262;56440,020;-6233,674
 701,89;  296,045;55792,273;-6049,976
 702,47;  337,828;60296,527;-6466,277
 703,05;  296,611;64951,781;-6309,579
 703,62;  257,394;64952,035;-6227,880
 704,20;  264,177;64952,285;-5306,182
 704,77;  253,960;64952,539;-6118,483
 705,35;  244,743;64213,793;-6006,784
 705,93;  238,526;64327,047;-4922,085
 706,50;  302,309;63796,301;-5267,387
 707,08;  252,092;60606,555;-5284,688
 707,65;  278,875;60046,809;-5620,990
 708,23;  309,658;64881,063;-5431,292
 708,81;  260,441;64954,316;-5019,593
 709,38;  276,224;64954,570;-5001,894
 709,96;  311,007;64954,820;-6025,195
 710,53;  328,789;64955,074;-6007,497
 711,11;  275,572;61503,328;-5752,798
 711,69;  327,355;61913,582;-3821,100
 712,26;  307,138;59012,836;-4642,401
 712,84;  277,921;63346,090;-5947,703
 713,41;  340,704;64411,344;-6153,004
 713,99;  278,487;64924,598;-6068,305
 714,56;  304,270;62057,852;-6326,607
 715,14;  300,053;60312,105;-6198,908
 715,71;  322,836;60246,355;-6210,209
 716,29;  334,619;62893,609;-6648,511
 716,86;  295,402;63573,863;-6510,813
 717,44;  354,185;63263,117;-6424,114
 718,02;  327,968;62110,371;-6462,415
 718,59;  332,751;61013,625;-5121,716
 719,17;  314,534;63488,879;-5649,018
 719,74;  291,317;62907,133;-5756,319
 720,32;  264,100;63502,387;-6451,621
 720,89;  354,883;64959,641;-6422,922
 721,47;  259,666;64959,891;-6388,224
 722,04;  284,449;64960,145;-5502,525
 722,62;  268,232;64252,398;-3979,826
 723,19;  233,015;60250,652;-4938,128
 723,77;  273,798;57638,906;-5673,429
 724,34;  278,581;60150,160;-5576,730
 724,92;  244,364;63789,414;-6558,032
 725,49;  254,147;64961,668;-5666,333
 726,07;  254,929;64961,922;-6491,635
 726,64;  244,712;64627,176;-6587,936
 727,21;  263,495;60249,426;-5627,238
 727,79;  228,278;63706,680;-6444,539
 728,36;  295,061;64962,934;-6722,840
 728,94;  256,844;64963,188;-6535,142
 729,51;  263,627;64963,441;-6365,443
 730,09;  299,410;64963,695;-5545,745
 730,66;  321,193;64963,949;-6358,046
 731,24;  284,976;64964,203;-6577,348
 731,81;  307,759;64964,457;-5151,649
 732,38;  302,542;64964,711;-6492,950
 732,96;  294,325;64964,961;-6263,251
 733,53;  325,108;60347,215;-6389,553
 734,11;  362,891;61575,469;-6617,854
 734,68;  328,674;64965,723;-6211,156
 735,26;  319,457;64965,977;-6389,458
 735,83;  303,240;64966,230;-6498,759
 736,40;  363,023;62243,484;-6516,060
 736,98;  359,806;61999,738;-6374,361
 737,55;  368,589;59236,992;-5827,663
 738,13;  333,372;57707,246;-5702,964
 738,70;  371,155;60991,496;-5529,266
 739,27;  402,938;62504,750;-6452,567
 739,85;  361,721;62745,004;-6283,869
 740,42;  409,504;64968,258;-6464,170
 740,99;  414,287;64968,512;-5618,471
 741,57;  453,070;64968,766;-4867,773
 742,14;  386,852;64969,020;-5349,074
 742,72;  433,635;64969,273;-4751,375
 743,29;  445,418;64969,527;-6563,677
 743,86;  484,201;64969,781;-6538,979
 744,44;  474,984;64970,031;-6113,280
 745,01;  479,767;64970,285;-5760,581
 745,58;  415,550;64970,539;-6259,882
 746,16;  479,333;64970,793;-6188,184
 746,73;  470,116;64971,047;-6479,485
 747,30;  475,899;61139,301;-6536,787
 747,88;  469,682;59621,555;-5621,088
 748,45;  547,465;64971,809;-5668,390
 749,02;  565,248;64972,063;-6384,691
 749,60;  577,031;62401,313;-6212,992
 750,17;  537,814;61766,566;-5269,294
 750,74;  682,597;62801,820;-6479,595
 751,31;  679,380;63306,074;-6347,896
 751,89;  558,163;64232,328;-6546,198
 752,46;  601,946;64973,582;-6282,500
 753,03;  563,729;64973,836;-6160,801
 753,61;  574,512;63755,090;-4858,102
 754,18;  486,295;64573,344;-6434,404
 754,75;  496,078;63888,598;-5191,705
 755,32;  465,861;60715,848;-6332,006
 755,90;  418,644;64975,102;-6493,308
 756,47;  475,427;64975,355;-4809,609
 757,04;  455,210;64975,609;-6457,911
 757,61;  421,992;64975,863;-5553,212
 758,19;  432,775;64976,117;-5253,514
 758,76;  363,558;64976,371;-6603,815
 759,33;  407,341;64976,625;-6664,116
 759,90;  365,124;64976,879;-5714,417
 760,48;  298,907;64977,133;-6778,719
 761,05;  345,690;64977,383;-6083,021
 761,62;  321,473;62082,637;-4888,322
 762,19;  279,256;58992,891;-6144,624
 762,77;  324,039;61730,145;-5963,925
 763,34;  264,822;64978,398;-6610,226
 763,91;  271,605;64978,652;-5818,527
 764,48;  299,388;64978,906;-6756,829
 765,05;  298,171;64979,160;-6543,130
 765,63;  326,954;63215,414;-6417,432
 766,20;  304,737;59753,668;-6004,733
 766,77;  216,520;57105,918;-5921,035
 767,34;  296,303;58807,172;-6640,336
 767,91;  253,086;59176,426;-6689,637
 768,49;  233,869;61368,680;-6772,939
 769,06;  244,652;64980,934;-5832,240
 769,63;  210,435;62272,188;-6636,542
 770,20;  152,218;59567,441;-5868,843
 770,77;  206,001;57921,695;-5645,145
 771,34;  192,784;60065,949;-6615,446
 771,91;  241,567;60549,203;-6102,747
 772,49;  272,350;58558,453;-6369,048
 773,06;  243,132;57687,707;-6203,350
 773,63;  259,915;60204,961;-6639,651
 774,20;  289,698;58197,215;-5918,953
 774,77;  309,481;56475,469;-6631,254
 775,34;  301,264;56707,723;-6214,556
 775,91;  426,047;57056,977;-6417,857
 776,49;  702,830;58787,230;-6590,158
 777,06; 1037,613;60761,484;-6015,460
 777,63;  875,396;64224,738;-6367,761
 778,20;  521,179;62572,988;-6250,063
 778,77;  390,962;63316,242;-5763,364
 779,34;  275,745;64985,496;-6585,666
 779,91;  306,528;64985,750;-6534,967
 780,48;  251,311;59144,004;-5853,268
 781,05;  186,094;50716,258;-6586,570
 781,62;  214,877;52124,512;-6604,871
 782,20;  241,660;58813,766;-6500,172
 782,77;  212,443;64987,020;-6529,474
 783,34;  249,226;64052,273;-6522,775
 783,91;  238,009;61362,523;-6509,077
 784,48;  192,792;60480,777;-2126,378
 785,05;  173,575;59144,031;-6540,680
 785,62;  203,358;58221,285;-6452,981
 786,19;  225,141;58149,539;-5100,282
 786,76;  199,924;55130,793;-6677,583
 787,33;  176,707;56202,047;-6515,885
 787,90;  187,490;59491,301;-6591,187
 788,47;  172,273;60148,555;-5075,488
 789,04;  183,055;58988,809;-5763,790
 789,61;  143,838;58863,059;-5066,091
 790,18;  146,621;55747,313;-6561,392
 790,75;  169,404;50841,566;-6671,693
 791,32;  218,187;52056,820;-6577,995
 791,89;  148,970;55205,074;-6068,296
 792,46;  197,753;60806,328;-5763,598
 793,03;  228,536;62404,582;-6702,899
 793,60;  280,319;55699,836;-6440,201
 794,17;  280,102;52257,090;-5569,502
 794,74;  335,885;47273,344;-5886,803
 795,31;  281,668;50096,594;-6099,105
 795,88;  203,451;52579,848;-5572,406
 796,45;  167,234;53365,102;-6529,708
 797,02;  169,017;56004,355;-5046,009
 797,59;  138,800;57922,609;-6675,311
 798,16;  199,583;54563,863;-5861,612
 798,73;  142,366;53534,117;-6761,913
 799,30;  198,149;55088,371;-6611,214
 799,87;  130,932;55650,625;-6713,516
 800,44;  149,715;55353,875;-6729,817
 801,01;  109,498;56836,129;-6807,119
 801,58;  157,281;58477,383;-6537,420
 802,15;  169,064;52086,637;-6658,722
 802,72;  148,847;48849,891;-6694,023
 803,28;  126,630;52000,145;-6076,324
 803,85;  168,413;57179,398;-6728,626
 804,42;  186,195;55235,652;-5999,927
 804,99;  137,978;53752,906;-6539,229
 805,56;  133,761;52472,160;-6770,530
 806,13;  114,544;53387,410;-6075,832
 806,70;  185,327;52719,664;-6748,133
 807,27;  118,110;54477,918;-6672,434
 807,84;   87,893;52786,172;-6693,736
 808,41;  133,676;49728,426;-6022,037
 808,98;  153,459;50479,680;-5986,338
 809,54;   97,242;52469,934;-4958,640
 810,11;  109,025;48281,188;-6782,941
 810,68;  111,808;43021,441;-6680,243
 811,25;  142,591;41394,695;-6760,544
 811,82;   92,374;40374,945;-6886,846
 812,39;  120,157;37710,199;-3331,147
 812,96;  107,940;38779,453;-6767,448
 813,52;  139,723;41291,707;-6937,750
 814,09;   78,506;44522,961;-6766,051
 814,66;  119,289;50325,215;-6827,353
 815,23;   87,072;51240,469;-6669,654
 815,80;   84,855;50439,723;-5853,956
 816,37;  122,638;50917,977;-6801,257
 816,93;  108,421;49487,230;-6731,558
 817,50;  130,204;46790,480;-6102,859
 818,07;  191,987;46034,734;-6960,161
 818,64;  132,770;46919,988;-6856,462
 819,21;  149,553;46261,242;-6053,764
 819,77;  200,336;42742,496;-6571,065
 820,34;  163,118;42053,750;-6677,367
 820,91;  223,901;43276,004;-6469,668
 821,48;  264,684;43873,258;-6689,969
 822,05;  278,467;45571,512;-5875,271
 822,61;  184,250;44296,766;-5631,572
 823,18;  219,033;41860,016;-6620,874
 823,75;  189,816;42585,270;-6957,175
 824,32;  155,599;45286,523;-6923,477
 824,88;  134,382;45073,777;-6882,778
 825,45;  137,165;44018,031;-6899,079
 826,02;  122,948;43798,285;-6643,380
 826,59;  141,731;43974,539;-6639,682
 827,15;   74,514;46077,793;-6906,983
 827,72;  118,297;49519,047;-6723,285
 828,29;  123,080;51523,301;-6895,586
 828,86;   81,863;48827,551;-6791,888
 829,42;   75,646;40797,805;-6812,189
 829,99;  115,429;36802,059;-6647,490
 830,56;  135,212;36252,313;-6869,792
 831,13;   77,995;37220,566;-6060,093
 831,69;  100,778;38022,820;-6506,395
 832,26;  117,561;38832,074;-5062,696
 832,83;  105,344;40408,328;-5452,998
 833,39;  111,127;40187,582;-6904,299
 833,96;  110,910;39167,836;-6687,600
 834,53;   67,693;40039,086;-6928,902
 835,10;  114,476;39930,340;-6529,203
 835,66;   74,258;38972,594;-6920,504
 836,23;   79,041;39801,848;-6803,806
 836,80;   62,824;39428,102;-6790,107
 837,36;   58,607;37086,355;-6810,409
 837,93;  110,390;34475,609;-6902,710
 838,50;  138,173;35084,863;-6789,012
 839,06;   89,956;37684,117;-6288,313
 839,63;   71,739;37191,371;-6895,614
 840,19;   73,522;35132,621;-6607,916
 840,76;   75,305;35364,875;-6404,217
 841,33;   69,088;35892,129;-6509,519
 841,89;  102,871;36779,383;-6949,820
 842,46;   79,654;37103,637;-6751,122
 843,03;  106,437;35389,891;-6089,423
 843,59;  131,220;34224,145;-6403,724
 844,16;  158,003;34994,398;-6181,025
 844,73;  190,786;34249,652;-6067,327
 845,29;  219,569;32937,902;-5695,628
 845,86;  118,352;35699,156;-6800,930
 846,42;    9,135;36940,410;-7004,231
 846,99;   83,918;36477,664;-6967,533
 847,56;   62,701;36265,918;-5840,834
 848,12;   70,484;36240,172;-6745,135
 848,69;   94,267;35710,426;-6715,437
 849,25;   73,050;34401,680;-6845,738
 849,82;   56,833;34081,934;-3247,040
 850,38;   53,616;35064,188;-6840,341
 850,95;   53,398;32489,439;-6324,643
 851,52;   53,181;32520,693;-6565,944
 852,08;   30,964;32548,947;-6691,245
 852,65;   28,747;30323,199;-7005,546
 853,21;   14,530;27698,453;-6958,848
 853,78;   46,313;27362,707;-6363,149
 854,34;   38,096;28860,961;-6871,451
 854,91;   32,879;29081,215;-5086,752
 855,47;   49,662;29942,467;-5108,054
 856,04;   92,445;32027,721;-6746,355
 856,60;   16,228;33961,973;-6104,656
 857,17;   36,011;34979,227;-6840,958
 857,73;   49,794;33553,480;-6811,259
 858,30;   31,577;32532,734;-6985,561
 858,86;   47,360;31110,988;-5926,862
 859,43;   31,143;31430,242;-6226,164
 859,99;   44,926;32011,496;-6852,465
 860,56;    7,709;33126,750;-6903,766
 861,12;   26,492;35190,004;-6737,068
 861,69;   36,275;33669,258;-5924,369
 862,25;   68,058;34731,508;-6821,670
 862,82;   40,841;34419,762;-5972,972
 863,38;   59,624;31196,018;-6843,273
 863,95;   51,407;29305,270;-6239,575
 864,51;   70,190;30403,523;-5287,876
 865,08;   67,973;29284,777;-6090,178
 865,64;   73,756;26795,031;-7018,479
 866,21;   75,539;26131,285;-6745,780
 866,77;   69,321;26051,537;-5552,082
 867,34;  102,104;25734,791;-6672,383
 867,90;  106,887;24632,045;-6303,685
 868,46;  157,670;23835,299;-6041,986
 869,03;   70,453;24389,551;-6929,288
 869,59;  101,236;26353,805;-6884,589
 870,16;   56,019;27647,059;-6052,890
 870,72;   33,802;30060,313;-6657,191
 871,28;   45,585;32915,566;-5992,493
 871,85;   63,368;33142,820;-6907,794
 872,41;   35,151;31569,072;-6004,096
 872,98;    7,934;32738,326;-6050,397
 873,54;   16,717;33876,578;-5920,699
 874,10;   76,500;32768,832;-5876,000
 874,67;   13,500;32987,832;-6904,000
 875,23;   25,500;31068,834;-7032,000
 875,80;   64,500;28009,834;-6641,000
 876,36;   36,500;25058,834;-6642,000
 876,92;   22,500;22832,834;-6189,000
 877,49;   19,500;23923,834;-6517,000
 878,05;   57,500;24896,834;-6797,000
 878,61;   42,500;26938,834;-6812,000
 879,18;   38,500;27553,834;-6252,000
 879,74;   61,500;28076,834;-6720,000
 880,30;   12,500;28679,834;-5926,000
 880,87;  -46,500;28852,834;-6326,000
 881,43;   51,500;29533,834;-6871,000
 881,99;   47,500;27306,834;-6879,000
 882,56;   21,500;27610,834;-6661,000
 883,12;    0,500;29049,834;-5740,000
 883,68;  -24,500;29120,834;-6518,000
 884,25;   24,500;28300,834;-6949,000
 884,81;   14,500;26343,834;-6701,000
 885,37;   -4,500;24221,834;-6786,000
 885,94;   46,500;22940,834;-6851,000
 886,50;   26,500;23098,834;-6886,000
 887,06;   26,500;24358,834;-6796,000
 887,62;   33,500;25019,834;-6866,000
 888,19;  -31,500;25774,834;-5986,000
 888,75;  -18,500;26542,834;-6821,000
 889,31;   47,500;29043,834;-6778,000
 889,87;   39,500;30537,834;-6723,000
 890,44;   49,500;30349,834;-6696,000
 891,00;   28,500;28757,834;-6786,000
 891,56;   13,500;26457,834;-6998,000
 892,12;   56,500;24463,834;-6754,000
 892,69;   58,500;25310,834;-6373,000
 893,25;   31,500;28798,834;-6877,000
 893,81;   38,500;31774,834;-6696,000
 894,37;   75,500;31330,834;-6342,000
 894,94;   56,500;28713,834;-6772,000
 895,50;   55,500;26035,834; -212,000
 896,06;   88,500;24749,834;-6810,000
 896,62;  113,500;23405,834;-6707,000
 897,18;   82,500;24661,834;-6518,000
 897,75;   80,500;27406,834;-6895,000
 898,31;  126,500;27887,834;-6849,000
 898,87;  108,500;26274,834;-6860,000
 899,43;  145,500;25164,834;-6469,000
 899,99;   83,500;26592,834;-6866,000
 900,56;  102,500;25515,834;-6791,000
 901,12;   99,500;24875,834;-6890,000
 901,68;  122,500;27903,834;-6267,000
 902,24;   75,500;31800,834;-5930,000
 902,80;  104,500;32652,834;-6794,000
 903,36;  191,500;31893,834;-6691,000
 903,93;  286,500;32139,834;-6646,000
 904,49;  689,500;32761,834;-6913,000
 905,05; 1698,500;30952,834;-6732,000
 905,61; 4194,500;28208,834;-6832,000
 906,17; 7638,500;28086,834;-6901,000
 906,73;11617,500;25975,834;-5380,000
 907,29;15543,500;24960,834;-6910,000
 907,86;19769,500;25118,834;-6827,000
 908,42;22543,500;28092,834;-6795,000
 908,98;19961,500;31123,834;-5908,000
 909,54;11993,500;38813,832;-6885,000
 910,10; 4164,500;48220,832;-6634,000
 910,66; 1155,500;57581,832;-6781,000
 911,22;  454,500;65027,832;-6761,000
 911,78;  189,500;62593,832;-6841,000
 912,34;  121,500;53256,832;-6080,000
 912,90;  110,500;44610,832;-5232,000
 913,46;   46,500;37052,832;-6876,000
 914,03;   89,500;30620,834;-5746,000
 914,59;   97,500;27452,834;-6682,000
 915,15;   71,500;24908,834;-6891,000
 915,71;   69,500;24217,834;-6863,000
 916,27;   61,500;23800,834;-6723,000
 916,83;   77,500;23006,834;-5824,000
 917,39;   93,500;21742,834;-3512,000
 917,95;   20,500;20224,834;-6009,000
 918,51;   55,500;19972,834;-6583,000
 919,07;   59,500;21780,834;-6791,000
 919,63;  -18,500;23295,834;-6661,000
 920,19;   -8,500;23935,834;-6865,000
 920,75;   50,500;23112,834;-6640,000
 921,31;   34,500;21484,834;-4837,000
 921,87;  -11,500;20216,834;-6845,000
 922,43;   -0,500;18019,834;-5626,000
 922,99;   14,500;17321,834;-6706,000
 923,55;   51,500;18674,834;-6655,000
 924,11;   77,500;19094,834;-6976,000
 924,67;   54,500;19310,834;-6962,000
 925,23;   84,500;19485,834;-6778,000
 925,79;   27,500;20122,834;-6710,000
 926,35;   80,500;20219,834;-6573,000
 926,91;   35,500;19401,834;-6909,000
 927,47;   53,500;19367,834;-6660,000
 928,03;   80,500;20294,834;-6786,000
 928,59;   48,500;20503,834;-6678,000
 929,15;   86,500;20781,834;-6792,000
 929,71;   36,500;22016,834;-6840,000
 930,27;   81,500;23587,834;-6537,000
 930,82;   58,500;25573,834;-6728,000
 931,38;   14,500;24317,834;-5852,000
 931,94;   -2,500;22672,834;-6843,000
 932,50;   16,500;21252,834;-6481,000
 933,06;    1,500;20895,834;-6768,000
 933,62;   43,500;21092,834;-6443,000
 934,18;   51,500;20632,834;-6727,000
 934,74;   41,500;21320,834;-6709,000
 935,30;   56,500;22030,834;-6484,000
 935,86;   31,500;21213,834;-6505,000
 936,42;   18,500;20702,834;-6873,000
 936,97;   32,500;21656,834;-6563,000
 937,53;  -20,500;20552,834;-6826,000
 938,09;   50,500;21087,834;  123,000
 938,65;    2,500;21186,834;-6268,000
 939,21;    7,500;20179,834;-6708,000
 939,77;  -13,500;18946,834;-6213,000
 940,33;   12,500;18602,834;-6748,000
 940,88;   51,500;19429,834;-5908,000
 941,44;   39,500;21301,834;-6983,000
 942,00;   28,500;23225,834;-6697,000
 942,56;   37,500;24231,834;-6604,000
 943,12;   24,500;23427,834;-5907,000
 943,68;   30,500;22950,834;-5679,000
 944,23;   12,500;23124,834;-6749,000
 944,79;  -13,500;22674,834;-6102,000
 945,35;  -16,500;20741,834;-6599,000
 945,91;   34,500;19519,834;-6767,000
 946,47;   -4,500;19827,834;-3353,000
 947,03;   28,500;19896,834;-6850,000
 947,58;   -4,500;19661,834;-6840,000
 948,14;   32,500;20790,834;-5897,000
 948,70;   19,500;19573,834;-5855,000
 949,26;   24,500;18881,834;-6616,000
 949,81;   36,500;18342,834;-6644,000
 950,37;  -19,500;18686,834;-6695,000
 950,93;   30,500;17993,834;-6224,000
 951,49;   -3,500;17568,834;-6057,000
 952,05;   40,500;17926,834;-6571,000
 952,60;   -5,500;17299,834;-6951,000
 953,16;   32,500;16933,834;-5783,000
 953,72;  -34,500;15628,833;-5813,000
 954,27;    0,500;15524,833;-6566,000
 954,83;  -17,500;15317,833;-6703,000
 955,39;    7,500;14917,833;-6691,000
 955,95;   -5,500;14456,833;-6849,000
 956,50;  -14,500;14272,833;-6698,000
 957,06;  -37,500;14126,833;-5922,000
 957,62;   17,500;13780,833;-6559,000
 958,18;   14,500;13872,833;-6741,000
 958,73;    1,500;13326,833;-6820,000
 959,29;   -8,500;13518,833;-6106,000
 959,85;   25,500;14785,833;-6864,000
 960,40;   19,500;16746,834;-4263,000
 960,96;   43,500;16386,834;-6738,000
 961,52;   19,500;14755,833;-6643,000
 962,07;  -11,500;13711,833;-6742,000
 962,63;  -24,500;13208,833;-6723,000
 963,19;  -57,500;13435,833;-5779,000
 963,74;   52,500;13877,833;-6582,000
 964,30;  -19,500;14475,833;-6595,000
 964,86;   24,500;14281,833;-6484,000
 965,41;   32,500;14290,833;-6705,000
 965,97;  -14,500;14185,833;-6569,000
 966,53;    2,500;14792,833;-6750,000
 967,08;    2,500;15311,833;-6611,000
 967,64;   26,500;15082,833;-6705,000
 968,19;   -1,500;14471,833;-6684,000
 968,75;   19,500;14662,833;-6566,000
 969,31;    1,500;14880,833;-5626,000
 969,86;    3,500;14995,833;-6505,000
 970,42;   -4,500;13195,833;-6620,000
 970,97;  -16,500;11567,833;-6437,000
 971,53;   14,500;11625,833;-6490,000
 972,09;  -56,500;12998,833;-6646,000
 972,64;   14,500;13523,833;-5812,000
 973,20;   32,500;13815,833;-6599,000
 973,75;   30,500;14605,833;-5760,000
 974,31;   23,500;14826,833;-6578,000
 974,87;   16,500;14921,833;-6674,000
 975,42;   29,500;14507,833;-6727,000
 975,98;   48,500;13201,833;-6651,000
 976,53;   35,500;12100,833;-6555,000
 977,09;    6,500;11353,833;-4624,000
 977,64;  -31,500;11164,833;-6532,000
 978,20;   13,500;10649,833;-6585,000
 978,75;   10,500;10482,833;-6429,000
 979,31;   34,500;10950,833;-6513,000
 979,86;   19,500;12220,833;-6739,000
 980,42;  -11,500;12828,833;-5813,000
 980,97;    1,500;13290,833;-6642,000
 981,53;   71,500;14285,833;-6636,000
 982,08;   45,500;13803,833;-5046,000
 982,64;  -27,500;12278,833;-6237,000
 983,19;   10,500;11308,833;-6760,000
 983,75;    1,500;10993,833;-6576,000
 984,30;    4,500;10430,833;-5581,000
 984,86;  -10,500; 9867,833;-5898,000
 985,41;  -21,500; 9457,833;-6634,000
 985,97;    1,500; 9632,833;-4797,000
 986,52;   -2,500; 9894,833;-5853,000
 987,08;   -3,500; 9953,833;-6174,000
 987,63;   47,500;10165,833;-5608,000
 988,19;   11,500;11252,833;-6266,000
 988,74;   11,500;11710,833;-5682,000
 989,30;   11,500;11529,833;-6568,000
 989,85;    8,500;11470,833; -276,000
 990,40;    2,500;11314,833;-6617,000
 990,96;   24,500;11060,833;-6482,000
 991,51;   10,500;11149,833;-6578,000
 992,07;    2,500;10742,833;-6605,000
 992,62;   14,500;10285,833;-6519,000
 993,18;   11,500;10035,833;-6504,000
 993,73;   40,500; 9986,833;-6440,000
 994,28;   33,500; 9800,833;-6464,000
 994,84;  -14,500; 9019,833;-6240,000
 995,39;   17,500; 8474,833;-2971,000
 995,94;   84,500; 7953,833;-5673,000
 996,50;    0,500; 7647,833;-6543,000
 997,05;   31,500; 7872,833;-3481,000
 997,61;   11,500; 8363,833;-6489,000
 998,16;   17,500; 8581,833;-6555,000
 998,71;   24,500; 8850,833;-6340,000
 999,27;   18,500; 9115,833;-5223,000
 999,82;   22,500; 8706,833;-4778,000
1000,37;   -1,500; 8661,833;-6520,000
1000,93;   59,500; 8920,833;-6107,000
1001,48;   36,500; 8799,833;-6543,000
1002,03;   -0,500; 8477,833;-6469,000
1002,59;   41,500; 8715,833;-5972,000
1003,14;   31,500; 8758,833;-6113,000
1003,69;    6,500; 8484,833;-6513,000
1004,25;   -3,500; 8299,833;-6507,000
1004,80;   26,500; 8322,833;-6266,000
1005,35;  -22,500; 8313,833;-6361,000
1005,91;   42,500; 8515,833;-6558,000
1006,46;  -12,500; 8426,833;-6084,000
1007,01;   38,500; 8227,833;-5479,000
1007,56;    9,500; 8599,833;-6440,000
1008,12;   13,500; 8342,833;-6178,000
1008,67;   69,500; 7867,833;-6312,000
1009,22;   30,500; 7509,833;-6481,000
1009,78;   19,500; 7205,833;-6163,000
1010,33;   37,500; 6649,833;-6443,000
1010,88;   35,500; 6413,833;-5618,000
1011,43;  -30,500; 5995,833;-6433,000
1011,99;   47,500; 5972,833;-6198,000
1012,54;   34,500; 6320,833;-6387,000
1013,09;   69,500; 6048,833;-6299,000
1013,64;   38,500; 5802,833;-6362,000
1014,19;   73,500; 5823,833;-6442,000
1014,75;   58,500; 5928,833;-6408,000
1015,30;   75,500; 6394,833;-6425,000
1015,85;   73,500; 6370,833;-6367,000
1016,40;   25,500; 6247,833;-5436,000
1016,96;  113,500; 6235,833;-6268,000
1017,51;   23,500; 6150,833;-6351,000
1018,06;   86,500; 6095,833;-6310,000
1018,61;   33,500; 5695,833;-6665,000
1019,16;   63,500; 5609,833;-6697,000
1019,71;  131,500; 5663,833;-6373,000
1020,27;   70,500; 5567,833;-6353,000
1020,82;   83,500; 5375,833;-3700,000
1021,37;   51,500; 5405,833;-4798,000
1021,92;  126,500; 5984,833;-6454,000
1022,47;  116,500; 5965,833;-6548,000
1023,02;   73,500; 5463,833;-6512,000
1023,58;  118,500; 5045,833;-6573,000
1024,13;  130,500; 4730,833;-6258,000
1024,68;   97,500; 4434,833;-6298,000
1025,23;  144,500; 4324,833;-5525,000
1025,78;  125,500; 4613,833;-6475,000
1026,33;  155,500; 4932,833;-5510,000
1026,88;  179,500; 4843,833;-6236,000
1027,43;  153,500; 5167,833;-6276,000
1027,99;  164,500; 5134,833;-6002,000
1028,54;  211,500; 4732,833;-6395,000
1029,09;  194,500; 4106,833;-2478,000
1029,64;  222,500; 3919,833;-6303,000
1030,19;  315,500; 4147,833;-3821,000
1030,74;  360,500; 4243,833;-5134,000
1031,29;  444,500; 4284,833;-4765,000
1031,84;  481,500; 4491,833;-6300,000
1032,39;  459,500; 4563,833;-5403,000
1032,94;  608,500; 4617,833;-4326,000
1033,49;  620,500; 4361,833;-5476,000
1034,04;  736,500; 4236,833;-6312,000
1034,59;  823,500; 4205,833;-6507,000
1035,14;  870,500; 4117,833;-6145,000
1035,69;  952,500; 4318,833;-6224,000
1036,24; 1054,500; 4104,833;-4477,000
1036,80; 1148,500; 3986,833;-5453,000
1037,35; 1242,500; 4138,833;-6347,000
1037,90; 1251,500; 4172,833;-6274,000
1038,45; 1386,500; 4201,833;-6419,000
1039,00; 1495,500; 4340,833;-5490,000
1039,55; 1560,500; 4229,833;-6284,000
1040,10; 1715,500; 3977,833;-5615,000
1040,65; 1776,500; 3916,833;-5576,000
1041,20; 1835,500; 3850,833;-6325,000
1041,75; 2130,500; 4030,833;-4522,000
1042,30; 2200,500; 4164,833;-3585,000
1042,84; 2466,500; 4338,833;-4439,000
1043,39; 2746,500; 4248,833;-6313,000
1043,94; 3050,500; 4175,833;-5342,000
1044,49; 3307,500; 3887,833;-6246,000
1045,04; 3660,500; 3710,833;-5800,000
1045,59; 4069,500; 3809,833;-6299,000
1046,14; 4371,500; 3732,833;-6392,000
1046,69; 5107,500; 3591,833;-6294,000
1047,24; 5662,500; 3623,833;-5510,000
1047,79; 6472,500; 3737,833;-6139,000
1048,34; 7589,500; 4002,833;-5961,000
1048,89; 8706,500; 3948,833;-6259,000
1049,44; 9914,500; 3935,833;-5172,000
1049,99;11405,500; 3855,833;-4844,000
1050,54;13594,500; 3876,833;-6249,000
1051,08;17421,500; 3961,833;-6178,000
1051,63;23483,500; 4050,833;-5285,000
1052,18;33365,500; 5051,833;-6127,000
1052,73;48875,500; 7151,833;-6173,000
1053,28;65140,500;10516,833;-6386,000
1053,83;65140,500;15224,833;-6214,000
1054,38;65140,500;19203,834;-6254,000
1054,93;65140,500;21243,834;-6285,000
1055,47;65140,500;23825,834;-5328,000
1056,02;65140,500;26212,834;-5832,000
1056,57;65140,500;27830,834;-6198,000
1057,12;65140,500;30497,834;-6378,000
1057,67;65140,500;33805,832;-6078,000
1058,22;65140,500;36084,832;-6313,000
1058,76;65140,500;38542,832;-6093,000
1059,31;65140,500;44129,832;-3514,000
1059,86;65140,500;48778,832;-6204,000
1060,41;65140,500;49718,832;-6152,000
1060,96;65140,500;51396,832;-6226,000
1061,51;65140,500;53649,832;-5344,000
1062,05;65140,500;54082,832;-6122,000
1062,60;65140,500;50555,832;-6061,000
1063,15;65140,500;45221,832;-6149,000
1063,70;65140,500;41550,832;-6250,000
1064,24;65140,500;43676,832;-6169,000
1064,79;65140,500;45461,832;-6144,000
1065,34;65140,500;43989,832;-6064,000
1065,89;65140,500;41776,832;-6202,000
1066,44;65140,500;37631,832;-6120,000
1066,98;65140,500;32612,834;-6224,000
1067,53;65140,500;30790,834;-5953,000
1068,08;65140,500;30368,834;-4845,000
1068,63;65140,500;27618,834;-6096,000
1069,17;65140,500;24647,834;-5893,000
1069,72;65140,500;22350,834;-5857,000
1070,27;65140,500;20529,834;-6040,000
1070,81;65140,500;20388,834;-5996,000
1071,36;65140,500;20367,834;-3883,000
1071,91;65140,500;18745,834;  966,000
1072,46;65140,500;16791,834;-5058,000
1073,00;65140,500;14646,833;-5239,000
1073,55;65140,500;11404,833;-5935,000
1074,10;65140,500; 7803,833;-5981,000
1074,64;57912,500; 5240,833;-5860,000
1075,19;33885,500; 3535,833;-4958,000
1075,74;21610,500; 2551,833;-6091,000
1076,28;15563,500; 2312,833;-6075,000
1076,83;12189,500; 1951,833;-5286,000
1077,38; 9922,500; 1820,833;-5653,000
1077,92; 8267,500; 1783,833;-6332,000
1078,47; 7029,500; 1629,833;-5507,000
1079,02; 5898,500; 1578,833;-5959,000
1079,56; 5097,500; 1557,833;-5328,000
1080,11; 4441,500; 1304,833;-6094,000
1080,65; 3794,500; 1241,833;-5039,000
1081,20; 3295,500; 1186,833;-6151,000
1081,75; 2815,500; 1125,833;-6039,000
1082,29; 2429,500; 1128,833; -139,000
1082,84; 2095,500; 1184,833;-2678,000
1083,39; 1889,500; 1294,833;-5061,000
1083,93; 1802,500; 1335,833;-5025,000
1084,48; 1652,500; 1196,833;-5961,000
1085,02; 1467,500; 1082,833;-5783,000
1085,57; 1398,500; 1074,833;-5994,000
1086,11; 1223,500; 1079,833;-5968,000
1086,66; 1215,500;  925,833;-5584,000
1087,21; 1184,500; 1060,833;-5802,000
1087,75; 1088,500;  939,833;-6125,000
1088,30; 1015,500;  815,833;-5040,000
1088,84;  984,500;  783,833;-5963,000
1089,39;  948,500;  656,833;-5965,000
1089,93;  796,500;  664,833;-6100,000
1090,48;  696,500;  649,833;-4394,000
1091,02;  576,500;  733,833;-5181,000
1091,57;  562,500;  629,833;-5479,000
1092,11;  504,500;  642,833;-4094,000
1092,66;  504,500;  624,833;-6031,000
1093,20;  438,500;  580,833;-5180,000
1093,75;  462,500;  566,833;-4998,000
1094,29;  443,500;  486,833;-4979,000
1094,84;  408,500;  525,833;-5890,000
1095,38;  322,500;  528,833;-5097,000
1095,93;  327,500;  584,833;-5981,000
1096,47;  291,500;  615,833;-5612,000
1097,02;  318,500;  587,833;-4985,000
1097,56;  268,500;  614,833;-5772,000
1098,11;  267,500;  552,833;-5774,000
1098,65;  276,500;  508,833;-5992,000
1099,20;  198,500;  577,833;-5935,000
1099,74;  179,500;  487,833;-6002,000
1100,29;  204,500;  513,833;-4879,000
1100,83;  164,500;  496,833;-5934,000

