
Integration time [ms]:   1,000
Averaging Nr. [scans]: 1
Smoothing Nr. [pixels]: 0
Data measured with spectrometer [name]: 1703254U1
Wave   ;Sample   ;Dark     ;Reference;Scope
[nm]   ;[counts] ;[counts] ;[counts] 

 190,08;  -93,927; -370,119;11982,743
 190,69;  -75,583; -359,404;11603,049
 191,29;  -77,094; -311,651;11479,965
 191,90;  -86,698; -365,508;11440,717
 192,50;  -84,971; -379,511;10355,099
 193,10;  -64,469; -446,299;11244,381
 193,71;  -83,784; -367,888; 9821,736
 194,31;  -78,281; -399,273; 9436,327
 194,91;  -78,281; -382,273; 9291,327
 195,52;  -85,079; -338,386;10555,949
 196,12;  -61,232; -397,056; 8671,847
 196,72;  -80,763; -386,394; 8220,904
 197,32;  -83,784; -375,888; 8251,736
 197,93;  -66,951; -360,420; 8700,957
 198,53;  -80,115; -383,145; 7601,797
 199,13;  -87,021; -397,132; 8091,270
 199,74;  -72,130; -366,410; 7263,813
 200,34;  -68,461; -388,667; 7832,874
 200,94;  -65,980; -436,547; 6941,297
 201,55;  -75,583; -406,404; 7119,049
 202,15;  -78,713; -375,773; 6404,732
 202,75; -108,495; -373,217; 6097,647
 203,36;  -70,188; -338,664; 6822,492
 203,96; -120,796; -357,943; 6332,678
 204,56;  -73,641; -355,657;10275,729
 205,16;  -81,086; -363,018; 5478,458
 205,77;  -93,819; -360,244; 4767,892
 206,37;  -81,950; -409,017; 5556,267
 206,97;  -85,619; -363,760; 5129,205
 207,58;  -68,893; -364,166; 5927,278
 208,18;  -88,748; -337,129; 5129,889
 208,78;  -86,158; -404,134; 5295,461
 209,38;  -69,541; -469,415; 4958,385
 209,99;  -69,433; -356,540; 3837,534
 210,59;  -71,051; -361,662; 3890,301
 211,19;  -70,296; -364,538; 3938,343
 211,79;  -63,066; -366,927; 4499,316
 212,40;  -90,906; -373,625; 3368,911
 213,00;  -82,058; -388,891; 3903,118
 213,60;  -87,237; -386,882; 2992,972
 214,20; -101,589; -401,230; 3081,175
 214,81;  -94,359; -422,618; 2884,148
 215,41; -101,804; -376,979; 3235,877
 216,01; -121,551; -373,067; 3109,636
 216,61;  -78,173; -367,399; 2814,476
 217,22; -117,019; -381,326; 2358,888
 217,82; -131,802; -325,173; 2262,495
 218,42; -111,516; -383,711; 2389,480
 219,02; -116,156; -288,327; 3432,079
 219,63;  -99,646; -357,483; 2044,854
 220,23; -102,991; -366,602; 2425,239
 220,83; -101,157; -395,730; 1901,770
 221,43; -119,717; -393,195; 1850,167
 222,03; -122,522; -348,940; 2326,296
 222,64; -104,934; -380,348; 1769,560
 223,24;  -89,710; -298,966; 1625,350
 223,84; -123,925; -376,313; 2637,361
 224,44; -120,148; -316,695; 2381,571
 225,05; -103,480; -313,952; 1440,632
 225,65; -122,415; -301,065; 1227,445
 226,25;  -92,300; -364,961; 1139,777
 226,85; -125,652; -294,309;  995,979
 227,45; -114,106; -335,706; 1083,907
 228,06; -112,271; -365,834; 1945,438
 228,66; -111,732; -349,460; 4049,182
 229,26; -116,817; -313,438; 1131,510
 229,86; -108,387; -396,342; 1760,797
 230,46; -120,580; -358,194;  891,976
 231,06; -120,364; -320,444;  757,273
 231,67; -100,294; -346,732; 1228,961
 232,27; -136,442; -343,789;  778,094
 232,87; -105,083; -308,808;  526,384
 233,47; -137,572; -321,158;  525,777
 234,07;  -67,920; -268,486; 9912,235
 234,67; -150,038; -291,013;  672,338
 235,28; -139,572; -319,158;   65,777
 235,88; -149,599; -316,882;  285,426
 236,48; -104,177; -350,821;  165,911
 237,08; -114,960; -267,669;  448,518
 237,68; -155,758; -369,378; -267,552
 238,28; -143,212; -304,774; -106,624
 238,89; -153,707; -212,756; -205,723
 239,49; -139,859; -282,023; 1280,483
 240,09; -140,901; -284,608; -190,544
 240,69; -158,347; -251,373; -319,124
 241,29; -129,183; -289,647;  651,036
 241,89; -133,614; -330,147; -260,559
 242,49; -134,556; -248,490; -358,930
 243,10; -131,103; -201,496; 3664,834
 243,70; -155,556; -284,490;  239,070
 244,30; -100,513; -275,501; -708,594
 244,90;  -87,713; -188,582; -568,598
 245,50; -153,843; -177,355; 3274,777
 246,10; -129,225; -307,636; -831,300
 246,70; -140,808; -300,999;   17,620
 247,30;  -96,636; -251,641;  326,273
 247,91; -137,994; -208,218; 5781,292
 248,51; -117,814; -270,228; -806,563
 249,11;  -96,607; -239,514;  417,933
 249,71; -138,628; -303,008; -667,235
 250,31; -112,009; -265,483; -567,693
 250,91;  -79,376; -238,500;   75,216
 251,51; -125,541; -199,225; -822,945
 252,11; -161,856; -239,813;  367,410
 252,71; -130,153; -269,117;-1080,994
 253,31;  -84,296; -222,348; 3228,013
 253,91;  -85,302; -236,578; -676,170
 254,52; -128,749; -237,342;-1063,750
 255,12; -124,009; -293,483;-1104,693
 255,72;  -60,800; -206,366;  557,112
 256,32; -132,366; -242,061; -966,674
 256,92; -102,187; -190,070;-1147,529
 257,52;  -35,756; -173,974; -883,243
 258,12; -102,555; -201,087;  -91,621
 258,72;  -85,582; -210,810;-1232,972
 259,32;  -49,202; -211,335;-1169,514
 259,92;  -50,792; -199,330;-1343,086
 260,52;  -46,620; -192,973;-1077,433
 261,12;  -75,230; -202,059; -662,865
 261,72; -105,410; -238,452;-1312,319
 262,32;  -56,217; -215,600;-1561,498
 262,92; -107,222; -238,426;  405,627
 263,53;  -34,784; -189,698;-1277,594
 264,13; -146,611; -262,937; -268,632
 264,73;  -70,626; -217,202;-1694,617
 265,33;  -94,698; -188,317;-1708,613
 265,93;  -68,604; -147,304;-1345,140
 266,53;  -42,136; -161,046;-1544,392
 267,13;  -86,207; -139,161; -857,388
 267,73;  -59,934; -185,158;  270,230
 268,33; -137,005; -166,274;-1788,766
 268,93; -100,605; -213,708;-1702,449
 269,53;  -85,459; -204,670; -644,839
 270,13;  -69,488; -201,797;-1810,499
 270,73; -123,099; -245,287;-1891,239
 271,33; -108,143; -200,678;-1778,884
 271,93;  -71,107; -242,919;-1867,732
 272,53;  -55,386; -121,748;    8,776
 273,13;  -50,006; -146,677;-1117,075
 273,73; -105,796; -119,753;-1955,652
 274,33;  -52,359; -148,428;-2041,182
 274,93; -103,854; -188,007;-1843,972
 275,53;  -56,386;  -68,748;-1881,224
 276,13; -123,298; -121,965;-2261,935
 276,73; -102,752; -118,361;-1570,007
 277,33;  -90,653; -179,522;-1926,659
 277,93;  -40,280; -213,680;-1864,693
 278,53;  -29,926; -194,526;-2112,278
 279,13;  -63,285; -125,506;-2152,568
 279,73;  -86,602; -140,498;-1388,522
 280,33;  -56,070; -154,756;-2179,270
 280,93;   -7,760; -105,994;-2049,499
 281,53; -104,940; -147,387;-2252,953
 282,13;  -83,889; -127,363;-2193,816
 282,73; -116,415; -156,875; -385,885
 283,33;  -49,141; -137,872;-2307,266
 283,92;  -34,824;  -74,477;-2028,003
 284,52;  -41,831;  -94,109;-2365,496
 285,12;  -51,790; -138,524;-1425,469
 285,72;  -32,329; -126,898;-1041,213
 286,32;  -27,357;  -55,622;-1313,564
 286,92;  -42,516; -163,521;-2376,850
 287,52;   19,621;  -89,519;-2170,041
 288,12;    0,383;  -97,763;-2542,507
 288,72;    1,598; -106,417;-1625,518
 289,32;    3,723;  -54,470; 1692,233
 289,92;  -49,732; -106,270;-2344,148
 290,52;  -52,808;  -91,809;-2485,710
 291,12;    0,104;  -57,996;-1570,308
 291,72;   35,176;  -74,477;-1590,003
 292,32;   88,981;  -83,135;-2372,442
 292,92;   60,572;   -2,737;-2481,560
 293,51;   66,536;  -37,093;-2532,404
 294,11;  187,211;  -42,121;-1681,160
 294,71;  279,219;   -7,488;-2695,667
 295,31;  146,025;  -24,743;-1755,797
 295,91;  271,046;   46,751;-2713,629
 296,51;  318,752;   62,656;-1776,106
 297,11;  271,890;   35,061;-2900,988
 297,71;  403,132;    4,131;-2726,648
 298,31;  651,268;   38,730;-2329,148
 298,91;  466,456;   74,756;-2483,202
 299,50;  505,011;   41,395;-2689,473
 300,10;  555,895;  145,887;-2706,114
 300,70;  534,586;   95,528;-2492,576
 301,30;  590,751;   89,253;-2855,415
 301,90;  599,341;   96,248;-2004,843
 302,50;  589,385;  163,640;-2515,198
 303,10;  488,722;  124,126;-2530,076
 303,70;  460,026;  208,660;-3000,488
 304,29;  531,494;  189,918;-2658,740
 304,89;  508,508;  266,183;-1090,755
 305,49;  657,767;  163,922;-2773,122
 306,09;  814,269;  214,133;-2874,839
 306,69;  714,815;  262,736;-2915,911
 307,29;  698,981;  312,865;-2008,442
 307,89;  700,105;  303,408;-3029,000
 308,48;  560,960;  341,774;-2453,301
 309,08;  597,578;  369,492;-2743,377
 309,68;  767,334;  377,019;-3094,026
 310,28;  730,671;  371,102;-2576,213
 310,88;  543,195;  321,211;-2936,453
 311,48;  680,262;  447,500;-2875,331
 312,07;  646,686;  408,367;-2963,228
 312,67;  785,160;  497,855;-2128,297
 313,27;  788,886;  494,448;-1105,224
 313,87;  808,865;  583,357;-2164,083
 314,47;  944,864;  516,954;-3030,392
 315,06; 1314,554;  620,191; 2713,837
 315,66; 1317,736;  579,988;-3245,400
 316,26; 1279,497;  632,938;-1844,483
 316,86; 1404,095;  777,969;-3140,110
 317,46; 1628,626;  720,307;-2115,167
 318,06; 1702,605;  739,813; -825,335
 318,65; 1770,647;  781,801;-2807,999
 319,25; 2096,374;  821,798;-3195,617
 319,85; 1881,661;  932,663;-2908,323
 320,45; 2349,575;  986,283;-3213,304
 321,05; 3139,617;  901,271;-2761,968
 321,64; 3263,222;  889,531;-3219,411
 322,24; 3437,069; 1056,861;-3265,513
 322,84; 3060,091; 1080,356;-3261,345
 323,44; 2204,774; 1133,364;-3219,300
 324,03; 1938,393; 1194,486;-3072,067
 324,63; 1906,521; 1250,452;-2310,059
 325,23; 1920,038; 1241,928;-3097,792
 325,83; 1773,196; 1367,021;-2876,123
 326,42; 1728,605; 1442,622;-3285,005
 327,02; 1686,588; 1476,551;-3076,607
 327,62; 1846,514; 1439,629;-2505,221
 328,22; 2100,118; 1553,486;-3234,973
 328,82; 2033,287; 1577,037;-2229,938
 329,41; 1851,336; 1658,852;-3016,728
 330,01; 2131,720; 1652,750;-2961,704
 330,61; 2198,063; 1806,062;-2928,707
 331,20; 1838,941; 1778,325;-2868,531
 331,80; 1791,392; 1762,512;-2794,386
 332,40; 1790,844; 1752,102;-2896,932
 333,00; 1752,108; 1933,667;-2790,423
 333,59; 1678,222; 1748,771;-2855,091
 334,19; 1780,034; 1920,745;-1771,037
 334,79; 1663,732; 1712,615;-2861,316
 335,39; 1666,029; 1729,919;-2978,912
 335,98; 1734,074; 1726,714;-3126,958
 336,58; 1806,407; 1659,777;-3191,401
 337,18; 1867,544; 1720,779;-2958,592
 337,77; 1914,467; 1782,837;-2098,463
 338,37; 1840,813; 1806,359;-2021,540
 338,97; 1959,865; 1907,384;-2912,402
 339,57; 2227,128; 1862,948;-3044,894
 340,16; 2567,192; 1836,431;-2881,390
 340,76; 2605,575; 1962,712;-3053,314
 341,36; 2366,804; 1861,920;-3195,650
 341,95; 2809,845; 1934,506;-3027,623
 342,55; 2870,730; 1918,998;  703,736
 343,15; 2776,220; 2048,155;-3094,039
 343,74; 3340,832; 1924,644;-2382,298
 344,34; 3348,018; 1860,267;-3015,661
 344,94; 2533,896; 2068,530;-3069,485
 345,53; 2351,723; 2110,769;-2860,447
 346,13; 2452,458; 2174,398;-1283,573
 346,73; 2685,110; 1966,473;-2254,805
 347,32; 2785,242; 2268,649;-3080,871
 347,92; 2715,139; 2312,600;-2277,145
 348,52; 2701,350; 2270,523;-1878,722
 349,11; 2874,674; 2336,551;  975,034
 349,71; 2585,062; 2330,658;-3240,016
 350,31; 2335,500; 2441,387;-2672,237
 350,90; 2469,098; 2483,418;-2326,863
 351,50; 2648,060; 2390,852;-2105,634
 352,10; 3313,212; 2471,119;-3114,840
 352,69; 3748,565; 2532,273;-3182,424
 353,29; 3838,918; 2563,024;-3191,317
 353,89; 3934,623; 2645,527;-3255,104
 354,48; 3958,212; 2693,119;-3208,840
 355,08; 4356,226; 2871,980;-1117,164
 355,67; 4985,422; 2850,042;-2951,417
 356,27; 6199,032; 2839,128;-3232,985
 356,87; 6979,796; 3010,288;-3383,142
 357,46; 7095,192; 3049,431;-2351,390
 358,06; 8198,069; 3306,291;-3073,523
 358,66; 6580,708; 3337,504;-3109,432
 359,25; 4407,638; 3260,792;-2344,119
 359,85; 4820,746; 3365,667;-3215,970
 360,44; 6258,098; 3389,015;-3292,172
 361,04; 6325,220; 3567,155;-2367,039
 361,64; 6295,220; 3696,155;-2309,039
 362,23; 5920,803; 3772,517;-2932,958
 362,83; 5687,421; 3755,639;-2990,726
 363,42; 5375,724; 3938,769;-2836,447
 364,02; 5197,738; 3910,034;-2973,462
 364,62; 5520,458; 3816,398;-2486,573
 365,21; 4505,171; 3857,937;-1741,558
 365,81; 3150,826; 3935,818;-2792,173
 366,40; 3181,063; 3970,062;-2080,707
 367,00; 3458,538; 4021,550;-2952,776
 367,59; 3824,920; 4071,831;-2979,699
 368,19; 4555,703; 4221,678;-3237,306
 368,79; 4276,259; 4198,720;-3125,268
 369,38; 3736,049; 4107,200;-2250,383
 369,98; 4209,444; 4101,940;-2935,940
 370,57; 4715,820; 4188,588;-3331,356
 371,17; 4612,382; 4164,860;-3326,135
 371,76; 5129,842; 4277,486;-3442,879
 372,36; 5808,640; 4057,598;-3195,501
 372,95; 7083,907; 4115,372;  667,934
 373,55; 8045,368; 4105,998;-3393,811
 374,14; 7788,208; 4300,099;-3405,097
 374,74; 7720,167; 4256,514;-3224,124
 375,34; 7002,727; 4286,979;-3189,521
 375,93; 6692,295; 4295,479;-2706,116
 376,53; 5993,546; 4344,585;-3575,974
 377,12; 4120,020; 4405,670;-1465,352
 377,72; 3080,079; 4480,730;-3410,414
 378,31; 3403,191; 4511,027;-2274,699
 378,91; 3744,056; 4291,429;-3262,199
 379,50; 4228,505; 4588,213;-3331,363
 380,10; 4277,600; 4327,226;-3398,890
 380,69; 4266,917; 4094,621;-2343,626
 381,29; 5851,852; 4586,735;-2550,439
 381,88; 7735,766; 4518,758;-1605,111
 382,48; 7558,168; 4519,727;-3286,485
 383,07; 6539,039; 4495,358;-3457,802
 383,67; 6205,766; 4635,758;-1847,111
 384,26; 5721,615; 4667,491;-2467,905
 384,86; 4368,787; 4921,849;-3182,252
 385,45; 4350,147; 4932,636;-3325,344
 386,05; 4340,823; 5073,608;-3419,100
 386,64; 3547,227; 4911,384;-3524,855
 387,24; 3812,248; 5016,878;-2585,688
 387,83; 3930,392; 4993,512;-2489,386
 388,42; 4122,082; 5182,346;-2109,466
 389,02; 3959,946; 5423,748;-3235,966
 389,61; 3683,875; 5688,036;-3413,653
 390,21; 3678,248; 5729,878;-3463,688
 390,80; 2952,910; 5816,392;-3208,810
 391,40; 2974,026; 6137,899;-2293,168
 391,99; 3432,571; 5981,099;-3195,550
 392,59; 3533,788; 6435,252;-2416,943
 393,18; 3032,458; 6683,398;-2491,573
 393,77; 2658,913; 6883,198;-3238,192
 394,37; 2773,925; 7145,657;-2198,825
 394,96; 3183,868; 7098,403;-2296,146
 395,56; 3009,820; 7264,588;-2834,356
 396,15; 3551,048; 6867,797;-3125,692
 396,75; 3831,904; 7343,163;-2889,993
 397,34; 3122,445; 7669,940;-2620,940
 397,93; 2565,092; 7720,188;-3358,047
 398,53; 2537,608; 7595,262;-2525,088
 399,12; 2771,961; 8192,013;-2154,981
 399,72; 3052,212; 8013,119;-2274,840
 400,31; 3321,601; 8034,629;-3169,581
 400,91; 2956,824; 8446,012;-2959,791
 401,50; 2513,913; 8820,198;-2330,192
 402,09; 2510,078; 8550,327;-2894,722
 402,69; 2698,955; 8691,187;-3072,856
 403,28; 2792,472; 9052,663;-2983,588
 403,88; 4771,358; 9162,560; 1927,079
 404,47; 6082,920; 9689,831;  884,300
 405,06; 4008,588; 9684,171;  -68,947
 405,66; 4623,905; 9753,565;-2875,684
 406,25; 6225,259;10085,720;-3119,268
 406,84; 6459,135;10446,177;-2892,711
 407,44; 5184,245;10847,858;-2219,944
 408,03; 3465,836;10422,257;-2906,063
 408,63; 2999,978;10373,085;-3011,379
 409,22; 2936,409;10191,584;-1945,783
 409,81; 2915,052;10681,007;-1849,765
 410,41; 3188,431;11553,078;-2857,615
 411,00; 3349,087;11336,362;-1814,921
 411,59; 3813,986;11251,120;-2826,578
 412,19; 3818,993;11468,350;-2245,394
 412,78; 4162,237;11399,226;-2830,436
 413,37; 4329,886;12151,878;-2704,234
 413,97; 4605,030;12410,512;-2618,933
 414,56; 4360,483;12071,506;-2503,169
 415,15; 3844,685;12410,394;-2121,547
 415,75; 3527,059;12408,639;-2698,272
 416,34; 3093,562;12590,254;-1893,681
 416,93; 3274,470;12922,047;-2777,536
 417,53; 3806,089;12696,169;-1423,303
 418,12; 4384,729;12570,785;-2217,903
 418,71; 4622,731;12907,592;-2673,285
 419,31; 5063,845;13054,695;-1884,952
 419,90; 5320,485;13470,313;-2786,552
 420,49; 4055,254;13619,298;-1733,834
 421,08; 3282,254;14201,298;-1674,834
 421,68; 3697,010;14723,421;-1908,792
 422,27; 4190,694;14035,832;-2004,437
 422,86; 4477,658;13874,073; -437,590
 423,46; 4333,530;14080,107;-2575,598
 424,05; 3848,603;14376,626;-2928,293
 424,64; 4389,176;13888,953;-2640,014
 425,24; 4545,709;14092,098;-2903,453
 425,83; 4508,431;13992,269;-2680,945
 426,42; 5144,603;12987,626;-2760,293
 427,01; 5311,127;13424,734;-2674,533
 427,61; 3824,113;14347,873;-2609,209
 428,20; 2974,222;14036,151;-1764,751
 428,79; 2940,518;14414,052;-2859,656
 429,38; 3443,955;14092,377;-1781,186
 429,98; 4168,488;14922,521; -994,625
 430,57; 5083,113;15058,873;-2193,209
 431,16; 4117,913;14580,389;-2784,522
 431,75; 3923,122;14357,909; -561,407
 432,35; 5028,301;13435,899;-1951,262
 432,94; 3835,094;14429,186;-2324,759
 433,53; 2833,818;14560,375;-1152,995
 434,12; 2829,892;14431,298;-2267,381
 434,72; 2777,764;14188,331;-1413,389
 435,31; 2655,757;14167,699; 7395,119
 435,90; 2347,951;14308,954; 8338,249
 436,49; 2353,469;13427,834; -683,175
 437,08; 2499,677;13895,951; -675,370
 437,68; 4181,922;14442,827;-2987,412
 438,27; 5118,470;14610,237;-2610,866
 438,86; 3166,332;14612,832;-1147,984
 439,45; 2380,995;15313,346;-1937,106
 440,05; 3719,420;15955,616;-2982,694
 440,64; 3867,845;15054,886;-1902,282
 441,23; 3016,400;14152,525;-1415,553
 441,82; 2640,829;13700,218;-2631,576
 442,41; 1961,889;14351,277;-3014,637
 443,00; 1884,127;13625,925;-2724,863
 443,60; 1933,435;14373,881;-3136,710
 444,19; 1916,767;15026,541;-1440,462
 444,78; 1835,860;14960,151;-3012,298
 445,37; 1902,530;15728,297;-2522,928
 445,96; 2029,427;15331,249;-3116,202
 446,56; 1957,220;15596,535;-1144,698
 447,15; 1996,616;16225,678; -884,947
 447,74; 1808,602;17097,412;-2709,931
 448,33; 1698,387;16443,066;-1985,920
 448,92; 1698,926;15422,440;-2964,176
 449,51; 1575,739;15095,817;-2848,813
 450,10; 1386,344;15133,078;-3063,256
 450,70; 1455,358;14904,939;-1957,581
 451,29; 1434,416;15329,193;-1112,260
 451,88; 1544,069;15513,671;-2929,183
 452,47; 1838,430;16565,055;-2795,584
 453,06; 1697,849;16495,498;-2401,047
 453,65; 1314,526;16071,874;-2873,493
 454,24; 1393,928;17329,246;-2173,558
 454,84; 1462,783;17793,209;-1379,168
 455,43; 1399,576;18732,496;-2219,665
 456,02; 1357,345;18879,480;-2927,947
 456,61; 1321,431;17317,459;-2925,275
 457,20; 1300,137;16921,363;-2786,753
 457,79; 1491,857;17588,131;-2922,554
 458,38; 1596,296;18338,264;-2132,467
 458,97; 1458,109;18039,641;-2515,104
 459,56; 1594,072;18190,479;-2760,565
 460,16; 1502,886;17832,258;-2082,894
 460,75; 1435,354;18157,518;-2072,146
 461,34; 1387,620;18077,887;-2962,020
 461,93; 1389,370;18381,186;-2200,853
 462,52; 1517,390;19333,275;-2744,993
 463,11; 1689,075;20546,688;-1989,639
 463,70; 1831,246;19458,643;-2869,295
 464,29; 1993,392;19945,082;-3150,376
 464,88; 1813,420;20795,807;-2743,024
 465,47; 1643,210;19885,285;-2748,139
 466,06; 1582,263;20915,713;-3191,692
 466,65; 1614,003;21667,572;-3018,635
 467,24; 1712,975;22030,848;-2539,986
 467,84; 1671,592;22443,164;-2020,371
 468,43; 1616,657;22325,051;-2238,559
 469,02; 1671,139;23517,170;-2702,135
 469,61; 1702,585;24168,936;-2593,555
 470,20; 1893,751;23781,063;-2841,085
 470,79; 1810,896;22760,100;-3232,475
 471,38; 1541,479;25266,463;-2192,395
 471,97; 1390,904;26009,732; -666,983
 472,56; 1505,121;25472,887;-3035,376
 473,15; 1507,868;25296,975;-2825,135
 473,74; 1535,386;26395,854;-3106,559
 474,33; 1520,839;25866,848;-2957,796
 474,92; 1422,407;27630,348;-3146,391
 475,51; 1396,192;29609,002;-2873,380
 476,10; 1420,962;29847,986;-3011,662
 476,69; 1433,344;26101,268;-2855,586
 477,28; 1428,227;25846,955;-2956,845
 477,87; 1376,674;27035,121; -173,956
 478,46; 1356,610;28695,639;-3029,460
 479,05; 1427,760;30507,100;-2134,284
 479,64; 1369,818;31679,756;-2718,655
 480,23; 1389,171;29541,508;-2845,548
 480,82; 1324,782;28549,996;-2736,807
 481,41; 1279,444;29371,510;-1873,929
 482,00; 1306,984;29284,885;-1364,185
 482,59; 1368,919;29593,998;-2298,998
 483,18; 1349,293;31702,244;-2376,723
 483,77; 1414,042;31703,139;-2193,865
 484,36; 1451,192;32475,002;-1701,380
 484,95; 1430,604;32990,410; -788,643
 485,54; 1669,791;35331,031;-1371,006
 486,13; 1860,645;35762,996; -945,616
 486,72; 2325,905;34334,137;  148,326
 487,31; 2343,848;31046,285;-1109,686
 487,89; 1948,063;32608,633; -193,697
 488,48; 2475,093;33798,164;-1523,728
 489,07; 2923,634;32913,941;-1248,674
 489,66; 2182,157;33511,645;-1505,224
 490,25; 1868,942;31095,299; -660,212
 490,84; 1898,732;34127,375;-1683,635
 491,43; 2966,242;34965,621; -701,552
 492,02; 3605,704;36094,652;-1864,987
 492,61; 2594,352;35362,902;-1043,094
 493,20; 1863,108;33776,426;-2019,743
 493,79; 2007,655;32749,434; 4824,494
 494,38; 1870,748;33706,043;-1938,342
 494,97; 2648,086;32583,934; -629,911
 495,55; 3712,899;34690,309;-2325,548
 496,14; 2989,085;35087,531;-2403,220
 496,73; 2019,231;35451,566;-1952,609
 497,32; 1879,641;34211,570;-2587,182
 497,91; 1990,317;35005,949;-1921,629
 498,50; 2066,828;34165,195;-2912,544
 499,09; 2009,641;34554,570;-3088,182
 499,68; 2081,936;32403,070;-2405,396
 500,27; 2598,376;33321,605;-2490,999
 500,85; 2607,922;32655,207;-2604,071
 501,44; 2528,498;32478,342;-2576,175
 502,03; 2235,569;33194,457;-3368,178
 502,62; 1914,799;31275,068;-3438,205
 503,21; 1800,627;29432,711;-3532,858
 503,80; 1722,397;32028,100;-2976,831
 504,39; 1767,038;32451,119;-3458,121
 504,97; 1688,189;31774,982;-3577,636
 505,56; 1701,145;31537,590;-2979,281
 506,15; 1698,088;32302,336;-3991,602
 506,74; 1818,470;32557,617;-2945,526
 507,33; 1738,988;32185,498;-3165,949
 507,92; 1752,434;33952,859;-3871,678
 508,51; 1627,505;35926,973;-3735,682
 509,09; 1707,564;34536,629;-3921,053
 509,68; 1710,945;34318,508;-3748,286
 510,27; 1779,378;33667,410;-3799,381
 510,86; 1763,708;32572,264;-4081,751
 511,45; 1617,082;33677,512;-3843,476
 512,03; 1831,297;34524,855;-3829,488
 512,62; 2061,548;36240,961;-3780,346
 513,21; 2220,328;33870,789;-3186,209
 513,80; 2339,623;34644,289;-3501,423
 514,39; 2407,543;32752,137;-3905,221
 514,97; 2119,644;35347,781;-4095,255
 515,56; 2215,501;34167,551;-4198,248
 516,15; 2845,027;35428,063;-3955,179
 516,74; 3175,221;32584,318;-4420,049
 517,33; 2344,214;33459,688;-3549,542
 517,91; 1943,609;33935,426;-4188,099
 518,50; 2207,874;32563,393;-3264,282
 519,09; 2608,938;33942,875;-3157,778
 519,68; 2429,997;35231,531;-4286,148
 520,26; 2180,091;38679,547;-4232,675
 520,85; 2122,162;39452,660;-4352,679
 521,44; 2183,257;40826,078;-4358,897
 522,03; 2547,544;39485,539;-4271,912
 522,61; 3026,257;36773,078;-4364,897
 523,20; 2917,215;33924,090;-4337,233
 523,79; 2358,783;32040,590;-4337,828
 524,38; 1959,192;32850,191;-4344,709
 524,96; 1845,739;35883,199;-4321,473
 525,55; 1866,523;36021,449;-4542,771
 526,14; 2332,359;34018,723;-4434,931
 526,73; 2957,984;32852,074;-4389,515
 527,31; 2276,631;32903,324;-4488,622
 527,90; 1955,523;33630,449;-4564,771
 528,49; 1753,998;34155,938;-2529,839
 529,08; 1566,409;34601,344;-3467,103
 529,66; 1515,250;34848,445;-3911,389
 530,25; 1553,883;35279,832;-4414,172
 530,84; 1455,683;35334,348;-4583,485
 531,42; 1560,719;38583,105;-4365,332
 532,01; 1950,258;37528,480;-4291,588
 532,60; 2169,086;34512,125;-4473,241
 533,18; 1656,078;35538,086;-4078,042
 533,77; 1489,964;34969,984;-4236,374
 534,36; 1483,164;34459,469;-4374,061
 534,95; 1405,848;35483,477;-4088,015
 535,53; 1409,351;34236,090; -974,424
 536,12; 1722,280;36469,977;-2657,420
 536,71; 2166,337;36511,230;-3869,099
 537,29; 1962,381;36073,621;-3618,454
 537,88; 1742,257;33908,078;-3454,897
 538,47; 1694,755;32497,867;-2840,180
 539,05; 1738,021;36837,238;-2139,054
 539,64; 1935,490;40414,898;-1785,997
 540,22; 2171,339;37414,633; -764,790
 540,81; 2031,778;37501,766; 1008,297
 541,40; 1796,065;39018,629; 3425,591
 541,98; 1603,611;38188,230; 4858,519
 542,57; 1784,280;39368,977; 4597,580
 543,16; 1524,698;38645,613; 4952,500
 543,74; 1465,122;35774,480; 4083,603
 544,33; 1487,260;36297,883; 3620,721
 544,92; 1503,533;37217,887; 3973,339
 545,50; 1474,805;37338,488;11456,648
 546,09; 1293,323;40064,965;11359,916
 546,67; 1321,496;41948,727; 2857,878
 547,26; 1208,488;40050,094; -202,615
 547,85; 1214,426;39208,414; -567,501
 548,43; 1251,655;38452,625; -849,836
 549,02; 1124,705;39427,246;-1040,008
 549,60; 1150,899;40570,500; -984,878
 550,19; 1228,058;41166,996;-2192,901
 550,78; 1148,576;42660,875;-2328,325
 551,36; 1108,138;45349,148;-2432,104
 551,95; 1042,208;45443,859; -585,416
 552,53; 1014,073;43280,262; -296,916
 553,12; 1044,476;41420,035;-3431,672
 553,70;  976,729;43188,547;-2878,222
 554,29; 1054,152;44058,008;-2869,428
 554,88; 1005,347;41831,668;-4247,989
 555,46;  981,793;43723,027;-3881,718
 556,05; 1085,316;45007,734;-4207,268
 556,63; 1228,483;45206,266;-3396,489
 557,22; 1345,992;43875,109;-3394,714
 557,80; 1203,504;41749,762;-3568,321
 558,39; 1339,979;44188,250;-4145,390
 558,97; 1161,396;47993,887;-3699,470
 559,56; 1037,180;49889,137;-4544,768
 560,15; 1069,807;50117,891;-3611,042
 560,73; 1095,685;49814,152;-4287,867
 561,32; 1381,561;47024,609;-3741,309
 561,90; 1217,448;46041,910;-4382,333
 562,49; 1059,734;48487,371;-3786,348
 563,07;  938,828;48074,387;-4783,875
 563,66;  977,044;50064,133;-4352,577
 564,24;  968,727;49228,145;-4763,531
 564,83;  940,074;51344,664;-4603,607
 565,41; 1000,871;53840,375;-4329,539
 566,00; 1036,505;52202,164;-2755,012
 566,58;  978,007;56465,375;-3725,729
 567,17;  946,446;56909,508;-4280,642
 567,75;  928,029;52392,871;-4653,562
 568,34;  902,325;55893,770;-3216,466
 568,92;  833,102;55738,793;-3987,947
 569,51;  878,080;54852,895; 2680,576
 570,09;  933,375;58247,391;-4676,638
 570,68;  924,312;53188,313;-4788,833
 571,26;  878,568;50733,242;-3886,817
 571,85;  870,590;57347,738;-4822,649
 572,43;  837,281;57011,379;-4704,111
 573,01;  775,144;52662,375;-4873,920
 573,60;  862,425;53819,012;-3785,810
 574,18;  822,073;55122,262;-4514,917
 574,77;  821,303;53284,277;-4737,634
 575,35;  857,425;56113,012;-4452,810
 575,94;  901,188;57300,770;-4076,275
 576,52;  877,620;54049,270;-2249,680
 577,11;  828,944;51620,297;-3244,924
 577,69;  863,412;48685,555;-3183,176
 578,27;  853,058;51008,996;-3447,901
 578,86;  806,592;55198,543;-2994,031
 579,44;  855,741;60080,004;-2805,855
 580,03;  924,317;60164,137;-2493,958
 580,61;  857,893;60267,270;-3206,062
 581,19;  847,116;56429,652;-2538,271
 581,78;  859,743;55361,813;-2364,238
 582,36;  839,929;57656,031;-2911,909
 582,95;  910,052;56180,172;-1497,776
 583,53;  895,045;59586,539;-2319,268
 584,11;  858,123;61608,883;-2241,088
 584,70;  884,663;61691,660;-1948,035
 585,28;  878,059;62070,398;-1853,592
 585,87;  897,952;60436,930;-2889,432
 586,45;  860,592;63023,543;-2375,031
 587,03;  813,520;64945,430;-1150,027
 587,62;  970,022;61494,641;-1834,745
 588,20;  937,124;62236,285;-1020,779
 588,78;  926,205;58157,840;-3411,673
 589,37;  995,620;57765,270;-3360,680
 589,95;  972,461;62238,773;-3385,657
 590,54; 1037,182;63633,539;-3461,459
 591,12; 1038,355;62116,301;-3508,497
 591,70;  969,829;59586,789;-3331,565
 592,29; 1047,060;62881,805;-2923,283
 592,87; 1009,871;63542,375;-2394,538
 593,45;  970,923;63404,801; 1487,908
 594,04;  935,557;62800,188;-3676,875
 594,62;  979,448;59709,910;-3708,333
 595,20;  895,111;62066,828;-4371,146
 595,79;  962,987;62681,285;-4165,588
 596,37;  881,412;61108,555;-3657,176
 596,95;  897,642;56922,164;-4321,203
 597,53;  937,325;58806,770;-4226,466
 598,12;  880,405;61848,922;-3959,669
 598,70;  887,635;64932,531;-3776,695
 599,28;  810,871;64911,375;-3404,538
 599,87;  901,008;64929,777;-3061,420
 600,45;  910,671;64938,293;-3907,543
 601,03;  888,282;63145,781;-4100,802
 601,62;  935,557;61727,188;-4468,875
 602,20;  954,153;59786,414;-4541,119
 602,78;  827,348;64399,070;-4770,680
 603,36;  821,491;64783,301;-3166,688
 603,95;  831,303;58863,277;-4492,634
 604,53;  762,714;62401,281;-4574,207
 605,11;  847,799;59505,258;-2755,535
 605,69;  823,958;62362,156;-3365,249
 606,28;  889,060;62594,805;-4223,283
 606,86;  837,973;61629,422;-3946,264
 607,44;  733,729;60431,547;-3906,222
 608,02;  662,196;58047,805;-4037,474
 608,61;  718,347;60099,668;-2866,989
 609,19;  685,700;58582,418;-2582,882
 609,77;  785,836;57398,422; -710,073
 610,35;  732,692;55748,785; 5794,625
 610,94;  731,678;56509,926;14509,949
 611,52;  692,347;55803,668;12610,011
 612,10;  595,413;53026,957; 8432,133
 612,68;  637,593;56637,949; 2694,278
 613,26;  737,276;57037,551; 2032,015
 613,85;  706,815;61759,926; -599,241
 614,43;  601,995;62306,918;-1030,096
 615,01;  586,514;62272,199;-1215,211
 615,59;  598,816;64874,328; -972,932
 616,17;  583,843;59402,648;-2561,890
 616,76;  652,396;62178,887;-2993,470
 617,34;  724,511;62666,988;-2389,138
 617,92;  637,325;58547,770;-3399,466
 618,50;  694,116;61202,652;-2562,271
 619,08;  718,066;57928,031;-2514,100
 619,67;  657,505;55968,164;-3196,012
 620,25;  642,022;54290,641;-2743,745
 620,83;  600,671;50498,293;-3495,543
 621,41;  573,649;52314,797;-2800,711
 621,99;  525,621;54560,672;-2529,371
 622,57;  660,454;55529,141;-3707,149
 623,15;  706,828;56213,387;-3783,875
 623,74;  615,410;58266,746;-3892,794
 624,32;  633,094;59330,754;-2827,749
 624,90;  588,627;58625,898;-2311,188
 625,48;  604,023;57897,043;-3132,436
 626,06;  586,375;56898,391;-4006,638
 626,64;  505,741;57787,004;-4162,855
 627,22;  458,109;58993,020;-3409,764
 627,81;  426,539;58046,117;-4334,478
 628,39;  499,864;57121,145;-4560,722
 628,97;  468,808;56597,293;-4437,733
 629,55;  501,547;55377,750;-4219,985
 630,13;  547,893;55669,270;-2959,062
 630,71;  486,943;54162,891;-2747,233
 631,29;  520,303;53129,277;-3824,634
 631,87;  522,310;52776,504;-4223,451
 632,45;  477,843;52786,648;-4716,890
 633,03;  518,763;54183,500;-4191,688
 633,62;  472,714;55423,281;-4714,207
 634,20;  467,189;54882,172;-4089,966
 634,78;  477,331;56497,000;-4430,283
 635,36;  494,569;56701,648;-4449,508
 635,94;  537,691;55183,383;-5398,684
 636,52;  551,296;51027,645;-5422,126
 637,10;  499,642;52116,164;-5488,203
 637,68;  500,224;50694,527;-4702,123
 638,26;  443,684;47618,750;-5536,176
 638,84;  446,901;48688,902;-5421,569
 639,42;  517,642;49235,164;-3756,203
 640,00;  548,862;51366,148;-5405,726
 640,58;  605,643;54579,402;-4806,027
 641,16;  512,425;55521,656;-5571,328
 641,74;  533,206;53214,906;-5433,630
 642,32;  510,988;50106,160;-5620,931
 642,90;  436,769;50434,414;-5856,232
 643,48;  473,551;49231,668;-5786,534
 644,06;  482,332;49280,922;-5796,835
 644,64;  431,114;49595,176;-5842,137
 645,22;  377,895;50513,430;-5562,438
 645,80;  436,677;50547,684;-4957,740
 646,39;  436,458;48107,938;-5515,041
 646,97;  353,240;49773,191;-5850,342
 647,54;  409,021;52328,441;-5717,644
 648,12;  368,803;54879,695;-5865,945
 648,70;  441,584;58954,949;-5885,247
 649,28;  483,366;56421,203;-6090,548
 649,86;  440,147;51091,457;-5609,850
 650,44;  433,929;48619,711;-5452,151
 651,02;  437,710;49970,965;-5474,452
 651,60;  351,492;51793,219;-5803,753
 652,18;  434,273;51320,473;-4735,055
 652,76;  355,055;53277,723;-5934,356
 653,34;  403,836;54817,977;-5939,658
 653,92;  433,618;57729,230;-5784,959
 654,50;  450,399;59042,484;-5818,261
 655,08;  399,181;58048,738;-5841,562
 655,66;  457,962;55058,992;-5115,863
 656,24;  467,744;56743,246;-5200,165
 656,82;  544,525;58989,500;-4979,466
 657,40;  473,307;58967,754;-5667,768
 657,98;  417,088;60169,008;-5486,069
 658,56;  440,870;61114,258;-5717,371
 659,14;  425,651;61380,512;-5913,672
 659,72;  395,433;63381,766;-5916,973
 660,29;  356,214;62437,020;-5907,275
 660,87;  363,996;59738,273;-5212,576
 661,45;  413,777;58590,527;-5664,877
 662,03;  331,559;57513,781;-4971,179
 662,61;  362,340;54945,035;-5638,480
 663,19;  387,122;54618,289;-5657,782
 663,77;  336,904;53917,543;-5939,083
 664,35;  293,685;56689,793;-5887,384
 664,93;  288,467;62595,047;-4922,686
 665,51;  319,248;61993,301;-6033,987
 666,08;  360,030;57747,555;-5652,289
 666,66;  372,811;51859,809;-4400,590
 667,24;  364,593;49420,063;-5952,892
 667,82;  380,374;50250,316;-5849,193
 668,40;  381,156;50723,570;-5932,494
 668,98;  393,937;51952,824;-5097,796
 669,56;  337,719;57957,078;-6096,097
 670,13;  343,500;61797,328;-6222,398
 670,71;  361,282;59698,582;-5900,700
 671,29;  340,063;57209,836;-6139,001
 671,87;  341,845;56814,090;-6051,303
 672,45;  327,626;51822,344;-6050,604
 673,03;  398,408;52592,598;-4769,906
 673,60;  357,189;58431,852;-3503,207
 674,18;  336,971;63679,105;-5938,508
 674,76;  341,752;61159,359;-6226,810
 675,34;  346,534;56361,613;-5251,111
 675,92;  323,315;55284,863;-6338,413
 676,50;  363,097;55051,117;-6085,714
 677,07;  320,878;56952,371;-6095,016
 677,65;  310,660;56680,625;-6163,317
 678,23;  353,441;55997,879;-5057,618
 678,81;  379,223;58016,133;-5299,919
 679,38;  331,004;56669,387;-5969,221
 679,96;  337,786;53267,641;-5846,522
 680,54;  366,567;55171,895;-5308,824
 681,12;  296,349;52485,148;-6126,125
 681,70;  297,130;54786,398;-4413,427
 682,27;  344,912;54740,652;-5851,728
 682,85;  311,693;58265,906;-5991,029
 683,43;  322,475;64943,160;-6140,331
 684,01;  325,256;64943,414;-5172,632
 684,58;  397,038;64307,668;-5138,934
 685,16;  332,819;64236,922;-4494,235
 685,74;  350,601;62790,176;-3853,536
 686,32;  341,383;59009,430;-6012,838
 686,89;  327,164;59552,684;-6015,139
 687,47;  360,946;59534,934;-6076,441
 688,05;  294,727;56416,188;-6019,742
 688,63;  281,509;59626,441;-6102,043
 689,20;  286,290;62884,695;-5971,345
 689,78;  317,072;58427,949;-5530,646
 690,36;  259,853;54291,203;-5381,948
 690,93;  270,635;54968,457;-6355,249
 691,51;  314,416;61453,711;-6326,550
 692,09;  276,198;64946,965;-6223,852
 692,67;  297,979;64947,219;-6047,153
 693,24;  270,761;60968,469;-5803,455
 693,82;  300,542;59538,723;-6235,756
 694,40;  342,324;58049,977;-3570,058
 694,97;  287,105;57456,230;-6046,359
 695,55;  281,887;59820,484;-5464,660
 696,13;  311,668;61729,738;-4454,962
 696,70;  318,450;58594,992;-6029,263
 697,28;  299,231;59108,246;-6266,564
 697,86;  312,013;60837,500;-6030,866
 698,43;  270,794;58827,754;-6198,167
 699,01;  339,576;55595,004;-6051,469
 699,59;  293,357;55751,258;-6402,770
 700,16;  297,139;54174,512;-5257,072
 700,74;  261,920;57040,766;-5497,373
 701,32;  258,702;56440,020;-6233,674
 701,89;  281,483;55792,273;-6049,976
 702,47;  290,265;60296,527;-6466,277
 703,05;  256,046;64951,781;-6309,579
 703,62;  287,828;64952,035;-6227,880
 704,20;  280,609;64952,285;-5306,182
 704,77;  263,391;64952,539;-6118,483
 705,35;  214,172;64213,793;-6006,784
 705,93;  204,954;64327,047;-4922,085
 706,50;  268,735;63796,301;-5267,387
 707,08;  240,517;60606,555;-5284,688
 707,65;  250,298;60046,809;-5620,990
 708,23;  247,080;64881,063;-5431,292
 708,81;  266,861;64954,316;-5019,593
 709,38;  228,643;64954,570;-5001,894
 709,96;  282,424;64954,820;-6025,195
 710,53;  241,206;64955,074;-6007,497
 711,11;  210,988;61503,328;-5752,798
 711,69;  280,769;61913,582;-3821,100
 712,26;  329,551;59012,836;-4642,401
 712,84;  222,332;63346,090;-5947,703
 713,41;  248,114;64411,344;-6153,004
 713,99;  244,895;64924,598;-6068,305
 714,56;  221,677;62057,852;-6326,607
 715,14;  251,458;60312,105;-6198,908
 715,71;  320,240;60246,355;-6210,209
 716,29;  297,021;62893,609;-6648,511
 716,86;  254,803;63573,863;-6510,813
 717,44;  261,584;63263,117;-6424,114
 718,02;  230,366;62110,371;-6462,415
 718,59;  306,147;61013,625;-5121,716
 719,17;  282,929;63488,879;-5649,018
 719,74;  251,710;62907,133;-5756,319
 720,32;  234,492;63502,387;-6451,621
 720,89;  253,273;64959,641;-6422,922
 721,47;  169,055;64959,891;-6388,224
 722,04;  244,836;64960,145;-5502,525
 722,62;  239,618;64252,398;-3979,826
 723,19;  218,399;60250,652;-4938,128
 723,77;  206,181;57638,906;-5673,429
 724,34;  225,962;60150,160;-5576,730
 724,92;  249,744;63789,414;-6558,032
 725,49;  194,525;64961,668;-5666,333
 726,07;  254,307;64961,922;-6491,635
 726,64;  266,088;64627,176;-6587,936
 727,21;  229,870;60249,426;-5627,238
 727,79;  197,651;63706,680;-6444,539
 728,36;  249,433;64962,934;-6722,840
 728,94;  261,214;64963,188;-6535,142
 729,51;  228,996;64963,441;-6365,443
 730,09;  242,777;64963,695;-5545,745
 730,66;  214,559;64963,949;-6358,046
 731,24;  204,340;64964,203;-6577,348
 731,81;  234,122;64964,457;-5151,649
 732,38;  289,903;64964,711;-6492,950
 732,96;  246,685;64964,961;-6263,251
 733,53;  258,466;60347,215;-6389,553
 734,11;  285,248;61575,469;-6617,854
 734,68;  274,030;64965,723;-6211,156
 735,26;  259,811;64965,977;-6389,458
 735,83;  212,593;64966,230;-6498,759
 736,40;  276,374;62243,484;-6516,060
 736,98;  289,156;61999,738;-6374,361
 737,55;  209,937;59236,992;-5827,663
 738,13;  252,719;57707,246;-5702,964
 738,70;  280,500;60991,496;-5529,266
 739,27;  264,282;62504,750;-6452,567
 739,85;  269,063;62745,004;-6283,869
 740,42;  272,845;64968,258;-6464,170
 740,99;  304,626;64968,512;-5618,471
 741,57;  296,408;64968,766;-4867,773
 742,14;  292,189;64969,020;-5349,074
 742,72;  253,971;64969,273;-4751,375
 743,29;  285,752;64969,527;-6563,677
 743,86;  343,534;64969,781;-6538,979
 744,44;  359,315;64970,031;-6113,280
 745,01;  355,097;64970,285;-5760,581
 745,58;  277,878;64970,539;-6259,882
 746,16;  307,660;64970,793;-6188,184
 746,73;  350,441;64971,047;-6479,485
 747,30;  254,223;61139,301;-6536,787
 747,88;  336,004;59621,555;-5621,088
 748,45;  349,786;64971,809;-5668,390
 749,02;  450,567;64972,063;-6384,691
 749,60;  387,349;62401,313;-6212,992
 750,17;  371,130;61766,566;-5269,294
 750,74;  457,912;62801,820;-6479,595
 751,31;  440,693;63306,074;-6347,896
 751,89;  343,475;64232,328;-6546,198
 752,46;  387,256;64973,582;-6282,500
 753,03;  391,038;64973,836;-6160,801
 753,61;  366,819;63755,090;-4858,102
 754,18;  307,601;64573,344;-6434,404
 754,75;  299,382;63888,598;-5191,705
 755,32;  289,164;60715,848;-6332,006
 755,90;  248,945;64975,102;-6493,308
 756,47;  338,727;64975,355;-4809,609
 757,04;  296,508;64975,609;-6457,911
 757,61;  248,290;64975,863;-5553,212
 758,19;  309,072;64976,117;-5253,514
 758,76;  222,853;64976,371;-6603,815
 759,33;  241,635;64976,625;-6664,116
 759,90;  272,416;64976,879;-5714,417
 760,48;  296,198;64977,133;-6778,719
 761,05;  244,979;64977,383;-6083,021
 761,62;  245,761;62082,637;-4888,322
 762,19;  236,542;58992,891;-6144,624
 762,77;  266,324;61730,145;-5963,925
 763,34;  188,105;64978,398;-6610,226
 763,91;  205,887;64978,652;-5818,527
 764,48;  212,668;64978,906;-6756,829
 765,05;  249,450;64979,160;-6543,130
 765,63;  206,231;63215,414;-6417,432
 766,20;  235,013;59753,668;-6004,733
 766,77;  229,794;57105,918;-5921,035
 767,34;  197,576;58807,172;-6640,336
 767,91;  199,357;59176,426;-6689,637
 768,49;  188,139;61368,680;-6772,939
 769,06;  161,920;64980,934;-5832,240
 769,63;  201,702;62272,188;-6636,542
 770,20;  173,483;59567,441;-5868,843
 770,77;  172,265;57921,695;-5645,145
 771,34;  168,046;60065,949;-6615,446
 771,91;  190,828;60549,203;-6102,747
 772,49;  260,609;58558,453;-6369,048
 773,06;  150,391;57687,707;-6203,350
 773,63;  172,172;60204,961;-6639,651
 774,20;  217,954;58197,215;-5918,953
 774,77;  262,735;56475,469;-6631,254
 775,34;  249,517;56707,723;-6214,556
 775,91;  432,298;57056,977;-6417,857
 776,49;  637,080;58787,230;-6590,158
 777,06;  897,861;60761,484;-6015,460
 777,63;  792,643;64224,738;-6367,761
 778,20;  471,424;62572,988;-6250,063
 778,77;  311,206;63316,242;-5763,364
 779,34;  202,987;64985,496;-6585,666
 779,91;  269,769;64985,750;-6534,967
 780,48;  198,550;59144,004;-5853,268
 781,05;  154,332;50716,258;-6586,570
 781,62;  196,114;52124,512;-6604,871
 782,20;  169,895;58813,766;-6500,172
 782,77;  178,677;64987,020;-6529,474
 783,34;  183,458;64052,273;-6522,775
 783,91;  155,240;61362,523;-6509,077
 784,48;  162,021;60480,777;-2126,378
 785,05;  170,803;59144,031;-6540,680
 785,62;  172,584;58221,285;-6452,981
 786,19;  141,366;58149,539;-5100,282
 786,76;  137,147;55130,793;-6677,583
 787,33;  107,929;56202,047;-6515,885
 787,90;   96,710;59491,301;-6591,187
 788,47;  149,492;60148,555;-5075,488
 789,04;  179,273;58988,809;-5763,790
 789,61;  171,055;58863,059;-5066,091
 790,18;  128,836;55747,313;-6561,392
 790,75;  132,618;50841,566;-6671,693
 791,32;  183,399;52056,820;-6577,995
 791,89;  120,181;55205,074;-6068,296
 792,46;  173,962;60806,328;-5763,598
 793,03;  220,744;62404,582;-6702,899
 793,60;  228,525;55699,836;-6440,201
 794,17;  279,307;52257,090;-5569,502
 794,74;  268,088;47273,344;-5886,803
 795,31;  222,870;50096,594;-6099,105
 795,88;  195,651;52579,848;-5572,406
 796,45;  113,433;53365,102;-6529,708
 797,02;  131,214;56004,355;-5046,009
 797,59;  122,996;57922,609;-6675,311
 798,16;  152,777;54563,863;-5861,612
 798,73;  102,559;53534,117;-6761,913
 799,30;  131,340;55088,371;-6611,214
 799,87;   94,122;55650,625;-6713,516
 800,44;  113,903;55353,875;-6729,817
 801,01;  102,685;56836,129;-6807,119
 801,58;  153,466;58477,383;-6537,420
 802,15;  108,248;52086,637;-6658,722
 802,72;  137,029;48849,891;-6694,023
 803,28;   70,811;52000,145;-6076,324
 803,85;  147,592;57179,398;-6728,626
 804,42;  160,374;55235,652;-5999,927
 804,99;  106,156;53752,906;-6539,229
 805,56;   33,937;52472,160;-6770,530
 806,13;  102,719;53387,410;-6075,832
 806,70;  125,500;52719,664;-6748,133
 807,27;  131,282;54477,918;-6672,434
 807,84;   82,063;52786,172;-6693,736
 808,41;  141,845;49728,426;-6022,037
 808,98;  100,626;50479,680;-5986,338
 809,54;   65,408;52469,934;-4958,640
 810,11;  102,189;48281,188;-6782,941
 810,68;   73,971;43021,441;-6680,243
 811,25;   85,752;41394,695;-6760,544
 811,82;   78,534;40374,945;-6886,846
 812,39;   79,315;37710,199;-3331,147
 812,96;  125,097;38779,453;-6767,448
 813,52;  112,878;41291,707;-6937,750
 814,09;   64,660;44522,961;-6766,051
 814,66;   95,441;50325,215;-6827,353
 815,23;  113,223;51240,469;-6669,654
 815,80;   74,004;50439,723;-5853,956
 816,37;   75,786;50917,977;-6801,257
 816,93;   55,567;49487,230;-6731,558
 817,50;   83,349;46790,480;-6102,859
 818,07;  164,130;46034,734;-6960,161
 818,64;  113,912;46919,988;-6856,462
 819,21;   94,693;46261,242;-6053,764
 819,77;  152,475;42742,496;-6571,065
 820,34;  130,256;42053,750;-6677,367
 820,91;  175,038;43276,004;-6469,668
 821,48;  235,819;43873,258;-6689,969
 822,05;  269,601;45571,512;-5875,271
 822,61;  184,382;44296,766;-5631,572
 823,18;  187,164;41860,016;-6620,874
 823,75;  135,945;42585,270;-6957,175
 824,32;  125,727;45286,523;-6923,477
 824,88;  114,508;45073,777;-6882,778
 825,45;   92,290;44018,031;-6899,079
 826,02;   73,071;43798,285;-6643,380
 826,59;  101,853;43974,539;-6639,682
 827,15;   82,634;46077,793;-6906,983
 827,72;  108,416;49519,047;-6723,285
 828,29;   77,198;51523,301;-6895,586
 828,86;  121,979;48827,551;-6791,888
 829,42;   71,761;40797,805;-6812,189
 829,99;   80,542;36802,059;-6647,490
 830,56;   67,324;36252,313;-6869,792
 831,13;   97,105;37220,566;-6060,093
 831,69;  101,887;38022,820;-6506,395
 832,26;  116,668;38832,074;-5062,696
 832,83;  100,450;40408,328;-5452,998
 833,39;  110,231;40187,582;-6904,299
 833,96;   73,013;39167,836;-6687,600
 834,53;   68,794;40039,086;-6928,902
 835,10;   62,576;39930,340;-6529,203
 835,66;   56,357;38972,594;-6920,504
 836,23;   91,139;39801,848;-6803,806
 836,80;   29,920;39428,102;-6790,107
 837,36;   67,702;37086,355;-6810,409
 837,93;   50,483;34475,609;-6902,710
 838,50;  119,265;35084,863;-6789,012
 839,06;   99,046;37684,117;-6288,313
 839,63;   21,828;37191,371;-6895,614
 840,19;   50,609;35132,621;-6607,916
 840,76;   58,391;35364,875;-6404,217
 841,33;   50,172;35892,129;-6509,519
 841,89;   65,954;36779,383;-6949,820
 842,46;    9,735;37103,637;-6751,122
 843,03;  111,517;35389,891;-6089,423
 843,59;   67,298;34224,145;-6403,724
 844,16;  175,080;34994,398;-6181,025
 844,73;  182,861;34249,652;-6067,327
 845,29;  144,643;32937,902;-5695,628
 845,86;   97,424;35699,156;-6800,930
 846,42;   71,206;36940,410;-7004,231
 846,99;   58,987;36477,664;-6967,533
 847,56;   46,769;36265,918;-5840,834
 848,12;   71,550;36240,172;-6745,135
 848,69;   26,332;35710,426;-6715,437
 849,25;   47,113;34401,680;-6845,738
 849,82;   -1,105;34081,934;-3247,040
 850,38;   26,676;35064,188;-6840,341
 850,95;   20,458;32489,439;-6324,643
 851,52;   10,240;32520,693;-6565,944
 852,08;   38,021;32548,947;-6691,245
 852,65;   -2,197;30323,199;-7005,546
 853,21;   -6,416;27698,453;-6958,848
 853,78;    4,366;27362,707;-6363,149
 854,34;    9,147;28860,961;-6871,451
 854,91;  -35,071;29081,215;-5086,752
 855,47;   30,710;29942,467;-5108,054
 856,04;   34,492;32027,721;-6746,355
 856,60;   -9,727;33961,973;-6104,656
 857,17;   24,055;34979,227;-6840,958
 857,73;   37,836;33553,480;-6811,259
 858,30;   -9,382;32532,734;-6985,561
 858,86;    8,399;31110,988;-5926,862
 859,43;   18,181;31430,242;-6226,164
 859,99;  -11,038;32011,496;-6852,465
 860,56;    5,744;33126,750;-6903,766
 861,12;   10,525;35190,004;-6737,068
 861,69;  -22,693;33669,258;-5924,369
 862,25;   30,088;34731,508;-6821,670
 862,82;    0,870;34419,762;-5972,972
 863,38;   19,651;31196,018;-6843,273
 863,95;   21,433;29305,270;-6239,575
 864,51;   45,214;30403,523;-5287,876
 865,08;   18,996;29284,777;-6090,178
 865,64;   12,777;26795,031;-7018,479
 866,21;   31,559;26131,285;-6745,780
 866,77;   32,340;26051,537;-5552,082
 867,34;   88,122;25734,791;-6672,383
 867,90;   92,903;24632,045;-6303,685
 868,46;   65,685;23835,299;-6041,986
 869,03;   25,466;24389,551;-6929,288
 869,59;   21,248;26353,805;-6884,589
 870,16;   15,029;27647,059;-6052,890
 870,72;   11,811;30060,313;-6657,191
 871,28;    7,592;32915,566;-5992,493
 871,85;   59,374;33142,820;-6907,794
 872,41;   -0,845;31569,072;-6004,096
 872,98;   -8,063;32738,326;-6050,397
 873,54;   -7,282;33876,578;-5920,699
 874,10;   26,500;32768,832;-5876,000
 874,67;    8,500;32987,832;-6904,000
 875,23;  -15,500;31068,834;-7032,000
 875,80;   50,500;28009,834;-6641,000
 876,36;  -14,500;25058,834;-6642,000
 876,92;    4,500;22832,834;-6189,000
 877,49;  -10,500;23923,834;-6517,000
 878,05;   21,500;24896,834;-6797,000
 878,61;  -15,500;26938,834;-6812,000
 879,18;  -16,500;27553,834;-6252,000
 879,74;  -22,500;28076,834;-6720,000
 880,30;  -40,500;28679,834;-5926,000
 880,87;  -16,500;28852,834;-6326,000
 881,43;   67,500;29533,834;-6871,000
 881,99;   24,500;27306,834;-6879,000
 882,56;    3,500;27610,834;-6661,000
 883,12;    0,500;29049,834;-5740,000
 883,68;  -27,500;29120,834;-6518,000
 884,25;    6,500;28300,834;-6949,000
 884,81;    1,500;26343,834;-6701,000
 885,37;   -7,500;24221,834;-6786,000
 885,94;   -8,500;22940,834;-6851,000
 886,50;   25,500;23098,834;-6886,000
 887,06;    6,500;24358,834;-6796,000
 887,62;   13,500;25019,834;-6866,000
 888,19;    1,500;25774,834;-5986,000
 888,75;  -23,500;26542,834;-6821,000
 889,31;   45,500;29043,834;-6778,000
 889,87;   34,500;30537,834;-6723,000
 890,44;   45,500;30349,834;-6696,000
 891,00;  -14,500;28757,834;-6786,000
 891,56;   -4,500;26457,834;-6998,000
 892,12;   57,500;24463,834;-6754,000
 892,69;   38,500;25310,834;-6373,000
 893,25;   37,500;28798,834;-6877,000
 893,81;    7,500;31774,834;-6696,000
 894,37;   62,500;31330,834;-6342,000
 894,94;   29,500;28713,834;-6772,000
 895,50;   50,500;26035,834; -212,000
 896,06;  113,500;24749,834;-6810,000
 896,62;   72,500;23405,834;-6707,000
 897,18;   80,500;24661,834;-6518,000
 897,75;   97,500;27406,834;-6895,000
 898,31;  112,500;27887,834;-6849,000
 898,87;   77,500;26274,834;-6860,000
 899,43;   83,500;25164,834;-6469,000
 899,99;   91,500;26592,834;-6866,000
 900,56;  105,500;25515,834;-6791,000
 901,12;   83,500;24875,834;-6890,000
 901,68;   97,500;27903,834;-6267,000
 902,24;  130,500;31800,834;-5930,000
 902,80;  104,500;32652,834;-6794,000
 903,36;  225,500;31893,834;-6691,000
 903,93;  300,500;32139,834;-6646,000
 904,49;  773,500;32761,834;-6913,000
 905,05; 2106,500;30952,834;-6732,000
 905,61; 5243,500;28208,834;-6832,000
 906,17; 9323,500;28086,834;-6901,000
 906,73;14429,500;25975,834;-5380,000
 907,29;18913,500;24960,834;-6910,000
 907,86;23248,500;25118,834;-6827,000
 908,42;24530,500;28092,834;-6795,000
 908,98;21224,500;31123,834;-5908,000
 909,54;12975,500;38813,832;-6885,000
 910,10; 4633,500;48220,832;-6634,000
 910,66; 1213,500;57581,832;-6781,000
 911,22;  424,500;65027,832;-6761,000
 911,78;  275,500;62593,832;-6841,000
 912,34;  142,500;53256,832;-6080,000
 912,90;  109,500;44610,832;-5232,000
 913,46;   73,500;37052,832;-6876,000
 914,03;   55,500;30620,834;-5746,000
 914,59;   78,500;27452,834;-6682,000
 915,15;  102,500;24908,834;-6891,000
 915,71;   -6,500;24217,834;-6863,000
 916,27;   63,500;23800,834;-6723,000
 916,83;   48,500;23006,834;-5824,000
 917,39;   30,500;21742,834;-3512,000
 917,95;   70,500;20224,834;-6009,000
 918,51;   31,500;19972,834;-6583,000
 919,07;   38,500;21780,834;-6791,000
 919,63;  -36,500;23295,834;-6661,000
 920,19;  -41,500;23935,834;-6865,000
 920,75;   26,500;23112,834;-6640,000
 921,31;   16,500;21484,834;-4837,000
 921,87;   -9,500;20216,834;-6845,000
 922,43;   22,500;18019,834;-5626,000
 922,99;   28,500;17321,834;-6706,000
 923,55;   38,500;18674,834;-6655,000
 924,11;   23,500;19094,834;-6976,000
 924,67;   42,500;19310,834;-6962,000
 925,23;   32,500;19485,834;-6778,000
 925,79;   59,500;20122,834;-6710,000
 926,35;   52,500;20219,834;-6573,000
 926,91;   22,500;19401,834;-6909,000
 927,47;   38,500;19367,834;-6660,000
 928,03;   99,500;20294,834;-6786,000
 928,59;   28,500;20503,834;-6678,000
 929,15;   67,500;20781,834;-6792,000
 929,71;   10,500;22016,834;-6840,000
 930,27;   68,500;23587,834;-6537,000
 930,82;   66,500;25573,834;-6728,000
 931,38;   -2,500;24317,834;-5852,000
 931,94;   12,500;22672,834;-6843,000
 932,50;   24,500;21252,834;-6481,000
 933,06;    9,500;20895,834;-6768,000
 933,62;   26,500;21092,834;-6443,000
 934,18;   17,500;20632,834;-6727,000
 934,74;    1,500;21320,834;-6709,000
 935,30;   53,500;22030,834;-6484,000
 935,86;    5,500;21213,834;-6505,000
 936,42;    4,500;20702,834;-6873,000
 936,97;   39,500;21656,834;-6563,000
 937,53;    3,500;20552,834;-6826,000
 938,09;   49,500;21087,834;  123,000
 938,65;   11,500;21186,834;-6268,000
 939,21;   11,500;20179,834;-6708,000
 939,77;   -3,500;18946,834;-6213,000
 940,33;   -9,500;18602,834;-6748,000
 940,88;   27,500;19429,834;-5908,000
 941,44;   16,500;21301,834;-6983,000
 942,00;  -27,500;23225,834;-6697,000
 942,56;   -6,500;24231,834;-6604,000
 943,12;   20,500;23427,834;-5907,000
 943,68;    6,500;22950,834;-5679,000
 944,23;  -10,500;23124,834;-6749,000
 944,79;  -52,500;22674,834;-6102,000
 945,35;   -6,500;20741,834;-6599,000
 945,91;   63,500;19519,834;-6767,000
 946,47;   16,500;19827,834;-3353,000
 947,03;   25,500;19896,834;-6850,000
 947,58;    6,500;19661,834;-6840,000
 948,14;    9,500;20790,834;-5897,000
 948,70;   12,500;19573,834;-5855,000
 949,26;   23,500;18881,834;-6616,000
 949,81;    3,500;18342,834;-6644,000
 950,37;    4,500;18686,834;-6695,000
 950,93;   37,500;17993,834;-6224,000
 951,49;  -10,500;17568,834;-6057,000
 952,05;  -11,500;17926,834;-6571,000
 952,60;  -11,500;17299,834;-6951,000
 953,16;   -2,500;16933,834;-5783,000
 953,72;  -26,500;15628,833;-5813,000
 954,27;  -20,500;15524,833;-6566,000
 954,83;  -20,500;15317,833;-6703,000
 955,39;  -30,500;14917,833;-6691,000
 955,95;  -48,500;14456,833;-6849,000
 956,50;  -42,500;14272,833;-6698,000
 957,06;  -33,500;14126,833;-5922,000
 957,62;   18,500;13780,833;-6559,000
 958,18;    3,500;13872,833;-6741,000
 958,73;   10,500;13326,833;-6820,000
 959,29;   -2,500;13518,833;-6106,000
 959,85;  -35,500;14785,833;-6864,000
 960,40;    0,500;16746,834;-4263,000
 960,96;    4,500;16386,834;-6738,000
 961,52;   16,500;14755,833;-6643,000
 962,07;  -36,500;13711,833;-6742,000
 962,63;  -18,500;13208,833;-6723,000
 963,19;  -28,500;13435,833;-5779,000
 963,74;   39,500;13877,833;-6582,000
 964,30;  -22,500;14475,833;-6595,000
 964,86;  -19,500;14281,833;-6484,000
 965,41;    5,500;14290,833;-6705,000
 965,97;  -39,500;14185,833;-6569,000
 966,53;  -29,500;14792,833;-6750,000
 967,08;    7,500;15311,833;-6611,000
 967,64;   37,500;15082,833;-6705,000
 968,19;  -22,500;14471,833;-6684,000
 968,75;   23,500;14662,833;-6566,000
 969,31;    6,500;14880,833;-5626,000
 969,86;  -27,500;14995,833;-6505,000
 970,42;   11,500;13195,833;-6620,000
 970,97;   -6,500;11567,833;-6437,000
 971,53;   -9,500;11625,833;-6490,000
 972,09;  -65,500;12998,833;-6646,000
 972,64;   11,500;13523,833;-5812,000
 973,20;    8,500;13815,833;-6599,000
 973,75;    9,500;14605,833;-5760,000
 974,31;   10,500;14826,833;-6578,000
 974,87;    0,500;14921,833;-6674,000
 975,42;  -49,500;14507,833;-6727,000
 975,98;  -34,500;13201,833;-6651,000
 976,53;   -6,500;12100,833;-6555,000
 977,09;  -61,500;11353,833;-4624,000
 977,64;  -12,500;11164,833;-6532,000
 978,20;   52,500;10649,833;-6585,000
 978,75;   11,500;10482,833;-6429,000
 979,31;   -0,500;10950,833;-6513,000
 979,86;   40,500;12220,833;-6739,000
 980,42;  -49,500;12828,833;-5813,000
 980,97;  -18,500;13290,833;-6642,000
 981,53;   30,500;14285,833;-6636,000
 982,08;    4,500;13803,833;-5046,000
 982,64;  -42,500;12278,833;-6237,000
 983,19;    2,500;11308,833;-6760,000
 983,75;   -8,500;10993,833;-6576,000
 984,30;  -31,500;10430,833;-5581,000
 984,86;  -16,500; 9867,833;-5898,000
 985,41;  -28,500; 9457,833;-6634,000
 985,97;  -17,500; 9632,833;-4797,000
 986,52;  -23,500; 9894,833;-5853,000
 987,08;   -2,500; 9953,833;-6174,000
 987,63;  -21,500;10165,833;-5608,000
 988,19;    6,500;11252,833;-6266,000
 988,74;  -19,500;11710,833;-5682,000
 989,30;  -34,500;11529,833;-6568,000
 989,85;   -8,500;11470,833; -276,000
 990,40;   -3,500;11314,833;-6617,000
 990,96;   36,500;11060,833;-6482,000
 991,51;   -6,500;11149,833;-6578,000
 992,07;  -30,500;10742,833;-6605,000
 992,62;  -19,500;10285,833;-6519,000
 993,18;  -20,500;10035,833;-6504,000
 993,73;   -8,500; 9986,833;-6440,000
 994,28;   -8,500; 9800,833;-6464,000
 994,84;  -42,500; 9019,833;-6240,000
 995,39;    1,500; 8474,833;-2971,000
 995,94;   22,500; 7953,833;-5673,000
 996,50;  -35,500; 7647,833;-6543,000
 997,05;  -27,500; 7872,833;-3481,000
 997,61;   -6,500; 8363,833;-6489,000
 998,16;  -32,500; 8581,833;-6555,000
 998,71;  -41,500; 8850,833;-6340,000
 999,27;  -28,500; 9115,833;-5223,000
 999,82;    9,500; 8706,833;-4778,000
1000,37;   -8,500; 8661,833;-6520,000
1000,93;   12,500; 8920,833;-6107,000
1001,48;   -1,500; 8799,833;-6543,000
1002,03;  -11,500; 8477,833;-6469,000
1002,59;    1,500; 8715,833;-5972,000
1003,14;   -3,500; 8758,833;-6113,000
1003,69;  -28,500; 8484,833;-6513,000
1004,25;  -31,500; 8299,833;-6507,000
1004,80;    5,500; 8322,833;-6266,000
1005,35;  -36,500; 8313,833;-6361,000
1005,91;    7,500; 8515,833;-6558,000
1006,46;  -49,500; 8426,833;-6084,000
1007,01;  -16,500; 8227,833;-5479,000
1007,56;   15,500; 8599,833;-6440,000
1008,12;    4,500; 8342,833;-6178,000
1008,67;    4,500; 7867,833;-6312,000
1009,22;    8,500; 7509,833;-6481,000
1009,78;   -5,500; 7205,833;-6163,000
1010,33;    2,500; 6649,833;-6443,000
1010,88;   -8,500; 6413,833;-5618,000
1011,43;  -36,500; 5995,833;-6433,000
1011,99;   47,500; 5972,833;-6198,000
1012,54;  -27,500; 6320,833;-6387,000
1013,09;   38,500; 6048,833;-6299,000
1013,64;  -21,500; 5802,833;-6362,000
1014,19;   -5,500; 5823,833;-6442,000
1014,75;   -3,500; 5928,833;-6408,000
1015,30;   23,500; 6394,833;-6425,000
1015,85;   14,500; 6370,833;-6367,000
1016,40;  -31,500; 6247,833;-5436,000
1016,96;   68,500; 6235,833;-6268,000
1017,51;  -46,500; 6150,833;-6351,000
1018,06;   10,500; 6095,833;-6310,000
1018,61;   -9,500; 5695,833;-6665,000
1019,16;    5,500; 5609,833;-6697,000
1019,71;   53,500; 5663,833;-6373,000
1020,27;   -0,500; 5567,833;-6353,000
1020,82;   14,500; 5375,833;-3700,000
1021,37;   66,500; 5405,833;-4798,000
1021,92;  -32,500; 5984,833;-6454,000
1022,47;   -0,500; 5965,833;-6548,000
1023,02;   18,500; 5463,833;-6512,000
1023,58;   40,500; 5045,833;-6573,000
1024,13;   96,500; 4730,833;-6258,000
1024,68;    6,500; 4434,833;-6298,000
1025,23;   72,500; 4324,833;-5525,000
1025,78;   56,500; 4613,833;-6475,000
1026,33;   43,500; 4932,833;-5510,000
1026,88;   79,500; 4843,833;-6236,000
1027,43;   84,500; 5167,833;-6276,000
1027,99;  101,500; 5134,833;-6002,000
1028,54;  149,500; 4732,833;-6395,000
1029,09;  170,500; 4106,833;-2478,000
1029,64;  238,500; 3919,833;-6303,000
1030,19;  283,500; 4147,833;-3821,000
1030,74;  363,500; 4243,833;-5134,000
1031,29;  485,500; 4284,833;-4765,000
1031,84;  582,500; 4491,833;-6300,000
1032,39;  724,500; 4563,833;-5403,000
1032,94;  866,500; 4617,833;-4326,000
1033,49; 1074,500; 4361,833;-5476,000
1034,04; 1277,500; 4236,833;-6312,000
1034,59; 1504,500; 4205,833;-6507,000
1035,14; 1481,500; 4117,833;-6145,000
1035,69; 1618,500; 4318,833;-6224,000
1036,24; 1738,500; 4104,833;-4477,000
1036,80; 1921,500; 3986,833;-5453,000
1037,35; 1969,500; 4138,833;-6347,000
1037,90; 2081,500; 4172,833;-6274,000
1038,45; 2184,500; 4201,833;-6419,000
1039,00; 2182,500; 4340,833;-5490,000
1039,55; 2393,500; 4229,833;-6284,000
1040,10; 2447,500; 3977,833;-5615,000
1040,65; 2595,500; 3916,833;-5576,000
1041,20; 2599,500; 3850,833;-6325,000
1041,75; 2594,500; 4030,833;-4522,000
1042,30; 2711,500; 4164,833;-3585,000
1042,84; 3000,500; 4338,833;-4439,000
1043,39; 3118,500; 4248,833;-6313,000
1043,94; 3244,500; 4175,833;-5342,000
1044,49; 3302,500; 3887,833;-6246,000
1045,04; 3226,500; 3710,833;-5800,000
1045,59; 3305,500; 3809,833;-6299,000
1046,14; 3440,500; 3732,833;-6392,000
1046,69; 3807,500; 3591,833;-6294,000
1047,24; 4094,500; 3623,833;-5510,000
1047,79; 4370,500; 3737,833;-6139,000
1048,34; 4751,500; 4002,833;-5961,000
1048,89; 5241,500; 3948,833;-6259,000
1049,44; 5626,500; 3935,833;-5172,000
1049,99; 6426,500; 3855,833;-4844,000
1050,54; 7160,500; 3876,833;-6249,000
1051,08; 8666,500; 3961,833;-6178,000
1051,63;11229,500; 4050,833;-5285,000
1052,18;16074,500; 5051,833;-6127,000
1052,73;24960,500; 7151,833;-6173,000
1053,28;41347,500;10516,833;-6386,000
1053,83;57912,500;15224,833;-6214,000
1054,38;64309,500;19203,834;-6254,000
1054,93;64618,500;21243,834;-6285,000
1055,47;62909,500;23825,834;-5328,000
1056,02;65145,500;26212,834;-5832,000
1056,57;65145,500;27830,834;-6198,000
1057,12;65145,500;30497,834;-6378,000
1057,67;65145,500;33805,832;-6078,000
1058,22;65145,500;36084,832;-6313,000
1058,76;65145,500;38542,832;-6093,000
1059,31;65145,500;44129,832;-3514,000
1059,86;65145,500;48778,832;-6204,000
1060,41;65145,500;49718,832;-6152,000
1060,96;65145,500;51396,832;-6226,000
1061,51;65145,500;53649,832;-5344,000
1062,05;65145,500;54082,832;-6122,000
1062,60;65145,500;50555,832;-6061,000
1063,15;65145,500;45221,832;-6149,000
1063,70;65145,500;41550,832;-6250,000
1064,24;65145,500;43676,832;-6169,000
1064,79;65145,500;45461,832;-6144,000
1065,34;65145,500;43989,832;-6064,000
1065,89;65145,500;41776,832;-6202,000
1066,44;65145,500;37631,832;-6120,000
1066,98;65145,500;32612,834;-6224,000
1067,53;65145,500;30790,834;-5953,000
1068,08;65145,500;30368,834;-4845,000
1068,63;65145,500;27618,834;-6096,000
1069,17;65145,500;24647,834;-5893,000
1069,72;65145,500;22350,834;-5857,000
1070,27;65145,500;20529,834;-6040,000
1070,81;65145,500;20388,834;-5996,000
1071,36;65145,500;20367,834;-3883,000
1071,91;65145,500;18745,834;  966,000
1072,46;65145,500;16791,834;-5058,000
1073,00;65145,500;14646,833;-5239,000
1073,55;65145,500;11404,833;-5935,000
1074,10;58696,500; 7803,833;-5981,000
1074,64;39039,500; 5240,833;-5860,000
1075,19;26769,500; 3535,833;-4958,000
1075,74;19643,500; 2551,833;-6091,000
1076,28;15538,500; 2312,833;-6075,000
1076,83;12815,500; 1951,833;-5286,000
1077,38;10964,500; 1820,833;-5653,000
1077,92; 9277,500; 1783,833;-6332,000
1078,47; 8354,500; 1629,833;-5507,000
1079,02; 7502,500; 1578,833;-5959,000
1079,56; 6666,500; 1557,833;-5328,000
1080,11; 5907,500; 1304,833;-6094,000
1080,65; 5165,500; 1241,833;-5039,000
1081,20; 4400,500; 1186,833;-6151,000
1081,75; 3908,500; 1125,833;-6039,000
1082,29; 3412,500; 1128,833; -139,000
1082,84; 3076,500; 1184,833;-2678,000
1083,39; 2705,500; 1294,833;-5061,000
1083,93; 2693,500; 1335,833;-5025,000
1084,48; 2453,500; 1196,833;-5961,000
1085,02; 2195,500; 1082,833;-5783,000
1085,57; 1983,500; 1074,833;-5994,000
1086,11; 1709,500; 1079,833;-5968,000
1086,66; 1659,500;  925,833;-5584,000
1087,21; 1587,500; 1060,833;-5802,000
1087,75; 1390,500;  939,833;-6125,000
1088,30; 1284,500;  815,833;-5040,000
1088,84; 1207,500;  783,833;-5963,000
1089,39; 1002,500;  656,833;-5965,000
1089,93;  918,500;  664,833;-6100,000
1090,48;  776,500;  649,833;-4394,000
1091,02;  739,500;  733,833;-5181,000
1091,57;  626,500;  629,833;-5479,000
1092,11;  568,500;  642,833;-4094,000
1092,66;  506,500;  624,833;-6031,000
1093,20;  399,500;  580,833;-5180,000
1093,75;  390,500;  566,833;-4998,000
1094,29;  392,500;  486,833;-4979,000
1094,84;  353,500;  525,833;-5890,000
1095,38;  276,500;  528,833;-5097,000
1095,93;  308,500;  584,833;-5981,000
1096,47;  244,500;  615,833;-5612,000
1097,02;  239,500;  587,833;-4985,000
1097,56;  227,500;  614,833;-5772,000
1098,11;  201,500;  552,833;-5774,000
1098,65;  185,500;  508,833;-5992,000
1099,20;  149,500;  577,833;-5935,000
1099,74;  146,500;  487,833;-6002,000
1100,29;  134,500;  513,833;-4879,000
1100,83;   61,500;  496,833;-5934,000

