
Integration time [ms]:   1,000
Averaging Nr. [scans]: 1
Smoothing Nr. [pixels]: 0
Data measured with spectrometer [name]: 1703254U1
Wave   ;Sample   ;Dark     ;Reference;Scope
[nm]   ;[counts] ;[counts] ;[counts] 

 190,08;  -80,905; -370,119;11982,743
 190,69;  -62,503; -359,404;11603,049
 191,29;  -64,019; -311,651;11479,965
 191,90;  -73,653; -365,508;11440,717
 192,50;  -71,921; -379,511;10355,099
 193,10;  -51,354; -446,299;11244,381
 193,71;  -70,730; -367,888; 9821,736
 194,31;  -65,209; -399,273; 9436,327
 194,91;  -65,209; -382,273; 9291,327
 195,52;  -72,029; -338,386;10555,949
 196,12;  -48,106; -397,056; 8671,847
 196,72;  -67,699; -386,394; 8220,904
 197,32;  -70,730; -375,888; 8251,736
 197,93;  -53,843; -360,420; 8700,957
 198,53;  -67,050; -383,145; 7601,797
 199,13;  -73,978; -397,132; 8091,270
 199,74;  -59,039; -366,410; 7263,813
 200,34;  -55,359; -388,667; 7832,874
 200,94;  -52,869; -436,547; 6941,297
 201,55;  -62,503; -406,404; 7119,049
 202,15;  -65,642; -375,773; 6404,732
 202,75;  -95,519; -373,217; 6097,647
 203,36;  -57,091; -338,664; 6822,492
 203,96; -107,859; -357,943; 6332,678
 204,56;  -60,555; -355,657;10275,729
 205,16;  -68,024; -363,018; 5478,458
 205,77;  -80,797; -360,244; 4767,892
 206,37;  -68,890; -409,017; 5556,267
 206,97;  -72,570; -363,760; 5129,205
 207,58;  -55,792; -364,166; 5927,278
 208,18;  -75,710; -337,129; 5129,889
 208,78;  -73,112; -404,134; 5295,461
 209,38;  -56,441; -469,415; 4958,385
 209,99;  -56,333; -356,540; 3837,534
 210,59;  -57,957; -361,662; 3890,301
 211,19;  -57,199; -364,538; 3938,343
 211,79;  -49,946; -366,927; 4499,316
 212,40;  -77,874; -373,625; 3368,911
 213,00;  -68,998; -388,891; 3903,118
 213,60;  -74,194; -386,882; 2992,972
 214,20;  -88,591; -401,230; 3081,175
 214,81;  -81,338; -422,618; 2884,148
 215,41;  -88,808; -376,979; 3235,877
 216,01; -108,617; -373,067; 3109,636
 216,61;  -65,101; -367,399; 2814,476
 217,22; -104,071; -381,326; 2358,888
 217,82;  -96,901; -325,173; 2262,495
 218,42;  -98,550; -383,711; 2389,480
 219,02; -103,205; -288,327; 3432,079
 219,63;  -86,643; -357,483; 2044,854
 220,23;  -89,998; -366,602; 2425,239
 220,83;  -88,158; -395,730; 1901,770
 221,43; -106,777; -393,195; 1850,167
 222,03; -109,591; -348,940; 2326,296
 222,64;  -91,947; -380,348; 1769,560
 223,24;  -72,736; -298,966; 1625,350
 223,84; -110,999; -376,313; 2637,361
 224,44; -107,210; -316,695; 2381,571
 225,05;  -88,529; -313,952; 1440,632
 225,65; -102,483; -301,065; 1227,445
 226,25;  -98,333; -364,961; 1139,777
 226,85;  -99,731; -294,309;  995,979
 227,45; -101,148; -335,706; 1083,907
 228,06;  -99,308; -365,834; 1945,438
 228,66;  -98,767; -349,460; 4049,182
 229,26;  -74,890; -313,438; 1131,510
 229,86;  -91,411; -396,342; 1760,797
 230,46; -107,643; -358,194;  891,976
 231,06;  -88,426; -320,444;  757,273
 231,67;  -87,292; -346,732; 1228,961
 232,27; -123,555; -343,789;  778,094
 232,87; -113,164; -308,808;  526,384
 233,47; -126,695; -321,158;  525,777
 234,07;  -84,911; -268,486; 9912,235
 234,67; -137,195; -291,013;  672,338
 235,28; -126,695; -319,158;   65,777
 235,88; -140,767; -316,882;  285,426
 236,48;  -81,236; -350,821;  165,911
 237,08;  -91,066; -267,669;  448,518
 237,68; -142,932; -369,378; -267,552
 238,28; -112,349; -304,774; -106,624
 238,89; -121,875; -212,756; -205,723
 239,49; -123,999; -282,023; 1280,483
 240,09; -144,107; -284,608; -190,544
 240,69; -145,530; -251,373; -319,124
 241,29; -123,324; -289,647;  651,036
 241,89; -132,757; -330,147; -260,559
 242,49;  -97,752; -248,490; -358,930
 243,10; -138,288; -201,496; 3664,834
 243,70; -128,752; -284,490;  239,070
 244,30; -103,690; -275,501; -708,594
 244,90; -110,963; -188,582; -568,598
 245,50; -109,056; -177,355; 3274,777
 246,10; -122,386; -307,636; -831,300
 246,70; -134,989; -300,999;   17,620
 247,30; -121,788; -251,641;  326,273
 247,91; -153,226; -208,218; 5781,292
 248,51; -101,030; -270,228; -806,563
 249,11;  -92,762; -239,514;  417,933
 249,71;  -82,793; -303,008; -667,235
 250,31;  -82,216; -265,483; -567,693
 250,91;  -78,556; -238,500;   75,216
 251,51; -100,762; -199,225; -822,945
 252,11;  -91,139; -239,813;  367,410
 252,71;  -68,344; -269,117;-1080,994
 253,31;  -69,520; -222,348; 3228,013
 253,91;  -74,561; -236,578; -676,170
 254,52; -111,984; -237,342;-1063,750
 255,12; -102,216; -293,483;-1104,693
 255,72;  -40,994; -206,366;  557,112
 256,32; -100,654; -242,061; -966,674
 256,92;  -58,458; -190,070;-1147,529
 257,52;   -2,979; -173,974; -883,243
 258,12; -121,798; -201,087;  -91,621
 258,72;  -62,871; -210,810;-1232,972
 259,32;  -62,448; -211,335;-1169,514
 259,92;  -47,046; -199,330;-1343,086
 260,52;  -63,845; -192,973;-1077,433
 261,12;  -64,520; -202,059; -662,865
 261,72;  -71,669; -238,452;-1312,319
 262,32;  -68,437; -215,600;-1561,498
 262,92; -101,525; -238,426;  405,627
 263,53;  -69,051; -189,698;-1277,594
 264,13;  -92,896; -262,937; -268,632
 264,73;  -54,886; -217,202;-1694,617
 265,33;  -64,974; -188,317;-1708,613
 265,93;  -76,901; -147,304;-1345,140
 266,53;  -71,448; -161,046;-1544,392
 267,13;  -81,536; -139,161; -857,388
 267,73;  -76,268; -185,158;  270,230
 268,33;  -85,355; -166,274;-1788,766
 268,93; -102,855; -213,708;-1702,449
 269,53;  -87,773; -204,670; -644,839
 270,13;  -34,798; -201,797;-1810,499
 270,73; -111,427; -245,287;-1891,239
 271,33;  -28,443; -200,678;-1778,884
 271,93;  -67,422; -242,919;-1867,732
 272,53;  -48,778; -121,748;    8,776
 273,13;  -34,309; -146,677;-1117,075
 273,73;  -97,180; -119,753;-1955,652
 274,33;  -51,659; -148,428;-2041,182
 274,93;  -79,232; -188,007;-1843,972
 275,53;  -62,778;  -68,748;-1881,224
 276,13; -115,747; -121,965;-2261,935
 276,73;  -96,165; -118,361;-1570,007
 277,33;  -88,005; -179,522;-1926,659
 277,93;  -19,577; -213,680;-1864,693
 278,53;    0,727; -194,526;-2112,278
 279,13;  -28,665; -125,506;-2152,568
 279,73;  -68,995; -140,498;-1388,522
 280,33;  -44,448; -154,756;-2179,270
 280,93;  -35,160; -105,994;-2049,499
 281,53;  -51,309; -147,387;-2252,953
 282,13;  -52,299; -127,363;-2193,816
 282,73;  -65,804; -156,875; -385,885
 283,33;  -27,536; -137,872;-2307,266
 283,92;  -28,252;  -74,477;-2028,003
 284,52;  -41,247;  -94,109;-2365,496
 285,12;  -74,139; -138,524;-1425,469
 285,72;   -2,680; -126,898;-1041,213
 286,32;   -8,752;  -55,622;-1313,564
 286,92;  -12,871; -163,521;-2376,850
 287,52;   14,263;  -89,519;-2170,041
 288,12;   14,016;  -97,763;-2542,507
 288,72;   41,279; -106,417;-1625,518
 289,32;   23,284;  -54,470; 1692,233
 289,92;  -15,087; -106,270;-2344,148
 290,52;  -85,309;  -91,809;-2485,710
 291,12;   -6,294;  -57,996;-1570,308
 291,72;    7,748;  -74,477;-1590,003
 292,32;   69,609;  -83,135;-2372,442
 292,92;   48,160;   -2,737;-2481,560
 293,51;   90,093;  -37,093;-2532,404
 294,11;  181,815;  -42,121;-1681,160
 294,71;  235,809;   -7,488;-2695,667
 295,31;  162,624;  -24,743;-1755,797
 295,91;  313,655;   46,751;-2713,629
 296,51;  339,309;   62,656;-1776,106
 297,11;  285,397;   35,061;-2900,988
 297,71;  417,732;    4,131;-2726,648
 298,31;  585,913;   38,730;-2329,148
 298,91;  522,057;   74,756;-2483,202
 299,50;  519,588;   41,395;-2689,473
 300,10;  606,485;  145,887;-2706,114
 300,70;  554,150;   95,528;-2492,576
 301,30;  560,356;   89,253;-2855,415
 301,90;  711,954;   96,248;-2004,843
 302,50;  646,969;  163,640;-2515,198
 303,10;  540,330;  124,126;-2530,076
 303,70;  530,577;  208,660;-3000,488
 304,29;  600,031;  189,918;-2658,740
 304,89;  567,021;  266,183;-1090,755
 305,49;  721,299;  163,922;-2773,122
 306,09;  794,866;  214,133;-2874,839
 306,69;  718,449;  262,736;-2915,911
 307,29;  785,609;  312,865;-2008,442
 307,89;  707,660;  303,408;-3029,000
 308,48;  616,531;  341,774;-2453,301
 309,08;  666,201;  369,492;-2743,377
 309,68;  879,912;  377,019;-3094,026
 310,28;  768,320;  371,102;-2576,213
 310,88;  611,872;  321,211;-2936,453
 311,48;  670,871;  447,500;-2875,331
 312,07;  707,310;  408,367;-2963,228
 312,67;  745,804;  497,855;-2128,297
 313,27;  745,583;  494,448;-1105,224
 313,87;  837,505;  583,357;-2164,083
 314,47;  960,552;  516,954;-3030,392
 315,06; 1313,263;  620,191; 2713,837
 315,66; 1272,366;  579,988;-3245,400
 316,26; 1308,212;  632,938;-1844,483
 316,86; 1418,758;  777,969;-3140,110
 317,46; 1592,351;  720,307;-2115,167
 318,06; 1656,320;  739,813; -825,335
 318,65; 1914,382;  781,801;-2807,999
 319,25; 2221,114;  821,798;-3195,617
 319,85; 2075,418;  932,663;-2908,323
 320,45; 2539,341;  986,283;-3213,304
 321,05; 3381,403;  901,271;-2761,968
 321,64; 3675,990;  889,531;-3219,411
 322,24; 3699,914; 1056,861;-3265,513
 322,84; 3143,944; 1080,356;-3261,345
 323,44; 2289,615; 1133,364;-3219,300
 324,03; 2099,238; 1194,486;-3072,067
 324,63; 2097,424; 1250,452;-2310,059
 325,23; 1975,981; 1241,928;-3097,792
 325,83; 1926,192; 1367,021;-2876,123
 326,42; 1855,641; 1442,622;-3285,005
 327,02; 1807,745; 1476,551;-3076,607
 327,62; 1848,750; 1439,629;-2505,221
 328,22; 2127,384; 1553,486;-3234,973
 328,82; 2196,678; 1577,037;-2229,938
 329,41; 1901,828; 1658,852;-3016,728
 330,01; 2325,385; 1652,750;-2961,704
 330,61; 2492,834; 1806,062;-2928,707
 331,20; 1995,690; 1778,325;-2868,531
 331,80; 1882,247; 1762,512;-2794,386
 332,40; 1963,758; 1752,102;-2896,932
 333,00; 1910,124; 1933,667;-2790,423
 333,59; 1884,274; 1748,771;-2855,091
 334,19; 1791,129; 1920,745;-1771,037
 334,79; 1902,836; 1712,615;-2861,316
 335,39; 1883,042; 1729,919;-2978,912
 335,98; 1868,010; 1726,714;-3126,958
 336,58; 1976,237; 1659,777;-3191,401
 337,18; 1983,371; 1720,779;-2958,592
 337,77; 1975,195; 1782,837;-2098,463
 338,37; 2015,504; 1806,359;-2021,540
 338,97; 2029,514; 1907,384;-2912,402
 339,57; 2328,881; 1862,948;-3044,894
 340,16; 2805,974; 1836,431;-2881,390
 340,76; 2928,303; 1962,712;-3053,314
 341,36; 2616,603; 1861,920;-3195,650
 341,95; 2977,711; 1934,506;-3027,623
 342,55; 3116,608; 1918,998;  703,736
 343,15; 2964,046; 2048,155;-3094,039
 343,74; 3681,675; 1924,644;-2382,298
 344,34; 3517,865; 1860,267;-3015,661
 344,94; 2740,721; 2068,530;-3069,485
 345,53; 2515,567; 2110,769;-2860,447
 346,13; 2705,293; 2174,398;-1283,573
 346,73; 3018,031; 1966,473;-2254,805
 347,32; 3129,077; 2268,649;-3080,871
 347,92; 2850,057; 2312,600;-2277,145
 348,52; 2812,185; 2270,523;-1878,722
 349,11; 3039,463; 2336,551;  975,034
 349,71; 2681,881; 2330,658;-3240,016
 350,31; 2484,355; 2441,387;-2672,237
 350,90; 2607,902; 2483,418;-2326,863
 351,50; 2928,974; 2390,852;-2105,634
 352,10; 3701,098; 2471,119;-3114,840
 352,69; 4133,402; 2532,273;-3182,424
 353,29; 4252,752; 2563,024;-3191,317
 353,89; 4383,453; 2645,527;-3255,104
 354,48; 4440,098; 2693,119;-3208,840
 355,08; 4891,134; 2871,980;-1117,164
 355,67; 5536,226; 2850,042;-2951,417
 356,27; 6922,902; 2839,128;-3232,985
 356,87; 7684,608; 3010,288;-3383,142
 357,46; 7940,974; 3049,431;-2351,390
 358,06; 9142,876; 3306,291;-3073,523
 358,66; 7559,577; 3337,504;-3109,432
 359,25; 4718,443; 3260,792;-2344,119
 359,85; 5282,551; 3365,667;-3215,970
 360,44; 6967,948; 3389,015;-3292,172
 361,04; 7119,046; 3567,155;-2367,039
 361,64; 6953,046; 3696,155;-2309,039
 362,23; 6459,649; 3772,517;-2932,958
 362,83; 6225,273; 3755,639;-2990,726
 363,42; 6163,566; 3938,769;-2836,447
 364,02; 5605,556; 3910,034;-2973,462
 364,62; 6268,293; 3816,398;-2486,573
 365,21; 4839,943; 3857,937;-1741,558
 365,81; 3556,587; 3935,818;-2792,173
 366,40; 3381,834; 3970,062;-2080,707
 367,00; 3809,329; 4021,550;-2952,776
 367,59; 4351,659; 4071,831;-2979,699
 368,19; 5014,489; 4221,678;-3237,306
 368,79; 4813,974; 4198,720;-3125,268
 369,38; 4223,798; 4107,200;-2250,383
 369,98; 4569,210; 4101,940;-2935,940
 370,57; 5208,545; 4188,588;-3331,356
 371,17; 5033,071; 4164,860;-3326,135
 371,76; 5835,530; 4277,486;-3442,879
 372,36; 6365,350; 4057,598;-3195,501
 372,95; 8262,576; 4115,372;  667,934
 373,55; 9180,035; 4105,998;-3393,811
 374,14; 8988,917; 4300,099;-3405,097
 374,74; 9149,809; 4256,514;-3224,124
 375,34; 7773,427; 4286,979;-3189,521
 375,93; 7605,994; 4295,479;-2706,116
 376,53; 6505,277; 4344,585;-3575,974
 377,12; 4640,819; 4405,670;-1465,352
 377,72; 3415,777; 4480,730;-3410,414
 378,31; 3680,020; 4511,027;-2274,699
 378,91; 4119,840; 4291,429;-3262,199
 379,50; 4733,443; 4588,213;-3331,363
 380,10; 4701,515; 4327,226;-3398,890
 380,69; 4791,799; 4094,621;-2343,626
 381,29; 6651,752; 4586,735;-2550,439
 381,88; 8676,629; 4518,758;-1605,111
 382,48; 8667,082; 4519,727;-3286,485
 383,07; 7347,943; 4495,358;-3457,802
 383,67; 6956,628; 4635,758;-1847,111
 384,26; 6488,505; 4667,491;-2467,905
 384,86; 4964,706; 4921,849;-3182,252
 385,45; 4940,005; 4932,636;-3325,344
 386,05; 4768,727; 5073,608;-3419,100
 386,64; 4008,087; 4911,384;-3524,855
 387,24; 4282,118; 5016,878;-2585,688
 387,83; 4381,247; 4993,512;-2489,386
 388,42; 4638,005; 5182,346;-2109,466
 389,02; 4396,825; 5423,748;-3235,966
 389,61; 4371,690; 5688,036;-3413,653
 390,21; 4162,118; 5729,878;-3463,688
 390,80; 3220,757; 5816,392;-3208,810
 391,40; 3414,860; 6137,899;-2293,168
 391,99; 3977,490; 5981,099;-3195,550
 392,59; 4032,659; 6435,252;-2416,943
 393,18; 3485,293; 6683,398;-2491,573
 393,77; 2831,664; 6883,198;-3238,192
 394,37; 3172,747; 7145,657;-2198,825
 394,96; 3492,696; 7098,403;-2296,146
 395,56; 3289,546; 7264,588;-2834,356
 396,15; 3881,845; 6867,797;-3125,692
 396,75; 4367,716; 7343,163;-2889,993
 397,34; 3328,211; 7669,940;-2620,940
 397,93; 2789,860; 7720,188;-3358,047
 398,53; 2560,464; 7595,262;-2525,088
 399,12; 2868,814; 8192,013;-2154,981
 399,72; 3453,098; 8013,119;-2274,840
 400,31; 3635,469; 8034,629;-3169,581
 400,91; 3289,680; 8446,012;-2959,791
 401,50; 2722,664; 8820,198;-2330,192
 402,09; 2630,824; 8550,327;-2894,722
 402,69; 2821,726; 8691,187;-3072,856
 403,28; 3022,283; 9052,663;-2983,588
 403,88; 5270,133; 9162,560; 1927,079
 404,47; 6703,659; 9689,831;  884,300
 405,06; 4371,386; 9684,171;  -68,947
 405,66; 5000,669; 9753,565;-2875,684
 406,25; 6950,974;10085,720;-3119,268
 406,84; 7194,922;10446,177;-2892,711
 407,44; 5565,937;10847,858;-2219,944
 408,03; 3615,489;10422,257;-2906,063
 408,63; 3080,710;10373,085;-3011,379
 409,22; 3040,144;10191,584;-1945,783
 409,81; 3005,705;10681,007;-1849,765
 410,41; 3308,175;11553,078;-2857,615
 411,00; 3510,772;11336,362;-1814,921
 411,59; 3990,659;11251,120;-2826,578
 412,19; 3993,700;11468,350;-2245,394
 412,78; 4471,942;11399,226;-2830,436
 413,37; 4672,545;12151,878;-2704,234
 413,97; 4930,674;12410,512;-2618,933
 414,56; 4670,138;12071,506;-2503,169
 415,15; 4221,318;12410,394;-2121,547
 415,75; 3828,700;12408,639;-2698,272
 416,34; 3156,221;12590,254;-1893,681
 416,93; 3434,055;12922,047;-2777,536
 417,53; 3941,679;12696,169;-1423,303
 418,12; 4849,334;12570,785;-2217,903
 418,71; 4886,241;12907,592;-2673,285
 419,31; 5544,390;13054,695;-1884,952
 419,90; 5967,045;13470,313;-2786,552
 420,49; 4303,839;13619,298;-1733,834
 421,08; 3619,839;14201,298;-1674,834
 421,68; 3913,597;14723,421;-1908,792
 422,27; 4558,220;14035,832;-2004,437
 422,86; 4956,200;13874,073; -437,590
 423,46; 4656,014;14080,107;-2575,598
 424,05; 4296,055;14376,626;-2928,293
 424,64; 4802,710;13888,953;-2640,014
 425,24; 4978,209;14092,098;-2903,453
 425,83; 4805,854;13992,269;-2680,945
 426,42; 5668,055;12987,626;-2760,293
 427,01; 6025,606;13424,734;-2674,533
 427,61; 4225,570;14347,873;-2609,209
 428,20; 3095,632;14036,151;-1764,751
 428,79; 3205,885;14414,052;-2859,656
 429,38; 3798,405;14092,377;-1781,186
 429,98; 4582,905;14922,521; -994,625
 430,57; 5402,570;15058,873;-2193,209
 431,16; 4277,343;14580,389;-2784,522
 431,75; 4080,519;14357,909; -561,407
 432,35; 5242,714;13435,899;-1951,262
 432,94; 4206,446;14429,186;-2324,759
 433,53; 2800,271;14560,375;-1152,995
 434,12; 2814,266;14431,298;-2267,381
 434,72; 2877,080;14188,331;-1413,389
 435,31; 2676,085;14167,699; 7395,119
 435,90; 2366,271;14308,954; 8338,249
 436,49; 2430,781;13427,834; -683,175
 437,08; 2581,003;13895,951; -675,370
 437,68; 4438,245;14442,827;-2987,412
 438,27; 5767,734;14610,237;-2610,866
 438,86; 3337,647;14612,832;-1147,984
 439,45; 2588,286;15313,346;-1937,106
 440,05; 4010,678;15955,616;-2982,694
 440,64; 4237,069;15054,886;-1902,282
 441,23; 3315,600;14152,525;-1415,553
 441,82; 2785,126;13700,218;-2631,576
 442,41; 2008,085;14351,277;-3014,637
 443,00; 1920,286;13625,925;-2724,863
 443,60; 1944,667;14373,881;-3136,710
 444,19; 2012,940;15026,541;-1440,462
 444,78; 1942,059;14960,151;-3012,298
 445,37; 1972,693;15728,297;-2522,928
 445,96; 2214,673;15331,249;-3116,202
 446,56; 2179,405;15596,535;-1144,698
 447,15; 2011,770;16225,678; -884,947
 447,74; 1949,781;17097,412;-2709,931
 448,33; 1775,518;16443,066;-1985,920
 448,92; 1784,059;15422,440;-2964,176
 449,51; 1626,868;15095,817;-2848,813
 450,10; 1484,456;15133,078;-3063,256
 450,70; 1396,492;14904,939;-1957,581
 451,29; 1475,543;15329,193;-1112,260
 451,88; 1511,234;15513,671;-2929,183
 452,47; 1922,580;16565,055;-2795,584
 453,06; 1716,883;16495,498;-2401,047
 453,65; 1405,558;16071,874;-2873,493
 454,24; 1414,966;17329,246;-2173,558
 454,84; 1460,883;17793,209;-1379,168
 455,43; 1391,615;18732,496;-2219,665
 456,02; 1373,409;18879,480;-2927,947
 456,61; 1359,533;17317,459;-2925,275
 457,20; 1387,187;16921,363;-2786,753
 457,79; 1496,878;17588,131;-2922,554
 458,38; 1512,306;18338,264;-2132,467
 458,97; 1574,115;18039,641;-2515,104
 459,56; 1631,141;18190,479;-2760,565
 460,16; 1586,904;17832,258;-2082,894
 460,75; 1516,357;18157,518;-2072,146
 461,34; 1395,631;18077,887;-2962,020
 461,93; 1408,300;18381,186;-2200,853
 462,52; 1508,378;19333,275;-2744,993
 463,11; 1653,001;20546,688;-1989,639
 463,70; 1876,249;19458,643;-2869,295
 464,29; 1992,285;19945,082;-3150,376
 464,88; 1933,357;20795,807;-2743,024
 465,47; 1717,182;19885,285;-2748,139
 466,06; 1589,146;20915,713;-3191,692
 466,65; 1650,914;21667,572;-3018,635
 467,24; 1872,841;22030,848;-2539,986
 467,84; 1737,558;22443,164;-2020,371
 468,43; 1638,604;22325,051;-2238,559
 469,02; 1643,094;23517,170;-2702,135
 469,61; 1787,517;24168,936;-2593,555
 470,20; 1867,677;23781,063;-2841,085
 470,79; 1872,759;22760,100;-3232,475
 471,38; 1568,362;25266,463;-2192,395
 471,97; 1388,754;26009,732; -666,983
 472,56; 1409,924;25472,887;-3035,376
 473,15; 1520,733;25296,975;-2825,135
 473,74; 1575,243;26395,854;-3106,559
 474,33; 1492,707;25866,848;-2957,796
 474,92; 1474,274;27630,348;-3146,391
 475,51; 1475,011;29609,002;-2873,380
 476,10; 1417,805;29847,986;-3011,662
 476,69; 1468,135;26101,268;-2855,586
 477,28; 1497,125;25846,955;-2956,845
 477,87; 1371,501;27035,121; -173,956
 478,46; 1478,408;28695,639;-3029,460
 479,05; 1424,625;30507,100;-2134,284
 479,64; 1425,630;31679,756;-2718,655
 480,23; 1361,980;29541,508;-2845,548
 480,82; 1282,609;28549,996;-2736,807
 481,41; 1281,248;29371,510;-1873,929
 482,00; 1319,790;29284,885;-1364,185
 482,59; 1346,743;29593,998;-2298,998
 483,18; 1438,125;31702,244;-2376,723
 483,77; 1414,841;31703,139;-2193,865
 484,36; 1430,011;32475,002;-1701,380
 484,95; 1497,367;32990,410; -788,643
 485,54; 1717,557;35331,031;-1371,006
 486,13; 2063,475;35762,996; -945,616
 486,72; 2560,707;34334,137;  148,326
 487,31; 2589,609;31046,285;-1109,686
 487,89; 2107,872;32608,633; -193,697
 488,48; 2786,851;33798,164;-1523,728
 489,07; 3247,346;32913,941;-1248,674
 489,66; 2365,944;33511,645;-1505,224
 490,25; 1887,681;31095,299; -660,212
 490,84; 2037,553;34127,375;-1683,635
 491,43; 3408,068;34965,621; -701,552
 492,02; 4214,480;36094,652;-1864,987
 492,61; 2726,130;35362,902;-1043,094
 493,20; 2002,841;33776,426;-2019,743
 493,79; 2029,377;32749,434; 4824,494
 494,38; 1945,496;33706,043;-1938,342
 494,97; 2932,810;32583,934; -629,911
 495,55; 4315,619;34690,309;-2325,548
 496,14; 3310,856;35087,531;-2403,220
 496,73; 2127,939;35451,566;-1952,609
 497,32; 2019,341;34211,570;-2587,182
 497,91; 2121,016;35005,949;-1921,629
 498,50; 2220,531;34165,195;-2912,544
 499,09; 2010,341;34554,570;-3088,182
 499,68; 2210,640;32403,070;-2405,396
 500,27; 2761,021;33321,605;-2490,999
 500,85; 2741,604;32655,207;-2604,071
 501,44; 2522,165;32478,342;-2576,175
 502,03; 2364,253;33194,457;-3368,178
 502,62; 1889,506;31275,068;-3438,205
 503,21; 1820,305;29432,711;-3532,858
 503,80; 1814,052;32028,100;-2976,831
 504,39; 1829,660;32451,119;-3458,121
 504,97; 1814,830;31774,982;-3577,636
 505,56; 1720,815;31537,590;-2979,281
 506,15; 1724,763;32302,336;-3991,602
 506,74; 1824,093;32557,617;-2945,526
 507,33; 1828,603;32185,498;-3165,949
 507,92; 1774,073;33952,859;-3871,678
 508,51; 1673,160;35926,973;-3735,682
 509,09; 1739,165;34536,629;-3921,053
 509,68; 1775,541;34318,508;-3748,286
 510,27; 1790,928;33667,410;-3799,381
 510,86; 1773,294;32572,264;-4081,751
 511,45; 1704,675;33677,512;-3843,476
 512,03; 1890,938;34524,855;-3829,488
 512,62; 2052,222;36240,961;-3780,346
 513,21; 2359,871;33870,789;-3186,209
 513,80; 2689,170;34644,289;-3501,423
 514,39; 2407,134;32752,137;-3905,221
 514,97; 2078,201;35347,781;-4095,255
 515,56; 2269,026;34167,551;-4198,248
 516,15; 2913,531;35428,063;-3955,179
 516,74; 3452,716;32584,318;-4420,049
 517,33; 2444,721;33459,688;-3549,542
 517,91; 2031,134;33935,426;-4188,099
 518,50; 2284,454;32563,393;-3264,282
 519,09; 2741,547;33942,875;-3157,778
 519,68; 2495,552;35231,531;-4286,148
 520,26; 2176,624;38679,547;-4232,675
 520,85; 2113,711;39452,660;-4352,679
 521,44; 2253,737;40826,078;-4358,897
 522,03; 2564,088;39485,539;-4271,912
 522,61; 3235,737;36773,078;-4364,897
 523,20; 3029,675;33924,090;-4337,233
 523,79; 2459,242;32040,590;-4337,828
 524,38; 2038,691;32850,191;-4344,709
 524,96; 1844,227;35883,199;-4321,473
 525,55; 1950,010;36021,449;-4542,771
 526,14; 2558,804;34018,723;-4434,931
 526,73; 3336,469;32852,074;-4389,515
 527,31; 2506,118;32903,324;-4488,622
 527,90; 2047,010;33630,449;-4564,771
 528,49; 1876,505;34155,938;-2529,839
 529,08; 1555,860;34601,344;-3467,103
 529,66; 1480,742;34848,445;-3911,389
 530,25; 1485,355;35279,832;-4414,172
 530,84; 1433,129;35334,348;-4583,485
 531,42; 1594,149;38583,105;-4365,332
 532,01; 2110,690;37528,480;-4291,588
 532,60; 2429,489;34512,125;-4473,241
 533,18; 1796,541;35538,086;-4078,042
 533,77; 1525,391;34969,984;-4236,374
 534,36; 1536,618;34459,469;-4374,061
 534,95; 1398,288;35483,477;-4088,015
 535,53; 1455,809;34236,090; -974,424
 536,12; 1928,721;36469,977;-2657,420
 536,71; 2390,773;36511,230;-3869,099
 537,29; 2094,788;36073,621;-3618,454
 537,88; 1924,737;33908,078;-3454,897
 538,47; 1852,170;32497,867;-2840,180
 539,05; 1897,443;36837,238;-2139,054
 539,64; 2271,850;40414,898;-1785,997
 540,22; 2337,726;37414,633; -764,790
 540,81; 2227,154;37501,766; 1008,297
 541,40; 1936,458;39018,629; 3425,591
 541,98; 1842,041;38188,230; 4858,519
 542,57; 1862,721;39368,977; 4597,580
 543,16; 1780,118;38645,613; 4952,500
 543,74; 1563,556;35774,480; 4083,603
 544,33; 1613,644;36297,883; 3620,721
 544,92; 1672,912;37217,887; 3973,339
 545,50; 1630,226;37338,488;11456,648
 546,09; 1500,783;40064,965;11359,916
 546,67; 1318,938;41948,727; 2857,878
 547,26; 1351,943;40050,094; -202,615
 547,85; 1318,757;39208,414; -567,501
 548,43; 1289,056;38452,625; -849,836
 549,02; 1236,113;39427,246;-1040,008
 549,60; 1259,298;40570,500; -984,878
 550,19; 1286,463;41166,996;-2192,901
 550,78; 1152,974;42660,875;-2328,325
 551,36; 1129,499;45349,148;-2432,104
 551,95; 1063,634;45443,859; -585,416
 552,53; 1064,453;43280,262; -296,916
 553,12; 1055,814;41420,035;-3431,672
 553,70; 1065,051;43188,547;-2878,222
 554,29; 1054,536;44058,008;-2869,428
 554,88; 1077,674;41831,668;-4247,989
 555,46; 1035,144;43723,027;-3881,718
 556,05; 1162,742;45007,734;-4207,268
 556,63; 1392,855;45206,266;-3396,489
 557,22; 1458,417;43875,109;-3394,714
 557,80; 1337,886;41749,762;-3568,321
 558,39; 1499,381;44188,250;-4145,390
 558,97; 1236,778;47993,887;-3699,470
 559,56; 1125,561;49889,137;-4544,768
 560,15; 1152,180;50117,891;-3611,042
 560,73; 1233,035;49814,152;-4287,867
 561,32; 1551,984;47024,609;-3741,309
 561,90; 1403,788;46041,910;-4382,333
 562,49; 1136,139;48487,371;-3786,348
 563,07;  960,211;48074,387;-4783,875
 563,66; 1024,427;50064,133;-4352,577
 564,24; 1018,097;49228,145;-4763,531
 564,83;  953,406;51344,664;-4603,607
 565,41; 1075,273;53840,375;-4329,539
 566,00; 1042,839;52202,164;-2755,012
 566,58; 1059,407;56465,375;-3725,729
 567,17;  996,834;56909,508;-4280,642
 567,75;  921,438;52392,871;-4653,562
 568,34;  907,690;55893,770;-3216,466
 568,92;  898,432;55738,793;-3987,947
 569,51;  902,448;54852,895; 2680,576
 570,09; 1004,747;58247,391;-4676,638
 570,68;  983,607;53188,313;-4788,833
 571,26;  897,979;50733,242;-3886,817
 571,85;  960,010;57347,738;-4822,649
 572,43;  883,675;57011,379;-4704,111
 573,01;  806,541;52662,375;-4873,920
 573,60;  844,804;53819,012;-3785,810
 574,18;  900,453;55122,262;-4514,917
 574,77;  813,659;53284,277;-4737,634
 575,35;  872,804;56113,012;-4452,810
 575,94;  910,556;57300,770;-4076,275
 576,52;  924,989;54049,270;-2249,680
 577,11;  856,267;51620,297;-3244,924
 577,69;  901,721;48685,555;-3183,176
 578,27;  904,463;51008,996;-3447,901
 578,86;  841,917;55198,543;-2994,031
 579,44;  910,133;60080,004;-2805,855
 580,03;  884,695;60164,137;-2493,958
 580,61;  917,257;60267,270;-3206,062
 581,19;  929,468;56429,652;-2538,271
 581,78;  889,040;55361,813;-2364,238
 582,36;  859,278;57656,031;-2911,909
 582,95;  938,375;56180,172;-1497,776
 583,53;  913,381;59586,539;-2319,268
 584,11;  923,510;61608,883;-2241,088
 584,70;  903,004;61691,660;-1948,035
 585,28;  955,417;62070,398;-1853,592
 585,87;  960,262;60436,930;-2889,432
 586,45;  963,917;63023,543;-2375,031
 587,03;  961,829;64945,430;-1150,027
 587,62; 1009,396;61494,641;-1834,745
 588,20; 1022,463;62236,285;-1020,779
 588,78; 1071,453;58157,840;-3411,673
 589,37; 1054,989;57765,270;-3360,680
 589,95; 1034,824;62238,773;-3385,657
 590,54; 1062,515;63633,539;-3461,459
 591,12; 1154,669;62116,301;-3508,497
 591,70; 1056,164;59586,789;-3331,565
 592,29; 1051,370;62881,805;-2923,283
 592,87; 1017,273;63542,375;-2394,538
 593,45;  945,236;63404,801; 1487,908
 594,04;  979,850;62800,188;-3676,875
 594,62;  928,788;59709,910;-3708,333
 595,20;  945,380;62066,828;-4371,146
 595,79;  957,329;62681,285;-4165,588
 596,37;  948,721;61108,555;-3657,176
 596,95; 1003,973;56922,164;-4321,203
 597,53;  987,690;58806,770;-4226,466
 598,12;  947,726;61848,922;-3959,669
 598,70;  948,979;64932,531;-3776,695
 599,28;  908,273;64911,375;-3404,538
 599,87;  952,360;64929,777;-3061,420
 600,45;  989,999;64938,293;-3907,543
 601,03;  950,628;63145,781;-4100,802
 601,62;  966,850;61727,188;-4468,875
 602,20; 1008,489;59786,414;-4541,119
 602,78;  916,628;64399,070;-4770,680
 603,36;  881,803;64783,301;-3166,688
 603,95;  942,659;58863,277;-4492,634
 604,53;  827,061;62401,281;-4574,207
 605,11;  909,185;59505,258;-2755,535
 605,69;  891,303;62362,156;-3365,249
 606,28;  881,370;62594,805;-4223,283
 606,86;  834,293;61629,422;-3946,264
 607,44;  758,051;60431,547;-3906,222
 608,02;  730,504;58047,805;-4037,474
 608,61;  764,674;60099,668;-2866,989
 609,19;  732,025;58582,418;-2582,882
 609,77;  806,159;57398,422; -710,073
 610,35;  761,030;55748,785; 5794,625
 610,94;  713,994;56509,926;14509,949
 611,52;  695,674;55803,668;12610,011
 612,10;  668,674;53026,957; 8432,133
 612,68;  627,870;56637,949; 2694,278
 613,26;  759,587;57037,551; 2032,015
 613,85;  822,128;61759,926; -599,241
 614,43;  644,324;62306,918;-1030,096
 615,01;  581,788;62272,199;-1215,211
 615,59;  574,081;64874,328; -972,932
 616,17;  603,200;59402,648;-2561,890
 616,76;  695,778;62178,887;-2993,470
 617,34;  721,927;62666,988;-2389,138
 617,92;  666,690;58547,770;-3399,466
 618,50;  666,468;61202,652;-2562,271
 619,08;  718,412;57928,031;-2514,100
 619,67;  646,839;55968,164;-3196,012
 620,25;  655,396;54290,641;-2743,745
 620,83;  604,999;50498,293;-3495,543
 621,41;  659,968;52314,797;-2800,711
 621,99;  571,942;54560,672;-2529,371
 622,57;  716,829;55529,141;-3707,149
 623,15;  737,211;56213,387;-3783,875
 623,74;  675,814;58266,746;-3892,794
 624,32;  694,484;59330,754;-2827,749
 624,90;  651,984;58625,898;-2311,188
 625,48;  624,350;57897,043;-3132,436
 626,06;  591,747;56898,391;-4006,638
 626,64;  562,133;57787,004;-4162,855
 627,22;  506,474;58993,020;-3409,764
 627,81;  547,953;58046,117;-4334,478
 628,39;  462,231;57121,145;-4560,722
 628,97;  544,133;56597,293;-4437,733
 629,55;  521,948;55377,750;-4219,985
 630,13;  566,257;55669,270;-2959,062
 630,71;  527,314;54162,891;-2747,233
 631,29;  559,659;53129,277;-3824,634
 631,87;  563,700;52776,504;-4223,451
 632,45;  486,200;52786,648;-4716,890
 633,03;  532,164;54183,500;-4191,688
 633,62;  553,061;55423,281;-4714,207
 634,20;  466,509;54882,172;-4089,966
 634,78;  522,731;56497,000;-4430,283
 635,36;  510,932;56701,648;-4449,508
 635,94;  574,077;55183,383;-5398,684
 636,52;  521,664;51027,645;-5422,126
 637,10;  506,973;52116,164;-5488,203
 637,68;  483,577;50694,527;-4702,123
 638,26;  484,082;47618,750;-5536,176
 638,84;  469,252;48688,902;-5421,569
 639,42;  542,973;49235,164;-3756,203
 640,00;  601,229;51366,148;-5405,726
 640,58;  644,009;54579,402;-4806,027
 641,16;  566,790;55521,656;-5571,328
 641,74;  544,571;53214,906;-5433,630
 642,32;  548,352;50106,160;-5620,931
 642,90;  461,133;50434,414;-5856,232
 643,48;  486,914;49231,668;-5786,534
 644,06;  509,694;49280,922;-5796,835
 644,64;  482,475;49595,176;-5842,137
 645,22;  454,256;50513,430;-5562,438
 645,80;  459,037;50547,684;-4957,740
 646,39;  469,818;48107,938;-5515,041
 646,97;  424,598;49773,191;-5850,342
 647,54;  435,379;52328,441;-5717,644
 648,12;  417,160;54879,695;-5865,945
 648,70;  510,941;58954,949;-5885,247
 649,28;  502,722;56421,203;-6090,548
 649,86;  497,503;51091,457;-5609,850
 650,44;  415,283;48619,711;-5452,151
 651,02;  436,064;49970,965;-5474,452
 651,60;  418,845;51793,219;-5803,753
 652,18;  420,626;51320,473;-4735,055
 652,76;  375,407;53277,723;-5934,356
 653,34;  396,187;54817,977;-5939,658
 653,92;  452,968;57729,230;-5784,959
 654,50;  525,749;59042,484;-5818,261
 655,08;  500,530;58048,738;-5841,562
 655,66;  464,311;55058,992;-5115,863
 656,24;  492,092;56743,246;-5200,165
 656,82;  506,872;58989,500;-4979,466
 657,40;  454,653;58967,754;-5667,768
 657,98;  472,434;60169,008;-5486,069
 658,56;  450,215;61114,258;-5717,371
 659,14;  463,996;61380,512;-5913,672
 659,72;  428,776;63381,766;-5916,973
 660,29;  376,557;62437,020;-5907,275
 660,87;  403,338;59738,273;-5212,576
 661,45;  382,119;58590,527;-5664,877
 662,03;  398,900;57513,781;-4971,179
 662,61;  353,681;54945,035;-5638,480
 663,19;  397,461;54618,289;-5657,782
 663,77;  348,242;53917,543;-5939,083
 664,35;  320,023;56689,793;-5887,384
 664,93;  319,804;62595,047;-4922,686
 665,51;  333,585;61993,301;-6033,987
 666,08;  339,365;57747,555;-5652,289
 666,66;  334,146;51859,809;-4400,590
 667,24;  393,927;49420,063;-5952,892
 667,82;  409,708;50250,316;-5849,193
 668,40;  364,489;50723,570;-5932,494
 668,98;  375,270;51952,824;-5097,796
 669,56;  285,050;57957,078;-6096,097
 670,13;  392,831;61797,328;-6222,398
 670,71;  434,612;59698,582;-5900,700
 671,29;  399,393;57209,836;-6139,001
 671,87;  377,174;56814,090;-6051,303
 672,45;  335,954;51822,344;-6050,604
 673,03;  393,735;52592,598;-4769,906
 673,60;  350,516;58431,852;-3503,207
 674,18;  336,297;63679,105;-5938,508
 674,76;  363,078;61159,359;-6226,810
 675,34;  404,859;56361,613;-5251,111
 675,92;  325,639;55284,863;-6338,413
 676,50;  379,420;55051,117;-6085,714
 677,07;  358,201;56952,371;-6095,016
 677,65;  325,982;56680,625;-6163,317
 678,23;  334,763;55997,879;-5057,618
 678,81;  400,543;58016,133;-5299,919
 679,38;  423,324;56669,387;-5969,221
 679,96;  337,105;53267,641;-5846,522
 680,54;  342,886;55171,895;-5308,824
 681,12;  368,667;52485,148;-6126,125
 681,70;  285,448;54786,398;-4413,427
 682,27;  323,228;54740,652;-5851,728
 682,85;  368,009;58265,906;-5991,029
 683,43;  330,790;64943,160;-6140,331
 684,01;  383,571;64943,414;-5172,632
 684,58;  385,352;64307,668;-5138,934
 685,16;  376,132;64236,922;-4494,235
 685,74;  452,913;62790,176;-3853,536
 686,32;  391,694;59009,430;-6012,838
 686,89;  352,475;59552,684;-6015,139
 687,47;  311,256;59534,934;-6076,441
 688,05;  392,037;56416,188;-6019,742
 688,63;  298,817;59626,441;-6102,043
 689,20;  299,598;62884,695;-5971,345
 689,78;  350,379;58427,949;-5530,646
 690,36;  317,160;54291,203;-5381,948
 690,93;  291,941;54968,457;-6355,249
 691,51;  352,721;61453,711;-6326,550
 692,09;  309,502;64946,965;-6223,852
 692,67;  346,283;64947,219;-6047,153
 693,24;  350,064;60968,469;-5803,455
 693,82;  348,845;59538,723;-6235,756
 694,40;  389,626;58049,977;-3570,058
 694,97;  345,406;57456,230;-6046,359
 695,55;  290,187;59820,484;-5464,660
 696,13;  347,968;61729,738;-4454,962
 696,70;  310,749;58594,992;-6029,263
 697,28;  363,530;59108,246;-6266,564
 697,86;  331,310;60837,500;-6030,866
 698,43;  303,091;58827,754;-6198,167
 699,01;  345,872;55595,004;-6051,469
 699,59;  285,653;55751,258;-6402,770
 700,16;  289,434;54174,512;-5257,072
 700,74;  297,215;57040,766;-5497,373
 701,32;  312,995;56440,020;-6233,674
 701,89;  276,776;55792,273;-6049,976
 702,47;  288,557;60296,527;-6466,277
 703,05;  342,338;64951,781;-6309,579
 703,62;  318,119;64952,035;-6227,880
 704,20;  265,899;64952,285;-5306,182
 704,77;  281,680;64952,539;-6118,483
 705,35;  249,461;64213,793;-6006,784
 705,93;  216,242;64327,047;-4922,085
 706,50;  234,023;63796,301;-5267,387
 707,08;  249,804;60606,555;-5284,688
 707,65;  277,584;60046,809;-5620,990
 708,23;  283,365;64881,063;-5431,292
 708,81;  266,146;64954,316;-5019,593
 709,38;  274,927;64954,570;-5001,894
 709,96;  274,708;64954,820;-6025,195
 710,53;  284,488;64955,074;-6007,497
 711,11;  295,269;61503,328;-5752,798
 711,69;  263,050;61913,582;-3821,100
 712,26;  278,831;59012,836;-4642,401
 712,84;  254,612;63346,090;-5947,703
 713,41;  331,393;64411,344;-6153,004
 713,99;  283,173;64924,598;-6068,305
 714,56;  298,954;62057,852;-6326,607
 715,14;  330,735;60312,105;-6198,908
 715,71;  284,516;60246,355;-6210,209
 716,29;  284,297;62893,609;-6648,511
 716,86;  252,077;63573,863;-6510,813
 717,44;  317,858;63263,117;-6424,114
 718,02;  317,639;62110,371;-6462,415
 718,59;  342,420;61013,625;-5121,716
 719,17;  248,201;63488,879;-5649,018
 719,74;  339,982;62907,133;-5756,319
 720,32;  290,762;63502,387;-6451,621
 720,89;  306,543;64959,641;-6422,922
 721,47;  213,324;64959,891;-6388,224
 722,04;  258,105;64960,145;-5502,525
 722,62;  299,886;64252,398;-3979,826
 723,19;  248,666;60250,652;-4938,128
 723,77;  252,447;57638,906;-5673,429
 724,34;  264,228;60150,160;-5576,730
 724,92;  258,009;63789,414;-6558,032
 725,49;  242,790;64961,668;-5666,333
 726,07;  253,571;64961,922;-6491,635
 726,64;  273,351;64627,176;-6587,936
 727,21;  245,132;60249,426;-5627,238
 727,79;  217,913;63706,680;-6444,539
 728,36;  279,694;64962,934;-6722,840
 728,94;  299,475;64963,188;-6535,142
 729,51;  247,255;64963,441;-6365,443
 730,09;  291,036;64963,695;-5545,745
 730,66;  266,817;64963,949;-6358,046
 731,24;  235,598;64964,203;-6577,348
 731,81;  295,379;64964,457;-5151,649
 732,38;  323,160;64964,711;-6492,950
 732,96;  234,940;64964,961;-6263,251
 733,53;  304,721;60347,215;-6389,553
 734,11;  289,502;61575,469;-6617,854
 734,68;  295,283;64965,723;-6211,156
 735,26;  309,064;64965,977;-6389,458
 735,83;  310,844;64966,230;-6498,759
 736,40;  305,625;62243,484;-6516,060
 736,98;  315,406;61999,738;-6374,361
 737,55;  292,187;59236,992;-5827,663
 738,13;  278,968;57707,246;-5702,964
 738,70;  343,749;60991,496;-5529,266
 739,27;  365,529;62504,750;-6452,567
 739,85;  320,310;62745,004;-6283,869
 740,42;  388,091;64968,258;-6464,170
 740,99;  349,872;64968,512;-5618,471
 741,57;  341,653;64968,766;-4867,773
 742,14;  354,433;64969,020;-5349,074
 742,72;  336,214;64969,273;-4751,375
 743,29;  359,995;64969,527;-6563,677
 743,86;  332,776;64969,781;-6538,979
 744,44;  428,557;64970,031;-6113,280
 745,01;  388,338;64970,285;-5760,581
 745,58;  383,118;64970,539;-6259,882
 746,16;  376,899;64970,793;-6188,184
 746,73;  395,680;64971,047;-6479,485
 747,30;  373,461;61139,301;-6536,787
 747,88;  425,242;59621,555;-5621,088
 748,45;  428,022;64971,809;-5668,390
 749,02;  512,803;64972,063;-6384,691
 749,60;  520,584;62401,313;-6212,992
 750,17;  543,365;61766,566;-5269,294
 750,74;  563,146;62801,820;-6479,595
 751,31;  551,927;63306,074;-6347,896
 751,89;  482,707;64232,328;-6546,198
 752,46;  462,488;64973,582;-6282,500
 753,03;  457,269;64973,836;-6160,801
 753,61;  481,050;63755,090;-4858,102
 754,18;  385,831;64573,344;-6434,404
 754,75;  380,611;63888,598;-5191,705
 755,32;  428,392;60715,848;-6332,006
 755,90;  348,173;64975,102;-6493,308
 756,47;  389,954;64975,355;-4809,609
 757,04;  379,735;64975,609;-6457,911
 757,61;  343,516;64975,863;-5553,212
 758,19;  351,296;64976,117;-5253,514
 758,76;  333,077;64976,371;-6603,815
 759,33;  317,858;64976,625;-6664,116
 759,90;  324,639;64976,879;-5714,417
 760,48;  282,420;64977,133;-6778,719
 761,05;  280,200;64977,383;-6083,021
 761,62;  316,981;62082,637;-4888,322
 762,19;  268,762;58992,891;-6144,624
 762,77;  260,543;61730,145;-5963,925
 763,34;  241,324;64978,398;-6610,226
 763,91;  248,105;64978,652;-5818,527
 764,48;  239,885;64978,906;-6756,829
 765,05;  259,666;64979,160;-6543,130
 765,63;  281,447;63215,414;-6417,432
 766,20;  326,228;59753,668;-6004,733
 766,77;  259,009;57105,918;-5921,035
 767,34;  238,789;58807,172;-6640,336
 767,91;  210,570;59176,426;-6689,637
 768,49;  225,351;61368,680;-6772,939
 769,06;  184,132;64980,934;-5832,240
 769,63;  213,913;62272,188;-6636,542
 770,20;  229,694;59567,441;-5868,843
 770,77;  183,474;57921,695;-5645,145
 771,34;  203,255;60065,949;-6615,446
 771,91;  230,036;60549,203;-6102,747
 772,49;  230,817;58558,453;-6369,048
 773,06;  190,598;57687,707;-6203,350
 773,63;  203,378;60204,961;-6639,651
 774,20;  251,159;58197,215;-5918,953
 774,77;  280,940;56475,469;-6631,254
 775,34;  274,721;56707,723;-6214,556
 775,91;  432,502;57056,977;-6417,857
 776,49;  599,283;58787,230;-6590,158
 777,06;  919,063;60761,484;-6015,460
 777,63;  787,844;64224,738;-6367,761
 778,20;  468,625;62572,988;-6250,063
 778,77;  333,406;63316,242;-5763,364
 779,34;  238,187;64985,496;-6585,666
 779,91;  263,967;64985,750;-6534,967
 780,48;  200,748;59144,004;-5853,268
 781,05;  220,529;50716,258;-6586,570
 781,62;  223,310;52124,512;-6604,871
 782,20;  221,091;58813,766;-6500,172
 782,77;  191,872;64987,020;-6529,474
 783,34;  256,652;64052,273;-6522,775
 783,91;  198,433;61362,523;-6509,077
 784,48;  149,214;60480,777;-2126,378
 785,05;  151,995;59144,031;-6540,680
 785,62;  171,776;58221,285;-6452,981
 786,19;  201,556;58149,539;-5100,282
 786,76;  140,337;55130,793;-6677,583
 787,33;  150,118;56202,047;-6515,885
 787,90;  122,899;59491,301;-6591,187
 788,47;  164,680;60148,555;-5075,488
 789,04;  207,461;58988,809;-5763,790
 789,61;  181,241;58863,059;-5066,091
 790,18;  202,022;55747,313;-6561,392
 790,75;  167,803;50841,566;-6671,693
 791,32;  184,584;52056,820;-6577,995
 791,89;  178,365;55205,074;-6068,296
 792,46;  141,145;60806,328;-5763,598
 793,03;  200,926;62404,582;-6702,899
 793,60;  263,707;55699,836;-6440,201
 794,17;  288,488;52257,090;-5569,502
 794,74;  315,269;47273,344;-5886,803
 795,31;  260,050;50096,594;-6099,105
 795,88;  233,830;52579,848;-5572,406
 796,45;  177,611;53365,102;-6529,708
 797,02;  133,392;56004,355;-5046,009
 797,59;  147,173;57922,609;-6675,311
 798,16;  176,954;54563,863;-5861,612
 798,73;   93,734;53534,117;-6761,913
 799,30;  127,515;55088,371;-6611,214
 799,87;  161,296;55650,625;-6713,516
 800,44;  144,077;55353,875;-6729,817
 801,01;  128,858;56836,129;-6807,119
 801,58;  183,639;58477,383;-6537,420
 802,15;  104,419;52086,637;-6658,722
 802,72;  139,200;48849,891;-6694,023
 803,28;  139,981;52000,145;-6076,324
 803,85;  172,762;57179,398;-6728,626
 804,42;  205,543;55235,652;-5999,927
 804,99;  138,323;53752,906;-6539,229
 805,56;   99,104;52472,160;-6770,530
 806,13;  129,885;53387,410;-6075,832
 806,70;  107,666;52719,664;-6748,133
 807,27;  154,447;54477,918;-6672,434
 807,84;   82,228;52786,172;-6693,736
 808,41;  149,008;49728,426;-6022,037
 808,98;  147,789;50479,680;-5986,338
 809,54;  104,570;52469,934;-4958,640
 810,11;   56,351;48281,188;-6782,941
 810,68;  106,132;43021,441;-6680,243
 811,25;   54,912;41394,695;-6760,544
 811,82;   86,693;40374,945;-6886,846
 812,39;  118,474;37710,199;-3331,147
 812,96;  118,255;38779,453;-6767,448
 813,52;  143,036;41291,707;-6937,750
 814,09;   93,817;44522,961;-6766,051
 814,66;  113,597;50325,215;-6827,353
 815,23;  133,378;51240,469;-6669,654
 815,80;   77,159;50439,723;-5853,956
 816,37;   78,940;50917,977;-6801,257
 816,93;  110,721;49487,230;-6731,558
 817,50;  116,501;46790,480;-6102,859
 818,07;  154,282;46034,734;-6960,161
 818,64;  138,063;46919,988;-6856,462
 819,21;  140,844;46261,242;-6053,764
 819,77;  162,625;42742,496;-6571,065
 820,34;  127,406;42053,750;-6677,367
 820,91;  184,186;43276,004;-6469,668
 821,48;  255,967;43873,258;-6689,969
 822,05;  246,748;45571,512;-5875,271
 822,61;  225,529;44296,766;-5631,572
 823,18;  170,310;41860,016;-6620,874
 823,75;  120,090;42585,270;-6957,175
 824,32;  139,871;45286,523;-6923,477
 824,88;  145,652;45073,777;-6882,778
 825,45;  112,433;44018,031;-6899,079
 826,02;   47,214;43798,285;-6643,380
 826,59;   95,995;43974,539;-6639,682
 827,15;   75,775;46077,793;-6906,983
 827,72;  110,556;49519,047;-6723,285
 828,29;  103,337;51523,301;-6895,586
 828,86;  129,118;48827,551;-6791,888
 829,42;   64,899;40797,805;-6812,189
 829,99;   74,679;36802,059;-6647,490
 830,56;  118,460;36252,313;-6869,792
 831,13;   98,241;37220,566;-6060,093
 831,69;  117,022;38022,820;-6506,395
 832,26;  164,803;38832,074;-5062,696
 832,83;   91,584;40408,328;-5452,998
 833,39;   89,364;40187,582;-6904,299
 833,96;   87,145;39167,836;-6687,600
 834,53;   24,926;40039,086;-6928,902
 835,10;   66,707;39930,340;-6529,203
 835,66;   79,488;38972,594;-6920,504
 836,23;   62,269;39801,848;-6803,806
 836,80;   39,049;39428,102;-6790,107
 837,36;   71,830;37086,355;-6810,409
 837,93;   66,611;34475,609;-6902,710
 838,50;   95,392;35084,863;-6789,012
 839,06;   68,173;37684,117;-6288,313
 839,63;   66,953;37191,371;-6895,614
 840,19;   70,734;35132,621;-6607,916
 840,76;   66,515;35364,875;-6404,217
 841,33;   56,296;35892,129;-6509,519
 841,89;  103,077;36779,383;-6949,820
 842,46;   17,858;37103,637;-6751,122
 843,03;   99,638;35389,891;-6089,423
 843,59;   99,419;34224,145;-6403,724
 844,16;  136,200;34994,398;-6181,025
 844,73;  211,981;34249,652;-6067,327
 845,29;  174,762;32937,902;-5695,628
 845,86;  107,542;35699,156;-6800,930
 846,42;   13,323;36940,410;-7004,231
 846,99;   86,104;36477,664;-6967,533
 847,56;   81,885;36265,918;-5840,834
 848,12;   40,666;36240,172;-6745,135
 848,69;   65,447;35710,426;-6715,437
 849,25;   68,227;34401,680;-6845,738
 849,82;   70,008;34081,934;-3247,040
 850,38;   55,789;35064,188;-6840,341
 850,95;   17,570;32489,439;-6324,643
 851,52;   71,351;32520,693;-6565,944
 852,08;   41,131;32548,947;-6691,245
 852,65;   -2,088;30323,199;-7005,546
 853,21;   30,693;27698,453;-6958,848
 853,78;   23,474;27362,707;-6363,149
 854,34;   42,255;28860,961;-6871,451
 854,91;   25,036;29081,215;-5086,752
 855,47;   24,816;29942,467;-5108,054
 856,04;   51,597;32027,721;-6746,355
 856,60;    7,378;33961,973;-6104,656
 857,17;   41,159;34979,227;-6840,958
 857,73;   39,940;33553,480;-6811,259
 858,30;   51,720;32532,734;-6985,561
 858,86;   33,501;31110,988;-5926,862
 859,43;   35,282;31430,242;-6226,164
 859,99;   16,063;32011,496;-6852,465
 860,56;    6,844;33126,750;-6903,766
 861,12;   30,625;35190,004;-6737,068
 861,69;    9,405;33669,258;-5924,369
 862,25;   52,186;34731,508;-6821,670
 862,82;   68,967;34419,762;-5972,972
 863,38;   11,748;31196,018;-6843,273
 863,95;   35,529;29305,270;-6239,575
 864,51;   47,309;30403,523;-5287,876
 865,08;   64,090;29284,777;-6090,178
 865,64;   24,871;26795,031;-7018,479
 866,21;   57,652;26131,285;-6745,780
 866,77;   77,433;26051,537;-5552,082
 867,34;  101,214;25734,791;-6672,383
 867,90;   93,994;24632,045;-6303,685
 868,46;  145,775;23835,299;-6041,986
 869,03;   86,556;24389,551;-6929,288
 869,59;   68,337;26353,805;-6884,589
 870,16;   18,118;27647,059;-6052,890
 870,72;   17,898;30060,313;-6657,191
 871,28;   45,679;32915,566;-5992,493
 871,85;   38,460;33142,820;-6907,794
 872,41;   47,241;31569,072;-6004,096
 872,98;   48,022;32738,326;-6050,397
 873,54;   -6,197;33876,578;-5920,699
 874,10;   43,583;32768,832;-5876,000
 874,67;   -0,417;32987,832;-6904,000
 875,23;   28,583;31068,834;-7032,000
 875,80;   38,583;28009,834;-6641,000
 876,36;    1,583;25058,834;-6642,000
 876,92;   22,583;22832,834;-6189,000
 877,49;  -13,417;23923,834;-6517,000
 878,05;   35,583;24896,834;-6797,000
 878,61;   52,583;26938,834;-6812,000
 879,18;   31,583;27553,834;-6252,000
 879,74;   30,583;28076,834;-6720,000
 880,30;  -19,417;28679,834;-5926,000
 880,87;   -3,417;28852,834;-6326,000
 881,43;   27,583;29533,834;-6871,000
 881,99;   44,583;27306,834;-6879,000
 882,56;   30,583;27610,834;-6661,000
 883,12;   17,583;29049,834;-5740,000
 883,68;   11,583;29120,834;-6518,000
 884,25;   48,583;28300,834;-6949,000
 884,81;   -0,417;26343,834;-6701,000
 885,37;   30,583;24221,834;-6786,000
 885,94;   17,583;22940,834;-6851,000
 886,50;   36,583;23098,834;-6886,000
 887,06;   -2,417;24358,834;-6796,000
 887,62;  -11,417;25019,834;-6866,000
 888,19;   40,583;25774,834;-5986,000
 888,75;   23,583;26542,834;-6821,000
 889,31;   15,583;29043,834;-6778,000
 889,87;    9,583;30537,834;-6723,000
 890,44;   75,583;30349,834;-6696,000
 891,00;    7,583;28757,834;-6786,000
 891,56;   12,583;26457,834;-6998,000
 892,12;   60,583;24463,834;-6754,000
 892,69;   53,583;25310,834;-6373,000
 893,25;   54,583;28798,834;-6877,000
 893,81;   56,583;31774,834;-6696,000
 894,37;  121,583;31330,834;-6342,000
 894,94;   39,583;28713,834;-6772,000
 895,50;   83,583;26035,834; -212,000
 896,06;   98,583;24749,834;-6810,000
 896,62;  135,583;23405,834;-6707,000
 897,18;   67,583;24661,834;-6518,000
 897,75;  116,583;27406,834;-6895,000
 898,31;  112,583;27887,834;-6849,000
 898,87;   98,583;26274,834;-6860,000
 899,43;   94,583;25164,834;-6469,000
 899,99;   80,583;26592,834;-6866,000
 900,56;  117,583;25515,834;-6791,000
 901,12;   87,583;24875,834;-6890,000
 901,68;  154,583;27903,834;-6267,000
 902,24;  116,583;31800,834;-5930,000
 902,80;  141,583;32652,834;-6794,000
 903,36;  241,583;31893,834;-6691,000
 903,93;  368,583;32139,834;-6646,000
 904,49;  750,583;32761,834;-6913,000
 905,05; 2091,583;30952,834;-6732,000
 905,61; 4843,583;28208,834;-6832,000
 906,17; 8745,583;28086,834;-6901,000
 906,73;13193,583;25975,834;-5380,000
 907,29;17568,584;24960,834;-6910,000
 907,86;21574,584;25118,834;-6827,000
 908,42;23226,584;28092,834;-6795,000
 908,98;19705,584;31123,834;-5908,000
 909,54;10745,583;38813,832;-6885,000
 910,10; 3679,583;48220,832;-6634,000
 910,66; 1058,583;57581,832;-6781,000
 911,22;  368,583;65027,832;-6761,000
 911,78;  231,583;62593,832;-6841,000
 912,34;  137,583;53256,832;-6080,000
 912,90;  118,583;44610,832;-5232,000
 913,46;  128,583;37052,832;-6876,000
 914,03;  103,583;30620,834;-5746,000
 914,59;   44,583;27452,834;-6682,000
 915,15;   67,583;24908,834;-6891,000
 915,71;   74,583;24217,834;-6863,000
 916,27;   37,583;23800,834;-6723,000
 916,83;   62,583;23006,834;-5824,000
 917,39;  107,583;21742,834;-3512,000
 917,95;   54,583;20224,834;-6009,000
 918,51;   70,583;19972,834;-6583,000
 919,07;   91,583;21780,834;-6791,000
 919,63;  -25,417;23295,834;-6661,000
 920,19;   18,583;23935,834;-6865,000
 920,75;   62,583;23112,834;-6640,000
 921,31;  -15,417;21484,834;-4837,000
 921,87;   18,583;20216,834;-6845,000
 922,43;   36,583;18019,834;-5626,000
 922,99;  102,583;17321,834;-6706,000
 923,55;   44,583;18674,834;-6655,000
 924,11;   17,583;19094,834;-6976,000
 924,67;   38,583;19310,834;-6962,000
 925,23;   51,583;19485,834;-6778,000
 925,79;   66,583;20122,834;-6710,000
 926,35;  107,583;20219,834;-6573,000
 926,91;   15,583;19401,834;-6909,000
 927,47;   34,583;19367,834;-6660,000
 928,03;  104,583;20294,834;-6786,000
 928,59;   64,583;20503,834;-6678,000
 929,15;   92,583;20781,834;-6792,000
 929,71;   48,583;22016,834;-6840,000
 930,27;   66,583;23587,834;-6537,000
 930,82;   53,583;25573,834;-6728,000
 931,38;  -22,417;24317,834;-5852,000
 931,94;   41,583;22672,834;-6843,000
 932,50;   21,583;21252,834;-6481,000
 933,06;   20,583;20895,834;-6768,000
 933,62;   15,583;21092,834;-6443,000
 934,18;   29,583;20632,834;-6727,000
 934,74;    3,583;21320,834;-6709,000
 935,30;   87,583;22030,834;-6484,000
 935,86;   71,583;21213,834;-6505,000
 936,42;   52,583;20702,834;-6873,000
 936,97;   21,583;21656,834;-6563,000
 937,53;   46,583;20552,834;-6826,000
 938,09;   50,583;21087,834;  123,000
 938,65;   44,583;21186,834;-6268,000
 939,21;   41,583;20179,834;-6708,000
 939,77;   17,583;18946,834;-6213,000
 940,33;   22,583;18602,834;-6748,000
 940,88;   -1,417;19429,834;-5908,000
 941,44;   55,583;21301,834;-6983,000
 942,00;  -18,417;23225,834;-6697,000
 942,56;   43,583;24231,834;-6604,000
 943,12;   16,583;23427,834;-5907,000
 943,68;   32,583;22950,834;-5679,000
 944,23;   34,583;23124,834;-6749,000
 944,79;  -26,417;22674,834;-6102,000
 945,35;  -23,417;20741,834;-6599,000
 945,91;   11,583;19519,834;-6767,000
 946,47;   -2,417;19827,834;-3353,000
 947,03;   30,583;19896,834;-6850,000
 947,58;  -26,417;19661,834;-6840,000
 948,14;   67,583;20790,834;-5897,000
 948,70;   10,583;19573,834;-5855,000
 949,26;   47,583;18881,834;-6616,000
 949,81;    0,583;18342,834;-6644,000
 950,37;   47,583;18686,834;-6695,000
 950,93;   36,583;17993,834;-6224,000
 951,49;    2,583;17568,834;-6057,000
 952,05;    6,583;17926,834;-6571,000
 952,60;   -4,417;17299,834;-6951,000
 953,16;   14,583;16933,834;-5783,000
 953,72;  -28,417;15628,833;-5813,000
 954,27;   -5,417;15524,833;-6566,000
 954,83;   32,583;15317,833;-6703,000
 955,39;   26,583;14917,833;-6691,000
 955,95;  -15,417;14456,833;-6849,000
 956,50;  -51,417;14272,833;-6698,000
 957,06;  -27,417;14126,833;-5922,000
 957,62;  -10,417;13780,833;-6559,000
 958,18;   -3,417;13872,833;-6741,000
 958,73;  -18,417;13326,833;-6820,000
 959,29;   -8,417;13518,833;-6106,000
 959,85;  -24,417;14785,833;-6864,000
 960,40;   55,583;16746,834;-4263,000
 960,96;    5,583;16386,834;-6738,000
 961,52;   -0,417;14755,833;-6643,000
 962,07;   10,583;13711,833;-6742,000
 962,63;   -7,417;13208,833;-6723,000
 963,19;  -37,417;13435,833;-5779,000
 963,74;   47,583;13877,833;-6582,000
 964,30;  -23,417;14475,833;-6595,000
 964,86;  -25,417;14281,833;-6484,000
 965,41;   21,583;14290,833;-6705,000
 965,97;    0,583;14185,833;-6569,000
 966,53;  -35,417;14792,833;-6750,000
 967,08;   11,583;15311,833;-6611,000
 967,64;   16,583;15082,833;-6705,000
 968,19;    3,583;14471,833;-6684,000
 968,75;   21,583;14662,833;-6566,000
 969,31;   15,583;14880,833;-5626,000
 969,86;   -3,417;14995,833;-6505,000
 970,42;    9,583;13195,833;-6620,000
 970,97;   20,583;11567,833;-6437,000
 971,53;    7,583;11625,833;-6490,000
 972,09;   22,583;12998,833;-6646,000
 972,64;   23,583;13523,833;-5812,000
 973,20;   31,583;13815,833;-6599,000
 973,75;   25,583;14605,833;-5760,000
 974,31;   60,583;14826,833;-6578,000
 974,87;   28,583;14921,833;-6674,000
 975,42;    4,583;14507,833;-6727,000
 975,98;    0,583;13201,833;-6651,000
 976,53;   33,583;12100,833;-6555,000
 977,09;  -14,417;11353,833;-4624,000
 977,64;   35,583;11164,833;-6532,000
 978,20;  -14,417;10649,833;-6585,000
 978,75;   15,583;10482,833;-6429,000
 979,31;  -12,417;10950,833;-6513,000
 979,86;   -2,417;12220,833;-6739,000
 980,42;   18,583;12828,833;-5813,000
 980,97;  -16,417;13290,833;-6642,000
 981,53;   30,583;14285,833;-6636,000
 982,08;   14,583;13803,833;-5046,000
 982,64;   -2,417;12278,833;-6237,000
 983,19;   26,583;11308,833;-6760,000
 983,75;   46,583;10993,833;-6576,000
 984,30;  -13,417;10430,833;-5581,000
 984,86;    6,583; 9867,833;-5898,000
 985,41;   13,583; 9457,833;-6634,000
 985,97;    2,583; 9632,833;-4797,000
 986,52;   34,583; 9894,833;-5853,000
 987,08;    6,583; 9953,833;-6174,000
 987,63;    4,583;10165,833;-5608,000
 988,19;   49,583;11252,833;-6266,000
 988,74;  -11,417;11710,833;-5682,000
 989,30;   24,583;11529,833;-6568,000
 989,85;   10,583;11470,833; -276,000
 990,40;   -6,417;11314,833;-6617,000
 990,96;   23,583;11060,833;-6482,000
 991,51;  -10,417;11149,833;-6578,000
 992,07;  -30,417;10742,833;-6605,000
 992,62;  -19,417;10285,833;-6519,000
 993,18;   -6,417;10035,833;-6504,000
 993,73;   26,583; 9986,833;-6440,000
 994,28;   49,583; 9800,833;-6464,000
 994,84;   15,583; 9019,833;-6240,000
 995,39;   13,583; 8474,833;-2971,000
 995,94;    5,583; 7953,833;-5673,000
 996,50;   14,583; 7647,833;-6543,000
 997,05;  -10,417; 7872,833;-3481,000
 997,61;   -9,417; 8363,833;-6489,000
 998,16;   -6,417; 8581,833;-6555,000
 998,71;  -10,417; 8850,833;-6340,000
 999,27;    6,583; 9115,833;-5223,000
 999,82;   -0,417; 8706,833;-4778,000
1000,37;   30,583; 8661,833;-6520,000
1000,93;   19,583; 8920,833;-6107,000
1001,48;   45,583; 8799,833;-6543,000
1002,03;   10,583; 8477,833;-6469,000
1002,59;   36,583; 8715,833;-5972,000
1003,14;   10,583; 8758,833;-6113,000
1003,69;   30,583; 8484,833;-6513,000
1004,25;   17,583; 8299,833;-6507,000
1004,80;    2,583; 8322,833;-6266,000
1005,35;   21,583; 8313,833;-6361,000
1005,91;   26,583; 8515,833;-6558,000
1006,46;  -31,417; 8426,833;-6084,000
1007,01;    7,583; 8227,833;-5479,000
1007,56;    6,583; 8599,833;-6440,000
1008,12;  -18,417; 8342,833;-6178,000
1008,67;   40,583; 7867,833;-6312,000
1009,22;   21,583; 7509,833;-6481,000
1009,78;   42,583; 7205,833;-6163,000
1010,33;   -5,417; 6649,833;-6443,000
1010,88;   29,583; 6413,833;-5618,000
1011,43;   21,583; 5995,833;-6433,000
1011,99;   47,583; 5972,833;-6198,000
1012,54;   42,583; 6320,833;-6387,000
1013,09;   32,583; 6048,833;-6299,000
1013,64;   23,583; 5802,833;-6362,000
1014,19;   17,583; 5823,833;-6442,000
1014,75;   42,583; 5928,833;-6408,000
1015,30;   54,583; 6394,833;-6425,000
1015,85;   37,583; 6370,833;-6367,000
1016,40;    4,583; 6247,833;-5436,000
1016,96;   77,583; 6235,833;-6268,000
1017,51;   58,583; 6150,833;-6351,000
1018,06;  110,583; 6095,833;-6310,000
1018,61;   15,583; 5695,833;-6665,000
1019,16;   15,583; 5609,833;-6697,000
1019,71;   77,583; 5663,833;-6373,000
1020,27;   60,583; 5567,833;-6353,000
1020,82;  106,583; 5375,833;-3700,000
1021,37;   62,583; 5405,833;-4798,000
1021,92;   58,583; 5984,833;-6454,000
1022,47;   59,583; 5965,833;-6548,000
1023,02;   81,583; 5463,833;-6512,000
1023,58;  106,583; 5045,833;-6573,000
1024,13;   88,583; 4730,833;-6258,000
1024,68;   66,583; 4434,833;-6298,000
1025,23;  116,583; 4324,833;-5525,000
1025,78;   93,583; 4613,833;-6475,000
1026,33;  110,583; 4932,833;-5510,000
1026,88;  167,583; 4843,833;-6236,000
1027,43;  112,583; 5167,833;-6276,000
1027,99;  153,583; 5134,833;-6002,000
1028,54;  167,583; 4732,833;-6395,000
1029,09;  230,583; 4106,833;-2478,000
1029,64;  202,583; 3919,833;-6303,000
1030,19;  215,583; 4147,833;-3821,000
1030,74;  247,583; 4243,833;-5134,000
1031,29;  304,583; 4284,833;-4765,000
1031,84;  318,583; 4491,833;-6300,000
1032,39;  362,583; 4563,833;-5403,000
1032,94;  416,583; 4617,833;-4326,000
1033,49;  474,583; 4361,833;-5476,000
1034,04;  555,583; 4236,833;-6312,000
1034,59;  664,583; 4205,833;-6507,000
1035,14;  642,583; 4117,833;-6145,000
1035,69;  693,583; 4318,833;-6224,000
1036,24;  730,583; 4104,833;-4477,000
1036,80;  810,583; 3986,833;-5453,000
1037,35;  763,583; 4138,833;-6347,000
1037,90;  908,583; 4172,833;-6274,000
1038,45;  933,583; 4201,833;-6419,000
1039,00; 1014,583; 4340,833;-5490,000
1039,55; 1116,583; 4229,833;-6284,000
1040,10; 1154,583; 3977,833;-5615,000
1040,65; 1205,583; 3916,833;-5576,000
1041,20; 1251,583; 3850,833;-6325,000
1041,75; 1402,583; 4030,833;-4522,000
1042,30; 1517,583; 4164,833;-3585,000
1042,84; 1680,583; 4338,833;-4439,000
1043,39; 1891,583; 4248,833;-6313,000
1043,94; 2096,583; 4175,833;-5342,000
1044,49; 2204,583; 3887,833;-6246,000
1045,04; 2349,583; 3710,833;-5800,000
1045,59; 2573,583; 3809,833;-6299,000
1046,14; 2944,583; 3732,833;-6392,000
1046,69; 3277,583; 3591,833;-6294,000
1047,24; 3793,583; 3623,833;-5510,000
1047,79; 4271,583; 3737,833;-6139,000
1048,34; 4787,583; 4002,833;-5961,000
1048,89; 5537,583; 3948,833;-6259,000
1049,44; 6507,583; 3935,833;-5172,000
1049,99; 7659,583; 3855,833;-4844,000
1050,54; 9218,583; 3876,833;-6249,000
1051,08;11340,583; 3961,833;-6178,000
1051,63;15645,583; 4050,833;-5285,000
1052,18;24262,584; 5051,833;-6127,000
1052,73;36546,582; 7151,833;-6173,000
1053,28;58750,582;10516,833;-6386,000
1053,83;65157,582;15224,833;-6214,000
1054,38;65157,582;19203,834;-6254,000
1054,93;65157,582;21243,834;-6285,000
1055,47;65157,582;23825,834;-5328,000
1056,02;65157,582;26212,834;-5832,000
1056,57;65157,582;27830,834;-6198,000
1057,12;65157,582;30497,834;-6378,000
1057,67;65157,582;33805,832;-6078,000
1058,22;65157,582;36084,832;-6313,000
1058,76;65157,582;38542,832;-6093,000
1059,31;65157,582;44129,832;-3514,000
1059,86;65157,582;48778,832;-6204,000
1060,41;65157,582;49718,832;-6152,000
1060,96;65157,582;51396,832;-6226,000
1061,51;65157,582;53649,832;-5344,000
1062,05;65157,582;54082,832;-6122,000
1062,60;65157,582;50555,832;-6061,000
1063,15;65157,582;45221,832;-6149,000
1063,70;65157,582;41550,832;-6250,000
1064,24;65157,582;43676,832;-6169,000
1064,79;65157,582;45461,832;-6144,000
1065,34;65157,582;43989,832;-6064,000
1065,89;65157,582;41776,832;-6202,000
1066,44;65157,582;37631,832;-6120,000
1066,98;65157,582;32612,834;-6224,000
1067,53;65157,582;30790,834;-5953,000
1068,08;65157,582;30368,834;-4845,000
1068,63;65157,582;27618,834;-6096,000
1069,17;65157,582;24647,834;-5893,000
1069,72;65157,582;22350,834;-5857,000
1070,27;65157,582;20529,834;-6040,000
1070,81;65157,582;20388,834;-5996,000
1071,36;65157,582;20367,834;-3883,000
1071,91;65157,582;18745,834;  966,000
1072,46;65157,582;16791,834;-5058,000
1073,00;65157,582;14646,833;-5239,000
1073,55;61234,582;11404,833;-5935,000
1074,10;39439,582; 7803,833;-5981,000
1074,64;24738,584; 5240,833;-5860,000
1075,19;17266,584; 3535,833;-4958,000
1075,74;12751,583; 2551,833;-6091,000
1076,28;10242,583; 2312,833;-6075,000
1076,83; 8520,583; 1951,833;-5286,000
1077,38; 7360,583; 1820,833;-5653,000
1077,92; 6218,583; 1783,833;-6332,000
1078,47; 5360,583; 1629,833;-5507,000
1079,02; 4622,583; 1578,833;-5959,000
1079,56; 4039,583; 1557,833;-5328,000
1080,11; 3435,583; 1304,833;-6094,000
1080,65; 3110,583; 1241,833;-5039,000
1081,20; 2627,583; 1186,833;-6151,000
1081,75; 2424,583; 1125,833;-6039,000
1082,29; 1986,583; 1128,833; -139,000
1082,84; 1752,583; 1184,833;-2678,000
1083,39; 1592,583; 1294,833;-5061,000
1083,93; 1586,583; 1335,833;-5025,000
1084,48; 1381,583; 1196,833;-5961,000
1085,02; 1192,583; 1082,833;-5783,000
1085,57; 1117,583; 1074,833;-5994,000
1086,11; 1061,583; 1079,833;-5968,000
1086,66; 1030,583;  925,833;-5584,000
1087,21; 1017,583; 1060,833;-5802,000
1087,75;  873,583;  939,833;-6125,000
1088,30;  857,583;  815,833;-5040,000
1088,84;  839,583;  783,833;-5963,000
1089,39;  726,583;  656,833;-5965,000
1089,93;  665,583;  664,833;-6100,000
1090,48;  585,583;  649,833;-4394,000
1091,02;  519,583;  733,833;-5181,000
1091,57;  480,583;  629,833;-5479,000
1092,11;  490,583;  642,833;-4094,000
1092,66;  481,583;  624,833;-6031,000
1093,20;  373,583;  580,833;-5180,000
1093,75;  418,583;  566,833;-4998,000
1094,29;  425,583;  486,833;-4979,000
1094,84;  378,583;  525,833;-5890,000
1095,38;  329,583;  528,833;-5097,000
1095,93;  301,583;  584,833;-5981,000
1096,47;  348,583;  615,833;-5612,000
1097,02;  305,583;  587,833;-4985,000
1097,56;  330,583;  614,833;-5772,000
1098,11;  261,583;  552,833;-5774,000
1098,65;  251,583;  508,833;-5992,000
1099,20;  221,583;  577,833;-5935,000
1099,74;  217,583;  487,833;-6002,000
1100,29;  198,583;  513,833;-4879,000
1100,83;  179,583;  496,833;-5934,000

