
Integration time [ms]:   1,000
Averaging Nr. [scans]: 1
Smoothing Nr. [pixels]: 0
Data measured with spectrometer [name]: 1703254U1
Wave   ;Sample   ;Dark     ;Reference;Scope
[nm]   ;[counts] ;[counts] ;[counts] 

 190,08;  -89,750; -370,119;11982,743
 190,69;  -71,313; -359,404;11603,049
 191,29;  -72,831; -311,651;11479,965
 191,90;  -82,484; -365,508;11440,717
 192,50;  -80,748; -379,511;10355,099
 193,10;  -60,141; -446,299;11244,381
 193,71;  -79,555; -367,888; 9821,736
 194,31;  -74,024; -399,273; 9436,327
 194,91;  -74,024; -382,273; 9291,327
 195,52;  -80,857; -338,386;10555,949
 196,12;  -56,888; -397,056; 8671,847
 196,72;  -76,519; -386,394; 8220,904
 197,32;  -79,555; -375,888; 8251,736
 197,93;  -62,636; -360,420; 8700,957
 198,53;  -75,868; -383,145; 7601,797
 199,13;  -82,809; -397,132; 8091,270
 199,74;  -67,842; -366,410; 7263,813
 200,34;  -64,154; -388,667; 7832,874
 200,94;  -61,660; -436,547; 6941,297
 201,55;  -71,313; -406,404; 7119,049
 202,15;  -74,458; -375,773; 6404,732
 202,75; -104,392; -373,217; 6097,647
 203,36;  -65,890; -338,664; 6822,492
 203,96; -116,756; -357,943; 6332,678
 204,56;  -69,360; -355,657;10275,729
 205,16;  -76,844; -363,018; 5478,458
 205,77;  -89,642; -360,244; 4767,892
 206,37;  -77,712; -409,017; 5556,267
 206,97;  -81,399; -363,760; 5129,205
 207,58;  -64,588; -364,166; 5927,278
 208,18;  -84,544; -337,129; 5129,889
 208,78;  -81,941; -404,134; 5295,461
 209,38;  -65,239; -469,415; 4958,385
 209,99;  -65,131; -356,540; 3837,534
 210,59;  -66,757; -361,662; 3890,301
 211,19;  -65,998; -364,538; 3938,343
 211,79;  -58,732; -366,927; 4499,316
 212,40;  -86,714; -373,625; 3368,911
 213,00;  -77,820; -388,891; 3903,118
 213,60;  -83,026; -386,882; 2992,972
 214,20;  -97,451; -401,230; 3081,175
 214,81;  -90,184; -422,618; 2884,148
 215,41;  -97,668; -376,979; 3235,877
 216,01; -117,515; -373,067; 3109,636
 216,61;  -73,916; -367,399; 2814,476
 217,22; -112,960; -381,326; 2358,888
 217,82; -127,819; -325,173; 2262,495
 218,42; -107,429; -383,711; 2389,480
 219,02; -112,093; -288,327; 3432,079
 219,63;  -95,499; -357,483; 2044,854
 220,23;  -98,861; -366,602; 2425,239
 220,83;  -97,017; -395,730; 1901,770
 221,43; -115,672; -393,195; 1850,167
 222,03; -118,492; -348,940; 2326,296
 222,64; -100,813; -380,348; 1769,560
 223,24; -104,609; -298,966; 1625,350
 223,84; -119,902; -376,313; 2637,361
 224,44; -116,106; -316,695; 2381,571
 225,05; -112,418; -313,952; 1440,632
 225,65; -118,383; -301,065; 1227,445
 226,25;  -92,212; -364,961; 1139,777
 226,85; -112,637; -294,309;  995,979
 227,45; -110,032; -335,706; 1083,907
 228,06; -108,188; -365,834; 1945,438
 228,66; -107,646; -349,460; 4049,182
 229,26;  -90,793; -313,438; 1131,510
 229,86; -104,284; -396,342; 1760,797
 230,46; -116,539; -358,194;  891,976
 231,06; -116,322; -320,444;  757,273
 231,67;  -96,149; -346,732; 1228,961
 232,27; -132,483; -343,789;  778,094
 232,87; -122,071; -308,808;  526,384
 233,47; -133,628; -321,158;  525,777
 234,07;  -70,763; -268,486; 9912,235
 234,67; -146,148; -291,013;  672,338
 235,28; -135,628; -319,158;   65,777
 235,88; -123,727; -316,882;  285,426
 236,48;  -62,129; -350,821;  165,911
 237,08;  -78,988; -267,669;  448,518
 237,68; -151,896; -369,378; -267,552
 238,28; -131,292; -304,774; -106,624
 238,89; -144,836; -212,756; -205,723
 239,49; -112,942; -282,023; 1280,483
 240,09; -151,092; -284,608; -190,544
 240,69; -141,499; -251,373; -319,124
 241,29;  -95,268; -289,647;  651,036
 241,89; -125,701; -330,147; -260,559
 242,49; -122,729; -248,490; -358,930
 243,10; -142,259; -201,496; 3664,834
 243,70; -130,729; -284,490;  239,070
 244,30; -131,656; -275,501; -708,594
 244,90; -131,974; -188,582; -568,598
 245,50; -140,044; -177,355; 3274,777
 246,10; -139,341; -307,636; -831,300
 246,70; -153,957; -300,999;   17,620
 247,30; -126,738; -251,641;  326,273
 247,91; -144,226; -208,218; 5781,292
 248,51;  -79,020; -270,228; -806,563
 249,11; -123,714; -239,514;  417,933
 249,71;  -89,751; -303,008; -667,235
 250,31;  -91,200; -265,483; -567,693
 250,91;  -86,523; -238,500;   75,216
 251,51; -103,755; -199,225; -822,945
 252,11; -129,169; -239,813;  367,410
 252,71; -128,319; -269,117;-1080,994
 253,31; -102,514; -222,348; 3228,013
 253,91;  -95,577; -236,578; -676,170
 254,52;  -97,985; -237,342;-1063,750
 255,12; -110,200; -293,483;-1104,693
 255,72;  -35,970; -206,366;  557,112
 256,32; -155,687; -242,061; -966,674
 256,92; -123,481; -190,070;-1147,529
 257,52;    7,028; -173,974; -883,243
 258,12;  -75,805; -201,087;  -91,621
 258,72; -100,904; -210,810;-1232,972
 259,32;  -44,456; -211,335;-1169,514
 259,92;  -56,059; -199,330;-1343,086
 260,52;  -50,840; -192,973;-1077,433
 261,12;  -83,555; -202,059; -662,865
 261,72;  -79,685; -238,452;-1312,319
 262,32;  -31,430; -215,600;-1561,498
 262,92; -118,568; -238,426;  405,627
 263,53; -103,072; -189,698;-1277,594
 264,13; -136,928; -262,937; -268,632
 264,73;  -91,902; -217,202;-1694,617
 265,33;  -55,000; -188,317;-1708,613
 265,93;  -69,941; -147,304;-1345,140
 266,53;  -74,496; -161,046;-1544,392
 267,13; -107,594; -139,161; -857,388
 267,73;  -47,329; -185,158;  270,230
 268,33;  -97,427; -166,274;-1788,766
 268,93;  -81,866; -213,708;-1702,449
 269,53;  -73,822; -204,670; -644,839
 270,13;  -46,846; -201,797;-1810,499
 270,73;  -77,485; -245,287;-1891,239
 271,33;  -46,483; -200,678;-1778,884
 271,93;  -81,472; -242,919;-1867,732
 272,53;  -37,875; -121,748;    8,776
 273,13;  -44,351; -146,677;-1117,075
 273,73;  -81,272; -119,753;-1955,652
 274,33;  -47,700; -148,428;-2041,182
 274,93; -115,320; -188,007;-1843,972
 275,53;  -67,875;  -68,748;-1881,224
 276,13; -114,879; -121,965;-2261,935
 276,73; -113,274; -118,361;-1570,007
 277,33;  -98,077; -179,522;-1926,659
 277,93;  -28,616; -213,680;-1864,693
 278,53;  -34,342; -194,526;-2112,278
 279,13;  -72,754; -125,506;-2152,568
 279,73;  -96,092; -140,498;-1388,522
 280,33;  -73,537; -154,756;-2179,270
 280,93;  -22,261; -105,994;-2049,499
 281,53;  -45,392; -147,387;-2252,953
 282,13;  -54,407; -127,363;-2193,816
 282,73;  -61,899; -156,875; -385,885
 283,33;  -44,635; -137,872;-2307,266
 283,92;  -10,372;  -74,477;-2028,003
 284,52;  -28,359;  -94,109;-2365,496
 285,12;  -27,210; -138,524;-1425,469
 285,72;  -24,752; -126,898;-1041,213
 286,32;  -19,852;  -55,622;-1313,564
 286,92;  -19,945; -163,521;-2376,850
 287,52;   26,187;  -89,519;-2170,041
 288,12;    8,934;  -97,763;-2542,507
 288,72;   17,226; -106,417;-1625,518
 289,32;    3,157;  -54,470; 1692,233
 289,92;   -9,162; -106,270;-2344,148
 290,52;  -35,473;  -91,809;-2485,710
 291,12;   22,606;  -57,996;-1570,308
 291,72;   52,628;  -74,477;-1590,003
 292,32;   86,524;  -83,135;-2372,442
 292,92;   65,051;   -2,737;-2481,560
 293,51;   82,964;  -37,093;-2532,404
 294,11;  159,715;  -42,121;-1681,160
 294,71;  251,702;   -7,488;-2695,667
 295,31;  184,522;  -24,743;-1755,797
 295,91;  315,558;   46,751;-2713,629
 296,51;  329,181;   62,656;-1776,106
 297,11;  328,238;   35,061;-2900,988
 297,71;  477,630;    4,131;-2726,648
 298,31;  664,838;   38,730;-2329,148
 298,91;  498,955;   74,756;-2483,202
 299,50;  546,472;   41,395;-2689,473
 300,10;  683,376;  145,887;-2706,114
 300,70;  533,025;   95,528;-2492,576
 301,30;  577,257;   89,253;-2855,415
 301,90;  725,860;   96,248;-2004,843
 302,50;  611,858;  163,640;-2515,198
 303,10;  556,233;  124,126;-2530,076
 303,70;  505,446;  208,660;-3000,488
 304,29;  565,891;  189,918;-2658,740
 304,89;  582,865;  266,183;-1090,755
 305,49;  741,156;  163,922;-2773,122
 306,09;  813,762;  214,133;-2874,839
 306,69;  753,367;  262,736;-2915,911
 307,29;  825,524;  312,865;-2008,442
 307,89;  811,531;  303,408;-3029,000
 308,48;  734,411;  341,774;-2453,301
 309,08;  773,114;  369,492;-2743,377
 309,68;  896,797;  377,019;-3094,026
 310,28;  786,248;  371,102;-2576,213
 310,88;  650,816;  321,211;-2936,453
 311,48;  690,775;  447,500;-2875,331
 312,07;  736,222;  408,367;-2963,228
 312,67;  849,730;  497,855;-2128,297
 313,27;  854,540;  494,448;-1105,224
 313,87;  854,428;  583,357;-2164,083
 314,47; 1041,504;  516,954;-3030,392
 315,06; 1407,228;  620,191; 2713,837
 315,66; 1361,283;  579,988;-3245,400
 316,26; 1326,180;  632,938;-1844,483
 316,86; 1486,695;  777,969;-3140,110
 317,46; 1542,325;  720,307;-2115,167
 318,06; 1621,289;  739,813; -825,335
 318,65; 1876,362;  781,801;-2807,999
 319,25; 2285,098;  821,798;-3195,617
 319,85; 2029,412;  932,663;-2908,323
 320,45; 2530,340;  986,283;-3213,304
 321,05; 3355,414;  901,271;-2761,968
 321,64; 3327,991;  889,531;-3219,411
 322,24; 3687,960; 1056,861;-3265,513
 322,84; 3081,997; 1080,356;-3261,345
 323,44; 2218,659; 1133,364;-3219,300
 324,03; 2134,286; 1194,486;-3072,067
 324,63; 2027,506; 1250,452;-2310,059
 325,23; 1982,088; 1241,928;-3097,792
 325,83; 2020,332; 1367,021;-2876,123
 326,42; 1825,805; 1442,622;-3285,005
 327,02; 1898,982; 1476,551;-3076,607
 327,62; 1859,036; 1439,629;-2505,221
 328,22; 2175,688; 1553,486;-3234,973
 328,82; 2144,058; 1577,037;-2229,938
 329,41; 1962,270; 1658,852;-3016,728
 330,01; 2238,933; 1652,750;-2961,704
 330,61; 2309,446; 1806,062;-2928,707
 331,20; 1950,288; 1778,325;-2868,531
 331,80; 1905,910; 1762,512;-2794,386
 332,40; 1921,456; 1752,102;-2896,932
 333,00; 1884,885; 1933,667;-2790,423
 333,59; 1795,056; 1748,771;-2855,091
 334,19; 1924,938; 1920,745;-1771,037
 334,79; 1874,650; 1712,615;-2861,316
 335,39; 1875,800; 1729,919;-2978,912
 335,98; 1805,722; 1726,714;-3126,958
 336,58; 1920,884; 1659,777;-3191,401
 337,18; 1926,016; 1720,779;-2958,592
 337,77; 1962,780; 1782,837;-2098,463
 338,37; 1970,067; 1806,359;-2021,540
 338,97; 2138,052; 1907,384;-2912,402
 339,57; 2340,481; 1862,948;-3044,894
 340,16; 2698,591; 1836,431;-2881,390
 340,76; 2785,889; 1962,712;-3053,314
 341,36; 2616,231; 1861,920;-3195,650
 341,95; 2825,380; 1934,506;-3027,623
 342,55; 3082,285; 1918,998;  703,736
 343,15; 2826,691; 2048,155;-3094,039
 343,74; 3530,331; 1924,644;-2382,298
 344,34; 3449,523; 1860,267;-3015,661
 344,94; 2646,365; 2068,530;-3069,485
 345,53; 2498,222; 2110,769;-2860,447
 346,13; 2688,944; 2174,398;-1283,573
 346,73; 2922,733; 1966,473;-2254,805
 347,32; 2988,728; 2268,649;-3080,871
 347,92; 2782,757; 2312,600;-2277,145
 348,52; 2807,836; 2270,523;-1878,722
 349,11; 2899,086; 2336,551;  975,034
 349,71; 2672,521; 2330,658;-3240,016
 350,31; 2404,018; 2441,387;-2672,237
 350,90; 2517,532; 2483,418;-2326,863
 351,50; 2936,673; 2390,852;-2105,634
 352,10; 3518,779; 2471,119;-3114,840
 352,69; 3965,053; 2532,273;-3182,424
 353,29; 4030,402; 2563,024;-3191,317
 353,89; 4096,101; 2645,527;-3255,104
 354,48; 4111,779; 2693,119;-3208,840
 355,08; 4513,829; 2871,980;-1117,164
 355,67; 5263,858; 2850,042;-2951,417
 356,27; 6503,573; 2839,128;-3232,985
 356,87; 7075,244; 3010,288;-3383,142
 357,46; 7402,591; 3049,431;-2351,390
 358,06; 8413,509; 3306,291;-3073,523
 358,66; 7025,248; 3337,504;-3109,432
 359,25; 4594,075; 3260,792;-2344,119
 359,85; 5015,183; 3365,667;-3215,970
 360,44; 6554,608; 3389,015;-3292,172
 361,04; 6743,691; 3567,155;-2367,039
 361,64; 6407,691; 3696,155;-2309,039
 362,23; 6111,307; 3772,517;-2932,958
 362,83; 5840,934; 3755,639;-2990,726
 363,42; 5747,222; 3938,769;-2836,447
 364,02; 5287,196; 3910,034;-2973,462
 364,62; 5756,944; 3816,398;-2486,573
 365,21; 4609,554; 3857,937;-1741,558
 365,81; 3390,192; 3935,818;-2792,173
 366,40; 3363,446; 3970,062;-2080,707
 367,00; 3683,953; 4021,550;-2952,776
 367,59; 4103,251; 4071,831;-2979,699
 368,19; 4763,109; 4221,678;-3237,306
 368,79; 4484,550; 4198,720;-3125,268
 369,38; 3930,396; 4107,200;-2250,383
 369,98; 4260,819; 4101,940;-2935,940
 370,57; 4842,129; 4188,588;-3331,356
 371,17; 4758,633; 4164,860;-3326,135
 371,76; 5464,091; 4277,486;-3442,879
 372,36; 5850,924; 4057,598;-3195,501
 372,95; 7632,125; 4115,372;  667,934
 373,55; 8352,583; 4105,998;-3393,811
 374,14; 8251,490; 4300,099;-3405,097
 374,74; 8227,341; 4256,514;-3224,124
 375,34; 7129,995; 4286,979;-3189,521
 375,93; 6976,562; 4295,479;-2706,116
 376,53; 6211,865; 4344,585;-3575,974
 377,12; 4270,448; 4405,670;-1465,352
 377,72; 3286,344; 4480,730;-3410,414
 378,31; 3473,667; 4511,027;-2274,699
 378,91; 3939,459; 4291,429;-3262,199
 379,50; 4366,156; 4588,213;-3331,363
 380,10; 4444,215; 4327,226;-3398,890
 380,69; 4517,478; 4094,621;-2343,626
 381,29; 6240,443; 4586,735;-2550,439
 381,88; 7918,295; 4518,758;-1605,111
 382,48; 7975,781; 4519,727;-3286,485
 383,07; 6728,636; 4495,358;-3457,802
 383,67; 6441,295; 4635,758;-1847,111
 384,26; 5897,189; 4667,491;-2467,905
 384,86; 4541,408; 4921,849;-3182,252
 385,45; 4655,669; 4932,636;-3325,344
 386,05; 4464,419; 5073,608;-3419,100
 386,64; 3761,753; 4911,384;-3524,855
 387,24; 3966,790; 5016,878;-2585,688
 387,83; 4128,910; 4993,512;-2489,386
 388,42; 4419,709; 5182,346;-2109,466
 389,02; 4204,501; 5423,748;-3235,966
 389,61; 3960,329; 5688,036;-3413,653
 390,21; 3758,790; 5729,878;-3463,688
 390,80; 3148,415; 5816,392;-3208,810
 391,40; 3077,510; 6137,899;-2293,168
 391,99; 3523,191; 5981,099;-3195,550
 392,59; 3902,333; 6435,252;-2416,943
 393,18; 3371,944; 6683,398;-2491,573
 393,77; 2929,264; 6883,198;-3238,192
 394,37; 3252,389; 7145,657;-2198,825
 394,96; 3471,342; 7098,403;-2296,146
 395,56; 3528,130; 7264,588;-2834,356
 396,15; 4107,472; 6867,797;-3125,692
 396,75; 4384,353; 7343,163;-2889,993
 397,34; 3413,819; 7669,940;-2620,940
 397,93; 2817,470; 7720,188;-3358,047
 398,53; 2629,126; 7595,262;-2525,088
 399,12; 2849,476; 8192,013;-2154,981
 399,72; 3269,779; 8013,119;-2274,840
 400,31; 3456,139; 8034,629;-3169,581
 400,91; 3081,344; 8446,012;-2959,791
 401,50; 2674,264; 8820,198;-2330,192
 402,09; 2655,420; 8550,327;-2894,722
 402,69; 2806,337; 8691,187;-3072,856
 403,28; 2930,918; 9052,663;-2983,588
 403,88; 4905,748; 9162,560; 1927,079
 404,47; 6319,251; 9689,831;  884,300
 405,06; 4162,014; 9684,171;  -68,947
 405,66; 4758,277; 9753,565;-2875,684
 406,25; 6582,550;10085,720;-3119,268
 406,84; 6730,543;10446,177;-2892,711
 407,44; 5495,501;10847,858;-2219,944
 408,03; 3635,028;10422,257;-2906,063
 408,63; 3159,299;10373,085;-3011,379
 409,22; 3121,733;10191,584;-1945,783
 409,81; 3063,245;10681,007;-1849,765
 410,41; 3310,769;11553,078;-2857,615
 411,00; 3540,332;11336,362;-1814,921
 411,59; 3920,210;11251,120;-2826,578
 412,19; 4002,273;11468,350;-2245,394
 412,78; 4428,514;11399,226;-2830,436
 413,37; 4570,089;12151,878;-2704,234
 413,97; 4767,208;12410,512;-2618,933
 414,56; 4510,679;12071,506;-2503,169
 415,15; 4108,846;12410,394;-2121,547
 415,75; 3741,232;12408,639;-2698,272
 416,34; 3236,763;12590,254;-1893,681
 416,93; 3502,554;12922,047;-2777,536
 417,53; 3900,180;12696,169;-1423,303
 418,12; 4600,844;12570,785;-2217,903
 418,71; 4683,693;12907,592;-2673,285
 419,31; 5299,864;13054,695;-1884,952
 419,90; 5599,528;13470,313;-2786,552
 420,49; 4155,337;13619,298;-1733,834
 421,08; 3475,337;14201,298;-1674,834
 421,68; 3862,096;14723,421;-1908,792
 422,27; 4385,682;14035,832;-2004,437
 422,86; 4757,671;13874,073; -437,590
 423,46; 4519,450;14080,107;-2575,598
 424,05; 4027,472;14376,626;-2928,293
 424,64; 4590,177;13888,953;-2640,014
 425,24; 4801,656;14092,098;-2903,453
 425,83; 4586,253;13992,269;-2680,945
 426,42; 5199,472;12987,626;-2760,293
 427,01; 5547,040;13424,734;-2674,533
 427,61; 3968,990;14347,873;-2609,209
 428,20; 3181,023;14036,151;-1764,751
 428,79; 3191,249;14414,052;-2859,656
 429,38; 3711,821;14092,377;-1781,186
 429,98; 4439,301;14922,521; -994,625
 430,57; 5377,991;15058,873;-2193,209
 431,16; 4283,748;14580,389;-2784,522
 431,75; 4198,902;14357,909; -561,407
 432,35; 5191,108;13435,899;-1951,262
 432,94; 4060,802;14429,186;-2324,759
 433,53; 2957,689;14560,375;-1152,995
 434,12; 2917,635;14431,298;-2267,381
 434,72; 3116,415;14188,331;-1413,389
 435,31; 2831,427;14167,699; 7395,119
 435,90; 2527,608;14308,954; 8338,249
 436,49; 2447,113;13427,834; -683,175
 437,08; 2676,343;13895,951; -675,370
 437,68; 4339,583;14442,827;-2987,412
 438,27; 5419,038;14610,237;-2610,866
 438,86; 3277,981;14612,832;-1147,984
 439,45; 2595,606;15313,346;-1937,106
 440,05; 3823,977;15955,616;-2982,694
 440,64; 4041,348;15054,886;-1902,282
 441,23; 3224,865;14152,525;-1415,553
 441,82; 2656,449;13700,218;-2631,576
 442,41; 2093,346;14351,277;-3014,637
 443,00; 2008,524;13625,925;-2724,863
 443,60; 1961,951;14373,881;-3136,710
 444,19; 2007,188;15026,541;-1440,462
 444,78; 1931,322;14960,151;-3012,298
 445,37; 1978,934;15728,297;-2522,928
 445,96; 2189,964;15331,249;-3116,202
 446,56; 2191,658;15596,535;-1144,698
 447,15; 2054,006;16225,678; -884,947
 447,74; 1944,032;17097,412;-2709,931
 448,33; 1864,739;16443,066;-1985,920
 448,92; 1853,281;15422,440;-2964,176
 449,51; 1643,088;15095,817;-2848,813
 450,10; 1475,665;15133,078;-3063,256
 450,70; 1499,715;14904,939;-1957,581
 451,29; 1481,763;15329,193;-1112,260
 451,88; 1609,476;15513,671;-2929,183
 452,47; 1915,813;16565,055;-2795,584
 453,06; 1690,046;16495,498;-2401,047
 453,65; 1456,720;16071,874;-2873,493
 454,24; 1508,130;17329,246;-2173,558
 454,84; 1510,086;17793,209;-1379,168
 455,43; 1479,781;18732,496;-2219,665
 456,02; 1353,590;18879,480;-2927,947
 456,61; 1372,737;17317,459;-2925,275
 457,20; 1385,360;16921,363;-2786,753
 457,79; 1463,033;17588,131;-2922,554
 458,38; 1532,454;18338,264;-2132,467
 458,97; 1608,261;18039,641;-2515,104
 459,56; 1693,325;18190,479;-2760,565
 460,16; 1562,057;17832,258;-2082,894
 460,75; 1526,501;18157,518;-2072,146
 461,34; 1491,779;18077,887;-2962,020
 461,93; 1478,400;18381,186;-2200,853
 462,52; 1559,512;19333,275;-2744,993
 463,11; 1642,099;20546,688;-1989,639
 463,70; 1889,393;19458,643;-2869,295
 464,29; 2071,361;19945,082;-3150,376
 464,88; 2023,461;20795,807;-2743,024
 465,47; 1694,306;19885,285;-2748,139
 466,06; 1739,216;20915,713;-3191,692
 466,65; 1777,001;21667,572;-3018,635
 467,24; 1795,901;22030,848;-2539,986
 467,84; 1700,680;22443,164;-2020,371
 468,43; 1702,714;22325,051;-2238,559
 469,02; 1833,209;23517,170;-2702,135
 469,61; 1838,617;24168,936;-2593,555
 470,20; 2020,773;23781,063;-2841,085
 470,79; 1831,817;22760,100;-3232,475
 471,38; 1610,433;25266,463;-2192,395
 471,97; 1461,804;26009,732; -666,983
 472,56; 1614,945;25472,887;-3035,376
 473,15; 1644,793;25296,975;-2825,135
 473,74; 1600,298;26395,854;-3106,559
 474,33; 1531,769;25866,848;-2957,796
 474,92; 1512,335;27630,348;-3146,391
 475,51; 1487,043;29609,002;-2873,380
 476,10; 1529,852;29847,986;-3011,662
 476,69; 1492,149;26101,268;-2855,586
 477,28; 1400,205;25846,955;-2956,845
 477,87; 1357,537;27035,121; -173,956
 478,46; 1441,427;28695,639;-3029,460
 479,05; 1464,685;30507,100;-2134,284
 479,64; 1412,657;31679,756;-2718,655
 480,23; 1407,006;29541,508;-2845,548
 480,82; 1362,646;28549,996;-2736,807
 481,41; 1418,271;29371,510;-1873,929
 482,00; 1433,813;29284,885;-1364,185
 482,59; 1441,778;29593,998;-2298,998
 483,18; 1424,164;31702,244;-2376,723
 483,77; 1418,861;31703,139;-2193,865
 484,36; 1500,043;32475,002;-1701,380
 484,95; 1552,364;32990,410; -788,643
 485,54; 1746,557;35331,031;-1371,006
 486,13; 1952,513;35762,996; -945,616
 486,72; 2367,729;34334,137;  148,326
 487,31; 2394,605;31046,285;-1109,686
 487,89; 2002,898;32608,633; -193,697
 488,48; 2518,846;33798,164;-1523,728
 489,07; 3053,313;32913,941;-1248,674
 489,66; 2202,956;33511,645;-1505,224
 490,25; 1927,664;31095,299; -660,212
 490,84; 2012,585;34127,375;-1683,635
 491,43; 3098,104;34965,621; -701,552
 492,02; 3726,486;36094,652;-1864,987
 492,61; 2600,136;35362,902;-1043,094
 493,20; 2027,820;33776,426;-2019,743
 493,79; 2000,349;32749,434; 4824,494
 494,38; 1950,484;33706,043;-1938,342
 494,97; 2686,783;32583,934; -629,911
 495,55; 3873,590;34690,309;-2325,548
 496,14; 2906,859;35087,531;-2403,220
 496,73; 2038,903;35451,566;-1952,609
 497,32; 1847,300;34211,570;-2587,182
 497,91; 2080,974;35005,949;-1921,629
 498,50; 2150,493;34165,195;-2912,544
 499,09; 2018,300;34554,570;-3088,182
 499,68; 2221,601;32403,070;-2405,396
 500,27; 2739,947;33321,605;-2490,999
 500,85; 2678,552;32655,207;-2604,071
 501,44; 2526,105;32478,342;-2576,175
 502,03; 2324,202;33194,457;-3368,178
 502,62; 1950,469;31275,068;-3438,205
 503,21; 1877,250;29432,711;-3532,858
 503,80; 1833,983;32028,100;-2976,831
 504,39; 1833,571;32451,119;-3458,121
 504,97; 1827,753;31774,982;-3577,636
 505,56; 1580,755;31537,590;-2979,281
 506,15; 1752,708;32302,336;-3991,602
 506,74; 1884,005;32557,617;-2945,526
 507,33; 1844,511;32185,498;-3165,949
 507,92; 1721,994;33952,859;-3871,678
 508,51; 1715,092;35926,973;-3735,682
 509,09; 1741,064;34536,629;-3921,053
 509,68; 1795,437;34318,508;-3748,286
 510,27; 1747,795;33667,410;-3799,381
 510,86; 1822,183;32572,264;-4081,751
 511,45; 1756,569;33677,512;-3843,476
 512,03; 1947,862;34524,855;-3829,488
 512,62; 2102,165;36240,961;-3780,346
 513,21; 2385,735;33870,789;-3186,209
 513,80; 2573,036;34644,289;-3501,423
 514,39; 2361,027;32752,137;-3905,221
 514,97; 2242,073;35347,781;-4095,255
 515,56; 2335,878;34167,551;-4198,248
 516,15; 2973,370;35428,063;-3955,179
 516,74; 3293,551;32584,318;-4420,049
 517,33; 2480,563;33459,688;-3549,542
 517,91; 2121,986;33935,426;-4188,099
 518,50; 2439,340;32563,393;-3264,282
 519,09; 2728,450;33942,875;-3157,778
 519,68; 2543,422;35231,531;-4286,148
 520,26; 2301,481;38679,547;-4232,675
 520,85; 2298,578;39452,660;-4352,679
 521,44; 2348,562;40826,078;-4358,897
 522,03; 2626,951;39485,539;-4271,912
 522,61; 3164,562;36773,078;-4364,897
 523,20; 3029,488;33924,090;-4337,233
 523,79; 2405,054;32040,590;-4337,828
 524,38; 2025,527;32850,191;-4344,709
 524,96; 2019,056;35883,199;-4321,473
 525,55; 2023,839;36021,449;-4542,771
 526,14; 2481,607;34018,723;-4434,931
 526,73; 3068,297;32852,074;-4389,515
 527,31; 2382,948;32903,324;-4488,622
 527,90; 1967,839;33630,449;-4564,771
 528,49; 1820,347;34155,938;-2529,839
 529,08; 1644,668;34601,344;-3467,103
 529,66; 1644,574;34848,445;-3911,389
 530,25; 1661,175;35279,832;-4414,172
 530,84; 1536,933;35334,348;-4583,485
 531,42; 1686,944;38583,105;-4365,332
 532,01; 2050,486;37528,480;-4291,588
 532,60; 2289,267;34512,125;-4473,241
 533,18; 1793,356;35538,086;-4078,042
 533,77; 1506,184;34969,984;-4236,374
 534,36; 1514,427;34459,469;-4374,061
 534,95; 1399,089;35483,477;-4088,015
 535,53; 1578,620;34236,090; -974,424
 536,12; 1898,523;36469,977;-2657,420
 536,71; 2198,571;36511,230;-3869,099
 537,29; 1935,568;36073,621;-3618,454
 537,88; 1770,562;33908,078;-3454,897
 538,47; 1734,955;32497,867;-2840,180
 539,05; 1808,232;36837,238;-2139,054
 539,64; 1949,601;40414,898;-1785,997
 540,22; 2247,495;37414,633; -764,790
 540,81; 2043,916;37501,766; 1008,297
 541,40; 1797,230;39018,629; 3425,591
 541,98; 1668,835;38188,230; 4858,519
 542,57; 1828,523;39368,977; 4597,580
 543,16; 1682,907;38645,613; 4952,500
 543,74; 1429,354;35774,480; 4083,603
 544,33; 1581,410;36297,883; 3620,721
 544,92; 1599,675;37217,887; 3973,339
 545,50; 1465,015;37338,488;11456,648
 546,09; 1351,596;40064,965;11359,916
 546,67; 1334,740;41948,727; 2857,878
 547,26; 1278,753;40050,094; -202,615
 547,85; 1305,491;39208,414; -567,501
 548,43; 1177,833;38452,625; -849,836
 549,02; 1186,894;39427,246;-1040,008
 549,60; 1205,074;40570,500; -984,878
 550,19; 1307,243;41166,996;-2192,901
 550,78; 1191,749;42660,875;-2328,325
 551,36; 1081,252;45349,148;-2432,104
 551,95; 1068,425;45443,859; -585,416
 552,53; 1041,217;43280,262; -296,916
 553,12; 1097,552;41420,035;-3431,672
 553,70; 1037,780;43188,547;-2878,222
 554,29; 1048,302;44058,008;-2869,428
 554,88; 1057,406;41831,668;-4247,989
 555,46; 1072,890;43723,027;-3881,718
 556,05; 1123,534;45007,734;-4207,268
 556,63; 1232,614;45206,266;-3396,489
 557,22; 1361,208;43875,109;-3394,714
 557,80; 1280,651;41749,762;-3568,321
 558,39; 1373,159;44188,250;-4145,390
 558,97; 1188,543;47993,887;-3699,470
 559,56; 1081,326;49889,137;-4544,768
 560,15; 1022,940;50117,891;-3611,042
 560,73; 1095,781;49814,152;-4287,867
 561,32; 1423,775;47024,609;-3741,309
 561,90; 1182,528;46041,910;-4382,333
 562,49; 1063,918;48487,371;-3786,348
 563,07;  954,977;48074,387;-4783,875
 563,66; 1023,193;50064,133;-4352,577
 564,24; 1002,855;49228,145;-4763,531
 564,83;  912,142;51344,664;-4603,607
 565,41; 1032,050;53840,375;-4329,539
 566,00; 1075,576;52202,164;-2755,012
 566,58;  966,182;56465,375;-3725,729
 567,17;  942,603;56909,508;-4280,642
 567,75;  968,219;52392,871;-4653,562
 568,34;  899,445;55893,770;-3216,466
 568,92;  880,166;55738,793;-3987,947
 569,51;  915,204;54852,895; 2680,576
 570,09;  948,506;58247,391;-4676,638
 570,68;  968,320;53188,313;-4788,833
 571,26;  884,762;50733,242;-3886,817
 571,85;  925,798;57347,738;-4822,649
 572,43;  863,447;57011,379;-4704,111
 573,01;  830,315;52662,375;-4873,920
 573,60;  834,567;53819,012;-3785,810
 574,18;  813,217;55122,262;-4514,917
 574,77;  800,408;53284,277;-4737,634
 575,35;  910,567;56113,012;-4452,810
 575,94;  930,313;57300,770;-4076,275
 576,52;  883,747;54049,270;-2249,680
 577,11;  817,996;51620,297;-3244,924
 577,69;  828,441;48685,555;-3183,176
 578,27;  865,243;51008,996;-3447,901
 578,86;  832,647;55198,543;-2994,031
 579,44;  844,905;60080,004;-2805,855
 580,03;  954,458;60164,137;-2493,958
 580,61;  954,011;60267,270;-3206,062
 581,19;  893,215;56429,652;-2538,271
 581,78;  855,754;55361,813;-2364,238
 582,36;  816,022;57656,031;-2911,909
 582,95;  867,105;56180,172;-1497,776
 583,53;  855,118;59586,539;-2319,268
 584,11;  876,278;61608,883;-2241,088
 584,70;  879,745;61691,660;-1948,035
 585,28;  919,168;62070,398;-1853,592
 585,87;  937,984;60436,930;-2889,432
 586,45;  854,647;63023,543;-2375,031
 587,03;  825,550;64945,430;-1150,027
 587,62;  925,157;61494,641;-1834,745
 588,20; 1013,202;62236,285;-1020,779
 588,78; 1031,136;58157,840;-3411,673
 589,37; 1021,747;57765,270;-3360,680
 589,95;  999,578;62238,773;-3385,657
 590,54;  988,250;63633,539;-3461,459
 591,12; 1019,393;62116,301;-3508,497
 591,70; 1017,901;59586,789;-3331,565
 592,29;  918,092;62881,805;-2923,283
 592,87;  999,050;63542,375;-2394,538
 593,45;  893,960;63404,801; 1487,908
 594,04;  917,561;62800,188;-3676,875
 594,62;  962,528;59709,910;-3708,333
 595,20;  860,077;62066,828;-4371,146
 595,79;  861,070;62681,285;-4165,588
 596,37;  902,441;61108,555;-3657,176
 596,95;  898,708;56922,164;-4321,203
 597,53;  894,445;58806,770;-4226,466
 598,12;  878,454;61848,922;-3959,669
 598,70;  912,721;64932,531;-3776,695
 599,28;  885,050;64911,375;-3404,538
 599,87;  939,107;64929,777;-3061,420
 600,45;  944,732;64938,293;-3907,543
 601,03;  913,372;63145,781;-4100,802
 601,62;  979,561;61727,188;-4468,875
 602,20;  922,226;59786,414;-4541,119
 602,78;  897,331;64399,070;-4770,680
 603,36;  854,526;64783,301;-3166,688
 603,95;  871,408;58863,277;-4492,634
 604,53;  796,805;62401,281;-4574,207
 605,11;  862,953;59505,258;-2755,535
 605,69;  859,046;62362,156;-3365,249
 606,28;  835,092;62594,805;-4223,283
 606,86;  860,020;61629,422;-3946,264
 607,44;  734,780;60431,547;-3906,222
 608,02;  759,224;58047,805;-4037,474
 608,61;  781,406;60099,668;-2866,989
 609,19;  706,756;58582,418;-2582,882
 609,77;  788,888;57398,422; -710,073
 610,35;  678,769;55748,785; 5794,625
 610,94;  677,719;56509,926;14509,949
 611,52;  707,406;55803,668;12610,011
 612,10;  641,366;53026,957; 8432,133
 612,68;  634,572;56637,949; 2694,278
 613,26;  785,309;57037,551; 2032,015
 613,85;  754,851;61759,926; -599,241
 614,43;  649,057;62306,918;-1030,096
 615,01;  573,487;62272,199;-1215,211
 615,59;  562,776;64874,328; -972,932
 616,17;  653,951;59402,648;-2561,890
 616,76;  649,543;62178,887;-2993,470
 617,34;  699,714;62666,988;-2389,138
 617,92;  590,445;58547,770;-3399,466
 618,50;  662,215;61202,652;-2562,271
 619,08;  721,155;57928,031;-2514,100
 619,67;  661,576;55968,164;-3196,012
 620,25;  615,157;54290,641;-2743,745
 620,83;  572,732;50498,293;-3495,543
 621,41;  623,695;52314,797;-2800,711
 621,99;  564,671;54560,672;-2529,371
 622,57;  689,590;55529,141;-3707,149
 623,15;  700,977;56213,387;-3783,875
 623,74;  619,592;58266,746;-3892,794
 624,32;  648,254;59330,754;-2827,749
 624,90;  613,734;58625,898;-2311,188
 625,48;  630,081;57897,043;-3132,436
 626,06;  586,506;56898,391;-4006,638
 626,64;  516,905;57787,004;-4162,855
 627,22;  495,228;58993,020;-3409,764
 627,81;  500,738;58046,117;-4334,478
 628,39;  488,987;57121,145;-4560,722
 628,97;  536,864;56597,293;-4437,733
 629,55;  526,725;55377,750;-4219,985
 630,13;  520,011;55669,270;-2959,062
 630,71;  501,072;54162,891;-2747,233
 631,29;  516,408;53129,277;-3824,634
 631,87;  537,471;52776,504;-4223,451
 632,45;  509,951;52786,648;-4716,890
 633,03;  530,942;54183,500;-4191,688
 633,62;  516,805;55423,281;-4714,207
 634,20;  462,237;54882,172;-4089,966
 634,78;  490,508;56497,000;-4430,283
 635,36;  534,686;56701,648;-4449,508
 635,94;  514,844;55183,383;-5398,684
 636,52;  581,421;51027,645;-5422,126
 637,10;  524,708;52116,164;-5488,203
 637,68;  486,324;50694,527;-4702,123
 638,26;  526,857;47618,750;-5536,176
 638,84;  540,998;48688,902;-5421,569
 639,42;  526,708;49235,164;-3756,203
 640,00;  604,985;51366,148;-5405,726
 640,58;  628,765;54579,402;-4806,027
 641,16;  569,546;55521,656;-5571,328
 641,74;  531,326;53214,906;-5433,630
 642,32;  499,106;50106,160;-5620,931
 642,90;  480,887;50434,414;-5856,232
 643,48;  518,667;49231,668;-5786,534
 644,06;  492,448;49280,922;-5796,835
 644,64;  443,228;49595,176;-5842,137
 645,22;  409,008;50513,430;-5562,438
 645,80;  443,789;50547,684;-4957,740
 646,39;  452,569;48107,938;-5515,041
 646,97;  395,350;49773,191;-5850,342
 647,54;  407,130;52328,441;-5717,644
 648,12;  437,910;54879,695;-5865,945
 648,70;  442,691;58954,949;-5885,247
 649,28;  555,471;56421,203;-6090,548
 649,86;  458,252;51091,457;-5609,850
 650,44;  384,032;48619,711;-5452,151
 651,02;  473,812;49970,965;-5474,452
 651,60;  399,593;51793,219;-5803,753
 652,18;  478,373;51320,473;-4735,055
 652,76;  437,154;53277,723;-5934,356
 653,34;  419,934;54817,977;-5939,658
 653,92;  476,714;57729,230;-5784,959
 654,50;  577,495;59042,484;-5818,261
 655,08;  577,275;58048,738;-5841,562
 655,66;  616,055;55058,992;-5115,863
 656,24;  595,836;56743,246;-5200,165
 656,82;  629,616;58989,500;-4979,466
 657,40;  554,397;58967,754;-5667,768
 657,98;  510,177;60169,008;-5486,069
 658,56;  474,957;61114,258;-5717,371
 659,14;  520,738;61380,512;-5913,672
 659,72;  487,518;63381,766;-5916,973
 660,29;  446,299;62437,020;-5907,275
 660,87;  432,079;59738,273;-5212,576
 661,45;  429,859;58590,527;-5664,877
 662,03;  414,640;57513,781;-4971,179
 662,61;  408,420;54945,035;-5638,480
 663,19;  379,201;54618,289;-5657,782
 663,77;  377,981;53917,543;-5939,083
 664,35;  370,761;56689,793;-5887,384
 664,93;  327,542;62595,047;-4922,686
 665,51;  328,322;61993,301;-6033,987
 666,08;  357,103;57747,555;-5652,289
 666,66;  312,883;51859,809;-4400,590
 667,24;  364,663;49420,063;-5952,892
 667,82;  397,444;50250,316;-5849,193
 668,40;  347,224;50723,570;-5932,494
 668,98;  340,005;51952,824;-5097,796
 669,56;  353,785;57957,078;-6096,097
 670,13;  449,565;61797,328;-6222,398
 670,71;  421,346;59698,582;-5900,700
 671,29;  368,126;57209,836;-6139,001
 671,87;  346,907;56814,090;-6051,303
 672,45;  335,687;51822,344;-6050,604
 673,03;  397,467;52592,598;-4769,906
 673,60;  385,248;58431,852;-3503,207
 674,18;  362,028;63679,105;-5938,508
 674,76;  337,809;61159,359;-6226,810
 675,34;  349,589;56361,613;-5251,111
 675,92;  338,369;55284,863;-6338,413
 676,50;  352,150;55051,117;-6085,714
 677,07;  308,930;56952,371;-6095,016
 677,65;  388,711;56680,625;-6163,317
 678,23;  316,491;55997,879;-5057,618
 678,81;  362,271;58016,133;-5299,919
 679,38;  401,052;56669,387;-5969,221
 679,96;  331,832;53267,641;-5846,522
 680,54;  357,612;55171,895;-5308,824
 681,12;  359,393;52485,148;-6126,125
 681,70;  322,173;54786,398;-4413,427
 682,27;  362,954;54740,652;-5851,728
 682,85;  296,734;58265,906;-5991,029
 683,43;  331,514;64943,160;-6140,331
 684,01;  342,295;64943,414;-5172,632
 684,58;  331,075;64307,668;-5138,934
 685,16;  309,856;64236,922;-4494,235
 685,74;  390,636;62790,176;-3853,536
 686,32;  333,416;59009,430;-6012,838
 686,89;  327,197;59552,684;-6015,139
 687,47;  340,977;59534,934;-6076,441
 688,05;  364,758;56416,188;-6019,742
 688,63;  286,538;59626,441;-6102,043
 689,20;  336,318;62884,695;-5971,345
 689,78;  347,099;58427,949;-5530,646
 690,36;  301,879;54291,203;-5381,948
 690,93;  263,660;54968,457;-6355,249
 691,51;  344,440;61453,711;-6326,550
 692,09;  341,220;64946,965;-6223,852
 692,67;  318,001;64947,219;-6047,153
 693,24;  309,781;60968,469;-5803,455
 693,82;  292,562;59538,723;-6235,756
 694,40;  358,342;58049,977;-3570,058
 694,97;  299,122;57456,230;-6046,359
 695,55;  318,903;59820,484;-5464,660
 696,13;  338,683;61729,738;-4454,962
 696,70;  324,464;58594,992;-6029,263
 697,28;  309,244;59108,246;-6266,564
 697,86;  315,024;60837,500;-6030,866
 698,43;  306,805;58827,754;-6198,167
 699,01;  302,585;55595,004;-6051,469
 699,59;  301,366;55751,258;-6402,770
 700,16;  334,146;54174,512;-5257,072
 700,74;  294,926;57040,766;-5497,373
 701,32;  338,707;56440,020;-6233,674
 701,89;  234,487;55792,273;-6049,976
 702,47;  295,268;60296,527;-6466,277
 703,05;  318,048;64951,781;-6309,579
 703,62;  265,828;64952,035;-6227,880
 704,20;  291,609;64952,285;-5306,182
 704,77;  269,389;64952,539;-6118,483
 705,35;  234,170;64213,793;-6006,784
 705,93;  266,950;64327,047;-4922,085
 706,50;  244,730;63796,301;-5267,387
 707,08;  273,511;60606,555;-5284,688
 707,65;  238,291;60046,809;-5620,990
 708,23;  265,072;64881,063;-5431,292
 708,81;  254,852;64954,316;-5019,593
 709,38;  245,632;64954,570;-5001,894
 709,96;  334,413;64954,820;-6025,195
 710,53;  268,193;64955,074;-6007,497
 711,11;  241,973;61503,328;-5752,798
 711,69;  292,754;61913,582;-3821,100
 712,26;  263,534;59012,836;-4642,401
 712,84;  242,315;63346,090;-5947,703
 713,41;  321,095;64411,344;-6153,004
 713,99;  259,875;64924,598;-6068,305
 714,56;  236,656;62057,852;-6326,607
 715,14;  314,436;60312,105;-6198,908
 715,71;  313,217;60246,355;-6210,209
 716,29;  284,997;62893,609;-6648,511
 716,86;  247,777;63573,863;-6510,813
 717,44;  296,558;63263,117;-6424,114
 718,02;  281,338;62110,371;-6462,415
 718,59;  288,119;61013,625;-5121,716
 719,17;  251,899;63488,879;-5649,018
 719,74;  255,679;62907,133;-5756,319
 720,32;  231,460;63502,387;-6451,621
 720,89;  296,240;64959,641;-6422,922
 721,47;  201,021;64959,891;-6388,224
 722,04;  258,801;64960,145;-5502,525
 722,62;  248,581;64252,398;-3979,826
 723,19;  236,362;60250,652;-4938,128
 723,77;  211,142;57638,906;-5673,429
 724,34;  238,923;60150,160;-5576,730
 724,92;  241,703;63789,414;-6558,032
 725,49;  228,483;64961,668;-5666,333
 726,07;  266,264;64961,922;-6491,635
 726,64;  208,044;64627,176;-6587,936
 727,21;  215,825;60249,426;-5627,238
 727,79;  182,605;63706,680;-6444,539
 728,36;  282,385;64962,934;-6722,840
 728,94;  235,166;64963,188;-6535,142
 729,51;  209,946;64963,441;-6365,443
 730,09;  195,727;64963,695;-5545,745
 730,66;  212,507;64963,949;-6358,046
 731,24;  206,287;64964,203;-6577,348
 731,81;  251,068;64964,457;-5151,649
 732,38;  239,848;64964,711;-6492,950
 732,96;  226,629;64964,961;-6263,251
 733,53;  263,409;60347,215;-6389,553
 734,11;  220,189;61575,469;-6617,854
 734,68;  285,970;64965,723;-6211,156
 735,26;  280,750;64965,977;-6389,458
 735,83;  209,531;64966,230;-6498,759
 736,40;  262,311;62243,484;-6516,060
 736,98;  264,091;61999,738;-6374,361
 737,55;  234,872;59236,992;-5827,663
 738,13;  278,652;57707,246;-5702,964
 738,70;  272,432;60991,496;-5529,266
 739,27;  283,213;62504,750;-6452,567
 739,85;  259,993;62745,004;-6283,869
 740,42;  322,774;64968,258;-6464,170
 740,99;  292,554;64968,512;-5618,471
 741,57;  383,334;64968,766;-4867,773
 742,14;  307,115;64969,020;-5349,074
 742,72;  252,895;64969,273;-4751,375
 743,29;  380,676;64969,527;-6563,677
 743,86;  339,456;64969,781;-6538,979
 744,44;  394,236;64970,031;-6113,280
 745,01;  358,017;64970,285;-5760,581
 745,58;  308,797;64970,539;-6259,882
 746,16;  298,578;64970,793;-6188,184
 746,73;  388,358;64971,047;-6479,485
 747,30;  329,138;61139,301;-6536,787
 747,88;  334,919;59621,555;-5621,088
 748,45;  350,699;64971,809;-5668,390
 749,02;  385,480;64972,063;-6384,691
 749,60;  400,260;62401,313;-6212,992
 750,17;  386,040;61766,566;-5269,294
 750,74;  450,821;62801,820;-6479,595
 751,31;  454,601;63306,074;-6347,896
 751,89;  364,382;64232,328;-6546,198
 752,46;  449,162;64973,582;-6282,500
 753,03;  389,942;64973,836;-6160,801
 753,61;  380,723;63755,090;-4858,102
 754,18;  318,503;64573,344;-6434,404
 754,75;  341,284;63888,598;-5191,705
 755,32;  289,064;60715,848;-6332,006
 755,90;  303,844;64975,102;-6493,308
 756,47;  338,625;64975,355;-4809,609
 757,04;  319,405;64975,609;-6457,911
 757,61;  283,186;64975,863;-5553,212
 758,19;  354,966;64976,117;-5253,514
 758,76;  313,746;64976,371;-6603,815
 759,33;  295,527;64976,625;-6664,116
 759,90;  287,307;64976,879;-5714,417
 760,48;  275,088;64977,133;-6778,719
 761,05;  212,868;64977,383;-6083,021
 761,62;  272,648;62082,637;-4888,322
 762,19;  245,429;58992,891;-6144,624
 762,77;  279,209;61730,145;-5963,925
 763,34;  216,989;64978,398;-6610,226
 763,91;  225,770;64978,652;-5818,527
 764,48;  269,550;64978,906;-6756,829
 765,05;  223,331;64979,160;-6543,130
 765,63;  226,111;63215,414;-6417,432
 766,20;  304,891;59753,668;-6004,733
 766,77;  235,672;57105,918;-5921,035
 767,34;  185,452;58807,172;-6640,336
 767,91;  170,233;59176,426;-6689,637
 768,49;  235,013;61368,680;-6772,939
 769,06;  230,793;64980,934;-5832,240
 769,63;  189,574;62272,188;-6636,542
 770,20;  192,354;59567,441;-5868,843
 770,77;  163,135;57921,695;-5645,145
 771,34;  146,915;60065,949;-6615,446
 771,91;  192,695;60549,203;-6102,747
 772,49;  264,476;58558,453;-6369,048
 773,06;  205,256;57687,707;-6203,350
 773,63;  229,037;60204,961;-6639,651
 774,20;  196,817;58197,215;-5918,953
 774,77;  255,597;56475,469;-6631,254
 775,34;  263,378;56707,723;-6214,556
 775,91;  461,158;57056,977;-6417,857
 776,49;  578,939;58787,230;-6590,158
 777,06;  884,719;60761,484;-6015,460
 777,63;  748,499;64224,738;-6367,761
 778,20;  444,280;62572,988;-6250,063
 778,77;  345,060;63316,242;-5763,364
 779,34;  227,841;64985,496;-6585,666
 779,91;  204,621;64985,750;-6534,967
 780,48;  142,401;59144,004;-5853,268
 781,05;  192,182;50716,258;-6586,570
 781,62;  213,962;52124,512;-6604,871
 782,20;  175,743;58813,766;-6500,172
 782,77;  201,523;64987,020;-6529,474
 783,34;  220,303;64052,273;-6522,775
 783,91;  205,084;61362,523;-6509,077
 784,48;  115,864;60480,777;-2126,378
 785,05;  152,645;59144,031;-6540,680
 785,62;  143,425;58221,285;-6452,981
 786,19;  177,205;58149,539;-5100,282
 786,76;  140,986;55130,793;-6677,583
 787,33;  172,766;56202,047;-6515,885
 787,90;  100,547;59491,301;-6591,187
 788,47;  106,327;60148,555;-5075,488
 789,04;  173,107;58988,809;-5763,790
 789,61;  130,888;58863,059;-5066,091
 790,18;  152,668;55747,313;-6561,392
 790,75;  134,448;50841,566;-6671,693
 791,32;  191,229;52056,820;-6577,995
 791,89;  148,009;55205,074;-6068,296
 792,46;  186,790;60806,328;-5763,598
 793,03;  161,570;62404,582;-6702,899
 793,60;  194,350;55699,836;-6440,201
 794,17;  277,131;52257,090;-5569,502
 794,74;  264,911;47273,344;-5886,803
 795,31;  200,692;50096,594;-6099,105
 795,88;  181,472;52579,848;-5572,406
 796,45;  116,252;53365,102;-6529,708
 797,02;  109,033;56004,355;-5046,009
 797,59;  120,813;57922,609;-6675,311
 798,16;  160,594;54563,863;-5861,612
 798,73;  139,374;53534,117;-6761,913
 799,30;  154,154;55088,371;-6611,214
 799,87;  106,935;55650,625;-6713,516
 800,44;  104,715;55353,875;-6729,817
 801,01;  106,496;56836,129;-6807,119
 801,58;  147,276;58477,383;-6537,420
 802,15;  141,056;52086,637;-6658,722
 802,72;  124,837;48849,891;-6694,023
 803,28;  125,617;52000,145;-6076,324
 803,85;  152,398;57179,398;-6728,626
 804,42;  171,178;55235,652;-5999,927
 804,99;  147,958;53752,906;-6539,229
 805,56;  123,739;52472,160;-6770,530
 806,13;  105,519;53387,410;-6075,832
 806,70;   87,300;52719,664;-6748,133
 807,27;  102,080;54477,918;-6672,434
 807,84;   66,860;52786,172;-6693,736
 808,41;  126,641;49728,426;-6022,037
 808,98;  109,421;50479,680;-5986,338
 809,54;   78,202;52469,934;-4958,640
 810,11;   64,982;48281,188;-6782,941
 810,68;   81,762;43021,441;-6680,243
 811,25;   29,543;41394,695;-6760,544
 811,82;   86,323;40374,945;-6886,846
 812,39;   81,104;37710,199;-3331,147
 812,96;   97,884;38779,453;-6767,448
 813,52;  118,664;41291,707;-6937,750
 814,09;   52,445;44522,961;-6766,051
 814,66;   80,225;50325,215;-6827,353
 815,23;  102,006;51240,469;-6669,654
 815,80;   59,786;50439,723;-5853,956
 816,37;   82,566;50917,977;-6801,257
 816,93;   83,347;49487,230;-6731,558
 817,50;  101,127;46790,480;-6102,859
 818,07;  169,907;46034,734;-6960,161
 818,64;  124,688;46919,988;-6856,462
 819,21;  109,468;46261,242;-6053,764
 819,77;  146,249;42742,496;-6571,065
 820,34;  139,029;42053,750;-6677,367
 820,91;  136,809;43276,004;-6469,668
 821,48;  236,590;43873,258;-6689,969
 822,05;  256,370;45571,512;-5875,271
 822,61;  245,151;44296,766;-5631,572
 823,18;  180,931;41860,016;-6620,874
 823,75;  103,711;42585,270;-6957,175
 824,32;  145,492;45286,523;-6923,477
 824,88;  123,272;45073,777;-6882,778
 825,45;   90,053;44018,031;-6899,079
 826,02;   79,833;43798,285;-6643,380
 826,59;   90,613;43974,539;-6639,682
 827,15;   69,394;46077,793;-6906,983
 827,72;  102,174;49519,047;-6723,285
 828,29;   69,955;51523,301;-6895,586
 828,86;   86,735;48827,551;-6791,888
 829,42;   39,515;40797,805;-6812,189
 829,99;   71,296;36802,059;-6647,490
 830,56;   65,076;36252,313;-6869,792
 831,13;   46,857;37220,566;-6060,093
 831,69;  111,637;38022,820;-6506,395
 832,26;  105,417;38832,074;-5062,696
 832,83;  105,198;40408,328;-5452,998
 833,39;   95,978;40187,582;-6904,299
 833,96;   64,759;39167,836;-6687,600
 834,53;   33,539;40039,086;-6928,902
 835,10;   12,319;39930,340;-6529,203
 835,66;   52,100;38972,594;-6920,504
 836,23;   38,880;39801,848;-6803,806
 836,80;   53,661;39428,102;-6790,107
 837,36;   51,441;37086,355;-6810,409
 837,93;   97,221;34475,609;-6902,710
 838,50;  113,002;35084,863;-6789,012
 839,06;   69,782;37684,117;-6288,313
 839,63;   29,563;37191,371;-6895,614
 840,19;   38,343;35132,621;-6607,916
 840,76;   61,123;35364,875;-6404,217
 841,33;   34,904;35892,129;-6509,519
 841,89;   82,684;36779,383;-6949,820
 842,46;   70,465;37103,637;-6751,122
 843,03;   61,245;35389,891;-6089,423
 843,59;    8,025;34224,145;-6403,724
 844,16;  132,806;34994,398;-6181,025
 844,73;  212,586;34249,652;-6067,327
 845,29;  126,366;32937,902;-5695,628
 845,86;  110,147;35699,156;-6800,930
 846,42;   34,927;36940,410;-7004,231
 846,99;   37,708;36477,664;-6967,533
 847,56;   43,488;36265,918;-5840,834
 848,12;   30,268;36240,172;-6745,135
 848,69;   52,049;35710,426;-6715,437
 849,25;   51,829;34401,680;-6845,738
 849,82;   49,610;34081,934;-3247,040
 850,38;   60,390;35064,188;-6840,341
 850,95;    9,170;32489,439;-6324,643
 851,52;   41,951;32520,693;-6565,944
 852,08;    7,731;32548,947;-6691,245
 852,65;  -17,488;30323,199;-7005,546
 853,21;   12,292;27698,453;-6958,848
 853,78;    2,072;27362,707;-6363,149
 854,34;   -1,147;28860,961;-6871,451
 854,91;  -10,367;29081,215;-5086,752
 855,47;    6,414;29942,467;-5108,054
 856,04;   93,194;32027,721;-6746,355
 856,60;   13,974;33961,973;-6104,656
 857,17;   30,755;34979,227;-6840,958
 857,73;   21,535;33553,480;-6811,259
 858,30;   24,316;32532,734;-6985,561
 858,86;   19,096;31110,988;-5926,862
 859,43;   37,876;31430,242;-6226,164
 859,99;  -12,343;32011,496;-6852,465
 860,56;  -22,563;33126,750;-6903,766
 861,12;   22,218;35190,004;-6737,068
 861,69;  -12,002;33669,258;-5924,369
 862,25;   56,778;34731,508;-6821,670
 862,82;   49,559;34419,762;-5972,972
 863,38;   34,339;31196,018;-6843,273
 863,95;  -14,880;29305,270;-6239,575
 864,51;  103,900;30403,523;-5287,876
 865,08;   45,680;29284,777;-6090,178
 865,64;   -3,539;26795,031;-7018,479
 866,21;   32,241;26131,285;-6745,780
 866,77;   24,022;26051,537;-5552,082
 867,34;   72,802;25734,791;-6672,383
 867,90;   79,582;24632,045;-6303,685
 868,46;   51,363;23835,299;-6041,986
 869,03;   39,143;24389,551;-6929,288
 869,59;   36,924;26353,805;-6884,589
 870,16;   30,704;27647,059;-6052,890
 870,72;   38,484;30060,313;-6657,191
 871,28;   38,265;32915,566;-5992,493
 871,85;   52,045;33142,820;-6907,794
 872,41;    4,825;31569,072;-6004,096
 872,98;   45,606;32738,326;-6050,397
 873,54;   -2,614;33876,578;-5920,699
 874,10;   41,167;32768,832;-5876,000
 874,67;   -3,833;32987,832;-6904,000
 875,23;    4,167;31068,834;-7032,000
 875,80;   13,167;28009,834;-6641,000
 876,36;  -14,833;25058,834;-6642,000
 876,92;   29,167;22832,834;-6189,000
 877,49;   12,167;23923,834;-6517,000
 878,05;    0,167;24896,834;-6797,000
 878,61;    5,167;26938,834;-6812,000
 879,18;    7,167;27553,834;-6252,000
 879,74;   11,167;28076,834;-6720,000
 880,30;   12,167;28679,834;-5926,000
 880,87;  -47,833;28852,834;-6326,000
 881,43;   39,167;29533,834;-6871,000
 881,99;   34,167;27306,834;-6879,000
 882,56;    4,167;27610,834;-6661,000
 883,12;   20,167;29049,834;-5740,000
 883,68;   -5,833;29120,834;-6518,000
 884,25;   38,167;28300,834;-6949,000
 884,81;   -2,833;26343,834;-6701,000
 885,37;    8,167;24221,834;-6786,000
 885,94;   -5,833;22940,834;-6851,000
 886,50;   41,167;23098,834;-6886,000
 887,06;  -22,833;24358,834;-6796,000
 887,62;   25,167;25019,834;-6866,000
 888,19;    4,167;25774,834;-5986,000
 888,75;    9,167;26542,834;-6821,000
 889,31;   41,167;29043,834;-6778,000
 889,87;   13,167;30537,834;-6723,000
 890,44;   49,167;30349,834;-6696,000
 891,00;  -19,833;28757,834;-6786,000
 891,56;    7,167;26457,834;-6998,000
 892,12;   47,167;24463,834;-6754,000
 892,69;   45,167;25310,834;-6373,000
 893,25;   43,167;28798,834;-6877,000
 893,81;   28,167;31774,834;-6696,000
 894,37;   62,167;31330,834;-6342,000
 894,94;   36,167;28713,834;-6772,000
 895,50;   59,167;26035,834; -212,000
 896,06;   84,167;24749,834;-6810,000
 896,62;   82,167;23405,834;-6707,000
 897,18;   81,167;24661,834;-6518,000
 897,75;   90,167;27406,834;-6895,000
 898,31;   80,167;27887,834;-6849,000
 898,87;  112,167;26274,834;-6860,000
 899,43;   85,167;25164,834;-6469,000
 899,99;   95,167;26592,834;-6866,000
 900,56;  113,167;25515,834;-6791,000
 901,12;   72,167;24875,834;-6890,000
 901,68;  124,167;27903,834;-6267,000
 902,24;  113,167;31800,834;-5930,000
 902,80;  104,167;32652,834;-6794,000
 903,36;  181,167;31893,834;-6691,000
 903,93;  298,167;32139,834;-6646,000
 904,49;  670,167;32761,834;-6913,000
 905,05; 1893,167;30952,834;-6732,000
 905,61; 4864,167;28208,834;-6832,000
 906,17; 9663,167;28086,834;-6901,000
 906,73;14623,167;25975,834;-5380,000
 907,29;19307,166;24960,834;-6910,000
 907,86;22095,166;25118,834;-6827,000
 908,42;22230,166;28092,834;-6795,000
 908,98;18778,166;31123,834;-5908,000
 909,54;10978,167;38813,832;-6885,000
 910,10; 3866,167;48220,832;-6634,000
 910,66;  850,167;57581,832;-6781,000
 911,22;  313,167;65027,832;-6761,000
 911,78;  163,167;62593,832;-6841,000
 912,34;   95,167;53256,832;-6080,000
 912,90;  153,167;44610,832;-5232,000
 913,46;  117,167;37052,832;-6876,000
 914,03;   51,167;30620,834;-5746,000
 914,59;   52,167;27452,834;-6682,000
 915,15;   48,167;24908,834;-6891,000
 915,71;   45,167;24217,834;-6863,000
 916,27;   43,167;23800,834;-6723,000
 916,83;   46,167;23006,834;-5824,000
 917,39;   68,167;21742,834;-3512,000
 917,95;   34,167;20224,834;-6009,000
 918,51;   49,167;19972,834;-6583,000
 919,07;   74,167;21780,834;-6791,000
 919,63;  -72,833;23295,834;-6661,000
 920,19;   -7,833;23935,834;-6865,000
 920,75;   17,167;23112,834;-6640,000
 921,31;   -2,833;21484,834;-4837,000
 921,87;   -2,833;20216,834;-6845,000
 922,43;   20,167;18019,834;-5626,000
 922,99;   48,167;17321,834;-6706,000
 923,55;   55,167;18674,834;-6655,000
 924,11;    5,167;19094,834;-6976,000
 924,67;   25,167;19310,834;-6962,000
 925,23;   -3,833;19485,834;-6778,000
 925,79;   34,167;20122,834;-6710,000
 926,35;   36,167;20219,834;-6573,000
 926,91;   53,167;19401,834;-6909,000
 927,47;   29,167;19367,834;-6660,000
 928,03;   74,167;20294,834;-6786,000
 928,59;   27,167;20503,834;-6678,000
 929,15;   30,167;20781,834;-6792,000
 929,71;   37,167;22016,834;-6840,000
 930,27;   65,167;23587,834;-6537,000
 930,82;   59,167;25573,834;-6728,000
 931,38;   -9,833;24317,834;-5852,000
 931,94;   13,167;22672,834;-6843,000
 932,50;   -6,833;21252,834;-6481,000
 933,06;   55,167;20895,834;-6768,000
 933,62;   10,167;21092,834;-6443,000
 934,18;   25,167;20632,834;-6727,000
 934,74;   21,167;21320,834;-6709,000
 935,30;    9,167;22030,834;-6484,000
 935,86;   30,167;21213,834;-6505,000
 936,42;  -34,833;20702,834;-6873,000
 936,97;   33,167;21656,834;-6563,000
 937,53;  -20,833;20552,834;-6826,000
 938,09;   35,167;21087,834;  123,000
 938,65;  -30,833;21186,834;-6268,000
 939,21;  -26,833;20179,834;-6708,000
 939,77;    3,167;18946,834;-6213,000
 940,33;   14,167;18602,834;-6748,000
 940,88;   -5,833;19429,834;-5908,000
 941,44;   15,167;21301,834;-6983,000
 942,00;  -24,833;23225,834;-6697,000
 942,56;   -9,833;24231,834;-6604,000
 943,12;   33,167;23427,834;-5907,000
 943,68;    7,167;22950,834;-5679,000
 944,23;  -19,833;23124,834;-6749,000
 944,79;  -41,833;22674,834;-6102,000
 945,35;  -18,833;20741,834;-6599,000
 945,91;   23,167;19519,834;-6767,000
 946,47;    0,167;19827,834;-3353,000
 947,03;   26,167;19896,834;-6850,000
 947,58;  -20,833;19661,834;-6840,000
 948,14;   63,167;20790,834;-5897,000
 948,70;   -7,833;19573,834;-5855,000
 949,26;   40,167;18881,834;-6616,000
 949,81;  -14,833;18342,834;-6644,000
 950,37;    6,167;18686,834;-6695,000
 950,93;   36,167;17993,834;-6224,000
 951,49;  -37,833;17568,834;-6057,000
 952,05;   12,167;17926,834;-6571,000
 952,60;  -16,833;17299,834;-6951,000
 953,16;   27,167;16933,834;-5783,000
 953,72;  -35,833;15628,833;-5813,000
 954,27;  -30,833;15524,833;-6566,000
 954,83;    0,167;15317,833;-6703,000
 955,39;   -5,833;14917,833;-6691,000
 955,95;  -27,833;14456,833;-6849,000
 956,50;  -13,833;14272,833;-6698,000
 957,06;  -16,833;14126,833;-5922,000
 957,62;    2,167;13780,833;-6559,000
 958,18;  -20,833;13872,833;-6741,000
 958,73;   -9,833;13326,833;-6820,000
 959,29;  -12,833;13518,833;-6106,000
 959,85;    8,167;14785,833;-6864,000
 960,40;  -28,833;16746,834;-4263,000
 960,96;   46,167;16386,834;-6738,000
 961,52;  -28,833;14755,833;-6643,000
 962,07;  -25,833;13711,833;-6742,000
 962,63;  -49,833;13208,833;-6723,000
 963,19;  -55,833;13435,833;-5779,000
 963,74;   55,167;13877,833;-6582,000
 964,30;   -9,833;14475,833;-6595,000
 964,86;   19,167;14281,833;-6484,000
 965,41;   33,167;14290,833;-6705,000
 965,97;  -27,833;14185,833;-6569,000
 966,53;   22,167;14792,833;-6750,000
 967,08;   31,167;15311,833;-6611,000
 967,64;   30,167;15082,833;-6705,000
 968,19;  -10,833;14471,833;-6684,000
 968,75;  -33,833;14662,833;-6566,000
 969,31;    9,167;14880,833;-5626,000
 969,86;   -5,833;14995,833;-6505,000
 970,42;   17,167;13195,833;-6620,000
 970,97;   -6,833;11567,833;-6437,000
 971,53;   -6,833;11625,833;-6490,000
 972,09;  -36,833;12998,833;-6646,000
 972,64;   41,167;13523,833;-5812,000
 973,20;   25,167;13815,833;-6599,000
 973,75;   -8,833;14605,833;-5760,000
 974,31;   41,167;14826,833;-6578,000
 974,87;   16,167;14921,833;-6674,000
 975,42;  -20,833;14507,833;-6727,000
 975,98;  -22,833;13201,833;-6651,000
 976,53;   24,167;12100,833;-6555,000
 977,09;  -44,833;11353,833;-4624,000
 977,64;   -9,833;11164,833;-6532,000
 978,20;   18,167;10649,833;-6585,000
 978,75;   21,167;10482,833;-6429,000
 979,31;   -9,833;10950,833;-6513,000
 979,86;   34,167;12220,833;-6739,000
 980,42;  -32,833;12828,833;-5813,000
 980,97;  -58,833;13290,833;-6642,000
 981,53;   39,167;14285,833;-6636,000
 982,08;  -20,833;13803,833;-5046,000
 982,64;   31,167;12278,833;-6237,000
 983,19;   -7,833;11308,833;-6760,000
 983,75;   -0,833;10993,833;-6576,000
 984,30;  -37,833;10430,833;-5581,000
 984,86;  -11,833; 9867,833;-5898,000
 985,41;    8,167; 9457,833;-6634,000
 985,97;    8,167; 9632,833;-4797,000
 986,52;   -3,833; 9894,833;-5853,000
 987,08;  -10,833; 9953,833;-6174,000
 987,63;  -27,833;10165,833;-5608,000
 988,19;   -7,833;11252,833;-6266,000
 988,74;    8,167;11710,833;-5682,000
 989,30;  -15,833;11529,833;-6568,000
 989,85;   35,167;11470,833; -276,000
 990,40;  -13,833;11314,833;-6617,000
 990,96;   34,167;11060,833;-6482,000
 991,51;   28,167;11149,833;-6578,000
 992,07;  -31,833;10742,833;-6605,000
 992,62;    6,167;10285,833;-6519,000
 993,18;  -12,833;10035,833;-6504,000
 993,73;    9,167; 9986,833;-6440,000
 994,28;  -15,833; 9800,833;-6464,000
 994,84;    2,167; 9019,833;-6240,000
 995,39;    7,167; 8474,833;-2971,000
 995,94;   52,167; 7953,833;-5673,000
 996,50;   -6,833; 7647,833;-6543,000
 997,05;    8,167; 7872,833;-3481,000
 997,61;    7,167; 8363,833;-6489,000
 998,16;  -37,833; 8581,833;-6555,000
 998,71;  -11,833; 8850,833;-6340,000
 999,27;  -26,833; 9115,833;-5223,000
 999,82;   48,167; 8706,833;-4778,000
1000,37;  -23,833; 8661,833;-6520,000
1000,93;    9,167; 8920,833;-6107,000
1001,48;  -19,833; 8799,833;-6543,000
1002,03;  -40,833; 8477,833;-6469,000
1002,59;   34,167; 8715,833;-5972,000
1003,14;  -17,833; 8758,833;-6113,000
1003,69;   -4,833; 8484,833;-6513,000
1004,25;  -33,833; 8299,833;-6507,000
1004,80;   28,167; 8322,833;-6266,000
1005,35;   35,167; 8313,833;-6361,000
1005,91;    9,167; 8515,833;-6558,000
1006,46;  -29,833; 8426,833;-6084,000
1007,01;   45,167; 8227,833;-5479,000
1007,56;   34,167; 8599,833;-6440,000
1008,12;   -7,833; 8342,833;-6178,000
1008,67;  -16,833; 7867,833;-6312,000
1009,22;  -12,833; 7509,833;-6481,000
1009,78;   -8,833; 7205,833;-6163,000
1010,33;   -0,833; 6649,833;-6443,000
1010,88;   24,167; 6413,833;-5618,000
1011,43;   22,167; 5995,833;-6433,000
1011,99;    6,167; 5972,833;-6198,000
1012,54;   -3,833; 6320,833;-6387,000
1013,09;   24,167; 6048,833;-6299,000
1013,64;  -43,833; 5802,833;-6362,000
1014,19;   -4,833; 5823,833;-6442,000
1014,75;   23,167; 5928,833;-6408,000
1015,30;    2,167; 6394,833;-6425,000
1015,85;   36,167; 6370,833;-6367,000
1016,40;    4,167; 6247,833;-5436,000
1016,96;   54,167; 6235,833;-6268,000
1017,51;    8,167; 6150,833;-6351,000
1018,06;   19,167; 6095,833;-6310,000
1018,61;   -5,833; 5695,833;-6665,000
1019,16;   18,167; 5609,833;-6697,000
1019,71;   59,167; 5663,833;-6373,000
1020,27;    2,167; 5567,833;-6353,000
1020,82;   70,167; 5375,833;-3700,000
1021,37;   73,167; 5405,833;-4798,000
1021,92;   67,167; 5984,833;-6454,000
1022,47;   28,167; 5965,833;-6548,000
1023,02;   35,167; 5463,833;-6512,000
1023,58;   93,167; 5045,833;-6573,000
1024,13;   97,167; 4730,833;-6258,000
1024,68;   40,167; 4434,833;-6298,000
1025,23;   90,167; 4324,833;-5525,000
1025,78;   70,167; 4613,833;-6475,000
1026,33;   75,167; 4932,833;-5510,000
1026,88;  111,167; 4843,833;-6236,000
1027,43;   98,167; 5167,833;-6276,000
1027,99;  103,167; 5134,833;-6002,000
1028,54;  127,167; 4732,833;-6395,000
1029,09;  136,167; 4106,833;-2478,000
1029,64;  172,167; 3919,833;-6303,000
1030,19;  207,167; 4147,833;-3821,000
1030,74;  220,167; 4243,833;-5134,000
1031,29;  382,167; 4284,833;-4765,000
1031,84;  368,167; 4491,833;-6300,000
1032,39;  380,167; 4563,833;-5403,000
1032,94;  444,167; 4617,833;-4326,000
1033,49;  646,167; 4361,833;-5476,000
1034,04;  653,167; 4236,833;-6312,000
1034,59;  802,167; 4205,833;-6507,000
1035,14;  770,167; 4117,833;-6145,000
1035,69;  838,167; 4318,833;-6224,000
1036,24;  877,167; 4104,833;-4477,000
1036,80;  995,167; 3986,833;-5453,000
1037,35; 1083,167; 4138,833;-6347,000
1037,90; 1171,167; 4172,833;-6274,000
1038,45; 1167,167; 4201,833;-6419,000
1039,00; 1281,167; 4340,833;-5490,000
1039,55; 1292,167; 4229,833;-6284,000
1040,10; 1456,167; 3977,833;-5615,000
1040,65; 1544,167; 3916,833;-5576,000
1041,20; 1530,167; 3850,833;-6325,000
1041,75; 1683,167; 4030,833;-4522,000
1042,30; 1724,167; 4164,833;-3585,000
1042,84; 1928,167; 4338,833;-4439,000
1043,39; 2082,167; 4248,833;-6313,000
1043,94; 2207,167; 4175,833;-5342,000
1044,49; 2284,167; 3887,833;-6246,000
1045,04; 2426,167; 3710,833;-5800,000
1045,59; 2678,167; 3809,833;-6299,000
1046,14; 2853,167; 3732,833;-6392,000
1046,69; 3342,167; 3591,833;-6294,000
1047,24; 3620,167; 3623,833;-5510,000
1047,79; 3899,167; 3737,833;-6139,000
1048,34; 4271,167; 4002,833;-5961,000
1048,89; 4833,167; 3948,833;-6259,000
1049,44; 5437,167; 3935,833;-5172,000
1049,99; 6234,167; 3855,833;-4844,000
1050,54; 7096,167; 3876,833;-6249,000
1051,08; 8410,167; 3961,833;-6178,000
1051,63;10839,167; 4050,833;-5285,000
1052,18;15015,167; 5051,833;-6127,000
1052,73;22645,166; 7151,833;-6173,000
1053,28;34278,168;10516,833;-6386,000
1053,83;44883,168;15224,833;-6214,000
1054,38;53640,168;19203,834;-6254,000
1054,93;57194,168;21243,834;-6285,000
1055,47;63841,168;23825,834;-5328,000
1056,02;65148,168;26212,834;-5832,000
1056,57;65148,168;27830,834;-6198,000
1057,12;65148,168;30497,834;-6378,000
1057,67;65148,168;33805,832;-6078,000
1058,22;65148,168;36084,832;-6313,000
1058,76;65148,168;38542,832;-6093,000
1059,31;65148,168;44129,832;-3514,000
1059,86;65148,168;48778,832;-6204,000
1060,41;65148,168;49718,832;-6152,000
1060,96;65148,168;51396,832;-6226,000
1061,51;65148,168;53649,832;-5344,000
1062,05;65148,168;54082,832;-6122,000
1062,60;65148,168;50555,832;-6061,000
1063,15;65148,168;45221,832;-6149,000
1063,70;65148,168;41550,832;-6250,000
1064,24;65148,168;43676,832;-6169,000
1064,79;65148,168;45461,832;-6144,000
1065,34;65148,168;43989,832;-6064,000
1065,89;65148,168;41776,832;-6202,000
1066,44;65148,168;37631,832;-6120,000
1066,98;65148,168;32612,834;-6224,000
1067,53;65148,168;30790,834;-5953,000
1068,08;65148,168;30368,834;-4845,000
1068,63;65148,168;27618,834;-6096,000
1069,17;65148,168;24647,834;-5893,000
1069,72;65148,168;22350,834;-5857,000
1070,27;65148,168;20529,834;-6040,000
1070,81;65148,168;20388,834;-5996,000
1071,36;65148,168;20367,834;-3883,000
1071,91;65148,168;18745,834;  966,000
1072,46;65148,168;16791,834;-5058,000
1073,00;65148,168;14646,833;-5239,000
1073,55;65148,168;11404,833;-5935,000
1074,10;55524,168; 7803,833;-5981,000
1074,64;37768,168; 5240,833;-5860,000
1075,19;24913,166; 3535,833;-4958,000
1075,74;17460,166; 2551,833;-6091,000
1076,28;13486,167; 2312,833;-6075,000
1076,83;11040,167; 1951,833;-5286,000
1077,38; 9280,167; 1820,833;-5653,000
1077,92; 7903,167; 1783,833;-6332,000
1078,47; 6834,167; 1629,833;-5507,000
1079,02; 6053,167; 1578,833;-5959,000
1079,56; 5278,167; 1557,833;-5328,000
1080,11; 4710,167; 1304,833;-6094,000
1080,65; 4122,167; 1241,833;-5039,000
1081,20; 3575,167; 1186,833;-6151,000
1081,75; 3069,167; 1125,833;-6039,000
1082,29; 2683,167; 1128,833; -139,000
1082,84; 2333,167; 1184,833;-2678,000
1083,39; 2161,167; 1294,833;-5061,000
1083,93; 1982,167; 1335,833;-5025,000
1084,48; 1925,167; 1196,833;-5961,000
1085,02; 1672,167; 1082,833;-5783,000
1085,57; 1571,167; 1074,833;-5994,000
1086,11; 1493,167; 1079,833;-5968,000
1086,66; 1407,167;  925,833;-5584,000
1087,21; 1409,167; 1060,833;-5802,000
1087,75; 1228,167;  939,833;-6125,000
1088,30; 1162,167;  815,833;-5040,000
1088,84; 1089,167;  783,833;-5963,000
1089,39;  916,167;  656,833;-5965,000
1089,93;  977,167;  664,833;-6100,000
1090,48;  814,167;  649,833;-4394,000
1091,02;  773,167;  733,833;-5181,000
1091,57;  609,167;  629,833;-5479,000
1092,11;  596,167;  642,833;-4094,000
1092,66;  571,167;  624,833;-6031,000
1093,20;  473,167;  580,833;-5180,000
1093,75;  459,167;  566,833;-4998,000
1094,29;  425,167;  486,833;-4979,000
1094,84;  450,167;  525,833;-5890,000
1095,38;  332,167;  528,833;-5097,000
1095,93;  329,167;  584,833;-5981,000
1096,47;  272,167;  615,833;-5612,000
1097,02;  253,167;  587,833;-4985,000
1097,56;  265,167;  614,833;-5772,000
1098,11;  212,167;  552,833;-5774,000
1098,65;  223,167;  508,833;-5992,000
1099,20;  214,167;  577,833;-5935,000
1099,74;  141,167;  487,833;-6002,000
1100,29;  149,167;  513,833;-4879,000
1100,83;  104,167;  496,833;-5934,000

