
Integration time [ms]:   1,000
Averaging Nr. [scans]: 1
Smoothing Nr. [pixels]: 0
Data measured with spectrometer [name]: 1703254U1
Wave   ;Sample   ;Dark     ;Reference;Scope
[nm]   ;[counts] ;[counts] ;[counts] 

 190,08; 1402,500; -370,119;11982,743
 190,69; 1320,740; -359,404;11603,049
 191,29; 1189,403; -311,651;11479,965
 191,90; 1279,901; -365,508;11440,717
 192,50; 1282,429; -379,511;10355,099
 193,10; 1336,579; -446,299;11244,381
 193,71; 1348,480; -367,888; 9821,736
 194,31; 1316,352; -399,273; 9436,327
 194,91; 1379,352; -382,273; 9291,327
 195,52; 1394,333; -338,386;10555,949
 196,12; 1455,445; -397,056; 8671,847
 196,72; 1404,155; -386,394; 8220,904
 197,32; 1429,480; -375,888; 8251,736
 197,93; 1445,382; -360,420; 8700,957
 198,53; 1350,728; -383,145; 7601,797
 199,13; 1374,614; -397,132; 8091,270
 199,74; 1468,797; -366,410; 7263,813
 200,34; 1494,045; -388,667; 7832,874
 200,94; 1378,242; -436,547; 6941,297
 201,55; 1410,740; -406,404; 7119,049
 202,15; 1492,970; -375,773; 6404,732
 202,75; 1420,604; -373,217; 6097,647
 203,36; 1509,516; -338,664; 6822,492
 203,96; 1453,714; -357,943; 6332,678
 204,56; 1442,459; -355,657;10275,729
 205,16; 1541,868; -363,018; 5478,458
 205,77; 1535,596; -360,244; 4767,892
 206,37; 1456,104; -409,017; 5556,267
 206,97; 1398,856; -363,760; 5129,205
 207,58; 1471,663; -364,166; 5927,278
 208,18; 1459,086; -337,129; 5129,889
 208,78; 1479,378; -404,134; 5295,461
 209,38; 1323,089; -469,415; 4958,385
 209,99; 1422,185; -356,540; 3837,534
 210,59; 1411,752; -361,662; 3890,301
 211,19; 1343,421; -364,538; 3938,343
 211,79; 1298,821; -366,927; 4499,316
 212,40; 1384,175; -373,625; 3368,911
 213,00; 1280,008; -388,891; 3903,118
 213,60; 1286,423; -386,882; 2992,972
 214,20; 1225,718; -401,230; 3081,175
 214,81; 1246,118; -422,618; 2884,148
 215,41; 1230,527; -376,979; 3235,877
 216,01; 1257,045; -373,067; 3109,636
 216,61; 1241,447; -367,399; 2814,476
 217,22; 1087,057; -381,326; 2358,888
 217,82; 1242,970; -325,173; 2262,495
 218,42; 1219,929; -383,711; 2389,480
 219,02; 1011,821; -288,327; 3432,079
 219,63; 1079,437; -357,483; 2044,854
 220,23; 1064,476; -366,602; 2425,239
 220,83; 1061,100; -395,730; 1901,770
 221,43; 1003,669; -393,195; 1850,167
 222,03;  957,185; -348,940; 2326,296
 222,64;  931,756; -380,348; 1769,560
 223,24;  826,413; -298,966; 1625,350
 223,84;  835,943; -376,313; 2637,361
 224,44;  807,287; -316,695; 2381,571
 225,05;  750,535; -313,952; 1440,632
 225,65;  762,281; -301,065; 1227,445
 226,25;  711,120; -364,961; 1139,777
 226,85;  706,415; -294,309;  995,979
 227,45;  650,636; -335,706; 1083,907
 228,06;  602,260; -365,834; 1945,438
 228,66;  592,738; -349,460; 4049,182
 229,26;  598,039; -313,438; 1131,510
 229,86;  507,699; -396,342; 1760,797
 230,46;  495,905; -358,194;  891,976
 231,06;  465,096; -320,444;  757,273
 231,67;  523,864; -346,732; 1228,961
 232,27;  411,862; -343,789;  778,094
 232,87;  465,033; -308,808;  526,384
 233,47;  406,092; -321,158;  525,777
 234,07;  433,966; -268,486; 9912,235
 234,67;  381,826; -291,013;  672,338
 235,28;  367,092; -319,158;   65,777
 235,88;  418,673; -316,882;  285,426
 236,48;  390,147; -350,821;  165,911
 237,08;  418,059; -267,669;  448,518
 237,68;  303,763; -369,378; -267,552
 238,28;  407,984; -304,774; -106,624
 238,89;  363,578; -212,756; -205,723
 239,49;  364,411; -282,023; 1280,483
 240,09;  337,783; -284,608; -190,544
 240,69;  285,470; -251,373; -319,124
 241,29;  264,124; -289,647;  651,036
 241,89;  345,742; -330,147; -260,559
 242,49;  340,744; -248,490; -358,930
 243,10;  321,801; -201,496; 3664,834
 243,70;  281,744; -284,490;  239,070
 244,30;  294,094; -275,501; -708,594
 244,90;  300,556; -188,582; -568,598
 245,50;  302,064; -177,355; 3274,777
 246,10;  265,775; -307,636; -831,300
 246,70;  273,948; -300,999;   17,620
 247,30;  265,068; -251,641;  326,273
 247,91;  240,618; -208,218; 5781,292
 248,51;  314,204; -270,228; -806,563
 249,11;  330,208; -239,514;  417,933
 249,71;  298,533; -303,008; -667,235
 250,31;  303,688; -265,483; -567,693
 250,91;  320,330; -238,500;   75,216
 251,51;  253,675; -199,225; -822,945
 252,11;  295,576; -239,813;  367,410
 252,71;  294,986; -269,117;-1080,994
 253,31;  292,007; -222,348; 3228,013
 253,91;  241,263; -236,578; -676,170
 254,52;  265,950; -237,342;-1063,750
 255,12;  243,688; -293,483;-1104,693
 255,72;  330,413; -206,366;  557,112
 256,32;  229,239; -242,061; -966,674
 256,92;  298,824; -190,070;-1147,529
 257,52;  409,484; -173,974; -883,243
 258,12;  228,466; -201,087;  -91,621
 258,72;  306,047; -210,810;-1232,972
 259,32;  329,893; -211,335;-1169,514
 259,92;  322,600; -199,330;-1343,086
 260,52;  326,720; -192,973;-1077,433
 261,12;  291,474; -202,059; -662,865
 261,72;  237,167; -238,452;-1312,319
 262,32;  311,962; -215,600;-1561,498
 262,92;  221,940; -238,426;  405,627
 263,53;  290,066; -189,698;-1277,594
 264,13;  260,907; -262,937; -268,632
 264,73;  275,976; -217,202;-1694,617
 265,33;  335,486; -188,317;-1708,613
 265,93;  306,373; -147,304;-1345,140
 266,53;  287,361; -161,046;-1544,392
 267,13;  252,871; -139,161; -857,388
 267,73;  287,342; -185,158;  270,230
 268,33;  238,852; -166,274;-1788,766
 268,93;  276,651; -213,708;-1702,449
 269,53;  250,074; -204,670; -644,839
 270,13;  281,934; -201,797;-1810,499
 270,73;  260,966; -245,287;-1891,239
 271,33;  326,895; -200,678;-1778,884
 271,93;  279,501; -242,919;-1867,732
 272,53;  313,007; -121,748;    8,776
 273,13;  282,131; -146,677;-1117,075
 273,73;  281,300; -119,753;-1955,652
 274,33;  317,704; -148,428;-2041,182
 274,93;  298,019; -188,007;-1843,972
 275,53;  238,007;  -68,748;-1881,224
 276,13;  208,149; -121,965;-2261,935
 276,73;  243,371; -118,361;-1570,007
 277,33;  316,279; -179,522;-1926,659
 277,93;  282,659; -213,680;-1864,693
 278,53;  314,808; -194,526;-2112,278
 279,13;  248,637; -125,506;-2152,568
 279,73;  235,816; -140,498;-1388,522
 280,33;  265,828; -154,756;-2179,270
 280,93;  370,905; -105,994;-2049,499
 281,53;  234,598; -147,387;-2252,953
 282,13;  291,135; -127,363;-2193,816
 282,73;  189,867; -156,875; -385,885
 283,33;  293,338; -137,872;-2307,266
 283,92;  257,881;  -74,477;-2028,003
 284,52;  292,416;  -94,109;-2365,496
 285,12;  295,043; -138,524;-1425,469
 285,72;  283,566; -126,898;-1041,213
 286,32;  309,147;  -55,622;-1313,564
 286,92;  285,515; -163,521;-2376,850
 287,52;  300,751;  -89,519;-2170,041
 288,12;  323,885;  -97,763;-2542,507
 288,72;  307,354; -106,417;-1625,518
 289,32;  332,824;  -54,470; 1692,233
 289,92;  307,324; -106,270;-2344,148
 290,52;  350,534;  -91,809;-2485,710
 291,12;  316,670;  -57,996;-1570,308
 291,72;  286,881;  -74,477;-1590,003
 292,32;  359,643;  -83,135;-2372,442
 292,92;  388,657;   -2,737;-2481,560
 293,51;  363,773;  -37,093;-2532,404
 294,11;  392,765;  -42,121;-1681,160
 294,71;  393,231;   -7,488;-2695,667
 295,31;  285,714;  -24,743;-1755,797
 295,91;  450,389;   46,751;-2713,629
 296,51;  437,964;   62,656;-1776,106
 297,11;  401,922;   35,061;-2900,988
 297,71;  381,810;    4,131;-2726,648
 298,31;  453,324;   38,730;-2329,148
 298,91;  492,096;   74,756;-2483,202
 299,50;  478,505;   41,395;-2689,473
 300,10;  556,944;  145,887;-2706,114
 300,70;  548,588;   95,528;-2492,576
 301,30;  588,243;   89,253;-2855,415
 301,90;  639,535;   96,248;-2004,843
 302,50;  808,607;  163,640;-2515,198
 303,10;  942,102;  124,126;-2530,076
 303,70;  980,436;  208,660;-3000,488
 304,29; 1174,424;  189,918;-2658,740
 304,89; 1579,355;  266,183;-1090,755
 305,49; 2275,895;  163,922;-2773,122
 306,09; 2339,046;  214,133;-2874,839
 306,69; 2356,267;  262,736;-2915,911
 307,29; 3259,643;  312,865;-2008,442
 307,89; 5847,391;  303,408;-3029,000
 308,48; 7345,690;  341,774;-2453,301
 309,08; 7642,401;  369,492;-2743,377
 309,68; 6363,792;  377,019;-3094,026
 310,28; 3931,566;  371,102;-2576,213
 310,88; 2515,113;  321,211;-2936,453
 311,48; 1989,580;  447,500;-2875,331
 312,07; 1782,497;  408,367;-2963,228
 312,67; 1691,228;  497,855;-2128,297
 313,27; 1524,035;  494,448;-1105,224
 313,87; 1358,082;  583,357;-2164,083
 314,47; 1406,360;  516,954;-3030,392
 315,06; 1406,283;  620,191; 2713,837
 315,66; 1378,312;  579,988;-3245,400
 316,26; 1407,003;  632,938;-1844,483
 316,86; 1383,482;  777,969;-3140,110
 317,46; 1395,773;  720,307;-2115,167
 318,06; 1440,098;  739,813; -825,335
 318,65; 1454,448;  781,801;-2807,999
 319,25; 1426,976;  821,798;-3195,617
 319,85; 1402,657;  932,663;-2908,323
 320,45; 1465,236;  986,283;-3213,304
 321,05; 1523,586;  901,271;-2761,968
 321,64; 1523,810;  889,531;-3219,411
 322,24; 1607,921; 1056,861;-3265,513
 322,84; 1664,596; 1080,356;-3261,345
 323,44; 1726,775; 1133,364;-3219,300
 324,03; 1894,208; 1194,486;-3072,067
 324,63; 1937,256; 1250,452;-2310,059
 325,23; 1965,338; 1241,928;-3097,792
 325,83; 2023,527; 1367,021;-2876,123
 326,42; 2195,512; 1442,622;-3285,005
 327,02; 2282,138; 1476,551;-3076,607
 327,62; 2434,205; 1439,629;-2505,221
 328,22; 2522,707; 1553,486;-3234,973
 328,82; 2601,384; 1577,037;-2229,938
 329,41; 2821,756; 1658,852;-3016,728
 330,01; 3174,902; 1652,750;-2961,704
 330,61; 3293,420; 1806,062;-2928,707
 331,20; 3375,115; 1778,325;-2868,531
 331,80; 3628,729; 1762,512;-2794,386
 332,40; 3783,064; 1752,102;-2896,932
 333,00; 3885,627; 1933,667;-2790,423
 333,59; 4062,466; 1748,771;-2855,091
 334,19; 4264,694; 1920,745;-1771,037
 334,79; 4273,082; 1712,615;-2861,316
 335,39; 4300,671; 1729,919;-2978,912
 335,98; 4246,464; 1726,714;-3126,958
 336,58; 4075,659; 1659,777;-3191,401
 337,18; 4091,895; 1720,779;-2958,592
 337,77; 4089,383; 1782,837;-2098,463
 338,37; 3910,066; 1806,359;-2021,540
 338,97; 3819,603; 1907,384;-2912,402
 339,57; 3780,166; 1862,948;-3044,894
 340,16; 3594,190; 1836,431;-2881,390
 340,76; 3342,479; 1962,712;-3053,314
 341,36; 3269,157; 1861,920;-3195,650
 341,95; 3278,785; 1934,506;-3027,623
 342,55; 3352,224; 1918,998;  703,736
 343,15; 3336,609; 2048,155;-3094,039
 343,74; 3364,576; 1924,644;-2382,298
 344,34; 3437,627; 1860,267;-3015,661
 344,94; 3442,322; 2068,530;-3069,485
 345,53; 3648,480; 2110,769;-2860,447
 346,13; 3596,475; 2174,398;-1283,573
 346,73; 3597,070; 1966,473;-2254,805
 347,32; 3553,283; 2268,649;-3080,871
 347,92; 3396,210; 2312,600;-2277,145
 348,52; 3201,379; 2270,523;-1878,722
 349,11; 3149,387; 2336,551;  975,034
 349,71; 3198,698; 2330,658;-3240,016
 350,31; 3338,824; 2441,387;-2672,237
 350,90; 3448,304; 2483,418;-2326,863
 351,50; 3401,255; 2390,852;-2105,634
 352,10; 3847,422; 2471,119;-3114,840
 352,69; 3976,570; 2532,273;-3182,424
 353,29; 4066,997; 2563,024;-3191,317
 353,89; 4021,851; 2645,527;-3255,104
 354,48; 4194,421; 2693,119;-3208,840
 355,08; 4471,631; 2871,980;-1117,164
 355,67; 4823,590; 2850,042;-2951,417
 356,27; 5681,836; 2839,128;-3232,985
 356,87; 6905,692; 3010,288;-3383,142
 357,46; 9471,190; 3049,431;-2351,390
 358,06;13514,164; 3306,291;-3073,523
 358,66;14581,550; 3337,504;-3109,432
 359,25;12953,781; 3260,792;-2344,119
 359,85;12655,877; 3365,667;-3215,970
 360,44;12347,582; 3389,015;-3292,172
 361,04;10410,608; 3567,155;-2367,039
 361,64; 8753,608; 3696,155;-2309,039
 362,23; 6766,436; 3772,517;-2932,958
 362,83; 5726,869; 3755,639;-2990,726
 363,42; 4922,480; 3938,769;-2836,447
 364,02; 4342,412; 3910,034;-2973,462
 364,62; 3956,475; 3816,398;-2486,573
 365,21; 3694,515; 3857,937;-1741,558
 365,81; 3524,554; 3935,818;-2792,173
 366,40; 3482,420; 3970,062;-2080,707
 367,00; 3298,151; 4021,550;-2952,776
 367,59; 3221,440; 4071,831;-2979,699
 368,19; 3122,527; 4221,678;-3237,306
 368,79; 3177,658; 4198,720;-3125,268
 369,38; 3144,210; 4107,200;-2250,383
 369,98; 3247,987; 4101,940;-2935,940
 370,57; 3447,810; 4188,588;-3331,356
 371,17; 3501,684; 4164,860;-3326,135
 371,76; 3503,207; 4277,486;-3442,879
 372,36; 3461,225; 4057,598;-3195,501
 372,95; 3315,952; 4115,372;  667,934
 373,55; 3072,475; 4105,998;-3393,811
 374,14; 3031,843; 4300,099;-3405,097
 374,74; 2862,215; 4256,514;-3224,124
 375,34; 2670,646; 4286,979;-3189,521
 375,93; 2637,263; 4295,479;-2706,116
 376,53; 2587,339; 4344,585;-3575,974
 377,12; 2550,349; 4405,670;-1465,352
 377,72; 2556,072; 4480,730;-3410,414
 378,31; 2506,469; 4511,027;-2274,699
 378,91; 2515,954; 4291,429;-3262,199
 379,50; 2524,846; 4588,213;-3331,363
 380,10; 2520,732; 4327,226;-3398,890
 380,69; 2518,275; 4094,621;-2343,626
 381,29; 2558,529; 4586,735;-2550,439
 381,88; 2696,830; 4518,758;-1605,111
 382,48; 2722,350; 4519,727;-3286,485
 383,07; 2702,580; 4495,358;-3457,802
 383,67; 2624,830; 4635,758;-1847,111
 384,26; 2509,664; 4667,491;-2467,905
 384,86; 2574,783; 4921,849;-3182,252
 385,45; 2544,397; 4932,636;-3325,344
 386,05; 2455,389; 5073,608;-3419,100
 386,64; 2482,353; 4911,384;-3524,855
 387,24; 2549,027; 5016,878;-2585,688
 387,83; 2535,729; 4993,512;-2489,386
 388,42; 2619,930; 5182,346;-2109,466
 389,02; 2604,416; 5423,748;-3235,966
 389,61; 2794,647; 5688,036;-3413,653
 390,21; 2838,027; 5729,878;-3463,688
 390,80; 2908,531; 5816,392;-3208,810
 391,40; 3172,092; 6137,899;-2293,168
 391,99; 3593,592; 5981,099;-3195,550
 392,59; 4464,505; 6435,252;-2416,943
 393,18; 7046,475; 6683,398;-2491,573
 393,77;15763,975; 6883,198;-3238,192
 394,37;22632,463; 7145,657;-2198,825
 394,96;19737,182; 7098,403;-2296,146
 395,56;23782,811; 7264,588;-2834,356
 396,15;29516,488; 6867,797;-3125,692
 396,75;22081,787; 7343,163;-2889,993
 397,34;12414,987; 7669,940;-2620,940
 397,93; 8449,560; 7720,188;-3358,047
 398,53; 6496,919; 7595,262;-2525,088
 399,12; 5143,346; 8192,013;-2154,981
 399,72; 4330,421; 8013,119;-2274,840
 400,31; 3814,454; 8034,629;-3169,581
 400,91; 3676,111; 8446,012;-2959,791
 401,50; 3380,975; 8820,198;-2330,192
 402,09; 3154,351; 8550,327;-2894,722
 402,69; 3088,324; 8691,187;-3072,856
 403,28; 3064,406; 9052,663;-2983,588
 403,88; 3068,566; 9162,560; 1927,079
 404,47; 3097,440; 9689,831;  884,300
 405,06; 2947,967; 9684,171;  -68,947
 405,66; 3063,509; 9753,565;-2875,684
 406,25; 3052,658;10085,720;-3119,268
 406,84; 2975,910;10446,177;-2892,711
 407,44; 2962,448;10847,858;-2219,944
 408,03; 2942,463;10422,257;-2906,063
 408,63; 3009,721;10373,085;-3011,379
 409,22; 2979,103;10191,584;-1945,783
 409,81; 3160,654;10681,007;-1849,765
 410,41; 3145,778;11553,078;-2857,615
 411,00; 3141,538;11336,362;-1814,921
 411,59; 3109,908;11251,120;-2826,578
 412,19; 3188,652;11468,350;-2245,394
 412,78; 3143,983;11399,226;-2830,436
 413,37; 3121,278;12151,878;-2704,234
 413,97; 3218,979;12410,512;-2618,933
 414,56; 3262,036;12071,506;-2503,169
 415,15; 3270,018;12410,394;-2121,547
 415,75; 3274,119;12408,639;-2698,272
 416,34; 3345,991;12590,254;-1893,681
 416,93; 3348,548;12922,047;-2777,536
 417,53; 3305,981;12696,169;-1423,303
 418,12; 3285,089;12570,785;-2217,903
 418,71; 3215,532;12907,592;-2673,285
 419,31; 3145,371;13054,695;-1884,952
 419,90; 3126,479;13470,313;-2786,552
 420,49; 3015,357;13619,298;-1733,834
 421,08; 2877,357;14201,298;-1674,834
 421,68; 2998,026;14723,421;-1908,792
 422,27; 3298,926;14035,832;-2004,437
 422,86; 3300,321;13874,073; -437,590
 423,46; 2727,272;14080,107;-2575,598
 424,05; 2709,483;14376,626;-2928,293
 424,64; 2764,123;13888,953;-2640,014
 425,24; 2661,857;14092,098;-2903,453
 425,83; 2680,363;13992,269;-2680,945
 426,42; 2526,483;12987,626;-2760,293
 427,01; 2585,030;13424,734;-2674,533
 427,61; 2602,821;14347,873;-2609,209
 428,20; 2585,638;14036,151;-1764,751
 428,79; 2581,506;14414,052;-2859,656
 429,38; 2543,910;14092,377;-1781,186
 429,98; 2559,644;14922,521; -994,625
 430,57; 2552,821;15058,873;-2193,209
 431,16; 2573,561;14580,389;-2784,522
 431,75; 2526,008;14357,909; -561,407
 432,35; 2594,593;13435,899;-1951,262
 432,94; 2535,589;14429,186;-2324,759
 433,53; 2504,674;14560,375;-1152,995
 434,12; 2632,607;14431,298;-2267,381
 434,72; 2695,559;14188,331;-1413,389
 435,31; 2603,093;14167,699; 7395,119
 435,90; 2593,609;14308,954; 8338,249
 436,49; 2632,412;13427,834; -683,175
 437,08; 2775,138;13895,951; -675,370
 437,68; 2743,469;14442,827;-2987,412
 438,27; 2767,134;14610,237;-2610,866
 438,86; 2682,177;14612,832;-1147,984
 439,45; 2733,681;15313,346;-1937,106
 440,05; 2806,319;15955,616;-2982,694
 440,64; 2984,957;15054,886;-1902,282
 441,23; 2860,366;14152,525;-1415,553
 441,82; 2870,305;13700,218;-2631,576
 442,41; 2917,028;14351,277;-3014,637
 443,00; 3075,616;13625,925;-2724,863
 443,60; 3270,250;14373,881;-3136,710
 444,19; 3228,724;15026,541;-1440,462
 444,78; 3334,888;14960,151;-3012,298
 445,37; 3610,858;15728,297;-2522,928
 445,96; 3851,784;15331,249;-3116,202
 446,56; 3929,781;15596,535;-1144,698
 447,15; 4207,278;16225,678; -884,947
 447,74; 4311,348;17097,412;-2709,931
 448,33; 4314,878;16443,066;-1985,920
 448,92; 4368,356;15422,440;-2964,176
 449,51; 4477,305;15095,817;-2848,813
 450,10; 4671,528;15133,078;-3063,256
 450,70; 5131,738;14904,939;-1957,581
 451,29; 5671,019;15329,193;-1112,260
 451,88; 5951,335;15513,671;-2929,183
 452,47; 6316,228;16565,055;-2795,584
 453,06; 6505,844;16495,498;-2401,047
 453,65; 6272,557;16071,874;-2873,493
 454,24; 5429,799;17329,246;-2173,558
 454,84; 4774,376;17793,209;-1379,168
 455,43; 4354,372;18732,496;-2219,665
 456,02; 4038,250;18879,480;-2927,947
 456,61; 3801,949;17317,459;-2925,275
 457,20; 3555,525;16921,363;-2786,753
 457,79; 3305,309;17588,131;-2922,554
 458,38; 3154,157;18338,264;-2132,467
 458,97; 3070,106;18039,641;-2515,104
 459,56; 2881,779;18190,479;-2760,565
 460,16; 2783,449;17832,258;-2082,894
 460,75; 2758,437;18157,518;-2072,146
 461,34; 2634,443;18077,887;-2962,020
 461,93; 2581,090;18381,186;-2200,853
 462,52; 2644,043;19333,275;-2744,993
 463,11; 2772,943;20546,688;-1989,639
 463,70; 2671,342;19458,643;-2869,295
 464,29; 2847,486;19945,082;-3150,376
 464,88; 3040,905;20795,807;-2743,024
 465,47; 3339,458;19885,285;-2748,139
 466,06; 3947,716;20915,713;-3191,692
 466,65; 4168,454;21667,572;-3018,635
 467,24; 3809,035;22030,848;-2539,986
 467,84; 3268,025;22443,164;-2020,371
 468,43; 2996,771;22325,051;-2238,559
 469,02; 2899,968;23517,170;-2702,135
 469,61; 2849,281;24168,936;-2593,555
 470,20; 2900,657;23781,063;-2841,085
 470,79; 2654,080;22760,100;-3232,475
 471,38; 2564,907;25266,463;-2192,395
 471,97; 2524,545;26009,732; -666,983
 472,56; 2499,458;25472,887;-3035,376
 473,15; 2400,939;25296,975;-2825,135
 473,74; 2334,742;26395,854;-3106,559
 474,33; 2409,799;25866,848;-2957,796
 474,92; 2316,417;27630,348;-3146,391
 475,51; 2294,948;29609,002;-2873,380
 476,10; 2277,826;29847,986;-3011,662
 476,69; 2315,115;26101,268;-2855,586
 477,28; 2233,110;25846,955;-2956,845
 477,87; 2204,145;27035,121; -173,956
 478,46; 2166,120;28695,639;-3029,460
 479,05; 2096,844;30507,100;-2134,284
 479,64; 2159,846;31679,756;-2718,655
 480,23; 2081,273;29541,508;-2845,548
 480,82; 2038,240;28549,996;-2736,807
 481,41; 2022,745;29371,510;-1873,929
 482,00; 2067,222;29284,885;-1364,185
 482,59; 2001,476;29593,998;-2298,998
 483,18; 2046,578;31702,244;-2376,723
 483,77; 2471,503;31703,139;-2193,865
 484,36; 2943,948;32475,002;-1701,380
 484,95; 2826,377;32990,410; -788,643
 485,54; 2800,427;35331,031;-1371,006
 486,13; 2969,005;35762,996; -945,616
 486,72; 2828,267;34334,137;  148,326
 487,31; 2732,708;31046,285;-1109,686
 487,89; 2579,177;32608,633; -193,697
 488,48; 2565,039;33798,164;-1523,728
 489,07; 2592,239;32913,941;-1248,674
 489,66; 2452,064;33511,645;-1505,224
 490,25; 2366,594;31095,299; -660,212
 490,84; 2312,425;34127,375;-1683,635
 491,43; 2263,763;34965,621; -701,552
 492,02; 2270,007;36094,652;-1864,987
 492,61; 2169,580;35362,902;-1043,094
 493,20; 2076,970;33776,426;-2019,743
 493,79; 2105,913;32749,434; 4824,494
 494,38; 2052,078;33706,043;-1938,342
 494,97; 2043,295;32583,934; -629,911
 495,55; 1981,245;34690,309;-2325,548
 496,14; 1919,574;35087,531;-2403,220
 496,73; 1947,997;35451,566;-1952,609
 497,32; 1911,704;34211,570;-2587,182
 497,91; 1882,417;35005,949;-1921,629
 498,50; 1998,755;34165,195;-2912,544
 499,09; 1917,704;34554,570;-3088,182
 499,68; 1901,850;32403,070;-2405,396
 500,27; 2062,419;33321,605;-2490,999
 500,85; 1974,641;32655,207;-2604,071
 501,44; 1827,724;32478,342;-2576,175
 502,03; 1816,214;33194,457;-3368,178
 502,62; 1798,615;31275,068;-3438,205
 503,21; 1786,495;29432,711;-3532,858
 503,80; 1749,094;32028,100;-2976,831
 504,39; 1766,924;32451,119;-3458,121
 504,97; 1848,369;31774,982;-3577,636
 505,56; 1758,297;31537,590;-2979,281
 506,15; 1714,017;32302,336;-3991,602
 506,74; 1639,306;32557,617;-2945,526
 507,33; 1759,109;32185,498;-3165,949
 507,92; 1983,700;33952,859;-3871,678
 508,51; 1855,190;35926,973;-3735,682
 509,09; 1839,192;34536,629;-3921,053
 509,68; 1973,759;34318,508;-3748,286
 510,27; 1961,863;33667,410;-3799,381
 510,86; 2018,893;32572,264;-4081,751
 511,45; 1905,995;33677,512;-3843,476
 512,03; 2109,464;34524,855;-3829,488
 512,62; 2102,539;36240,961;-3780,346
 513,21; 1972,048;33870,789;-3186,209
 513,80; 2059,194;34644,289;-3501,423
 514,39; 2017,517;32752,137;-3905,221
 514,97; 1882,869;35347,781;-4095,255
 515,56; 1791,889;34167,551;-4198,248
 516,15; 1937,158;35428,063;-3955,179
 516,74; 1969,674;32584,318;-4420,049
 517,33; 1950,208;33459,688;-3549,542
 517,91; 1750,985;33935,426;-4188,099
 518,50; 1807,269;32563,393;-3264,282
 519,09; 1754,294;33942,875;-3157,778
 519,68; 1719,296;35231,531;-4286,148
 520,26; 1737,182;38679,547;-4232,675
 520,85; 1649,672;39452,660;-4352,679
 521,44; 1635,280;40826,078;-4358,897
 522,03; 1648,239;39485,539;-4271,912
 522,61; 1616,280;36773,078;-4364,897
 523,20; 1544,930;33924,090;-4337,233
 523,79; 1620,548;32040,590;-4337,828
 524,38; 1598,534;32850,191;-4344,709
 524,96; 1474,477;35883,199;-4321,473
 525,55; 1501,286;36021,449;-4542,771
 526,14; 1428,631;34018,723;-4434,931
 526,73; 1423,808;32852,074;-4389,515
 527,31; 1466,381;32903,324;-4488,622
 527,90; 1531,286;33630,449;-4564,771
 528,49; 1457,017;34155,938;-2529,839
 529,08; 1370,446;34601,344;-3467,103
 529,66; 1349,814;34848,445;-3911,389
 530,25; 1445,178;35279,832;-4414,172
 530,84; 1400,918;35334,348;-4583,485
 531,42; 1422,524;38583,105;-4365,332
 532,01; 1309,001;37528,480;-4291,588
 532,60; 1320,881;34512,125;-4473,241
 533,18; 1330,694;35538,086;-4078,042
 533,77; 1331,855;34969,984;-4236,374
 534,36; 1356,115;34459,469;-4374,061
 534,95; 1363,294;35483,477;-4088,015
 535,53; 1334,166;34236,090; -974,424
 536,12; 1432,676;36469,977;-2657,420
 536,71; 1405,956;36511,230;-3869,099
 537,29; 1335,028;36073,621;-3618,454
 537,88; 1464,280;33908,078;-3454,897
 538,47; 1285,129;32497,867;-2840,180
 539,05; 1393,135;36837,238;-2139,054
 539,64; 1310,845;40414,898;-1785,997
 540,22; 1371,678;37414,633; -764,790
 540,81; 1408,526;37501,766; 1008,297
 541,40; 1417,207;39018,629; 3425,591
 541,98; 1386,428;38188,230; 4858,519
 542,57; 1450,676;39368,977; 4597,580
 543,16; 1339,849;38645,613; 4952,500
 543,74; 1465,765;35774,480; 4083,603
 544,33; 1437,723;36297,883; 3620,721
 544,92; 1475,194;37217,887; 3973,339
 545,50; 1461,944;37338,488;11456,648
 546,09; 1432,026;40064,965;11359,916
 546,67; 1411,867;41948,727; 2857,878
 547,26; 1444,401;40050,094; -202,615
 547,85; 1361,820;39208,414; -567,501
 548,43; 1386,499;38452,625; -849,836
 549,02; 1470,314;39427,246;-1040,008
 549,60; 1387,830;40570,500; -984,878
 550,19; 1336,741;41166,996;-2192,901
 550,78; 1374,544;42660,875;-2328,325
 551,36; 1374,418;45349,148;-2432,104
 551,95; 1441,186;45443,859; -585,416
 552,53; 1470,672;43280,262; -296,916
 553,12; 1420,635;41420,035;-3431,672
 553,70; 1338,432;43188,547;-2878,222
 554,29; 1392,627;44058,008;-2869,428
 554,88; 1436,865;41831,668;-4247,989
 555,46; 1462,457;43723,027;-3881,718
 556,05; 1544,282;45007,734;-4207,268
 556,63; 1466,379;45206,266;-3396,489
 557,22; 1507,995;43875,109;-3394,714
 557,80; 1506,054;41749,762;-3568,321
 558,39; 1592,786;44188,250;-4145,390
 558,97; 1655,958;47993,887;-3699,470
 559,56; 1667,767;49889,137;-4544,768
 560,15; 1645,666;50117,891;-3611,042
 560,73; 1576,361;49814,152;-4287,867
 561,32; 1708,613;47024,609;-3741,309
 561,90; 1544,495;46041,910;-4382,333
 562,49; 1534,454;48487,371;-3786,348
 563,07; 1548,341;48074,387;-4783,875
 563,66; 1558,532;50064,133;-4352,577
 564,24; 1612,711;49228,145;-4763,531
 564,83; 1614,394;51344,664;-4603,607
 565,41; 1727,690;53840,375;-4329,539
 566,00; 1672,776;52202,164;-2755,012
 566,58; 1941,926;56465,375;-3725,729
 567,17; 2129,774;56909,508;-4280,642
 567,75; 2469,601;52392,871;-4653,562
 568,34; 2778,469;55893,770;-3216,466
 568,92; 3236,534;55738,793;-3987,947
 569,51; 3278,137;54852,895; 2680,576
 570,09; 2941,284;58247,391;-4676,638
 570,68; 2612,981;53188,313;-4788,833
 571,26; 2517,078;50733,242;-3886,817
 571,85; 2709,753;57347,738;-4822,649
 572,43; 2440,397;57011,379;-4704,111
 573,01; 1944,162;52662,375;-4873,920
 573,60; 1797,099;53819,012;-3785,810
 574,18; 1669,672;55122,262;-4514,917
 574,77; 1543,794;53284,277;-4737,634
 575,35; 1565,099;56113,012;-4452,810
 575,94; 1466,233;57300,770;-4076,275
 576,52; 1469,615;54049,270;-2249,680
 577,11; 1426,623;51620,297;-3244,924
 577,69; 1426,611;48685,555;-3183,176
 578,27; 1329,741;51008,996;-3447,901
 578,86; 1345,196;55198,543;-2994,031
 579,44; 1380,920;60080,004;-2805,855
 580,03; 1468,003;60164,137;-2493,958
 580,61; 1462,087;60267,270;-3206,062
 581,19; 1376,743;56429,652;-2538,271
 581,78; 1324,363;55361,813;-2364,238
 582,36; 1353,692;57656,031;-2911,909
 582,95; 1387,719;56180,172;-1497,776
 583,53; 1332,253;59586,539;-2319,268
 584,11; 1393,487;61608,883;-2241,088
 584,70; 1380,686;61691,660;-1948,035
 585,28; 1360,463;62070,398;-1853,592
 585,87; 1334,089;60436,930;-2889,432
 586,45; 1326,196;63023,543;-2375,031
 587,03; 1323,707;64945,430;-1150,027
 587,62; 1389,857;61494,641;-1834,745
 588,20; 1715,209;62236,285;-1020,779
 588,78; 2093,607;58157,840;-3411,673
 589,37; 1997,615;57765,270;-3360,680
 589,95; 1548,704;62238,773;-3385,657
 590,54; 1332,489;63633,539;-3461,459
 591,12; 1346,331;62116,301;-3508,497
 591,70; 1332,062;59586,789;-3331,565
 592,29; 1382,184;62881,805;-2923,283
 592,87; 1426,690;63542,375;-2394,538
 593,45; 1385,948;63404,801; 1487,908
 594,04; 1303,312;62800,188;-3676,875
 594,62; 1318,495;59709,910;-3708,333
 595,20; 1311,721;62066,828;-4371,146
 595,79; 1354,973;62681,285;-4165,588
 596,37; 1305,611;61108,555;-3657,176
 596,95; 1298,011;56922,164;-4321,203
 597,53; 1278,469;58806,770;-4226,466
 598,12; 1220,146;61848,922;-3959,669
 598,70; 1278,546;64932,531;-3776,695
 599,28; 1326,690;64911,375;-3404,538
 599,87; 1275,648;64929,777;-3061,420
 600,45; 1310,152;64938,293;-3907,543
 601,03; 1220,119;63145,781;-4100,802
 601,62; 1223,312;61727,188;-4468,875
 602,20; 1229,349;59786,414;-4541,119
 602,78; 1285,587;64399,070;-4770,680
 603,36; 1306,566;64783,301;-3166,688
 603,95; 1287,794;58863,277;-4492,634
 604,53; 1314,501;62401,281;-4574,207
 605,11; 1324,200;59505,258;-2755,535
 605,69; 1332,833;62362,156;-3365,249
 606,28; 1303,184;62594,805;-4223,283
 606,86; 1239,764;61629,422;-3946,264
 607,44; 1187,432;60431,547;-3906,222
 608,02; 1204,420;58047,805;-4037,474
 608,61; 1221,865;60099,668;-2866,989
 609,19; 1207,292;58582,418;-2582,882
 609,77; 1219,528;57398,422; -710,073
 610,35; 1145,827;55748,785; 5794,625
 610,94; 1121,617;56509,926;14509,949
 611,52; 1186,865;55803,668;12610,011
 612,10; 1171,333;53026,957; 8432,133
 612,68; 1144,918;56637,949; 2694,278
 613,26; 1167,375;57037,551; 2032,015
 613,85; 1124,853;61759,926; -599,241
 614,43; 1128,438;62306,918;-1030,096
 615,01; 1113,963;62272,199;-1215,211
 615,59; 1134,575;64874,328; -972,932
 616,17; 1266,272;59402,648;-2561,890
 616,76; 1417,958;62178,887;-2993,470
 617,34; 1462,798;62666,988;-2389,138
 617,92; 1329,469;58547,770;-3399,466
 618,50; 1426,743;61202,652;-2562,271
 619,08; 1449,928;57928,031;-2514,100
 619,67; 1359,776;55968,164;-3196,012
 620,25; 1373,857;54290,641;-2743,745
 620,83; 1462,152;50498,293;-3495,543
 621,41; 1453,477;52314,797;-2800,711
 621,99; 1539,337;54560,672;-2529,371
 622,57; 1624,239;55529,141;-3707,149
 623,15; 1808,341;56213,387;-3783,875
 623,74; 1914,168;58266,746;-3892,794
 624,32; 2007,347;59330,754;-2827,749
 624,90; 2021,081;58625,898;-2311,188
 625,48; 2085,579;57897,043;-3132,436
 626,06; 2107,284;56898,391;-4006,638
 626,64; 1936,920;57787,004;-4162,855
 627,22; 1889,278;58993,020;-3409,764
 627,81; 1784,938;58046,117;-4334,478
 628,39; 1779,946;57121,145;-4560,722
 628,97; 1685,387;56597,293;-4437,733
 629,55; 1610,404;55377,750;-4219,985
 630,13; 1600,087;55669,270;-2959,062
 630,71; 1408,902;54162,891;-2747,233
 631,29; 1534,794;53129,277;-3824,634
 631,87; 1432,538;52776,504;-4223,451
 632,45; 1433,272;52786,648;-4716,890
 633,03; 1369,595;54183,500;-4191,688
 633,62; 1288,501;55423,281;-4714,207
 634,20; 1267,955;54882,172;-4089,966
 634,78; 1260,213;56497,000;-4430,283
 635,36; 1162,800;56701,648;-4449,508
 635,94; 1225,105;55183,383;-5398,684
 636,52; 1227,328;51027,645;-5422,126
 637,10; 1154,011;52116,164;-5488,203
 637,68; 1122,839;50694,527;-4702,123
 638,26; 1106,639;47618,750;-5536,176
 638,84; 1083,552;48688,902;-5421,569
 639,42; 1051,011;49235,164;-3756,203
 640,00; 1039,944;51366,148;-5405,726
 640,58; 1096,751;54579,402;-4806,027
 641,16; 1100,557;55521,656;-5571,328
 641,74; 1043,364;53214,906;-5433,630
 642,32; 1033,170;50106,160;-5620,931
 642,90;  984,977;50434,414;-5856,232
 643,48;  976,783;49231,668;-5786,534
 644,06;  974,590;49280,922;-5796,835
 644,64; 1018,397;49595,176;-5842,137
 645,22;  929,203;50513,430;-5562,438
 645,80;  967,010;50547,684;-4957,740
 646,39;  952,816;48107,938;-5515,041
 646,97;  927,623;49773,191;-5850,342
 647,54;  933,430;52328,441;-5717,644
 648,12;  926,236;54879,695;-5865,945
 648,70;  939,043;58954,949;-5885,247
 649,28;  939,849;56421,203;-6090,548
 649,86;  947,656;51091,457;-5609,850
 650,44;  896,462;48619,711;-5452,151
 651,02;  962,269;49970,965;-5474,452
 651,60;  955,076;51793,219;-5803,753
 652,18;  896,882;51320,473;-4735,055
 652,76;  920,689;53277,723;-5934,356
 653,34;  845,495;54817,977;-5939,658
 653,92;  918,302;57729,230;-5784,959
 654,50;  890,108;59042,484;-5818,261
 655,08;  962,915;58048,738;-5841,562
 655,66;  934,722;55058,992;-5115,863
 656,24;  915,528;56743,246;-5200,165
 656,82; 1019,335;58989,500;-4979,466
 657,40;  931,141;58967,754;-5667,768
 657,98;  915,948;60169,008;-5486,069
 658,56;  919,754;61114,258;-5717,371
 659,14;  945,561;61380,512;-5913,672
 659,72;  963,368;63381,766;-5916,973
 660,29;  903,174;62437,020;-5907,275
 660,87;  941,981;59738,273;-5212,576
 661,45;  919,787;58590,527;-5664,877
 662,03;  956,594;57513,781;-4971,179
 662,61;  885,400;54945,035;-5638,480
 663,19;  873,207;54618,289;-5657,782
 663,77;  826,014;53917,543;-5939,083
 664,35;  862,820;56689,793;-5887,384
 664,93;  845,627;62595,047;-4922,686
 665,51;  887,433;61993,301;-6033,987
 666,08;  873,240;57747,555;-5652,289
 666,66;  836,046;51859,809;-4400,590
 667,24;  855,853;49420,063;-5952,892
 667,82;  831,660;50250,316;-5849,193
 668,40;  858,466;50723,570;-5932,494
 668,98; 1007,273;51952,824;-5097,796
 669,56;  992,079;57957,078;-6096,097
 670,13; 1039,886;61797,328;-6222,398
 670,71;  933,693;59698,582;-5900,700
 671,29;  873,499;57209,836;-6139,001
 671,87;  839,306;56814,090;-6051,303
 672,45;  776,112;51822,344;-6050,604
 673,03;  867,919;52592,598;-4769,906
 673,60;  822,725;58431,852;-3503,207
 674,18;  818,532;63679,105;-5938,508
 674,76;  805,339;61159,359;-6226,810
 675,34;  831,145;56361,613;-5251,111
 675,92;  808,952;55284,863;-6338,413
 676,50;  812,758;55051,117;-6085,714
 677,07;  808,565;56952,371;-6095,016
 677,65;  755,371;56680,625;-6163,317
 678,23;  784,178;55997,879;-5057,618
 678,81;  812,985;58016,133;-5299,919
 679,38;  862,791;56669,387;-5969,221
 679,96;  804,598;53267,641;-5846,522
 680,54;  798,404;55171,895;-5308,824
 681,12;  816,211;52485,148;-6126,125
 681,70;  793,017;54786,398;-4413,427
 682,27;  805,824;54740,652;-5851,728
 682,85;  786,631;58265,906;-5991,029
 683,43;  911,437;64943,160;-6140,331
 684,01;  886,244;64943,414;-5172,632
 684,58;  924,050;64307,668;-5138,934
 685,16;  936,857;64236,922;-4494,235
 685,74;  980,663;62790,176;-3853,536
 686,32;  911,470;59009,430;-6012,838
 686,89;  902,277;59552,684;-6015,139
 687,47;  893,083;59534,934;-6076,441
 688,05;  929,890;56416,188;-6019,742
 688,63;  907,696;59626,441;-6102,043
 689,20;  862,503;62884,695;-5971,345
 689,78;  880,310;58427,949;-5530,646
 690,36;  901,116;54291,203;-5381,948
 690,93;  837,923;54968,457;-6355,249
 691,51;  970,729;61453,711;-6326,550
 692,09;  917,536;64946,965;-6223,852
 692,67;  886,342;64947,219;-6047,153
 693,24;  979,149;60968,469;-5803,455
 693,82;  898,956;59538,723;-6235,756
 694,40;  975,762;58049,977;-3570,058
 694,97;  956,569;57456,230;-6046,359
 695,55;  893,375;59820,484;-5464,660
 696,13;  955,182;61729,738;-4454,962
 696,70;  950,988;58594,992;-6029,263
 697,28;  905,795;59108,246;-6266,564
 697,86;  921,602;60837,500;-6030,866
 698,43;  930,408;58827,754;-6198,167
 699,01;  995,215;55595,004;-6051,469
 699,59; 1021,021;55751,258;-6402,770
 700,16; 1069,828;54174,512;-5257,072
 700,74; 1033,634;57040,766;-5497,373
 701,32; 1136,441;56440,020;-6233,674
 701,89; 1344,248;55792,273;-6049,976
 702,47; 1547,054;60296,527;-6466,277
 703,05; 1767,861;64951,781;-6309,579
 703,62; 2001,667;64952,035;-6227,880
 704,20; 2076,474;64952,285;-5306,182
 704,77; 1900,280;64952,539;-6118,483
 705,35; 1806,087;64213,793;-6006,784
 705,93; 1595,894;64327,047;-4922,085
 706,50; 1362,700;63796,301;-5267,387
 707,08; 1206,507;60606,555;-5284,688
 707,65; 1098,313;60046,809;-5620,990
 708,23; 1039,120;64881,063;-5431,292
 708,81;  939,926;64954,316;-5019,593
 709,38;  878,733;64954,570;-5001,894
 709,96;  858,540;64954,820;-6025,195
 710,53;  824,346;64955,074;-6007,497
 711,11;  839,153;61503,328;-5752,798
 711,69;  908,959;61913,582;-3821,100
 712,26;  830,766;59012,836;-4642,401
 712,84;  706,573;63346,090;-5947,703
 713,41;  797,379;64411,344;-6153,004
 713,99;  822,186;64924,598;-6068,305
 714,56;  766,992;62057,852;-6326,607
 715,14;  815,799;60312,105;-6198,908
 715,71;  801,605;60246,355;-6210,209
 716,29;  719,412;62893,609;-6648,511
 716,86;  719,219;63573,863;-6510,813
 717,44;  746,025;63263,117;-6424,114
 718,02;  721,832;62110,371;-6462,415
 718,59;  700,638;61013,625;-5121,716
 719,17;  741,445;63488,879;-5649,018
 719,74;  759,251;62907,133;-5756,319
 720,32;  725,058;63502,387;-6451,621
 720,89;  732,865;64959,641;-6422,922
 721,47;  713,671;64959,891;-6388,224
 722,04;  760,478;64960,145;-5502,525
 722,62;  691,284;64252,398;-3979,826
 723,19;  724,091;60250,652;-4938,128
 723,77;  773,897;57638,906;-5673,429
 724,34;  751,704;60150,160;-5576,730
 724,92;  767,511;63789,414;-6558,032
 725,49;  710,317;64961,668;-5666,333
 726,07;  771,124;64961,922;-6491,635
 726,64;  765,930;64627,176;-6587,936
 727,21;  846,737;60249,426;-5627,238
 727,79;  770,543;63706,680;-6444,539
 728,36;  857,350;64962,934;-6722,840
 728,94;  872,157;64963,188;-6535,142
 729,51;  856,963;64963,441;-6365,443
 730,09;  977,770;64963,695;-5545,745
 730,66;  931,576;64963,949;-6358,046
 731,24; 1054,383;64964,203;-6577,348
 731,81; 1132,189;64964,457;-5151,649
 732,38; 1141,996;64964,711;-6492,950
 732,96; 1180,803;64964,961;-6263,251
 733,53; 1279,609;60347,215;-6389,553
 734,11; 1344,416;61575,469;-6617,854
 734,68; 1467,222;64965,723;-6211,156
 735,26; 1544,029;64965,977;-6389,458
 735,83; 1661,836;64966,230;-6498,759
 736,40; 1752,642;62243,484;-6516,060
 736,98; 1767,449;61999,738;-6374,361
 737,55; 1710,255;59236,992;-5827,663
 738,13; 1693,062;57707,246;-5702,964
 738,70; 1777,868;60991,496;-5529,266
 739,27; 1738,675;62504,750;-6452,567
 739,85; 1918,482;62745,004;-6283,869
 740,42; 2153,288;64968,258;-6464,170
 740,99; 2165,095;64968,512;-5618,471
 741,57; 2318,901;64968,766;-4867,773
 742,14; 2333,708;64969,020;-5349,074
 742,72; 2473,514;64969,273;-4751,375
 743,29; 2384,321;64969,527;-6563,677
 743,86; 2314,128;64969,781;-6538,979
 744,44; 2396,934;64970,031;-6113,280
 745,01; 2292,741;64970,285;-5760,581
 745,58; 2314,547;64970,539;-6259,882
 746,16; 2299,354;64970,793;-6188,184
 746,73; 2334,160;64971,047;-6479,485
 747,30; 2427,967;61139,301;-6536,787
 747,88; 2503,774;59621,555;-5621,088
 748,45; 2676,580;64971,809;-5668,390
 749,02; 2816,387;64972,063;-6384,691
 749,60; 2978,193;62401,313;-6212,992
 750,17; 3085,000;61766,566;-5269,294
 750,74; 3310,806;62801,820;-6479,595
 751,31; 3430,613;63306,074;-6347,896
 751,89; 3538,420;64232,328;-6546,198
 752,46; 3719,226;64973,582;-6282,500
 753,03; 3749,033;64973,836;-6160,801
 753,61; 3721,839;63755,090;-4858,102
 754,18; 3535,646;64573,344;-6434,404
 754,75; 3409,452;63888,598;-5191,705
 755,32; 3217,259;60715,848;-6332,006
 755,90; 3122,066;64975,102;-6493,308
 756,47; 2998,872;64975,355;-4809,609
 757,04; 2743,679;64975,609;-6457,911
 757,61; 2580,485;64975,863;-5553,212
 758,19; 2500,292;64976,117;-5253,514
 758,76; 2224,099;64976,371;-6603,815
 759,33; 2036,905;64976,625;-6664,116
 759,90; 1900,712;64976,879;-5714,417
 760,48; 1675,518;64977,133;-6778,719
 761,05; 1683,325;64977,383;-6083,021
 761,62; 1545,131;62082,637;-4888,322
 762,19; 1402,938;58992,891;-6144,624
 762,77; 1342,745;61730,145;-5963,925
 763,34; 1168,551;64978,398;-6610,226
 763,91; 1174,358;64978,652;-5818,527
 764,48; 1187,164;64978,906;-6756,829
 765,05; 1023,971;64979,160;-6543,130
 765,63; 1089,777;63215,414;-6417,432
 766,20; 1136,584;59753,668;-6004,733
 766,77; 1013,391;57105,918;-5921,035
 767,34;  897,197;58807,172;-6640,336
 767,91;  856,004;59176,426;-6689,637
 768,49;  884,810;61368,680;-6772,939
 769,06;  865,617;64980,934;-5832,240
 769,63;  860,423;62272,188;-6636,542
 770,20;  842,230;59567,441;-5868,843
 770,77;  769,037;57921,695;-5645,145
 771,34;  691,843;60065,949;-6615,446
 771,91;  789,650;60549,203;-6102,747
 772,49;  821,456;58558,453;-6369,048
 773,06;  770,263;57687,707;-6203,350
 773,63;  741,070;60204,961;-6639,651
 774,20;  754,876;58197,215;-5918,953
 774,77;  741,683;56475,469;-6631,254
 775,34;  669,489;56707,723;-6214,556
 775,91;  793,296;57056,977;-6417,857
 776,49;  861,102;58787,230;-6590,158
 777,06;  947,909;60761,484;-6015,460
 777,63;  872,716;64224,738;-6367,761
 778,20;  768,522;62572,988;-6250,063
 778,77;  742,329;63316,242;-5763,364
 779,34;  734,135;64985,496;-6585,666
 779,91;  715,942;64985,750;-6534,967
 780,48;  751,748;59144,004;-5853,268
 781,05;  655,555;50716,258;-6586,570
 781,62;  758,362;52124,512;-6604,871
 782,20;  736,168;58813,766;-6500,172
 782,77;  708,975;64987,020;-6529,474
 783,34;  738,781;64052,273;-6522,775
 783,91;  710,588;61362,523;-6509,077
 784,48;  722,394;60480,777;-2126,378
 785,05;  727,201;59144,031;-6540,680
 785,62;  779,008;58221,285;-6452,981
 786,19;  729,814;58149,539;-5100,282
 786,76;  655,621;55130,793;-6677,583
 787,33;  705,427;56202,047;-6515,885
 787,90;  624,234;59491,301;-6591,187
 788,47;  674,040;60148,555;-5075,488
 789,04;  728,847;58988,809;-5763,790
 789,61;  747,654;58863,059;-5066,091
 790,18;  672,460;55747,313;-6561,392
 790,75;  744,267;50841,566;-6671,693
 791,32;  677,073;52056,820;-6577,995
 791,89;  737,880;55205,074;-6068,296
 792,46;  735,686;60806,328;-5763,598
 793,03;  653,493;62404,582;-6702,899
 793,60;  629,300;55699,836;-6440,201
 794,17;  730,106;52257,090;-5569,502
 794,74;  723,913;47273,344;-5886,803
 795,31;  692,719;50096,594;-6099,105
 795,88;  657,526;52579,848;-5572,406
 796,45;  655,333;53365,102;-6529,708
 797,02;  672,139;56004,355;-5046,009
 797,59;  638,946;57922,609;-6675,311
 798,16;  626,752;54563,863;-5861,612
 798,73;  629,559;53534,117;-6761,913
 799,30;  644,365;55088,371;-6611,214
 799,87;  582,172;55650,625;-6713,516
 800,44;  603,979;55353,875;-6729,817
 801,01;  595,785;56836,129;-6807,119
 801,58;  656,592;58477,383;-6537,420
 802,15;  672,398;52086,637;-6658,722
 802,72;  633,205;48849,891;-6694,023
 803,28;  576,011;52000,145;-6076,324
 803,85;  645,818;57179,398;-6728,626
 804,42;  641,625;55235,652;-5999,927
 804,99;  583,431;53752,906;-6539,229
 805,56;  546,238;52472,160;-6770,530
 806,13;  571,044;53387,410;-6075,832
 806,70;  589,851;52719,664;-6748,133
 807,27;  585,657;54477,918;-6672,434
 807,84;  550,464;52786,172;-6693,736
 808,41;  582,271;49728,426;-6022,037
 808,98;  522,077;50479,680;-5986,338
 809,54;  565,884;52469,934;-4958,640
 810,11;  567,690;48281,188;-6782,941
 810,68;  533,497;43021,441;-6680,243
 811,25;  511,303;41394,695;-6760,544
 811,82;  531,110;40374,945;-6886,846
 812,39;  504,917;37710,199;-3331,147
 812,96;  539,723;38779,453;-6767,448
 813,52;  512,530;41291,707;-6937,750
 814,09;  533,336;44522,961;-6766,051
 814,66;  483,143;50325,215;-6827,353
 815,23;  533,949;51240,469;-6669,654
 815,80;  491,756;50439,723;-5853,956
 816,37;  525,563;50917,977;-6801,257
 816,93;  482,369;49487,230;-6731,558
 817,50;  471,176;46790,480;-6102,859
 818,07;  543,982;46034,734;-6960,161
 818,64;  600,789;46919,988;-6856,462
 819,21;  533,596;46261,242;-6053,764
 819,77;  594,402;42742,496;-6571,065
 820,34;  570,209;42053,750;-6677,367
 820,91;  609,015;43276,004;-6469,668
 821,48;  568,822;43873,258;-6689,969
 822,05;  605,628;45571,512;-5875,271
 822,61;  571,435;44296,766;-5631,572
 823,18;  545,242;41860,016;-6620,874
 823,75;  507,048;42585,270;-6957,175
 824,32;  536,855;45286,523;-6923,477
 824,88;  524,661;45073,777;-6882,778
 825,45;  501,468;44018,031;-6899,079
 826,02;  502,274;43798,285;-6643,380
 826,59;  517,081;43974,539;-6639,682
 827,15;  467,888;46077,793;-6906,983
 827,72;  489,694;49519,047;-6723,285
 828,29;  460,501;51523,301;-6895,586
 828,86;  444,307;48827,551;-6791,888
 829,42;  444,114;40797,805;-6812,189
 829,99;  510,920;36802,059;-6647,490
 830,56;  497,727;36252,313;-6869,792
 831,13;  499,534;37220,566;-6060,093
 831,69;  485,340;38022,820;-6506,395
 832,26;  487,147;38832,074;-5062,696
 832,83;  451,953;40408,328;-5452,998
 833,39;  461,760;40187,582;-6904,299
 833,96;  512,566;39167,836;-6687,600
 834,53;  441,373;40039,086;-6928,902
 835,10;  414,180;39930,340;-6529,203
 835,66;  475,986;38972,594;-6920,504
 836,23;  438,793;39801,848;-6803,806
 836,80;  450,599;39428,102;-6790,107
 837,36;  456,406;37086,355;-6810,409
 837,93;  431,212;34475,609;-6902,710
 838,50;  458,019;35084,863;-6789,012
 839,06;  404,826;37684,117;-6288,313
 839,63;  448,632;37191,371;-6895,614
 840,19;  463,439;35132,621;-6607,916
 840,76;  395,245;35364,875;-6404,217
 841,33;  448,052;35892,129;-6509,519
 841,89;  465,859;36779,383;-6949,820
 842,46;  471,665;37103,637;-6751,122
 843,03;  472,472;35389,891;-6089,423
 843,59;  434,278;34224,145;-6403,724
 844,16;  469,085;34994,398;-6181,025
 844,73;  491,891;34249,652;-6067,327
 845,29;  456,698;32937,902;-5695,628
 845,86;  428,505;35699,156;-6800,930
 846,42;  435,311;36940,410;-7004,231
 846,99;  479,118;36477,664;-6967,533
 847,56;  405,924;36265,918;-5840,834
 848,12;  356,731;36240,172;-6745,135
 848,69;  390,537;35710,426;-6715,437
 849,25;  423,344;34401,680;-6845,738
 849,82;  335,151;34081,934;-3247,040
 850,38;  424,957;35064,188;-6840,341
 850,95;  411,764;32489,439;-6324,643
 851,52;  416,570;32520,693;-6565,944
 852,08;  433,377;32548,947;-6691,245
 852,65;  345,183;30323,199;-7005,546
 853,21;  415,990;27698,453;-6958,848
 853,78;  366,797;27362,707;-6363,149
 854,34;  381,603;28860,961;-6871,451
 854,91;  371,410;29081,215;-5086,752
 855,47;  381,216;29942,467;-5108,054
 856,04;  437,023;32027,721;-6746,355
 856,60;  391,829;33961,973;-6104,656
 857,17;  417,636;34979,227;-6840,958
 857,73;  388,443;33553,480;-6811,259
 858,30;  369,249;32532,734;-6985,561
 858,86;  409,056;31110,988;-5926,862
 859,43;  413,862;31430,242;-6226,164
 859,99;  394,669;32011,496;-6852,465
 860,56;  402,476;33126,750;-6903,766
 861,12;  408,282;35190,004;-6737,068
 861,69;  390,089;33669,258;-5924,369
 862,25;  466,895;34731,508;-6821,670
 862,82;  418,702;34419,762;-5972,972
 863,38;  406,508;31196,018;-6843,273
 863,95;  437,315;29305,270;-6239,575
 864,51;  458,122;30403,523;-5287,876
 865,08;  480,928;29284,777;-6090,178
 865,64;  470,735;26795,031;-7018,479
 866,21;  432,541;26131,285;-6745,780
 866,77;  431,348;26051,537;-5552,082
 867,34;  470,154;25734,791;-6672,383
 867,90;  500,961;24632,045;-6303,685
 868,46;  489,768;23835,299;-6041,986
 869,03;  384,574;24389,551;-6929,288
 869,59;  396,381;26353,805;-6884,589
 870,16;  381,187;27647,059;-6052,890
 870,72;  410,994;30060,313;-6657,191
 871,28;  432,800;32915,566;-5992,493
 871,85;  422,607;33142,820;-6907,794
 872,41;  402,414;31569,072;-6004,096
 872,98;  374,220;32738,326;-6050,397
 873,54;  385,027;33876,578;-5920,699
 874,10;  427,833;32768,832;-5876,000
 874,67;  392,833;32987,832;-6904,000
 875,23;  378,833;31068,834;-7032,000
 875,80;  428,833;28009,834;-6641,000
 876,36;  360,833;25058,834;-6642,000
 876,92;  427,833;22832,834;-6189,000
 877,49;  428,833;23923,834;-6517,000
 878,05;  381,833;24896,834;-6797,000
 878,61;  324,833;26938,834;-6812,000
 879,18;  398,833;27553,834;-6252,000
 879,74;  423,833;28076,834;-6720,000
 880,30;  400,833;28679,834;-5926,000
 880,87;  392,833;28852,834;-6326,000
 881,43;  394,833;29533,834;-6871,000
 881,99;  367,833;27306,834;-6879,000
 882,56;  323,833;27610,834;-6661,000
 883,12;  380,833;29049,834;-5740,000
 883,68;  394,833;29120,834;-6518,000
 884,25;  409,833;28300,834;-6949,000
 884,81;  311,833;26343,834;-6701,000
 885,37;  377,833;24221,834;-6786,000
 885,94;  358,833;22940,834;-6851,000
 886,50;  393,833;23098,834;-6886,000
 887,06;  346,833;24358,834;-6796,000
 887,62;  381,833;25019,834;-6866,000
 888,19;  392,833;25774,834;-5986,000
 888,75;  391,833;26542,834;-6821,000
 889,31;  430,833;29043,834;-6778,000
 889,87;  411,833;30537,834;-6723,000
 890,44;  426,833;30349,834;-6696,000
 891,00;  404,833;28757,834;-6786,000
 891,56;  425,833;26457,834;-6998,000
 892,12;  497,833;24463,834;-6754,000
 892,69;  443,833;25310,834;-6373,000
 893,25;  417,833;28798,834;-6877,000
 893,81;  442,833;31774,834;-6696,000
 894,37;  488,833;31330,834;-6342,000
 894,94;  432,833;28713,834;-6772,000
 895,50;  465,833;26035,834; -212,000
 896,06;  534,833;24749,834;-6810,000
 896,62;  517,833;23405,834;-6707,000
 897,18;  596,833;24661,834;-6518,000
 897,75;  608,833;27406,834;-6895,000
 898,31;  612,833;27887,834;-6849,000
 898,87;  577,833;26274,834;-6860,000
 899,43;  576,833;25164,834;-6469,000
 899,99;  552,833;26592,834;-6866,000
 900,56;  598,833;25515,834;-6791,000
 901,12;  570,833;24875,834;-6890,000
 901,68;  628,833;27903,834;-6267,000
 902,24;  616,833;31800,834;-5930,000
 902,80;  694,833;32652,834;-6794,000
 903,36;  853,833;31893,834;-6691,000
 903,93; 1065,833;32139,834;-6646,000
 904,49; 2220,833;32761,834;-6913,000
 905,05; 5188,833;30952,834;-6732,000
 905,61;11387,833;28208,834;-6832,000
 906,17;20560,834;28086,834;-6901,000
 906,73;31772,834;25975,834;-5380,000
 907,29;42962,832;24960,834;-6910,000
 907,86;52292,832;25118,834;-6827,000
 908,42;57937,832;28092,834;-6795,000
 908,98;50538,832;31123,834;-5908,000
 909,54;29562,834;38813,832;-6885,000
 910,10;11473,833;48220,832;-6634,000
 910,66; 3818,833;57581,832;-6781,000
 911,22; 1686,833;65027,832;-6761,000
 911,78; 1051,833;62593,832;-6841,000
 912,34;  831,833;53256,832;-6080,000
 912,90;  800,833;44610,832;-5232,000
 913,46;  701,833;37052,832;-6876,000
 914,03;  643,833;30620,834;-5746,000
 914,59;  681,833;27452,834;-6682,000
 915,15;  615,833;24908,834;-6891,000
 915,71;  610,833;24217,834;-6863,000
 916,27;  542,833;23800,834;-6723,000
 916,83;  577,833;23006,834;-5824,000
 917,39;  530,833;21742,834;-3512,000
 917,95;  521,833;20224,834;-6009,000
 918,51;  459,833;19972,834;-6583,000
 919,07;  499,833;21780,834;-6791,000
 919,63;  402,833;23295,834;-6661,000
 920,19;  423,833;23935,834;-6865,000
 920,75;  482,833;23112,834;-6640,000
 921,31;  491,833;21484,834;-4837,000
 921,87;  449,833;20216,834;-6845,000
 922,43;  435,833;18019,834;-5626,000
 922,99;  563,833;17321,834;-6706,000
 923,55;  491,833;18674,834;-6655,000
 924,11;  521,833;19094,834;-6976,000
 924,67;  450,833;19310,834;-6962,000
 925,23;  425,833;19485,834;-6778,000
 925,79;  485,833;20122,834;-6710,000
 926,35;  495,833;20219,834;-6573,000
 926,91;  438,833;19401,834;-6909,000
 927,47;  473,833;19367,834;-6660,000
 928,03;  502,833;20294,834;-6786,000
 928,59;  484,833;20503,834;-6678,000
 929,15;  469,833;20781,834;-6792,000
 929,71;  455,833;22016,834;-6840,000
 930,27;  452,833;23587,834;-6537,000
 930,82;  461,833;25573,834;-6728,000
 931,38;  410,833;24317,834;-5852,000
 931,94;  420,833;22672,834;-6843,000
 932,50;  487,833;21252,834;-6481,000
 933,06;  426,833;20895,834;-6768,000
 933,62;  474,833;21092,834;-6443,000
 934,18;  465,833;20632,834;-6727,000
 934,74;  458,833;21320,834;-6709,000
 935,30;  487,833;22030,834;-6484,000
 935,86;  477,833;21213,834;-6505,000
 936,42;  469,833;20702,834;-6873,000
 936,97;  442,833;21656,834;-6563,000
 937,53;  445,833;20552,834;-6826,000
 938,09;  463,833;21087,834;  123,000
 938,65;  430,833;21186,834;-6268,000
 939,21;  496,833;20179,834;-6708,000
 939,77;  459,833;18946,834;-6213,000
 940,33;  422,833;18602,834;-6748,000
 940,88;  429,833;19429,834;-5908,000
 941,44;  439,833;21301,834;-6983,000
 942,00;  458,833;23225,834;-6697,000
 942,56;  455,833;24231,834;-6604,000
 943,12;  459,833;23427,834;-5907,000
 943,68;  418,833;22950,834;-5679,000
 944,23;  483,833;23124,834;-6749,000
 944,79;  473,833;22674,834;-6102,000
 945,35;  423,833;20741,834;-6599,000
 945,91;  529,833;19519,834;-6767,000
 946,47;  429,833;19827,834;-3353,000
 947,03;  463,833;19896,834;-6850,000
 947,58;  470,833;19661,834;-6840,000
 948,14;  471,833;20790,834;-5897,000
 948,70;  464,833;19573,834;-5855,000
 949,26;  462,833;18881,834;-6616,000
 949,81;  515,833;18342,834;-6644,000
 950,37;  481,833;18686,834;-6695,000
 950,93;  451,833;17993,834;-6224,000
 951,49;  450,833;17568,834;-6057,000
 952,05;  467,833;17926,834;-6571,000
 952,60;  483,833;17299,834;-6951,000
 953,16;  442,833;16933,834;-5783,000
 953,72;  411,833;15628,833;-5813,000
 954,27;  447,833;15524,833;-6566,000
 954,83;  517,833;15317,833;-6703,000
 955,39;  443,833;14917,833;-6691,000
 955,95;  435,833;14456,833;-6849,000
 956,50;  427,833;14272,833;-6698,000
 957,06;  425,833;14126,833;-5922,000
 957,62;  470,833;13780,833;-6559,000
 958,18;  481,833;13872,833;-6741,000
 958,73;  435,833;13326,833;-6820,000
 959,29;  451,833;13518,833;-6106,000
 959,85;  416,833;14785,833;-6864,000
 960,40;  469,833;16746,834;-4263,000
 960,96;  528,833;16386,834;-6738,000
 961,52;  479,833;14755,833;-6643,000
 962,07;  467,833;13711,833;-6742,000
 962,63;  442,833;13208,833;-6723,000
 963,19;  462,833;13435,833;-5779,000
 963,74;  486,833;13877,833;-6582,000
 964,30;  481,833;14475,833;-6595,000
 964,86;  555,833;14281,833;-6484,000
 965,41;  543,833;14290,833;-6705,000
 965,97;  463,833;14185,833;-6569,000
 966,53;  531,833;14792,833;-6750,000
 967,08;  504,833;15311,833;-6611,000
 967,64;  483,833;15082,833;-6705,000
 968,19;  515,833;14471,833;-6684,000
 968,75;  465,833;14662,833;-6566,000
 969,31;  541,833;14880,833;-5626,000
 969,86;  510,833;14995,833;-6505,000
 970,42;  541,833;13195,833;-6620,000
 970,97;  597,833;11567,833;-6437,000
 971,53;  542,833;11625,833;-6490,000
 972,09;  578,833;12998,833;-6646,000
 972,64;  577,833;13523,833;-5812,000
 973,20;  588,833;13815,833;-6599,000
 973,75;  580,833;14605,833;-5760,000
 974,31;  549,833;14826,833;-6578,000
 974,87;  565,833;14921,833;-6674,000
 975,42;  558,833;14507,833;-6727,000
 975,98;  574,833;13201,833;-6651,000
 976,53;  568,833;12100,833;-6555,000
 977,09;  578,833;11353,833;-4624,000
 977,64;  626,833;11164,833;-6532,000
 978,20;  617,833;10649,833;-6585,000
 978,75;  579,833;10482,833;-6429,000
 979,31;  632,833;10950,833;-6513,000
 979,86;  627,833;12220,833;-6739,000
 980,42;  643,833;12828,833;-5813,000
 980,97;  626,833;13290,833;-6642,000
 981,53;  693,833;14285,833;-6636,000
 982,08;  666,833;13803,833;-5046,000
 982,64;  619,833;12278,833;-6237,000
 983,19;  683,833;11308,833;-6760,000
 983,75;  715,833;10993,833;-6576,000
 984,30;  716,833;10430,833;-5581,000
 984,86;  691,833; 9867,833;-5898,000
 985,41;  713,833; 9457,833;-6634,000
 985,97;  693,833; 9632,833;-4797,000
 986,52;  699,833; 9894,833;-5853,000
 987,08;  726,833; 9953,833;-6174,000
 987,63;  713,833;10165,833;-5608,000
 988,19;  684,833;11252,833;-6266,000
 988,74;  730,833;11710,833;-5682,000
 989,30;  775,833;11529,833;-6568,000
 989,85;  739,833;11470,833; -276,000
 990,40;  758,833;11314,833;-6617,000
 990,96;  706,833;11060,833;-6482,000
 991,51;  709,833;11149,833;-6578,000
 992,07;  729,833;10742,833;-6605,000
 992,62;  771,833;10285,833;-6519,000
 993,18;  681,833;10035,833;-6504,000
 993,73;  757,833; 9986,833;-6440,000
 994,28;  746,833; 9800,833;-6464,000
 994,84;  786,833; 9019,833;-6240,000
 995,39;  773,833; 8474,833;-2971,000
 995,94;  790,833; 7953,833;-5673,000
 996,50;  732,833; 7647,833;-6543,000
 997,05;  779,833; 7872,833;-3481,000
 997,61;  845,833; 8363,833;-6489,000
 998,16;  814,833; 8581,833;-6555,000
 998,71;  819,833; 8850,833;-6340,000
 999,27;  784,833; 9115,833;-5223,000
 999,82;  811,833; 8706,833;-4778,000
1000,37;  800,833; 8661,833;-6520,000
1000,93;  851,833; 8920,833;-6107,000
1001,48;  873,833; 8799,833;-6543,000
1002,03;  848,833; 8477,833;-6469,000
1002,59;  911,833; 8715,833;-5972,000
1003,14;  874,833; 8758,833;-6113,000
1003,69;  837,833; 8484,833;-6513,000
1004,25;  864,833; 8299,833;-6507,000
1004,80;  838,833; 8322,833;-6266,000
1005,35;  859,833; 8313,833;-6361,000
1005,91;  959,833; 8515,833;-6558,000
1006,46;  858,833; 8426,833;-6084,000
1007,01;  892,833; 8227,833;-5479,000
1007,56;  923,833; 8599,833;-6440,000
1008,12;  935,833; 8342,833;-6178,000
1008,67;  937,833; 7867,833;-6312,000
1009,22; 1009,833; 7509,833;-6481,000
1009,78;  960,833; 7205,833;-6163,000
1010,33;  989,833; 6649,833;-6443,000
1010,88; 1019,833; 6413,833;-5618,000
1011,43; 1066,833; 5995,833;-6433,000
1011,99; 1066,833; 5972,833;-6198,000
1012,54; 1096,833; 6320,833;-6387,000
1013,09; 1148,833; 6048,833;-6299,000
1013,64; 1081,833; 5802,833;-6362,000
1014,19; 1091,833; 5823,833;-6442,000
1014,75; 1227,833; 5928,833;-6408,000
1015,30; 1164,833; 6394,833;-6425,000
1015,85; 1254,833; 6370,833;-6367,000
1016,40; 1304,833; 6247,833;-5436,000
1016,96; 1455,833; 6235,833;-6268,000
1017,51; 1433,833; 6150,833;-6351,000
1018,06; 1568,833; 6095,833;-6310,000
1018,61; 1527,833; 5695,833;-6665,000
1019,16; 1472,833; 5609,833;-6697,000
1019,71; 1663,833; 5663,833;-6373,000
1020,27; 1738,833; 5567,833;-6353,000
1020,82; 1730,833; 5375,833;-3700,000
1021,37; 1833,833; 5405,833;-4798,000
1021,92; 1832,833; 5984,833;-6454,000
1022,47; 1963,833; 5965,833;-6548,000
1023,02; 1985,833; 5463,833;-6512,000
1023,58; 2037,833; 5045,833;-6573,000
1024,13; 2140,833; 4730,833;-6258,000
1024,68; 2236,833; 4434,833;-6298,000
1025,23; 2261,833; 4324,833;-5525,000
1025,78; 2312,833; 4613,833;-6475,000
1026,33; 2356,833; 4932,833;-5510,000
1026,88; 2576,833; 4843,833;-6236,000
1027,43; 2782,833; 5167,833;-6276,000
1027,99; 2814,833; 5134,833;-6002,000
1028,54; 3128,833; 4732,833;-6395,000
1029,09; 3420,833; 4106,833;-2478,000
1029,64; 3672,833; 3919,833;-6303,000
1030,19; 3883,833; 4147,833;-3821,000
1030,74; 4143,833; 4243,833;-5134,000
1031,29; 4402,833; 4284,833;-4765,000
1031,84; 4724,833; 4491,833;-6300,000
1032,39; 4994,833; 4563,833;-5403,000
1032,94; 5441,833; 4617,833;-4326,000
1033,49; 5873,833; 4361,833;-5476,000
1034,04; 6345,833; 4236,833;-6312,000
1034,59; 6710,833; 4205,833;-6507,000
1035,14; 6911,833; 4117,833;-6145,000
1035,69; 7454,833; 4318,833;-6224,000
1036,24; 8148,833; 4104,833;-4477,000
1036,80; 9042,833; 3986,833;-5453,000
1037,35; 9711,833; 4138,833;-6347,000
1037,90;10415,833; 4172,833;-6274,000
1038,45;11195,833; 4201,833;-6419,000
1039,00;12070,833; 4340,833;-5490,000
1039,55;12709,833; 4229,833;-6284,000
1040,10;13529,833; 3977,833;-5615,000
1040,65;14079,833; 3916,833;-5576,000
1041,20;14841,833; 3850,833;-6325,000
1041,75;15937,833; 4030,833;-4522,000
1042,30;17516,834; 4164,833;-3585,000
1042,84;19128,834; 4338,833;-4439,000
1043,39;20841,834; 4248,833;-6313,000
1043,94;22748,834; 4175,833;-5342,000
1044,49;24730,834; 3887,833;-6246,000
1045,04;27520,834; 3710,833;-5800,000
1045,59;30142,834; 3809,833;-6299,000
1046,14;33600,832; 3732,833;-6392,000
1046,69;37360,832; 3591,833;-6294,000
1047,24;41737,832; 3623,833;-5510,000
1047,79;46516,832; 3737,833;-6139,000
1048,34;52049,832; 4002,833;-5961,000
1048,89;58214,832; 3948,833;-6259,000
1049,44;65067,832; 3935,833;-5172,000
1049,99;65067,832; 3855,833;-4844,000
1050,54;65067,832; 3876,833;-6249,000
1051,08;65067,832; 3961,833;-6178,000
1051,63;65067,832; 4050,833;-5285,000
1052,18;65067,832; 5051,833;-6127,000
1052,73;65067,832; 7151,833;-6173,000
1053,28;65067,832;10516,833;-6386,000
1053,83;65067,832;15224,833;-6214,000
1054,38;65067,832;19203,834;-6254,000
1054,93;65067,832;21243,834;-6285,000
1055,47;65067,832;23825,834;-5328,000
1056,02;65067,832;26212,834;-5832,000
1056,57;65067,832;27830,834;-6198,000
1057,12;65067,832;30497,834;-6378,000
1057,67;65067,832;33805,832;-6078,000
1058,22;65067,832;36084,832;-6313,000
1058,76;65067,832;38542,832;-6093,000
1059,31;65067,832;44129,832;-3514,000
1059,86;65067,832;48778,832;-6204,000
1060,41;65067,832;49718,832;-6152,000
1060,96;65067,832;51396,832;-6226,000
1061,51;65067,832;53649,832;-5344,000
1062,05;65067,832;54082,832;-6122,000
1062,60;65067,832;50555,832;-6061,000
1063,15;65067,832;45221,832;-6149,000
1063,70;65067,832;41550,832;-6250,000
1064,24;65067,832;43676,832;-6169,000
1064,79;65067,832;45461,832;-6144,000
1065,34;65067,832;43989,832;-6064,000
1065,89;65067,832;41776,832;-6202,000
1066,44;65067,832;37631,832;-6120,000
1066,98;65067,832;32612,834;-6224,000
1067,53;65067,832;30790,834;-5953,000
1068,08;65067,832;30368,834;-4845,000
1068,63;65067,832;27618,834;-6096,000
1069,17;65067,832;24647,834;-5893,000
1069,72;65067,832;22350,834;-5857,000
1070,27;65067,832;20529,834;-6040,000
1070,81;65067,832;20388,834;-5996,000
1071,36;65067,832;20367,834;-3883,000
1071,91;65067,832;18745,834;  966,000
1072,46;65067,832;16791,834;-5058,000
1073,00;65067,832;14646,833;-5239,000
1073,55;65067,832;11404,833;-5935,000
1074,10;65067,832; 7803,833;-5981,000
1074,64;65067,832; 5240,833;-5860,000
1075,19;65067,832; 3535,833;-4958,000
1075,74;65067,832; 2551,833;-6091,000
1076,28;65067,832; 2312,833;-6075,000
1076,83;65067,832; 1951,833;-5286,000
1077,38;65067,832; 1820,833;-5653,000
1077,92;57802,832; 1783,833;-6332,000
1078,47;49445,832; 1629,833;-5507,000
1079,02;41644,832; 1578,833;-5959,000
1079,56;35725,832; 1557,833;-5328,000
1080,11;30330,834; 1304,833;-6094,000
1080,65;26589,834; 1241,833;-5039,000
1081,20;23414,834; 1186,833;-6151,000
1081,75;20578,834; 1125,833;-6039,000
1082,29;17948,834; 1128,833; -139,000
1082,84;15783,833; 1184,833;-2678,000
1083,39;13996,833; 1294,833;-5061,000
1083,93;12909,833; 1335,833;-5025,000
1084,48;11939,833; 1196,833;-5961,000
1085,02;10798,833; 1082,833;-5783,000
1085,57;10139,833; 1074,833;-5994,000
1086,11; 9606,833; 1079,833;-5968,000
1086,66; 9072,833;  925,833;-5584,000
1087,21; 8423,833; 1060,833;-5802,000
1087,75; 7835,833;  939,833;-6125,000
1088,30; 7511,833;  815,833;-5040,000
1088,84; 6809,833;  783,833;-5963,000
1089,39; 6336,833;  656,833;-5965,000
1089,93; 6053,833;  664,833;-6100,000
1090,48; 5561,833;  649,833;-4394,000
1091,02; 5511,833;  733,833;-5181,000
1091,57; 5072,833;  629,833;-5479,000
1092,11; 5012,833;  642,833;-4094,000
1092,66; 4654,833;  624,833;-6031,000
1093,20; 4568,833;  580,833;-5180,000
1093,75; 4515,833;  566,833;-4998,000
1094,29; 4346,833;  486,833;-4979,000
1094,84; 4126,833;  525,833;-5890,000
1095,38; 3949,833;  528,833;-5097,000
1095,93; 3834,833;  584,833;-5981,000
1096,47; 3555,833;  615,833;-5612,000
1097,02; 3457,833;  587,833;-4985,000
1097,56; 3281,833;  614,833;-5772,000
1098,11; 3118,833;  552,833;-5774,000
1098,65; 2981,833;  508,833;-5992,000
1099,20; 2895,833;  577,833;-5935,000
1099,74; 2670,833;  487,833;-6002,000
1100,29; 2612,833;  513,833;-4879,000
1100,83; 2469,833;  496,833;-5934,000

