
Integration time [ms]:   1,000
Averaging Nr. [scans]: 1
Smoothing Nr. [pixels]: 0
Data measured with spectrometer [name]: 1703254U1
Wave   ;Sample   ;Dark     ;Reference;Scope
[nm]   ;[counts] ;[counts] ;[counts] 

 190,08;  -92,745; -370,119;11982,743
 190,69;  -74,468; -359,404;11603,049
 191,29;  -75,973; -311,651;11479,965
 191,90;  -85,542; -365,508;11440,717
 192,50;  -83,821; -379,511;10355,099
 193,10;  -63,393; -446,299;11244,381
 193,71;  -82,639; -367,888; 9821,736
 194,31;  -77,155; -399,273; 9436,327
 194,91;  -77,155; -382,273; 9291,327
 195,52;  -83,929; -338,386;10555,949
 196,12;  -60,168; -397,056; 8671,847
 196,72;  -79,628; -386,394; 8220,904
 197,32;  -82,639; -375,888; 8251,736
 197,93;  -65,866; -360,420; 8700,957
 198,53;  -78,983; -383,145; 7601,797
 199,13;  -85,864; -397,132; 8091,270
 199,74;  -71,027; -366,410; 7263,813
 200,34;  -66,371; -388,667; 7832,874
 200,94;  -64,899; -436,547; 6941,297
 201,55;  -74,468; -406,404; 7119,049
 202,15;  -77,586; -375,773; 6404,732
 202,75;  -83,260; -373,217; 6097,647
 203,36;  -51,092; -338,664; 6822,492
 203,96; -119,517; -357,943; 6332,678
 204,56;  -61,532; -355,657;10275,729
 205,16;  -58,951; -363,018; 5478,458
 205,77;  -92,638; -360,244; 4767,892
 206,37;  -80,811; -409,017; 5556,267
 206,97;  -84,467; -363,760; 5129,205
 207,58;  -67,802; -364,166; 5927,278
 208,18;  -87,585; -337,129; 5129,889
 208,78;  -63,004; -404,134; 5295,461
 209,38;  -68,447; -469,415; 4958,385
 209,99;  -37,339; -356,540; 3837,534
 210,59;  -51,952; -361,662; 3890,301
 211,19;  -69,199; -364,538; 3938,343
 211,79;  -61,996; -366,927; 4499,316
 212,40;  -89,735; -373,625; 3368,911
 213,00;  -73,919; -388,891; 3903,118
 213,60;  -86,079; -386,882; 2992,972
 214,20;  -97,379; -401,230; 3081,175
 214,81;  -77,175; -422,618; 2884,148
 215,41; -100,594; -376,979; 3235,877
 216,01; -117,269; -373,067; 3109,636
 216,61;  -50,048; -367,399; 2814,476
 217,22;  -74,754; -381,326; 2358,888
 217,82;  -58,483; -325,173; 2262,495
 218,42;  -86,270; -383,711; 2389,480
 219,02; -114,894; -288,327; 3432,079
 219,63;  -98,444; -357,483; 2044,854
 220,23;  -41,777; -366,602; 2425,239
 220,83;  -93,949; -395,730; 1901,770
 221,43; -118,442; -393,195; 1850,167
 222,03;  -66,237; -348,940; 2326,296
 222,64;  -94,712; -380,348; 1769,560
 223,24;  -37,475; -298,966; 1625,350
 223,84;  -71,635; -376,313; 2637,361
 224,44;  -63,872; -316,695; 2381,571
 225,05;  -66,216; -313,952; 1440,632
 225,65;  -77,130; -301,065; 1227,445
 226,25;  -35,055; -364,961; 1139,777
 226,85;  -67,355; -294,309;  995,979
 227,45;  -55,851; -335,706; 1083,907
 228,06;  -67,023; -365,834; 1945,438
 228,66; -110,485; -349,460; 4049,182
 229,26;  -15,527; -313,438; 1131,510
 229,86;  -79,152; -396,342; 1760,797
 230,46;  -85,302; -358,194;  891,976
 231,06;  -99,087; -320,444;  757,273
 231,67;  -87,089; -346,732; 1228,961
 232,27; -122,107; -343,789;  778,094
 232,87;  -60,785; -308,808;  526,384
 233,47; -135,225; -321,158;  525,777
 234,07;  -96,723; -268,486; 9912,235
 234,67;  -86,654; -291,013;  672,338
 235,28; -122,225; -319,158;   65,777
 235,88; -116,202; -316,882;  285,426
 236,48;  -70,904; -350,821;  165,911
 237,08;  -73,634; -267,669;  448,518
 237,68; -154,352; -369,378; -267,552
 238,28; -102,848; -304,774; -106,624
 238,89;  -84,309; -212,756; -205,723
 239,49;  -80,493; -282,023; 1280,483
 240,09; -105,459; -284,608; -190,544
 240,69; -156,932; -251,373; -319,124
 241,29; -103,815; -289,647;  651,036
 241,89; -106,246; -330,147; -260,559
 242,49;  -76,126; -248,490; -358,930
 243,10; -126,685; -201,496; 3664,834
 243,70;  -88,126; -284,490;  239,070
 244,30;  -91,105; -275,501; -708,594
 244,90;  -59,221; -188,582; -568,598
 245,50; -122,394; -177,355; 3274,777
 246,10; -110,836; -307,636; -831,300
 246,70;  -96,395; -300,999;   17,620
 247,30;  -79,256; -251,641;  326,273
 247,91; -151,522; -208,218; 5781,292
 248,51; -127,362; -270,228; -806,563
 249,11;  -75,224; -239,514;  417,933
 249,71;  -69,234; -303,008; -667,235
 250,31;  -76,566; -265,483; -567,693
 250,91;  -41,965; -238,500;   75,216
 251,51;  -61,082; -199,225; -822,945
 252,11; -100,327; -239,813;  367,410
 252,71;  -94,728; -269,117;-1080,994
 253,31;  -89,834; -222,348; 3228,013
 253,91;  -79,801; -236,578; -676,170
 254,52;  -81,275; -237,342;-1063,750
 255,12;  -74,566; -293,483;-1104,693
 255,72;  -28,373; -206,366;  557,112
 256,32;  -93,832; -242,061; -966,674
 256,92;  -56,672; -190,070;-1147,529
 257,52;  -55,297; -173,974; -883,243
 258,12; -109,070; -201,087;  -91,621
 258,72;  -96,047; -210,810;-1232,972
 259,32;  -16,715; -211,335;-1169,514
 259,92;  -23,296; -199,330;-1343,086
 260,52;   20,843; -192,973;-1077,433
 261,12;  -45,693; -202,059; -662,865
 261,72;  -61,909; -238,452;-1312,319
 262,32;  -10,759; -215,600;-1561,498
 262,92;  -82,671; -238,426;  405,627
 263,53;  -20,274; -189,698;-1277,594
 264,13; -125,080; -262,937; -268,632
 264,73;  -56,124; -217,202;-1694,617
 265,33;  -35,177; -188,317;-1708,613
 265,93;  -21,058; -147,304;-1345,140
 266,53;  -14,574; -161,046;-1544,392
 267,13;  -36,627; -139,161; -857,388
 267,73;  -26,347; -185,158;  270,230
 268,33;  -80,400; -166,274;-1788,766
 268,93;  -56,113; -213,708;-1702,449
 269,53;  -46,896; -204,670; -644,839
 270,13;  -55,928; -201,797;-1810,499
 270,73;  -73,519; -245,287;-1891,239
 271,33;  -45,595; -200,678;-1778,884
 271,93;  -49,541; -242,919;-1867,732
 272,53;   -1,732; -121,748;    8,776
 273,13;  -26,456; -146,677;-1117,075
 273,73;  -34,152; -119,753;-1955,652
 274,33;  -59,811; -148,428;-2041,182
 274,93;  -74,217; -188,007;-1843,972
 275,53;  -28,732;  -68,748;-1881,224
 276,13;  -86,580; -121,965;-2261,935
 276,73;  -74,076; -118,361;-1570,007
 277,33;  -37,045; -179,522;-1926,659
 277,93;   -6,735; -213,680;-1864,693
 278,53;  -21,325; -194,526;-2112,278
 279,13;  -71,647; -125,506;-2152,568
 279,73;  -33,947; -140,498;-1388,522
 280,33;  -20,432; -154,756;-2179,270
 280,93;   -8,098; -105,994;-2049,499
 281,53;  -50,314; -147,387;-2252,953
 282,13;  -29,216; -127,363;-2193,816
 282,73;  -99,765; -156,875; -385,885
 283,33;  -44,485; -137,872;-2307,266
 283,92;  -10,129;  -74,477;-2028,003
 284,52;   25,849;  -94,109;-2365,496
 285,12;  -10,185; -138,524;-1425,469
 285,72;  -18,723; -126,898;-1041,213
 286,32;   -4,700;  -55,622;-1313,564
 286,92;  -66,906; -163,521;-2376,850
 287,52;   20,234;  -89,519;-2170,041
 288,12;   28,009;  -97,763;-2542,507
 288,72;   15,169; -106,417;-1625,518
 289,32;   -6,570;  -54,470; 1692,233
 289,92;  -15,121; -106,270;-2344,148
 290,52;  -37,030;  -91,809;-2485,710
 291,12;  -13,238;  -57,996;-1570,308
 291,72;  -43,129;  -74,477;-1590,003
 292,32;   20,611;  -83,135;-2372,442
 292,92;   47,247;   -2,737;-2481,560
 293,51;   -4,752;  -37,093;-2532,404
 294,11;   32,870;  -42,121;-1681,160
 294,71;   46,892;   -7,488;-2695,667
 295,31;   28,687;  -24,743;-1755,797
 295,91;  141,698;   46,751;-2713,629
 296,51;   90,463;   62,656;-1776,106
 297,11;   81,658;   35,061;-2900,988
 297,71;   71,795;    4,131;-2726,648
 298,31;  115,879;   38,730;-2329,148
 298,91;  119,117;   74,756;-2483,202
 299,50;  103,699;   41,395;-2689,473
 300,10;  203,569;  145,887;-2706,114
 300,70;  139,291;   95,528;-2492,576
 301,30;  163,408;   89,253;-2855,415
 301,90;  194,988;   96,248;-2004,843
 302,50;  198,064;  163,640;-2515,198
 303,10;  265,375;  124,126;-2530,076
 303,70;  171,743;  208,660;-3000,488
 304,29;  194,227;  189,918;-2658,740
 304,89;  179,271;  266,183;-1090,755
 305,49;  199,507;  163,922;-2773,122
 306,09;  277,935;  214,133;-2874,839
 306,69;  295,439;  262,736;-2915,911
 307,29;  290,611;  312,865;-2008,442
 307,89;  280,818;  303,408;-3029,000
 308,48;  316,656;  341,774;-2453,301
 309,08;  500,213;  369,492;-2743,377
 309,68;  597,021;  377,019;-3094,026
 310,28;  751,277;  371,102;-2576,213
 310,88;  720,771;  321,211;-2936,453
 311,48;  618,913;  447,500;-2875,331
 312,07;  737,321;  408,367;-2963,228
 312,67;  870,772;  497,855;-2128,297
 313,27;  677,437;  494,448;-1105,224
 313,87;  794,482;  583,357;-2164,083
 314,47;  726,426;  516,954;-3030,392
 315,06;  708,092;  620,191; 2713,837
 315,66;  611,364;  579,988;-3245,400
 316,26;  783,028;  632,938;-1844,483
 316,86;  861,685;  777,969;-3140,110
 317,46;  858,146;  720,307;-2115,167
 318,06;  786,135;  739,813; -825,335
 318,65;  902,156;  781,801;-2807,999
 319,25; 1010,876;  821,798;-3195,617
 319,85; 1005,145;  932,663;-2908,323
 320,45; 1069,048;  986,283;-3213,304
 321,05; 1136,069;  901,271;-2761,968
 321,64; 1233,693;  889,531;-3219,411
 322,24; 1625,454; 1056,861;-3265,513
 322,84; 2156,464; 1080,356;-3261,345
 323,44; 3259,164; 1133,364;-3219,300
 324,03; 8074,776; 1194,486;-3072,067
 324,63;10248,839; 1250,452;-2310,059
 325,23; 5763,311; 1241,928;-3097,792
 325,83; 2826,406; 1367,021;-2876,123
 326,42; 4417,771; 1442,622;-3285,005
 327,02; 7984,616; 1476,551;-3076,607
 327,62; 7415,452; 1439,629;-2505,221
 328,22; 4500,021; 1553,486;-3234,973
 328,82; 3718,050; 1577,037;-2229,938
 329,41; 3285,982; 1658,852;-3016,728
 330,01; 3672,170; 1652,750;-2961,704
 330,61; 4210,393; 1806,062;-2928,707
 331,20; 3515,296; 1778,325;-2868,531
 331,80; 2801,626; 1762,512;-2794,386
 332,40; 2506,012; 1752,102;-2896,932
 333,00; 2520,159; 1933,667;-2790,423
 333,59; 2498,233; 1748,771;-2855,091
 334,19; 2511,995; 1920,745;-1771,037
 334,79; 2574,683; 1712,615;-2861,316
 335,39; 2445,084; 1729,919;-2978,912
 335,98; 2412,215; 1726,714;-3126,958
 336,58; 2372,670; 1659,777;-3191,401
 337,18; 2229,810; 1720,779;-2958,592
 337,77; 2306,845; 1782,837;-2098,463
 338,37; 2292,234; 1806,359;-2021,540
 338,97; 2039,332; 1907,384;-2912,402
 339,57; 2066,479; 1862,948;-3044,894
 340,16; 2030,510; 1836,431;-2881,390
 340,76; 2029,953; 1962,712;-3053,314
 341,36; 2004,101; 1861,920;-3195,650
 341,95; 1987,067; 1934,506;-3027,623
 342,55; 1788,938; 1918,998;  703,736
 343,15; 1867,488; 2048,155;-3094,039
 343,74; 1789,078; 1924,644;-2382,298
 344,34; 2070,261; 1860,267;-3015,661
 344,94; 2228,165; 2068,530;-3069,485
 345,53; 2184,971; 2110,769;-2860,447
 346,13; 1984,713; 2174,398;-1283,573
 346,73; 2147,270; 1966,473;-2254,805
 347,32; 2214,498; 2268,649;-3080,871
 347,92; 2246,302; 2312,600;-2277,145
 348,52; 2102,605; 2270,523;-1878,722
 349,11; 1796,983; 2336,551;  975,034
 349,71; 1840,337; 2330,658;-3240,016
 350,31; 1954,734; 2441,387;-2672,237
 350,90; 2163,392; 2483,418;-2326,863
 351,50; 2463,227; 2390,852;-2105,634
 352,10; 2588,410; 2471,119;-3114,840
 352,69; 2549,821; 2532,273;-3182,424
 353,29; 2307,176; 2563,024;-3191,317
 353,89; 2133,885; 2645,527;-3255,104
 354,48; 1922,410; 2693,119;-3208,840
 355,08; 1954,399; 2871,980;-1117,164
 355,67; 1763,714; 2850,042;-2951,417
 356,27; 1791,250; 2839,128;-3232,985
 356,87; 1779,079; 3010,288;-3383,142
 357,46; 1803,510; 3049,431;-2351,390
 358,06; 1843,359; 3306,291;-3073,523
 358,66; 1947,927; 3337,504;-3109,432
 359,25; 2561,929; 3260,792;-2344,119
 359,85; 2921,037; 3365,667;-3215,970
 360,44; 2690,336; 3389,015;-3292,172
 361,04; 2446,488; 3567,155;-2367,039
 361,64; 2544,488; 3696,155;-2309,039
 362,23; 2412,046; 3772,517;-2932,958
 362,83; 2237,659; 3755,639;-2990,726
 363,42; 2205,971; 3938,769;-2836,447
 364,02; 2090,015; 3910,034;-2973,462
 364,62; 2122,713; 3816,398;-2486,573
 365,21; 2089,500; 3857,937;-1741,558
 365,81; 2090,167; 3935,818;-2792,173
 366,40; 1980,393; 3970,062;-2080,707
 367,00; 2028,844; 4021,550;-2952,776
 367,59; 1996,286; 4071,831;-2979,699
 368,19; 2094,016; 4221,678;-3237,306
 368,79; 2081,652; 4198,720;-3125,268
 369,38; 1988,404; 4107,200;-2250,383
 369,98; 1974,780; 4101,940;-2935,940
 370,57; 1962,200; 4188,588;-3331,356
 371,17; 1835,804; 4164,860;-3326,135
 371,76; 1776,266; 4277,486;-3442,879
 372,36; 1811,040; 4057,598;-3195,501
 372,95; 1787,353; 4115,372;  667,934
 373,55; 1892,815; 4105,998;-3393,811
 374,14; 1971,610; 4300,099;-3405,097
 374,74; 1907,644; 4256,514;-3224,124
 375,34; 1918,137; 4286,979;-3189,521
 375,93; 1961,707; 4295,479;-2706,116
 376,53; 1892,921; 4344,585;-3575,974
 377,12; 2079,316; 4405,670;-1465,352
 377,72; 1932,492; 4480,730;-3410,414
 378,31; 2017,455; 4511,027;-2274,699
 378,91; 1911,371; 4291,429;-3262,199
 379,50; 2047,645; 4588,213;-3331,363
 380,10; 2051,764; 4327,226;-3398,890
 380,69; 1985,120; 4094,621;-2343,626
 381,29; 1933,034; 4586,735;-2550,439
 381,88; 1860,992; 4518,758;-1605,111
 382,48; 1821,334; 4519,727;-3286,485
 383,07; 1762,216; 4495,358;-3457,802
 383,67; 1754,992; 4635,758;-1847,111
 384,26; 1724,808; 4667,491;-2467,905
 384,86; 1745,947; 4921,849;-3182,252
 385,45; 1742,379; 4932,636;-3325,344
 386,05; 1817,001; 5073,608;-3419,100
 386,64; 1694,454; 4911,384;-3524,855
 387,24; 1727,465; 5016,878;-2585,688
 387,83; 1684,626; 4993,512;-2489,386
 388,42; 1756,237; 5182,346;-2109,466
 389,02; 1704,153; 5423,748;-3235,966
 389,61; 1642,155; 5688,036;-3413,653
 390,21; 1686,465; 5729,878;-3463,688
 390,80; 1622,154; 5816,392;-3208,810
 391,40; 1635,283; 6137,899;-2293,168
 391,99; 1726,732; 5981,099;-3195,550
 392,59; 1789,002; 6435,252;-2416,943
 393,18; 1804,713; 6683,398;-2491,573
 393,77; 1738,264; 6883,198;-3238,192
 394,37; 1650,197; 7145,657;-2198,825
 394,96; 1697,133; 7098,403;-2296,146
 395,56; 1685,200; 7264,588;-2834,356
 396,15; 1785,349; 6867,797;-3125,692
 396,75; 1812,187; 7343,163;-2889,993
 397,34; 1764,780; 7669,940;-2620,940
 397,93; 1789,425; 7720,188;-3358,047
 398,53; 1934,842; 7595,262;-2525,088
 399,12; 1979,196; 8192,013;-2154,981
 399,72; 1980,410; 8013,119;-2274,840
 400,31; 1984,820; 8034,629;-3169,581
 400,91; 1991,057; 8446,012;-2959,791
 401,50; 2237,264; 8820,198;-2330,192
 402,09; 2423,436; 8550,327;-2894,722
 402,69; 2343,285; 8691,187;-3072,856
 403,28; 2274,757; 9052,663;-2983,588
 403,88; 2302,683; 9162,560; 1927,079
 404,47; 2324,286; 9689,831;  884,300
 405,06; 2470,886; 9684,171;  -68,947
 405,66; 2760,242; 9753,565;-2875,684
 406,25; 3000,652;10085,720;-3119,268
 406,84; 2794,446;10446,177;-2892,711
 407,44; 2465,664;10847,858;-2219,944
 408,03; 2189,299;10422,257;-2906,063
 408,63; 1958,351;10373,085;-3011,379
 409,22; 1962,781;10191,584;-1945,783
 409,81; 1916,515;10681,007;-1849,765
 410,41; 1967,791;11553,078;-2857,615
 411,00; 1915,513;11336,362;-1814,921
 411,59; 1963,428;11251,120;-2826,578
 412,19; 1966,395;11468,350;-2245,394
 412,78; 1834,642;11399,226;-2830,436
 413,37; 1804,342;12151,878;-2704,234
 413,97; 1804,504;12410,512;-2618,933
 414,56; 1829,945;12071,506;-2503,169
 415,15; 1869,171;12410,394;-2121,547
 415,75; 1769,536;12408,639;-2698,272
 416,34; 1745,020;12590,254;-1893,681
 416,93; 1893,011;12922,047;-2777,536
 417,53; 1971,624;12696,169;-1423,303
 418,12; 2049,247;12570,785;-2217,903
 418,71; 1900,358;12907,592;-2673,285
 419,31; 1874,432;13054,695;-1884,952
 419,90; 1832,055;13470,313;-2786,552
 420,49; 1886,796;13619,298;-1733,834
 421,08; 1910,796;14201,298;-1674,834
 421,68; 1944,549;14723,421;-1908,792
 422,27; 1988,303;14035,832;-2004,437
 422,86; 2022,249;13874,073; -437,590
 423,46; 1913,187;14080,107;-2575,598
 424,05; 1981,295;14376,626;-2928,293
 424,64; 2271,776;13888,953;-2640,014
 425,24; 2242,347;14092,098;-2903,453
 425,83; 2131,156;13992,269;-2680,945
 426,42; 2180,295;12987,626;-2760,293
 427,01; 3335,789;13424,734;-2674,533
 427,61; 3577,800;14347,873;-2609,209
 428,20; 2364,963;14036,151;-1764,751
 428,79; 2076,308;14414,052;-2859,656
 429,38; 2086,650;14092,377;-1781,186
 429,98; 1979,221;14922,521; -994,625
 430,57; 2012,800;15058,873;-2193,209
 431,16; 2021,629;14580,389;-2784,522
 431,75; 2070,877;14357,909; -561,407
 432,35; 2132,038;13435,899;-1951,262
 432,94; 2126,900;14429,186;-2324,759
 433,53; 2210,510;14560,375;-1152,995
 434,12; 2356,674;14431,298;-2267,381
 434,72; 2318,611;14188,331;-1413,389
 435,31; 2342,589;14167,699; 7395,119
 435,90; 2328,794;14308,954; 8338,249
 436,49; 2236,321;13427,834; -683,175
 437,08; 2577,514;13895,951; -675,370
 437,68; 2832,761;14442,827;-2987,412
 438,27; 2418,376;14610,237;-2610,866
 438,86; 2101,181;14612,832;-1147,984
 439,45; 1984,870;15313,346;-1937,106
 440,05; 1848,333;15955,616;-2982,694
 440,64; 1801,797;15054,886;-1902,282
 441,23; 1900,378;14152,525;-1415,553
 441,82; 1836,698;13700,218;-2631,576
 442,41; 1621,873;14351,277;-3014,637
 443,00; 1541,154;13625,925;-2724,863
 443,60; 1528,377;14373,881;-3136,710
 444,19; 1602,777;15026,541;-1440,462
 444,78; 1559,841;14960,151;-3012,298
 445,37; 1519,551;15728,297;-2522,928
 445,96; 1462,355;15331,249;-3116,202
 446,56; 1447,217;15596,535;-1144,698
 447,15; 1506,648;16225,678; -884,947
 447,74; 1552,605;17097,412;-2709,931
 448,33; 1561,445;16443,066;-1985,920
 448,92; 1461,982;15422,440;-2964,176
 449,51; 1482,800;15095,817;-2848,813
 450,10; 1862,424;15133,078;-3063,256
 450,70; 2442,413;14904,939;-1957,581
 451,29; 2034,477;15329,193;-1112,260
 451,88; 1574,089;15513,671;-2929,183
 452,47; 1744,466;16565,055;-2795,584
 453,06; 1898,018;16495,498;-2401,047
 453,65; 2200,695;16071,874;-2873,493
 454,24; 1923,093;17329,246;-2173,558
 454,84; 1614,876;17793,209;-1379,168
 455,43; 1472,738;18732,496;-2219,665
 456,02; 1453,479;18879,480;-2927,947
 456,61; 1415,521;17317,459;-2925,275
 457,20; 1439,286;16921,363;-2786,753
 457,79; 1804,040;17588,131;-2922,554
 458,38; 2627,492;18338,264;-2132,467
 458,97; 2460,309;18039,641;-2515,104
 459,56; 1725,199;18190,479;-2760,565
 460,16; 1499,072;17832,258;-2082,894
 460,75; 1427,556;18157,518;-2072,146
 461,34; 1461,814;18077,887;-2962,020
 461,93; 1411,655;18381,186;-2200,853
 462,52; 1593,611;19333,275;-2744,993
 463,11; 1597,365;20546,688;-1989,639
 463,70; 1852,449;19458,643;-2869,295
 464,29; 2625,721;19945,082;-3150,376
 464,88; 4230,698;20795,807;-2743,024
 465,47; 3449,450;19885,285;-2748,139
 466,06; 1989,603;20915,713;-3191,692
 466,65; 1915,312;21667,572;-3018,635
 467,24; 2299,335;22030,848;-2539,986
 467,84; 2040,837;22443,164;-2020,371
 468,43; 1792,924;22325,051;-2238,559
 469,02; 1879,396;23517,170;-2702,135
 469,61; 2213,870;24168,936;-2593,555
 470,20; 2553,043;23781,063;-2841,085
 470,79; 2092,260;22760,100;-3232,475
 471,38; 1619,818;25266,463;-2192,395
 471,97; 1499,282;26009,732; -666,983
 472,56; 1355,552;25472,887;-3035,376
 473,15; 1464,227;25296,975;-2825,135
 473,74; 1398,754;26395,854;-3106,559
 474,33; 1433,195;25866,848;-2957,796
 474,92; 1425,765;27630,348;-3146,391
 475,51; 1563,605;29609,002;-2873,380
 476,10; 1668,346;29847,986;-3011,662
 476,69; 1803,789;26101,268;-2855,586
 477,28; 1745,549;25846,955;-2956,845
 477,87; 1607,078;27035,121; -173,956
 478,46; 1755,047;28695,639;-3029,460
 479,05; 2052,120;30507,100;-2134,284
 479,64; 2079,240;31679,756;-2718,655
 480,23; 1756,595;29541,508;-2845,548
 480,82; 1664,186;28549,996;-2736,807
 481,41; 1735,874;29371,510;-1873,929
 482,00; 1806,412;29284,885;-1364,185
 482,59; 1720,325;29593,998;-2298,998
 483,18; 1773,691;31702,244;-2376,723
 483,77; 1730,477;31703,139;-2193,865
 484,36; 1799,605;32475,002;-1701,380
 484,95; 1819,080;32990,410; -788,643
 485,54; 1944,263;35331,031;-1371,006
 486,13; 2176,046;35762,996; -945,616
 486,72; 2204,337;34334,137;  148,326
 487,31; 2013,327;31046,285;-1109,686
 487,89; 1850,487;32608,633; -193,697
 488,48; 1992,575;33798,164;-1523,728
 489,07; 2018,168;32913,941;-1248,674
 489,66; 2150,606;33511,645;-1505,224
 490,25; 2420,446;31095,299; -660,212
 490,84; 2931,143;34127,375;-1683,635
 491,43; 3193,648;34965,621; -701,552
 492,02; 3214,166;36094,652;-1864,987
 492,61; 3234,811;35362,902;-1043,094
 493,20; 3189,619;33776,426;-2019,743
 493,79; 3264,178;32749,434; 4824,494
 494,38; 3069,242;33706,043;-1938,342
 494,97; 2997,608;32583,934; -629,911
 495,55; 2878,426;34690,309;-2325,548
 496,14; 2692,553;35087,531;-2403,220
 496,73; 2453,770;35451,566;-1952,609
 497,32; 2350,189;34211,570;-2587,182
 497,91; 2373,867;35005,949;-1921,629
 498,50; 2450,372;34165,195;-2912,544
 499,09; 2512,189;34554,570;-3088,182
 499,68; 2435,480;32403,070;-2405,396
 500,27; 2462,987;33321,605;-2490,999
 500,85; 2620,491;32655,207;-2604,071
 501,44; 2769,083;32478,342;-2576,175
 502,03; 2572,136;33194,457;-3368,178
 502,62; 2420,340;31275,068;-3438,205
 503,21; 2508,201;29432,711;-3532,858
 503,80; 2275,997;32028,100;-2976,831
 504,39; 2207,676;32451,119;-3458,121
 504,97; 2368,804;31774,982;-3577,636
 505,56; 2392,728;31537,590;-2979,281
 506,15; 2528,663;32302,336;-3991,602
 506,74; 2638,106;32557,617;-2945,526
 507,33; 2834,633;32185,498;-3165,949
 507,92; 2649,052;33952,859;-3871,678
 508,51; 2406,105;35926,973;-3735,682
 509,09; 2422,225;34536,629;-3921,053
 509,68; 3615,612;34318,508;-3748,286
 510,27; 5600,098;33667,410;-3799,381
 510,86; 4289,387;32572,264;-4081,751
 511,45; 2365,752;33677,512;-3843,476
 512,03; 2212,912;34524,855;-3829,488
 512,62; 2257,126;36240,961;-3780,346
 513,21; 2423,055;33870,789;-3186,209
 513,80; 3255,345;34644,289;-3501,423
 514,39; 6058,214;32752,137;-3905,221
 514,97; 9027,355;35347,781;-4095,255
 515,56; 6614,249;34167,551;-4198,248
 516,15; 2911,798;35428,063;-3955,179
 516,74; 2234,002;32584,318;-4420,049
 517,33; 2014,980;33459,688;-3549,542
 517,91; 1938,356;33935,426;-4188,099
 518,50; 2063,559;32563,393;-3264,282
 519,09; 2328,590;33942,875;-3157,778
 519,68; 2894,710;35231,531;-4286,148
 520,26; 3729,829;38679,547;-4232,675
 520,85; 7337,882;39452,660;-4352,679
 521,44;12874,057;40826,078;-4358,897
 522,03; 9764,270;39485,539;-4271,912
 522,61; 3544,057;36773,078;-4364,897
 523,20; 2183,036;33924,090;-4337,233
 523,79; 1857,606;32040,590;-4337,828
 524,38; 1738,970;32850,191;-4344,709
 524,96; 1634,529;35883,199;-4321,473
 525,55; 1486,314;36021,449;-4542,771
 526,14; 1394,198;34018,723;-4434,931
 526,73; 1281,777;32852,074;-4389,515
 527,31; 1309,422;32903,324;-4488,622
 527,90; 1398,314;33630,449;-4564,771
 528,49; 1706,765;34155,938;-2529,839
 529,08; 2138,240;34601,344;-3467,103
 529,66; 1890,035;34848,445;-3911,389
 530,25; 1271,691;35279,832;-4414,172
 530,84; 1201,520;35334,348;-4583,485
 531,42; 1157,574;38583,105;-4365,332
 532,01; 1127,112;37528,480;-4291,588
 532,60; 1054,973;34512,125;-4473,241
 533,18; 1035,896;35538,086;-4078,042
 533,77;  967,822;34969,984;-4236,374
 534,36; 1028,993;34459,469;-4374,061
 534,95; 1160,692;35483,477;-4088,015
 535,53; 1233,176;34236,090; -974,424
 536,12; 1143,122;36469,977;-2657,420
 536,71; 1086,187;36511,230;-3869,099
 537,29; 1082,263;36073,621;-3618,454
 537,88; 1129,057;33908,078;-3454,897
 538,47; 1139,629;32497,867;-2840,180
 539,05; 1261,886;36837,238;-2139,054
 539,64; 1150,426;40414,898;-1785,997
 540,22; 1098,242;37414,633; -764,790
 540,81; 1176,694;37501,766; 1008,297
 541,40; 1082,963;39018,629; 3425,591
 541,98;  960,467;38188,230; 4858,519
 542,57; 1082,122;39368,977; 4597,580
 543,16; 1033,564;38645,613; 4952,500
 543,74; 1024,972;35774,480; 4083,603
 544,33; 1001,167;36297,883; 3620,721
 544,92;  988,447;37217,887; 3973,339
 545,50; 1112,671;37338,488;11456,648
 546,09; 1070,143;40064,965;11359,916
 546,67; 1018,337;41948,727; 2857,878
 547,26; 1078,315;40050,094; -202,615
 547,85;  977,395;39208,414; -567,501
 548,43;  923,543;38452,625; -849,836
 549,02;  995,586;39427,246;-1040,008
 549,60; 1007,790;40570,500; -984,878
 550,19;  973,941;41166,996;-2192,901
 550,78;  956,468;42660,875;-2328,325
 551,36;  903,071;45349,148;-2432,104
 551,95;  920,069;45443,859; -585,416
 552,53;  961,984;43280,262; -296,916
 553,12; 1130,437;41420,035;-3431,672
 553,70; 1083,707;43188,547;-2878,222
 554,29; 1000,060;44058,008;-2869,428
 554,88;  971,319;41831,668;-4247,989
 555,46;  962,738;43723,027;-3881,718
 556,05;  985,177;45007,734;-4207,268
 556,63;  981,404;45206,266;-3396,489
 557,22;  895,854;43875,109;-3394,714
 557,80;  917,414;41749,762;-3568,321
 558,39;  863,865;44188,250;-4145,390
 558,97;  900,307;47993,887;-3699,470
 559,56;  923,092;49889,137;-4544,768
 560,15;  991,727;50117,891;-3611,042
 560,73;  911,631;49814,152;-4287,867
 561,32;  972,424;47024,609;-3741,309
 561,90;  940,405;46041,910;-4382,333
 562,49;  973,618;48487,371;-3786,348
 563,07;  938,737;48074,387;-4783,875
 563,66; 1045,952;50064,133;-4352,577
 564,24; 1074,651;49228,145;-4763,531
 564,83; 1030,040;51344,664;-4603,607
 565,41;  978,758;53840,375;-4329,539
 566,00;  961,470;52202,164;-2755,012
 566,58; 1066,898;56465,375;-3725,729
 567,17; 1010,350;56909,508;-4280,642
 567,75;  977,908;52392,871;-4653,562
 568,34;  994,254;55893,770;-3216,466
 568,92;  993,072;55738,793;-3987,947
 569,51; 1449,006;54852,895; 2680,576
 570,09; 1496,297;58247,391;-4676,638
 570,68;  948,320;53188,313;-4788,833
 571,26;  877,446;50733,242;-3886,817
 571,85;  935,456;57347,738;-4822,649
 572,43;  867,178;57011,379;-4704,111
 573,01;  843,038;52662,375;-4873,920
 573,60;  875,339;53819,012;-3785,810
 574,18;  832,984;55122,262;-4514,917
 574,77;  842,243;53284,277;-4737,634
 575,35;  857,339;56113,012;-4452,810
 575,94;  880,114;57300,770;-4076,275
 576,52;  885,544;54049,270;-2249,680
 577,11; 1150,922;51620,297;-3244,924
 577,69; 2639,406;48685,555;-3183,176
 578,27; 2719,941;51008,996;-3447,901
 578,86; 1041,567;55198,543;-2994,031
 579,44;  868,640;60080,004;-2805,855
 580,03;  912,232;60164,137;-2493,958
 580,61;  898,824;60267,270;-3206,062
 581,19;  730,061;56429,652;-2538,271
 581,78;  821,750;55361,813;-2364,238
 582,36;  786,878;57656,031;-2911,909
 582,95;  807,029;56180,172;-1497,776
 583,53;  845,007;59586,539;-2319,268
 584,11;  926,027;61608,883;-2241,088
 584,70;  904,620;61691,660;-1948,035
 585,28;  921,996;62070,398;-1853,592
 585,87;  836,944;60436,930;-2889,432
 586,45;  784,567;63023,543;-2375,031
 587,03;  704,514;64945,430;-1150,027
 587,62;  758,942;61494,641;-1834,745
 588,20;  786,083;62236,285;-1020,779
 588,78;  906,268;58157,840;-3411,673
 589,37;  930,544;57765,270;-3360,680
 589,95;  864,394;62238,773;-3385,657
 590,54;  796,147;63633,539;-3461,459
 591,12;  779,341;62116,301;-3508,497
 591,70;  800,792;59586,789;-3331,565
 592,29;  780,051;62881,805;-2923,283
 592,87;  826,758;63542,375;-2394,538
 593,45;  864,911;63404,801; 1487,908
 594,04;  807,568;62800,188;-3676,875
 594,62;  815,405;59709,910;-3708,333
 595,20;  809,149;62066,828;-4371,146
 595,79;  794,943;62681,285;-4165,588
 596,37;  847,406;61108,555;-3657,176
 596,95;  788,610;56922,164;-4321,203
 597,53;  772,254;58806,770;-4226,466
 598,12;  820,384;61848,922;-3959,669
 598,70;  858,588;64932,531;-3776,695
 599,28;  840,758;64911,375;-3404,538
 599,87;  829,953;64929,777;-3061,420
 600,45;  854,642;64938,293;-3907,543
 601,03;  753,233;63145,781;-4100,802
 601,62;  810,568;61727,188;-4468,875
 602,20;  692,115;59786,414;-4541,119
 602,78;  764,375;64399,070;-4770,680
 603,36;  716,481;64783,301;-3166,688
 603,95;  747,243;58863,277;-4492,634
 604,53;  781,663;62401,281;-4574,207
 605,11;  761,705;59505,258;-2755,535
 605,69;  781,910;62362,156;-3365,249
 606,28;  738,051;62594,805;-4223,283
 606,86;  820,954;61629,422;-3946,264
 607,44;  774,707;60431,547;-3906,222
 608,02;  720,191;58047,805;-4037,474
 608,61;  756,319;60099,668;-2866,989
 609,19;  765,674;58582,418;-2582,882
 609,77;  826,814;57398,422; -710,073
 610,35;  797,652;55748,785; 5794,625
 610,94;  771,664;56509,926;14509,949
 611,52;  798,319;55803,668;12610,011
 612,10;  724,461;53026,957; 8432,133
 612,68;  628,622;56637,949; 2694,278
 613,26;  666,266;57037,551; 2032,015
 613,85;  669,804;61759,926; -599,241
 614,43;  667,965;62306,918;-1030,096
 615,01;  714,547;62272,199;-1215,211
 615,59;  680,859;64874,328; -972,932
 616,17;  737,781;59402,648;-2561,890
 616,76;  756,307;62178,887;-2993,470
 617,34;  840,381;62666,988;-2389,138
 617,92;  754,254;58547,770;-3399,466
 618,50;  754,061;61202,652;-2562,271
 619,08;  790,018;57928,031;-2514,100
 619,67;  770,470;55968,164;-3196,012
 620,25;  766,942;54290,641;-2743,745
 620,83;  789,642;50498,293;-3495,543
 621,41;  824,632;52314,797;-2800,711
 621,99;  780,599;54560,672;-2529,371
 622,57;  813,372;55529,141;-3707,149
 623,15;  791,737;56213,387;-3783,875
 623,74;  809,296;58266,746;-3892,794
 624,32;  797,995;59330,754;-2827,749
 624,90;  784,566;58625,898;-2311,188
 625,48;  758,997;57897,043;-3132,436
 626,06;  823,297;56898,391;-4006,638
 626,64;  775,640;57787,004;-4162,855
 627,22;  719,039;58993,020;-3409,764
 627,81;  695,414;58046,117;-4334,478
 628,39;  654,791;57121,145;-4560,722
 628,97;  722,782;56597,293;-4437,733
 629,55;  679,435;55377,750;-4219,985
 630,13;  763,824;55669,270;-2959,062
 630,71;  715,866;54162,891;-2747,233
 631,29;  670,243;53129,277;-3824,634
 631,87;  692,210;52776,504;-4223,451
 632,45;  659,781;52786,648;-4716,890
 633,03;  709,650;54183,500;-4191,688
 633,62;  651,663;55423,281;-4714,207
 634,20;  669,169;54882,172;-4089,966
 634,78;  617,220;56497,000;-4430,283
 635,36;  650,501;56701,648;-4449,508
 635,94;  683,597;55183,383;-5398,684
 636,52;  736,221;51027,645;-5422,126
 637,10;  605,610;52116,164;-5488,203
 637,68;  605,168;50694,527;-4702,123
 638,26;  528,575;47618,750;-5536,176
 638,84;  574,846;48688,902;-5421,569
 639,42;  557,610;49235,164;-3756,203
 640,00;  604,789;51366,148;-5405,726
 640,58;  661,571;54579,402;-4806,027
 641,16;  609,353;55521,656;-5571,328
 641,74;  660,136;53214,906;-5433,630
 642,32;  623,918;50106,160;-5620,931
 642,90;  597,700;50434,414;-5856,232
 643,48;  612,482;49231,668;-5786,534
 644,06;  612,265;49280,922;-5796,835
 644,64;  579,047;49595,176;-5842,137
 645,22;  490,829;50513,430;-5562,438
 645,80;  497,612;50547,684;-4957,740
 646,39;  547,394;48107,938;-5515,041
 646,97;  531,176;49773,191;-5850,342
 647,54;  573,959;52328,441;-5717,644
 648,12;  559,741;54879,695;-5865,945
 648,70;  575,523;58954,949;-5885,247
 649,28;  586,305;56421,203;-6090,548
 649,86;  556,088;51091,457;-5609,850
 650,44;  556,870;48619,711;-5452,151
 651,02;  505,652;49970,965;-5474,452
 651,60;  455,435;51793,219;-5803,753
 652,18;  489,217;51320,473;-4735,055
 652,76;  449,999;53277,723;-5934,356
 653,34;  469,782;54817,977;-5939,658
 653,92;  508,564;57729,230;-5784,959
 654,50;  535,346;59042,484;-5818,261
 655,08;  536,128;58048,738;-5841,562
 655,66;  541,911;55058,992;-5115,863
 656,24;  563,693;56743,246;-5200,165
 656,82;  607,475;58989,500;-4979,466
 657,40;  544,258;58967,754;-5667,768
 657,98;  523,040;60169,008;-5486,069
 658,56;  523,822;61114,258;-5717,371
 659,14;  510,605;61380,512;-5913,672
 659,72;  510,387;63381,766;-5916,973
 660,29;  504,169;62437,020;-5907,275
 660,87;  487,951;59738,273;-5212,576
 661,45;  479,734;58590,527;-5664,877
 662,03;  509,516;57513,781;-4971,179
 662,61;  445,298;54945,035;-5638,480
 663,19;  490,081;54618,289;-5657,782
 663,77;  419,863;53917,543;-5939,083
 664,35;  379,645;56689,793;-5887,384
 664,93;  432,428;62595,047;-4922,686
 665,51;  462,210;61993,301;-6033,987
 666,08;  483,992;57747,555;-5652,289
 666,66;  462,775;51859,809;-4400,590
 667,24;  444,557;49420,063;-5952,892
 667,82;  441,339;50250,316;-5849,193
 668,40;  412,121;50723,570;-5932,494
 668,98;  422,904;51952,824;-5097,796
 669,56;  433,686;57957,078;-6096,097
 670,13;  422,468;61797,328;-6222,398
 670,71;  425,251;59698,582;-5900,700
 671,29;  420,033;57209,836;-6139,001
 671,87;  415,815;56814,090;-6051,303
 672,45;  460,598;51822,344;-6050,604
 673,03;  485,380;52592,598;-4769,906
 673,60;  554,162;58431,852;-3503,207
 674,18;  641,944;63679,105;-5938,508
 674,76;  577,727;61159,359;-6226,810
 675,34;  517,509;56361,613;-5251,111
 675,92;  460,291;55284,863;-6338,413
 676,50;  440,074;55051,117;-6085,714
 677,07;  455,856;56952,371;-6095,016
 677,65;  389,638;56680,625;-6163,317
 678,23;  413,421;55997,879;-5057,618
 678,81;  447,203;58016,133;-5299,919
 679,38;  374,985;56669,387;-5969,221
 679,96;  374,767;53267,641;-5846,522
 680,54;  391,550;55171,895;-5308,824
 681,12;  295,332;52485,148;-6126,125
 681,70;  364,114;54786,398;-4413,427
 682,27;  379,897;54740,652;-5851,728
 682,85;  315,679;58265,906;-5991,029
 683,43;  357,461;64943,160;-6140,331
 684,01;  359,244;64943,414;-5172,632
 684,58;  406,026;64307,668;-5138,934
 685,16;  367,808;64236,922;-4494,235
 685,74;  389,590;62790,176;-3853,536
 686,32;  368,373;59009,430;-6012,838
 686,89;  377,155;59552,684;-6015,139
 687,47;  329,937;59534,934;-6076,441
 688,05;  370,720;56416,188;-6019,742
 688,63;  349,502;59626,441;-6102,043
 689,20;  329,284;62884,695;-5971,345
 689,78;  413,067;58427,949;-5530,646
 690,36;  419,849;54291,203;-5381,948
 690,93;  415,631;54968,457;-6355,249
 691,51;  409,413;61453,711;-6326,550
 692,09;  387,196;64946,965;-6223,852
 692,67;  390,978;64947,219;-6047,153
 693,24;  331,760;60968,469;-5803,455
 693,82;  335,543;59538,723;-6235,756
 694,40;  350,325;58049,977;-3570,058
 694,97;  357,107;57456,230;-6046,359
 695,55;  312,890;59820,484;-5464,660
 696,13;  369,672;61729,738;-4454,962
 696,70;  343,454;58594,992;-6029,263
 697,28;  320,237;59108,246;-6266,564
 697,86;  348,019;60837,500;-6030,866
 698,43;  383,801;58827,754;-6198,167
 699,01;  329,583;55595,004;-6051,469
 699,59;  340,366;55751,258;-6402,770
 700,16;  315,148;54174,512;-5257,072
 700,74;  310,930;57040,766;-5497,373
 701,32;  322,713;56440,020;-6233,674
 701,89;  281,495;55792,273;-6049,976
 702,47;  332,277;60296,527;-6466,277
 703,05;  346,060;64951,781;-6309,579
 703,62;  297,842;64952,035;-6227,880
 704,20;  299,624;64952,285;-5306,182
 704,77;  312,406;64952,539;-6118,483
 705,35;  224,189;64213,793;-6006,784
 705,93;  230,971;64327,047;-4922,085
 706,50;  244,753;63796,301;-5267,387
 707,08;  291,536;60606,555;-5284,688
 707,65;  249,318;60046,809;-5620,990
 708,23;  329,100;64881,063;-5431,292
 708,81;  290,883;64954,316;-5019,593
 709,38;  299,665;64954,570;-5001,894
 709,96;  314,447;64954,820;-6025,195
 710,53;  297,229;64955,074;-6007,497
 711,11;  311,012;61503,328;-5752,798
 711,69;  375,794;61913,582;-3821,100
 712,26;  336,576;59012,836;-4642,401
 712,84;  265,359;63346,090;-5947,703
 713,41;  335,141;64411,344;-6153,004
 713,99;  343,923;64924,598;-6068,305
 714,56;  317,706;62057,852;-6326,607
 715,14;  298,488;60312,105;-6198,908
 715,71;  340,270;60246,355;-6210,209
 716,29;  305,052;62893,609;-6648,511
 716,86;  267,835;63573,863;-6510,813
 717,44;  280,617;63263,117;-6424,114
 718,02;  280,399;62110,371;-6462,415
 718,59;  327,182;61013,625;-5121,716
 719,17;  319,964;63488,879;-5649,018
 719,74;  306,746;62907,133;-5756,319
 720,32;  263,529;63502,387;-6451,621
 720,89;  301,311;64959,641;-6422,922
 721,47;  286,093;64959,891;-6388,224
 722,04;  268,875;64960,145;-5502,525
 722,62;  315,658;64252,398;-3979,826
 723,19;  264,440;60250,652;-4938,128
 723,77;  273,222;57638,906;-5673,429
 724,34;  307,005;60150,160;-5576,730
 724,92;  256,787;63789,414;-6558,032
 725,49;  297,569;64961,668;-5666,333
 726,07;  264,352;64961,922;-6491,635
 726,64;  320,134;64627,176;-6587,936
 727,21;  312,916;60249,426;-5627,238
 727,79;  307,698;63706,680;-6444,539
 728,36;  302,481;64962,934;-6722,840
 728,94;  355,263;64963,188;-6535,142
 729,51;  281,045;64963,441;-6365,443
 730,09;  303,828;64963,695;-5545,745
 730,66;  306,610;64963,949;-6358,046
 731,24;  330,392;64964,203;-6577,348
 731,81;  334,175;64964,457;-5151,649
 732,38;  386,957;64964,711;-6492,950
 732,96;  366,739;64964,961;-6263,251
 733,53;  403,521;60347,215;-6389,553
 734,11;  353,304;61575,469;-6617,854
 734,68;  411,086;64965,723;-6211,156
 735,26;  397,868;64965,977;-6389,458
 735,83;  411,651;64966,230;-6498,759
 736,40;  447,433;62243,484;-6516,060
 736,98;  480,215;61999,738;-6374,361
 737,55;  486,998;59236,992;-5827,663
 738,13;  532,780;57707,246;-5702,964
 738,70;  493,562;60991,496;-5529,266
 739,27;  499,345;62504,750;-6452,567
 739,85;  543,127;62745,004;-6283,869
 740,42;  566,909;64968,258;-6464,170
 740,99;  581,691;64968,512;-5618,471
 741,57;  603,474;64968,766;-4867,773
 742,14;  636,256;64969,020;-5349,074
 742,72;  668,038;64969,273;-4751,375
 743,29;  661,821;64969,527;-6563,677
 743,86;  659,603;64969,781;-6538,979
 744,44;  690,385;64970,031;-6113,280
 745,01;  618,168;64970,285;-5760,581
 745,58;  557,950;64970,539;-6259,882
 746,16;  594,732;64970,793;-6188,184
 746,73;  673,514;64971,047;-6479,485
 747,30;  651,297;61139,301;-6536,787
 747,88;  635,079;59621,555;-5621,088
 748,45;  606,861;64971,809;-5668,390
 749,02;  704,644;64972,063;-6384,691
 749,60;  656,426;62401,313;-6212,992
 750,17;  715,208;61766,566;-5269,294
 750,74;  700,991;62801,820;-6479,595
 751,31;  752,773;63306,074;-6347,896
 751,89;  781,555;64232,328;-6546,198
 752,46;  835,337;64973,582;-6282,500
 753,03;  792,120;64973,836;-6160,801
 753,61;  800,902;63755,090;-4858,102
 754,18;  750,684;64573,344;-6434,404
 754,75;  695,467;63888,598;-5191,705
 755,32;  726,249;60715,848;-6332,006
 755,90;  710,031;64975,102;-6493,308
 756,47;  704,814;64975,355;-4809,609
 757,04;  719,596;64975,609;-6457,911
 757,61;  633,378;64975,863;-5553,212
 758,19;  623,160;64976,117;-5253,514
 758,76;  458,943;64976,371;-6603,815
 759,33;  519,725;64976,625;-6664,116
 759,90;  493,507;64976,879;-5714,417
 760,48;  392,290;64977,133;-6778,719
 761,05;  405,072;64977,383;-6083,021
 761,62;  408,854;62082,637;-4888,322
 762,19;  396,637;58992,891;-6144,624
 762,77;  433,419;61730,145;-5963,925
 763,34;  393,201;64978,398;-6610,226
 763,91;  336,983;64978,652;-5818,527
 764,48;  376,766;64978,906;-6756,829
 765,05;  360,548;64979,160;-6543,130
 765,63;  321,330;63215,414;-6417,432
 766,20;  337,113;59753,668;-6004,733
 766,77;  276,895;57105,918;-5921,035
 767,34;  332,677;58807,172;-6640,336
 767,91;  270,460;59176,426;-6689,637
 768,49;  304,242;61368,680;-6772,939
 769,06;  290,024;64980,934;-5832,240
 769,63;  261,807;62272,188;-6636,542
 770,20;  271,589;59567,441;-5868,843
 770,77;  254,371;57921,695;-5645,145
 771,34;  219,153;60065,949;-6615,446
 771,91;  247,936;60549,203;-6102,747
 772,49;  287,718;58558,453;-6369,048
 773,06;  264,500;57687,707;-6203,350
 773,63;  256,283;60204,961;-6639,651
 774,20;  286,065;58197,215;-5918,953
 774,77;  260,847;56475,469;-6631,254
 775,34;  274,630;56707,723;-6214,556
 775,91;  386,412;57056,977;-6417,857
 776,49;  510,194;58787,230;-6590,158
 777,06;  644,976;60761,484;-6015,460
 777,63;  572,759;64224,738;-6367,761
 778,20;  399,541;62572,988;-6250,063
 778,77;  327,323;63316,242;-5763,364
 779,34;  279,106;64985,496;-6585,666
 779,91;  335,888;64985,750;-6534,967
 780,48;  281,670;59144,004;-5853,268
 781,05;  315,453;50716,258;-6586,570
 781,62;  309,235;52124,512;-6604,871
 782,20;  339,017;58813,766;-6500,172
 782,77;  330,799;64987,020;-6529,474
 783,34;  311,582;64052,273;-6522,775
 783,91;  264,364;61362,523;-6509,077
 784,48;  263,146;60480,777;-2126,378
 785,05;  307,929;59144,031;-6540,680
 785,62;  275,711;58221,285;-6452,981
 786,19;  276,493;58149,539;-5100,282
 786,76;  258,276;55130,793;-6677,583
 787,33;  242,058;56202,047;-6515,885
 787,90;  283,840;59491,301;-6591,187
 788,47;  293,622;60148,555;-5075,488
 789,04;  322,405;58988,809;-5763,790
 789,61;  353,187;58863,059;-5066,091
 790,18;  256,969;55747,313;-6561,392
 790,75;  249,752;50841,566;-6671,693
 791,32;  274,534;52056,820;-6577,995
 791,89;  282,316;55205,074;-6068,296
 792,46;  586,099;60806,328;-5763,598
 793,03; 1287,881;62404,582;-6702,899
 793,60; 1097,663;55699,836;-6440,201
 794,17;  520,445;52257,090;-5569,502
 794,74;  384,228;47273,344;-5886,803
 795,31;  302,010;50096,594;-6099,105
 795,88;  280,792;52579,848;-5572,406
 796,45;  223,575;53365,102;-6529,708
 797,02;  194,357;56004,355;-5046,009
 797,59;  184,139;57922,609;-6675,311
 798,16;  244,922;54563,863;-5861,612
 798,73;  174,704;53534,117;-6761,913
 799,30;  167,486;55088,371;-6611,214
 799,87;  179,268;55650,625;-6713,516
 800,44;  168,051;55353,875;-6729,817
 801,01;  147,833;56836,129;-6807,119
 801,58;  210,615;58477,383;-6537,420
 802,15;  185,398;52086,637;-6658,722
 802,72;  219,180;48849,891;-6694,023
 803,28;  158,962;52000,145;-6076,324
 803,85;  196,745;57179,398;-6728,626
 804,42;  228,527;55235,652;-5999,927
 804,99;  183,309;53752,906;-6539,229
 805,56;  128,092;52472,160;-6770,530
 806,13;  177,874;53387,410;-6075,832
 806,70;  250,656;52719,664;-6748,133
 807,27;  224,438;54477,918;-6672,434
 807,84;  300,221;52786,172;-6693,736
 808,41;  766,003;49728,426;-6022,037
 808,98; 1648,785;50479,680;-5986,338
 809,54; 1413,568;52469,934;-4958,640
 810,11;  620,350;48281,188;-6782,941
 810,68;  318,132;43021,441;-6680,243
 811,25;  238,915;41394,695;-6760,544
 811,82;  203,697;40374,945;-6886,846
 812,39;  182,479;37710,199;-3331,147
 812,96;  153,261;38779,453;-6767,448
 813,52;  182,044;41291,707;-6937,750
 814,09;  134,826;44522,961;-6766,051
 814,66;  152,608;50325,215;-6827,353
 815,23;  126,391;51240,469;-6669,654
 815,80;  109,173;50439,723;-5853,956
 816,37;  137,955;50917,977;-6801,257
 816,93;  115,738;49487,230;-6731,558
 817,50;  178,520;46790,480;-6102,859
 818,07;  209,302;46034,734;-6960,161
 818,64;  191,084;46919,988;-6856,462
 819,21;  156,867;46261,242;-6053,764
 819,77;  221,649;42742,496;-6571,065
 820,34;  187,431;42053,750;-6677,367
 820,91;  244,214;43276,004;-6469,668
 821,48;  250,996;43873,258;-6689,969
 822,05;  273,778;45571,512;-5875,271
 822,61;  188,561;44296,766;-5631,572
 823,18;  213,343;41860,016;-6620,874
 823,75;  189,125;42585,270;-6957,175
 824,32;  190,907;45286,523;-6923,477
 824,88;  171,690;45073,777;-6882,778
 825,45;  159,472;44018,031;-6899,079
 826,02;  173,254;43798,285;-6643,380
 826,59;  185,037;43974,539;-6639,682
 827,15;  129,819;46077,793;-6906,983
 827,72;  128,601;49519,047;-6723,285
 828,29;  112,384;51523,301;-6895,586
 828,86;  127,166;48827,551;-6791,888
 829,42;   98,948;40797,805;-6812,189
 829,99;   74,730;36802,059;-6647,490
 830,56;  124,513;36252,313;-6869,792
 831,13;   68,295;37220,566;-6060,093
 831,69;   77,077;38022,820;-6506,395
 832,26;   80,860;38832,074;-5062,696
 832,83;   92,642;40408,328;-5452,998
 833,39;  127,424;40187,582;-6904,299
 833,96;  117,207;39167,836;-6687,600
 834,53;   43,989;40039,086;-6928,902
 835,10;   35,771;39930,340;-6529,203
 835,66;   91,553;38972,594;-6920,504
 836,23;   82,336;39801,848;-6803,806
 836,80;   11,118;39428,102;-6790,107
 837,36;   64,900;37086,355;-6810,409
 837,93;   72,683;34475,609;-6902,710
 838,50;   60,465;35084,863;-6789,012
 839,06;   59,247;37684,117;-6288,313
 839,63;   62,030;37191,371;-6895,614
 840,19;   72,812;35132,621;-6607,916
 840,76;   72,594;35364,875;-6404,217
 841,33;   70,377;35892,129;-6509,519
 841,89;  117,159;36779,383;-6949,820
 842,46;   52,941;37103,637;-6751,122
 843,03;  129,723;35389,891;-6089,423
 843,59;   97,506;34224,145;-6403,724
 844,16;  126,288;34994,398;-6181,025
 844,73;  144,070;34249,652;-6067,327
 845,29;  103,853;32937,902;-5695,628
 845,86;   87,635;35699,156;-6800,930
 846,42;   53,417;36940,410;-7004,231
 846,99;   82,200;36477,664;-6967,533
 847,56;   50,982;36265,918;-5840,834
 848,12;   20,764;36240,172;-6745,135
 848,69;   66,546;35710,426;-6715,437
 849,25;   65,329;34401,680;-6845,738
 849,82;   27,111;34081,934;-3247,040
 850,38;   51,893;35064,188;-6840,341
 850,95;   50,676;32489,439;-6324,643
 851,52;   45,458;32520,693;-6565,944
 852,08;   26,240;32548,947;-6691,245
 852,65;   35,023;30323,199;-7005,546
 853,21;   17,805;27698,453;-6958,848
 853,78;   50,587;27362,707;-6363,149
 854,34;   28,369;28860,961;-6871,451
 854,91;   24,152;29081,215;-5086,752
 855,47;   50,934;29942,467;-5108,054
 856,04;   77,716;32027,721;-6746,355
 856,60;    8,499;33961,973;-6104,656
 857,17;   33,281;34979,227;-6840,958
 857,73;   65,063;33553,480;-6811,259
 858,30;   79,846;32532,734;-6985,561
 858,86;   79,628;31110,988;-5926,862
 859,43;   22,410;31430,242;-6226,164
 859,99;    9,192;32011,496;-6852,465
 860,56;  -15,025;33126,750;-6903,766
 861,12;   17,757;35190,004;-6737,068
 861,69;   29,539;33669,258;-5924,369
 862,25;   81,322;34731,508;-6821,670
 862,82;   42,104;34419,762;-5972,972
 863,38;   85,886;31196,018;-6843,273
 863,95;   50,669;29305,270;-6239,575
 864,51;   68,451;30403,523;-5287,876
 865,08;   68,233;29284,777;-6090,178
 865,64;   54,015;26795,031;-7018,479
 866,21;   11,798;26131,285;-6745,780
 866,77;   56,580;26051,537;-5552,082
 867,34;  101,362;25734,791;-6672,383
 867,90;  177,145;24632,045;-6303,685
 868,46;  119,927;23835,299;-6041,986
 869,03;   64,709;24389,551;-6929,288
 869,59;   76,492;26353,805;-6884,589
 870,16;   49,274;27647,059;-6052,890
 870,72;   89,056;30060,313;-6657,191
 871,28;   45,838;32915,566;-5992,493
 871,85;   70,621;33142,820;-6907,794
 872,41;   58,403;31569,072;-6004,096
 872,98;   30,185;32738,326;-6050,397
 873,54;   -8,032;33876,578;-5920,699
 874,10;   64,750;32768,832;-5876,000
 874,67;   12,750;32987,832;-6904,000
 875,23;   22,750;31068,834;-7032,000
 875,80;   14,750;28009,834;-6641,000
 876,36;   -6,250;25058,834;-6642,000
 876,92;   18,750;22832,834;-6189,000
 877,49;   -1,250;23923,834;-6517,000
 878,05;   15,750;24896,834;-6797,000
 878,61;   23,750;26938,834;-6812,000
 879,18;   18,750;27553,834;-6252,000
 879,74;    3,750;28076,834;-6720,000
 880,30;    1,750;28679,834;-5926,000
 880,87;  -16,250;28852,834;-6326,000
 881,43;   39,750;29533,834;-6871,000
 881,99;   27,750;27306,834;-6879,000
 882,56;  -10,250;27610,834;-6661,000
 883,12;   -1,250;29049,834;-5740,000
 883,68;    5,750;29120,834;-6518,000
 884,25;   33,750;28300,834;-6949,000
 884,81;    5,750;26343,834;-6701,000
 885,37;    6,750;24221,834;-6786,000
 885,94;   33,750;22940,834;-6851,000
 886,50;   14,750;23098,834;-6886,000
 887,06;   18,750;24358,834;-6796,000
 887,62;   18,750;25019,834;-6866,000
 888,19;   -2,250;25774,834;-5986,000
 888,75;   22,750;26542,834;-6821,000
 889,31;    7,750;29043,834;-6778,000
 889,87;   23,750;30537,834;-6723,000
 890,44;   57,750;30349,834;-6696,000
 891,00;   38,750;28757,834;-6786,000
 891,56;  -12,250;26457,834;-6998,000
 892,12;   55,750;24463,834;-6754,000
 892,69;   53,750;25310,834;-6373,000
 893,25;   26,750;28798,834;-6877,000
 893,81;   83,750;31774,834;-6696,000
 894,37;   29,750;31330,834;-6342,000
 894,94;   53,750;28713,834;-6772,000
 895,50;   22,750;26035,834; -212,000
 896,06;   41,750;24749,834;-6810,000
 896,62;   67,750;23405,834;-6707,000
 897,18;   44,750;24661,834;-6518,000
 897,75;   56,750;27406,834;-6895,000
 898,31;   95,750;27887,834;-6849,000
 898,87;   48,750;26274,834;-6860,000
 899,43;   43,750;25164,834;-6469,000
 899,99;   16,750;26592,834;-6866,000
 900,56;   56,750;25515,834;-6791,000
 901,12;   59,750;24875,834;-6890,000
 901,68;   46,750;27903,834;-6267,000
 902,24;   57,750;31800,834;-5930,000
 902,80;   12,750;32652,834;-6794,000
 903,36;  118,750;31893,834;-6691,000
 903,93;  155,750;32139,834;-6646,000
 904,49;  301,750;32761,834;-6913,000
 905,05;  772,750;30952,834;-6732,000
 905,61; 1950,750;28208,834;-6832,000
 906,17; 3411,750;28086,834;-6901,000
 906,73; 4983,750;25975,834;-5380,000
 907,29; 5388,750;24960,834;-6910,000
 907,86; 4826,750;25118,834;-6827,000
 908,42; 4483,750;28092,834;-6795,000
 908,98; 3833,750;31123,834;-5908,000
 909,54; 2129,750;38813,832;-6885,000
 910,10;  878,750;48220,832;-6634,000
 910,66;  231,750;57581,832;-6781,000
 911,22;   87,750;65027,832;-6761,000
 911,78;   64,750;62593,832;-6841,000
 912,34;   24,750;53256,832;-6080,000
 912,90;   55,750;44610,832;-5232,000
 913,46;   15,750;37052,832;-6876,000
 914,03;    1,750;30620,834;-5746,000
 914,59;   50,750;27452,834;-6682,000
 915,15;   28,750;24908,834;-6891,000
 915,71;   11,750;24217,834;-6863,000
 916,27;   33,750;23800,834;-6723,000
 916,83;    6,750;23006,834;-5824,000
 917,39;   57,750;21742,834;-3512,000
 917,95;   34,750;20224,834;-6009,000
 918,51;    1,750;19972,834;-6583,000
 919,07;   64,750;21780,834;-6791,000
 919,63;  -30,250;23295,834;-6661,000
 920,19;  -13,250;23935,834;-6865,000
 920,75;    7,750;23112,834;-6640,000
 921,31;   -9,250;21484,834;-4837,000
 921,87;    8,750;20216,834;-6845,000
 922,43;   -9,250;18019,834;-5626,000
 922,99;   65,750;17321,834;-6706,000
 923,55;   25,750;18674,834;-6655,000
 924,11;   49,750;19094,834;-6976,000
 924,67;    8,750;19310,834;-6962,000
 925,23;   59,750;19485,834;-6778,000
 925,79;   -3,250;20122,834;-6710,000
 926,35;   50,750;20219,834;-6573,000
 926,91;    2,750;19401,834;-6909,000
 927,47;   44,750;19367,834;-6660,000
 928,03;   69,750;20294,834;-6786,000
 928,59;   52,750;20503,834;-6678,000
 929,15;   57,750;20781,834;-6792,000
 929,71;   45,750;22016,834;-6840,000
 930,27;   52,750;23587,834;-6537,000
 930,82;   56,750;25573,834;-6728,000
 931,38;  -29,250;24317,834;-5852,000
 931,94;    8,750;22672,834;-6843,000
 932,50;   28,750;21252,834;-6481,000
 933,06;   36,750;20895,834;-6768,000
 933,62;   44,750;21092,834;-6443,000
 934,18;   13,750;20632,834;-6727,000
 934,74;   18,750;21320,834;-6709,000
 935,30;   80,750;22030,834;-6484,000
 935,86;   86,750;21213,834;-6505,000
 936,42;   64,750;20702,834;-6873,000
 936,97;   22,750;21656,834;-6563,000
 937,53;   33,750;20552,834;-6826,000
 938,09;   82,750;21087,834;  123,000
 938,65;   17,750;21186,834;-6268,000
 939,21;   46,750;20179,834;-6708,000
 939,77;   15,750;18946,834;-6213,000
 940,33;   16,750;18602,834;-6748,000
 940,88;   33,750;19429,834;-5908,000
 941,44;   34,750;21301,834;-6983,000
 942,00;    3,750;23225,834;-6697,000
 942,56;   19,750;24231,834;-6604,000
 943,12;   54,750;23427,834;-5907,000
 943,68;   28,750;22950,834;-5679,000
 944,23;  -20,250;23124,834;-6749,000
 944,79;   19,750;22674,834;-6102,000
 945,35;   29,750;20741,834;-6599,000
 945,91;  103,750;19519,834;-6767,000
 946,47;   14,750;19827,834;-3353,000
 947,03;   25,750;19896,834;-6850,000
 947,58;   15,750;19661,834;-6840,000
 948,14;   20,750;20790,834;-5897,000
 948,70;    9,750;19573,834;-5855,000
 949,26;    5,750;18881,834;-6616,000
 949,81;   12,750;18342,834;-6644,000
 950,37;    1,750;18686,834;-6695,000
 950,93;   64,750;17993,834;-6224,000
 951,49;   20,750;17568,834;-6057,000
 952,05;   46,750;17926,834;-6571,000
 952,60;    6,750;17299,834;-6951,000
 953,16;   68,750;16933,834;-5783,000
 953,72;   -1,250;15628,833;-5813,000
 954,27;   12,750;15524,833;-6566,000
 954,83;   41,750;15317,833;-6703,000
 955,39;   39,750;14917,833;-6691,000
 955,95;  -23,250;14456,833;-6849,000
 956,50;  -16,250;14272,833;-6698,000
 957,06;    2,750;14126,833;-5922,000
 957,62;   38,750;13780,833;-6559,000
 958,18;   19,750;13872,833;-6741,000
 958,73;   18,750;13326,833;-6820,000
 959,29;   11,750;13518,833;-6106,000
 959,85;  -24,250;14785,833;-6864,000
 960,40;    5,750;16746,834;-4263,000
 960,96;   43,750;16386,834;-6738,000
 961,52;    5,750;14755,833;-6643,000
 962,07;    7,750;13711,833;-6742,000
 962,63;   -4,250;13208,833;-6723,000
 963,19;  -41,250;13435,833;-5779,000
 963,74;   71,750;13877,833;-6582,000
 964,30;  -27,250;14475,833;-6595,000
 964,86;  -14,250;14281,833;-6484,000
 965,41;   43,750;14290,833;-6705,000
 965,97;   27,750;14185,833;-6569,000
 966,53;    9,750;14792,833;-6750,000
 967,08;   58,750;15311,833;-6611,000
 967,64;   30,750;15082,833;-6705,000
 968,19;   23,750;14471,833;-6684,000
 968,75;   25,750;14662,833;-6566,000
 969,31;   14,750;14880,833;-5626,000
 969,86;   33,750;14995,833;-6505,000
 970,42;   15,750;13195,833;-6620,000
 970,97;   27,750;11567,833;-6437,000
 971,53;   42,750;11625,833;-6490,000
 972,09;   -0,250;12998,833;-6646,000
 972,64;   36,750;13523,833;-5812,000
 973,20;   63,750;13815,833;-6599,000
 973,75;   41,750;14605,833;-5760,000
 974,31;   53,750;14826,833;-6578,000
 974,87;   83,750;14921,833;-6674,000
 975,42;   12,750;14507,833;-6727,000
 975,98;   39,750;13201,833;-6651,000
 976,53;   48,750;12100,833;-6555,000
 977,09;    0,750;11353,833;-4624,000
 977,64;   27,750;11164,833;-6532,000
 978,20;   40,750;10649,833;-6585,000
 978,75;   31,750;10482,833;-6429,000
 979,31;   10,750;10950,833;-6513,000
 979,86;   30,750;12220,833;-6739,000
 980,42;   25,750;12828,833;-5813,000
 980,97;  -15,250;13290,833;-6642,000
 981,53;   59,750;14285,833;-6636,000
 982,08;   57,750;13803,833;-5046,000
 982,64;   29,750;12278,833;-6237,000
 983,19;   22,750;11308,833;-6760,000
 983,75;   56,750;10993,833;-6576,000
 984,30;   -4,250;10430,833;-5581,000
 984,86;   -3,250; 9867,833;-5898,000
 985,41;   46,750; 9457,833;-6634,000
 985,97;   17,750; 9632,833;-4797,000
 986,52;   50,750; 9894,833;-5853,000
 987,08;   39,750; 9953,833;-6174,000
 987,63;   50,750;10165,833;-5608,000
 988,19;   57,750;11252,833;-6266,000
 988,74;   12,750;11710,833;-5682,000
 989,30;   35,750;11529,833;-6568,000
 989,85;   35,750;11470,833; -276,000
 990,40;   47,750;11314,833;-6617,000
 990,96;   56,750;11060,833;-6482,000
 991,51;   50,750;11149,833;-6578,000
 992,07;   13,750;10742,833;-6605,000
 992,62;    5,750;10285,833;-6519,000
 993,18;   -2,250;10035,833;-6504,000
 993,73;   78,750; 9986,833;-6440,000
 994,28;   87,750; 9800,833;-6464,000
 994,84;   78,750; 9019,833;-6240,000
 995,39;   26,750; 8474,833;-2971,000
 995,94;   86,750; 7953,833;-5673,000
 996,50;   53,750; 7647,833;-6543,000
 997,05;   37,750; 7872,833;-3481,000
 997,61;   49,750; 8363,833;-6489,000
 998,16;   65,750; 8581,833;-6555,000
 998,71;   57,750; 8850,833;-6340,000
 999,27;   34,750; 9115,833;-5223,000
 999,82;   64,750; 8706,833;-4778,000
1000,37;   20,750; 8661,833;-6520,000
1000,93;   52,750; 8920,833;-6107,000
1001,48;   62,750; 8799,833;-6543,000
1002,03;   45,750; 8477,833;-6469,000
1002,59;   64,750; 8715,833;-5972,000
1003,14;   40,750; 8758,833;-6113,000
1003,69;   70,750; 8484,833;-6513,000
1004,25;   37,750; 8299,833;-6507,000
1004,80;   46,750; 8322,833;-6266,000
1005,35;   44,750; 8313,833;-6361,000
1005,91;   48,750; 8515,833;-6558,000
1006,46;   45,750; 8426,833;-6084,000
1007,01;   48,750; 8227,833;-5479,000
1007,56;   11,750; 8599,833;-6440,000
1008,12;   62,750; 8342,833;-6178,000
1008,67;   56,750; 7867,833;-6312,000
1009,22;   32,750; 7509,833;-6481,000
1009,78;   68,750; 7205,833;-6163,000
1010,33;   75,750; 6649,833;-6443,000
1010,88;   63,750; 6413,833;-5618,000
1011,43;   36,750; 5995,833;-6433,000
1011,99;   42,750; 5972,833;-6198,000
1012,54;   74,750; 6320,833;-6387,000
1013,09;   93,750; 6048,833;-6299,000
1013,64;   77,750; 5802,833;-6362,000
1014,19;  118,750; 5823,833;-6442,000
1014,75;   91,750; 5928,833;-6408,000
1015,30;  121,750; 6394,833;-6425,000
1015,85;  100,750; 6370,833;-6367,000
1016,40;  118,750; 6247,833;-5436,000
1016,96;  189,750; 6235,833;-6268,000
1017,51;   69,750; 6150,833;-6351,000
1018,06;   86,750; 6095,833;-6310,000
1018,61;   88,750; 5695,833;-6665,000
1019,16;  103,750; 5609,833;-6697,000
1019,71;  212,750; 5663,833;-6373,000
1020,27;  128,750; 5567,833;-6353,000
1020,82;  131,750; 5375,833;-3700,000
1021,37;  180,750; 5405,833;-4798,000
1021,92;  125,750; 5984,833;-6454,000
1022,47;  176,750; 5965,833;-6548,000
1023,02;  140,750; 5463,833;-6512,000
1023,58;  179,750; 5045,833;-6573,000
1024,13;  246,750; 4730,833;-6258,000
1024,68;  182,750; 4434,833;-6298,000
1025,23;  222,750; 4324,833;-5525,000
1025,78;  204,750; 4613,833;-6475,000
1026,33;  223,750; 4932,833;-5510,000
1026,88;  289,750; 4843,833;-6236,000
1027,43;  271,750; 5167,833;-6276,000
1027,99;  273,750; 5134,833;-6002,000
1028,54;  262,750; 4732,833;-6395,000
1029,09;  359,750; 4106,833;-2478,000
1029,64;  394,750; 3919,833;-6303,000
1030,19;  447,750; 4147,833;-3821,000
1030,74;  462,750; 4243,833;-5134,000
1031,29;  505,750; 4284,833;-4765,000
1031,84;  597,750; 4491,833;-6300,000
1032,39;  599,750; 4563,833;-5403,000
1032,94;  615,750; 4617,833;-4326,000
1033,49;  787,750; 4361,833;-5476,000
1034,04;  874,750; 4236,833;-6312,000
1034,59;  940,750; 4205,833;-6507,000
1035,14; 1003,750; 4117,833;-6145,000
1035,69; 1089,750; 4318,833;-6224,000
1036,24; 1201,750; 4104,833;-4477,000
1036,80; 1281,750; 3986,833;-5453,000
1037,35; 1374,750; 4138,833;-6347,000
1037,90; 1509,750; 4172,833;-6274,000
1038,45; 1634,750; 4201,833;-6419,000
1039,00; 1684,750; 4340,833;-5490,000
1039,55; 1692,750; 4229,833;-6284,000
1040,10; 1829,750; 3977,833;-5615,000
1040,65; 1852,750; 3916,833;-5576,000
1041,20; 1967,750; 3850,833;-6325,000
1041,75; 2204,750; 4030,833;-4522,000
1042,30; 2314,750; 4164,833;-3585,000
1042,84; 2654,750; 4338,833;-4439,000
1043,39; 2900,750; 4248,833;-6313,000
1043,94; 3185,750; 4175,833;-5342,000
1044,49; 3270,750; 3887,833;-6246,000
1045,04; 3757,750; 3710,833;-5800,000
1045,59; 4053,750; 3809,833;-6299,000
1046,14; 4598,750; 3732,833;-6392,000
1046,69; 5100,750; 3591,833;-6294,000
1047,24; 5663,750; 3623,833;-5510,000
1047,79; 6336,750; 3737,833;-6139,000
1048,34; 7146,750; 4002,833;-5961,000
1048,89; 8265,750; 3948,833;-6259,000
1049,44; 9332,750; 3935,833;-5172,000
1049,99;10955,750; 3855,833;-4844,000
1050,54;13264,750; 3876,833;-6249,000
1051,08;17369,750; 3961,833;-6178,000
1051,63;23834,750; 4050,833;-5285,000
1052,18;35364,750; 5051,833;-6127,000
1052,73;55303,750; 7151,833;-6173,000
1053,28;65147,750;10516,833;-6386,000
1053,83;65147,750;15224,833;-6214,000
1054,38;65147,750;19203,834;-6254,000
1054,93;65147,750;21243,834;-6285,000
1055,47;65147,750;23825,834;-5328,000
1056,02;65147,750;26212,834;-5832,000
1056,57;65147,750;27830,834;-6198,000
1057,12;65147,750;30497,834;-6378,000
1057,67;65147,750;33805,832;-6078,000
1058,22;65147,750;36084,832;-6313,000
1058,76;65147,750;38542,832;-6093,000
1059,31;65147,750;44129,832;-3514,000
1059,86;65147,750;48778,832;-6204,000
1060,41;65147,750;49718,832;-6152,000
1060,96;65147,750;51396,832;-6226,000
1061,51;65147,750;53649,832;-5344,000
1062,05;65147,750;54082,832;-6122,000
1062,60;65147,750;50555,832;-6061,000
1063,15;65147,750;45221,832;-6149,000
1063,70;65147,750;41550,832;-6250,000
1064,24;65147,750;43676,832;-6169,000
1064,79;65147,750;45461,832;-6144,000
1065,34;65147,750;43989,832;-6064,000
1065,89;65147,750;41776,832;-6202,000
1066,44;65147,750;37631,832;-6120,000
1066,98;65147,750;32612,834;-6224,000
1067,53;65147,750;30790,834;-5953,000
1068,08;65147,750;30368,834;-4845,000
1068,63;65147,750;27618,834;-6096,000
1069,17;65147,750;24647,834;-5893,000
1069,72;65147,750;22350,834;-5857,000
1070,27;65147,750;20529,834;-6040,000
1070,81;65147,750;20388,834;-5996,000
1071,36;65147,750;20367,834;-3883,000
1071,91;65147,750;18745,834;  966,000
1072,46;65147,750;16791,834;-5058,000
1073,00;65147,750;14646,833;-5239,000
1073,55;65147,750;11404,833;-5935,000
1074,10;65147,750; 7803,833;-5981,000
1074,64;53384,750; 5240,833;-5860,000
1075,19;33114,750; 3535,833;-4958,000
1075,74;22139,750; 2551,833;-6091,000
1076,28;16346,750; 2312,833;-6075,000
1076,83;12588,750; 1951,833;-5286,000
1077,38;10048,750; 1820,833;-5653,000
1077,92; 8305,750; 1783,833;-6332,000
1078,47; 6891,750; 1629,833;-5507,000
1079,02; 5831,750; 1578,833;-5959,000
1079,56; 5004,750; 1557,833;-5328,000
1080,11; 4292,750; 1304,833;-6094,000
1080,65; 3592,750; 1241,833;-5039,000
1081,20; 3079,750; 1186,833;-6151,000
1081,75; 2689,750; 1125,833;-6039,000
1082,29; 2350,750; 1128,833; -139,000
1082,84; 1954,750; 1184,833;-2678,000
1083,39; 1822,750; 1294,833;-5061,000
1083,93; 1741,750; 1335,833;-5025,000
1084,48; 1508,750; 1196,833;-5961,000
1085,02; 1453,750; 1082,833;-5783,000
1085,57; 1347,750; 1074,833;-5994,000
1086,11; 1175,750; 1079,833;-5968,000
1086,66; 1156,750;  925,833;-5584,000
1087,21; 1172,750; 1060,833;-5802,000
1087,75; 1092,750;  939,833;-6125,000
1088,30; 1009,750;  815,833;-5040,000
1088,84;  997,750;  783,833;-5963,000
1089,39;  892,750;  656,833;-5965,000
1089,93;  796,750;  664,833;-6100,000
1090,48;  744,750;  649,833;-4394,000
1091,02;  772,750;  733,833;-5181,000
1091,57;  690,750;  629,833;-5479,000
1092,11;  608,750;  642,833;-4094,000
1092,66;  548,750;  624,833;-6031,000
1093,20;  540,750;  580,833;-5180,000
1093,75;  534,750;  566,833;-4998,000
1094,29;  565,750;  486,833;-4979,000
1094,84;  498,750;  525,833;-5890,000
1095,38;  488,750;  528,833;-5097,000
1095,93;  492,750;  584,833;-5981,000
1096,47;  445,750;  615,833;-5612,000
1097,02;  360,750;  587,833;-4985,000
1097,56;  345,750;  614,833;-5772,000
1098,11;  368,750;  552,833;-5774,000
1098,65;  346,750;  508,833;-5992,000
1099,20;  296,750;  577,833;-5935,000
1099,74;  276,750;  487,833;-6002,000
1100,29;  298,750;  513,833;-4879,000
1100,83;  258,750;  496,833;-5934,000

