
Integration time [ms]:   1,000
Averaging Nr. [scans]: 1
Smoothing Nr. [pixels]: 0
Data measured with spectrometer [name]: 1703254U1
Wave   ;Sample   ;Dark     ;Reference;Scope
[nm]   ;[counts] ;[counts] ;[counts] 

 190,08;  -85,182; -370,119;11982,743
 190,69;  -66,885; -359,404;11603,049
 191,29;  -68,392; -311,651;11479,965
 191,90;  -77,971; -365,508;11440,717
 192,50;  -76,249; -379,511;10355,099
 193,10;  -55,799; -446,299;11244,381
 193,71;  -75,065; -367,888; 9821,736
 194,31;  -69,576; -399,273; 9436,327
 194,91;  -69,576; -382,273; 9291,327
 195,52;  -76,357; -338,386;10555,949
 196,12;  -52,570; -397,056; 8671,847
 196,72;  -72,052; -386,394; 8220,904
 197,32;  -75,065; -375,888; 8251,736
 197,93;  -58,275; -360,420; 8700,957
 198,53;  -71,406; -383,145; 7601,797
 199,13;  -78,294; -397,132; 8091,270
 199,74;  -63,441; -366,410; 7263,813
 200,34;  -59,782; -388,667; 7832,874
 200,94;  -57,306; -436,547; 6941,297
 201,55;  -66,885; -406,404; 7119,049
 202,15;  -70,007; -375,773; 6404,732
 202,75;  -98,713; -373,217; 6097,647
 203,36;  -40,504; -338,664; 6822,492
 203,96; -111,982; -357,943; 6332,678
 204,56;  -64,948; -355,657;10275,729
 205,16;  -72,374; -363,018; 5478,458
 205,77;  -85,075; -360,244; 4767,892
 206,37;  -73,236; -409,017; 5556,267
 206,97;  -76,895; -363,760; 5129,205
 207,58;  -60,212; -364,166; 5927,278
 208,18;  -80,016; -337,129; 5129,889
 208,78;  -77,433; -404,134; 5295,461
 209,38;  -60,858; -469,415; 4958,385
 209,99;   -4,750; -356,540; 3837,534
 210,59;  -62,365; -361,662; 3890,301
 211,19;  -34,611; -364,538; 3938,343
 211,79;  -54,400; -366,927; 4499,316
 212,40;  -80,169; -373,625; 3368,911
 213,00;  -73,343; -388,891; 3903,118
 213,60;  -78,509; -386,882; 2992,972
 214,20;  -55,824; -401,230; 3081,175
 214,81;  -85,613; -422,618; 2884,148
 215,41;  -93,039; -376,979; 3235,877
 216,01;  -87,736; -373,067; 3109,636
 216,61;  -69,468; -367,399; 2814,476
 217,22; -108,215; -381,326; 2358,888
 217,82;  -87,961; -325,173; 2262,495
 218,42;  -85,726; -383,711; 2389,480
 219,02; -107,354; -288,327; 3432,079
 219,63;  -82,887; -357,483; 2044,854
 220,23;  -94,223; -366,602; 2425,239
 220,83;  -69,394; -395,730; 1901,770
 221,43; -110,906; -393,195; 1850,167
 222,03; -104,705; -348,940; 2326,296
 222,64;  -54,161; -380,348; 1769,560
 223,24;  -15,928; -298,966; 1625,350
 223,84; -115,104; -376,313; 2637,361
 224,44;  -90,337; -316,695; 2381,571
 225,05;  -99,677; -313,952; 1440,632
 225,65;  -84,597; -301,065; 1227,445
 226,25;  -68,511; -364,961; 1139,777
 226,85;  -88,826; -294,309;  995,979
 227,45;  -93,309; -335,706; 1083,907
 228,06;  -57,480; -365,834; 1945,438
 228,66;  -86,941; -349,460; 4049,182
 229,26;  -95,996; -313,438; 1131,510
 229,86;  -75,605; -396,342; 1760,797
 230,46; -111,767; -358,194;  891,976
 231,06;  -98,552; -320,444;  757,273
 231,67;  -61,533; -346,732; 1228,961
 232,27; -110,589; -343,789;  778,094
 232,87;  -49,256; -308,808;  526,384
 233,47; -130,710; -321,158;  525,777
 234,07;  -87,165; -268,486; 9912,235
 234,67;  -88,150; -291,013;  672,338
 235,28; -130,710; -319,158;   65,777
 235,88; -110,702; -316,882;  285,426
 236,48;  -53,368; -350,821;  165,911
 237,08;  -90,113; -267,669;  448,518
 237,68; -146,855; -369,378; -267,552
 238,28;  -96,338; -304,774; -106,624
 238,89; -117,810; -212,756; -205,723
 239,49; -131,984; -282,023; 1280,483
 240,09;  -81,972; -284,608; -190,544
 240,69; -123,438; -251,373; -319,124
 241,29;  -85,307; -289,647;  651,036
 241,89; -121,737; -330,147; -260,559
 242,49;  -65,635; -248,490; -358,930
 243,10;  -97,191; -201,496; 3664,834
 243,70; -102,635; -284,490;  239,070
 244,30;  -30,608; -275,501; -708,594
 244,90;  -93,749; -188,582; -568,598
 245,50;  -84,909; -177,355; 3274,777
 246,10;  -84,334; -307,636; -831,300
 246,70;  -73,900; -300,999;   17,620
 247,30;  -99,751; -251,641;  326,273
 247,91; -123,044; -208,218; 5781,292
 248,51;  -88,878; -270,228; -806,563
 249,11;  -65,720; -239,514;  417,933
 249,71;  -76,733; -303,008; -667,235
 250,31;  -75,080; -265,483; -567,693
 250,91;  -59,469; -238,500;   75,216
 251,51; -100,600; -199,225; -822,945
 252,11;  -85,866; -239,813;  367,410
 252,71;  -89,236; -269,117;-1080,994
 253,31;  -87,353; -222,348; 3228,013
 253,91;  -87,332; -236,578; -676,170
 254,52;  -93,798; -237,342;-1063,750
 255,12;  -74,080; -293,483;-1104,693
 255,72;  -19,882; -206,366;  557,112
 256,32; -109,373; -242,061; -966,674
 256,92;  -58,206; -190,070;-1147,529
 257,52;  -23,815; -173,974; -883,243
 258,12; -117,596; -201,087;  -91,621
 258,72;  -84,588; -210,810;-1232,972
 259,32;  -41,242; -211,335;-1169,514
 259,92;  -26,825; -199,330;-1343,086
 260,52;  -37,676; -192,973;-1077,433
 261,12;  -28,234; -202,059; -662,865
 261,72;  -46,439; -238,452;-1312,319
 262,32;  -37,277; -215,600;-1561,498
 262,92;  -89,216; -238,426;  405,627
 263,53;  -37,807; -189,698;-1277,594
 264,13;  -92,619; -262,937; -268,632
 264,73;  -48,655; -217,202;-1694,617
 265,33;  -52,713; -188,317;-1708,613
 265,93;   -8,602; -147,304;-1345,140
 266,53;  -53,122; -161,046;-1544,392
 267,13;  -61,181; -139,161; -857,388
 267,73;  -64,903; -185,158;  270,230
 268,33;  -86,961; -166,274;-1788,766
 268,93;  -50,641; -213,708;-1702,449
 269,53;  -36,445; -204,670; -644,839
 270,13;  -26,476; -201,797;-1810,499
 270,73;  -99,073; -245,287;-1891,239
 271,33;  -41,140; -200,678;-1778,884
 271,93;  -61,091; -242,919;-1867,732
 272,53;   -6,308; -121,748;    8,776
 273,13;  -18,001; -146,677;-1117,075
 273,73;  -36,724; -119,753;-1955,652
 274,33;  -38,355; -148,428;-2041,182
 274,93;  -69,787; -188,007;-1843,972
 275,53;  -33,308;  -68,748;-1881,224
 276,13;  -83,174; -121,965;-2261,935
 276,73;  -63,658; -118,361;-1570,007
 277,33;  -16,607; -179,522;-1926,659
 277,93;    6,721; -213,680;-1864,693
 278,53;   -9,885; -194,526;-2112,278
 279,13;  -36,218; -125,506;-2152,568
 279,73;  -88,523; -140,498;-1388,522
 280,33;  -44,002; -154,756;-2179,270
 280,93;    4,325; -105,994;-2049,499
 281,53;  -50,881; -147,387;-2252,953
 282,13;  -35,797; -127,363;-2193,816
 282,73;  -97,339; -156,875; -385,885
 283,33;  -41,061; -137,872;-2307,266
 283,92;  -15,716;  -74,477;-2028,003
 284,52;  -38,734;  -94,109;-2365,496
 285,12;  -31,746; -138,524;-1425,469
 285,72;   -8,284; -126,898;-1041,213
 286,32;  -17,276;  -55,622;-1313,564
 286,92;  -18,468; -163,521;-2376,850
 287,52;   17,671;  -89,519;-2170,041
 288,12;   23,442;  -97,763;-2542,507
 288,72;   32,618; -106,417;-1625,518
 289,32;   -5,161;  -54,470; 1692,233
 289,92;   -7,684; -106,270;-2344,148
 290,52;  -46,642;  -91,809;-2485,710
 291,12;   24,186;  -57,996;-1570,308
 291,72;  -56,716;  -74,477;-1590,003
 292,32;   33,043;  -83,135;-2372,442
 292,92;   46,665;   -2,737;-2481,560
 293,51;    7,655;  -37,093;-2532,404
 294,11;   49,293;  -42,121;-1681,160
 294,71;   32,311;   -7,488;-2695,667
 295,31;   31,109;  -24,743;-1755,797
 295,91;  133,123;   46,751;-2713,629
 296,51;   53,871;   62,656;-1776,106
 297,11;   86,049;   35,061;-2900,988
 297,71;   20,217;    4,131;-2726,648
 298,31;  114,316;   38,730;-2329,148
 298,91;  108,540;   74,756;-2483,202
 299,50;   87,113;   41,395;-2689,473
 300,10;  174,988;  145,887;-2706,114
 300,70;  125,700;   95,528;-2492,576
 301,30;  150,831;   89,253;-2855,415
 301,90;  177,414;   96,248;-2004,843
 302,50;  189,481;  163,640;-2515,198
 303,10;  272,800;  124,126;-2530,076
 303,70;  156,149;  208,660;-3000,488
 304,29;  161,628;  189,918;-2658,740
 304,89;  131,664;  266,183;-1090,755
 305,49;  150,906;  163,922;-2773,122
 306,09;  255,356;  214,133;-2874,839
 306,69;  286,872;  262,736;-2915,911
 307,29;  270,043;  312,865;-2008,442
 307,89;  266,225;  303,408;-3029,000
 308,48;  362,068;  341,774;-2453,301
 309,08;  418,643;  369,492;-2743,377
 309,68;  518,436;  377,019;-3094,026
 310,28;  728,716;  371,102;-2576,213
 310,88;  675,219;  321,211;-2936,453
 311,48;  637,338;  447,500;-2875,331
 312,07;  797,751;  408,367;-2963,228
 312,67;  817,209;  497,855;-2128,297
 313,27;  665,892;  494,448;-1105,224
 313,87;  792,917;  583,357;-2164,083
 314,47;  749,878;  516,954;-3030,392
 315,06;  700,551;  620,191; 2713,837
 315,66;  647,796;  579,988;-3245,400
 316,26;  730,488;  632,938;-1844,483
 316,86;  871,129;  777,969;-3140,110
 317,46;  877,610;  720,307;-2115,167
 318,06;  744,596;  739,813; -825,335
 318,65;  824,623;  781,801;-2807,999
 319,25;  924,345;  821,798;-3195,617
 319,85;  947,619;  932,663;-2908,323
 320,45; 1008,525;  986,283;-3213,304
 321,05; 1175,553;  901,271;-2761,968
 321,64; 1235,171;  889,531;-3219,411
 322,24; 1543,957; 1056,861;-3265,513
 322,84; 2027,971; 1080,356;-3261,345
 323,44; 3222,666; 1133,364;-3219,300
 324,03; 7726,280; 1194,486;-3072,067
 324,63;10045,362; 1250,452;-2310,059
 325,23; 5513,847; 1241,928;-3097,792
 325,83; 2577,960; 1367,021;-2876,123
 326,42; 4261,338; 1442,622;-3285,005
 327,02; 7878,224; 1476,551;-3076,607
 327,62; 7148,086; 1439,629;-2505,221
 328,22; 4169,666; 1553,486;-3234,973
 328,82; 3639,735; 1577,037;-2229,938
 329,41; 2981,702; 1658,852;-3016,728
 330,01; 3538,947; 1652,750;-2961,704
 330,61; 3989,205; 1806,062;-2928,707
 331,20; 3260,102; 1778,325;-2868,531
 331,80; 2698,467; 1762,512;-2794,386
 332,40; 2399,872; 1752,102;-2896,932
 333,00; 2372,053; 1933,667;-2790,423
 333,59; 2367,139; 1748,771;-2855,091
 334,19; 2401,916; 1920,745;-1771,037
 334,79; 2429,606; 1712,615;-2861,316
 335,39; 2337,977; 1729,919;-2978,912
 335,98; 2324,083; 1726,714;-3126,958
 336,58; 2170,502; 1659,777;-3191,401
 337,18; 2144,641; 1720,779;-2958,592
 337,77; 2289,644; 1782,837;-2098,463
 338,37; 2139,020; 1806,359;-2021,540
 338,97; 1959,104; 1907,384;-2912,402
 339,57; 2005,285; 1862,948;-3044,894
 340,16; 1967,326; 1836,431;-2881,390
 340,76; 1982,751; 1962,712;-3053,314
 341,36; 1925,923; 1861,920;-3195,650
 341,95; 1802,911; 1934,506;-3027,623
 342,55; 1753,786; 1918,998;  703,736
 343,15; 1670,318; 2048,155;-3094,039
 343,74; 1733,915; 1924,644;-2382,298
 344,34; 1999,099; 1860,267;-3015,661
 344,94; 2153,996; 2068,530;-3069,485
 345,53; 2013,807; 2110,769;-2860,447
 346,13; 1957,547; 2174,398;-1283,573
 346,73; 1957,132; 1966,473;-2254,805
 347,32; 2146,332; 2268,649;-3080,871
 347,92; 2169,163; 2312,600;-2277,145
 348,52; 1984,440; 2270,523;-1878,722
 349,11; 1770,802; 2336,551;  975,034
 349,71; 1775,166; 2330,658;-3240,016
 350,31; 1890,575; 2441,387;-2672,237
 350,90; 2136,215; 2483,418;-2326,863
 351,50; 2298,087; 2390,852;-2105,634
 352,10; 2463,261; 2471,119;-3114,840
 352,69; 2501,655; 2532,273;-3182,424
 353,29; 2221,009; 2563,024;-3191,317
 353,89; 2010,718; 2645,527;-3255,104
 354,48; 1939,261; 2693,119;-3208,840
 355,08; 1831,257; 2871,980;-1117,164
 355,67; 1747,538; 2850,042;-2951,417
 356,27; 1760,095; 2839,128;-3232,985
 356,87; 1751,906; 3010,288;-3383,142
 357,46; 1733,326; 3049,431;-2351,390
 358,06; 1804,183; 3306,291;-3073,523
 358,66; 1987,772; 3337,504;-3109,432
 359,25; 2537,753; 3260,792;-2344,119
 359,85; 2912,861; 3365,667;-3215,970
 360,44; 2629,175; 3389,015;-3292,172
 361,04; 2432,318; 3567,155;-2367,039
 361,64; 2404,318; 3696,155;-2309,039
 362,23; 2449,884; 3772,517;-2932,958
 362,83; 2195,498; 3755,639;-2990,726
 363,42; 2187,808; 3938,769;-2836,447
 364,02; 2044,843; 3910,034;-2973,462
 364,62; 2128,547; 3816,398;-2486,573
 365,21; 2110,313; 3857,937;-1741,558
 365,81; 2126,976; 3935,818;-2792,173
 366,40; 1981,205; 3970,062;-2080,707
 367,00; 1952,663; 4021,550;-2952,776
 367,59; 2009,088; 4071,831;-2979,699
 368,19; 2036,833; 4221,678;-3237,306
 368,79; 2030,446; 4198,720;-3125,268
 369,38; 1944,209; 4107,200;-2250,383
 369,98; 1988,591; 4101,940;-2935,940
 370,57; 1883,998; 4188,588;-3331,356
 371,17; 1847,589; 4164,860;-3326,135
 371,76; 1821,051; 4277,486;-3442,879
 372,36; 1820,832; 4057,598;-3195,501
 372,95; 1714,131; 4115,372;  667,934
 373,55; 1895,593; 4105,998;-3393,811
 374,14; 1933,401; 4300,099;-3405,097
 374,74; 1903,413; 4256,514;-3224,124
 375,34; 1884,926; 4286,979;-3189,521
 375,93; 1981,495; 4295,479;-2706,116
 376,53; 1790,720; 4344,585;-3575,974
 377,12; 2014,138; 4405,670;-1465,352
 377,72; 2008,280; 4480,730;-3410,414
 378,31; 1960,287; 4511,027;-2274,699
 378,91; 1997,188; 4291,429;-3262,199
 379,50; 2032,514; 4588,213;-3331,363
 380,10; 1934,625; 4327,226;-3398,890
 380,69; 1958,970; 4094,621;-2343,626
 381,29; 1928,889; 4586,735;-2550,439
 381,88; 1895,835; 4518,758;-1605,111
 382,48; 1834,195; 4519,727;-3286,485
 383,07; 1901,073; 4495,358;-3457,802
 383,67; 1735,835; 4635,758;-1847,111
 384,26; 1720,661; 4667,491;-2467,905
 384,86; 1730,809; 4921,849;-3182,252
 385,45; 1722,220; 4932,636;-3325,344
 386,05; 1839,858; 5073,608;-3419,100
 386,64; 1710,297; 4911,384;-3524,855
 387,24; 1735,310; 5016,878;-2585,688
 387,83; 1733,467; 4993,512;-2489,386
 388,42; 1674,101; 5182,346;-2109,466
 389,02; 1682,001; 5423,748;-3235,966
 389,61; 1683,982; 5688,036;-3413,653
 390,21; 1658,310; 5729,878;-3463,688
 390,80; 1629,991; 5816,392;-3208,810
 391,40; 1772,117; 6137,899;-2293,168
 391,99; 1747,594; 5981,099;-3195,550
 392,59; 1785,848; 6435,252;-2416,943
 393,18; 1738,547; 6683,398;-2491,573
 393,77; 1730,070; 6883,198;-3238,192
 394,37; 1705,027; 7145,657;-2198,825
 394,96; 1704,964; 7098,403;-2296,146
 395,56; 1625,998; 7264,588;-2834,356
 396,15; 1734,170; 6867,797;-3125,692
 396,75; 1778,013; 7343,163;-2889,993
 397,34; 1761,591; 7669,940;-2620,940
 397,93; 1773,237; 7720,188;-3358,047
 398,53; 1839,682; 7595,262;-2525,088
 399,12; 1978,036; 8192,013;-2154,981
 399,72; 1979,261; 8013,119;-2274,840
 400,31; 2000,665; 8034,629;-3169,581
 400,91; 2046,897; 8446,012;-2959,791
 401,50; 2071,070; 8820,198;-2330,192
 402,09; 2337,240; 8550,327;-2894,722
 402,69; 2296,098; 8691,187;-3072,856
 403,28; 2152,583; 9052,663;-2983,588
 403,88; 2240,497; 9162,560; 1927,079
 404,47; 2313,088; 9689,831;  884,300
 405,06; 2383,708; 9684,171;  -68,947
 405,66; 2627,052; 9753,565;-2875,684
 406,25; 2897,446;10085,720;-3119,268
 406,84; 2753,264;10446,177;-2892,711
 407,44; 2437,450;10847,858;-2219,944
 408,03; 2167,073;10422,257;-2906,063
 408,63; 1849,151;10373,085;-3011,379
 409,22; 1990,581;10191,584;-1945,783
 409,81; 1878,288;10681,007;-1849,765
 410,41; 1977,595;11553,078;-2857,615
 411,00; 1914,298;11336,362;-1814,921
 411,59; 1930,208;11251,120;-2826,578
 412,19; 1970,186;11468,350;-2245,394
 412,78; 1771,432;11399,226;-2830,436
 413,37; 1775,118;12151,878;-2704,234
 413,97; 1797,274;12410,512;-2618,933
 414,56; 1814,719;12071,506;-2503,169
 415,15; 1838,938;12410,394;-2121,547
 415,75; 1800,306;12408,639;-2698,272
 416,34; 1856,795;12590,254;-1893,681
 416,93; 1896,762;12922,047;-2777,536
 417,53; 2021,376;12696,169;-1423,303
 418,12; 1962,004;12570,785;-2217,903
 418,71; 1829,083;12907,592;-2673,285
 419,31; 1894,169;13054,695;-1884,952
 419,90; 1823,797;13470,313;-2786,552
 420,49; 1859,547;13619,298;-1733,834
 421,08; 1931,547;14201,298;-1674,834
 421,68; 1934,300;14723,421;-1908,792
 422,27; 1936,034;14035,832;-2004,437
 422,86; 1973,985;13874,073; -437,590
 423,46; 1919,903;14080,107;-2575,598
 424,05; 2034,001;14376,626;-2928,293
 424,64; 2196,510;13888,953;-2640,014
 425,24; 2200,070;14092,098;-2903,453
 425,83; 2142,853;13992,269;-2680,945
 426,42; 2234,001;12987,626;-2760,293
 427,01; 3274,504;13424,734;-2674,533
 427,61; 3439,508;14347,873;-2609,209
 428,20; 2391,655;14036,151;-1764,751
 428,79; 2057,986;14414,052;-2859,656
 429,38; 2013,355;14092,377;-1781,186
 429,98; 1908,915;14922,521; -994,625
 430,57; 2067,508;15058,873;-2193,209
 431,16; 2008,328;14580,389;-2784,522
 431,75; 2075,565;14357,909; -561,407
 432,35; 2093,731;13435,899;-1951,262
 432,94; 2133,573;14429,186;-2324,759
 433,53; 2300,217;14560,375;-1152,995
 434,12; 2265,354;14431,298;-2267,381
 434,72; 2248,272;14188,331;-1413,389
 435,31; 2359,254;14167,699; 7395,119
 435,90; 2343,456;14308,954; 8338,249
 436,49; 2290,980;13427,834; -683,175
 437,08; 2518,178;13895,951; -675,370
 437,68; 2807,425;14442,827;-2987,412
 438,27; 2407,020;14610,237;-2610,866
 438,86; 1983,841;14612,832;-1147,984
 439,45; 1917,523;15313,346;-1937,106
 440,05; 1828,975;15955,616;-2982,694
 440,64; 1815,427;15054,886;-1902,282
 441,23; 1875,001;14152,525;-1415,553
 441,82; 1757,352;13700,218;-2631,576
 442,41; 1572,494;14351,277;-3014,637
 443,00; 1535,762;13625,925;-2724,863
 443,60; 1549,010;14373,881;-3136,710
 444,19; 1548,390;15026,541;-1440,462
 444,78; 1496,462;14960,151;-3012,298
 445,37; 1446,161;15728,297;-2522,928
 445,96; 1481,993;15331,249;-3116,202
 446,56; 1463,834;15596,535;-1144,698
 447,15; 1499,255;16225,678; -884,947
 447,74; 1529,220;17097,412;-2709,931
 448,33; 1574,044;16443,066;-1985,920
 448,92; 1413,582;15422,440;-2964,176
 449,51; 1427,398;15095,817;-2848,813
 450,10; 1870,017;15133,078;-3063,256
 450,70; 2352,013;14904,939;-1957,581
 451,29; 1938,075;15329,193;-1112,260
 451,88; 1573,699;15513,671;-2929,183
 452,47; 1658,071;16565,055;-2795,584
 453,06; 1905,585;16495,498;-2401,047
 453,65; 2233,262;16071,874;-2873,493
 454,24; 1904,661;17329,246;-2173,558
 454,84; 1558,465;17793,209;-1379,168
 455,43; 1433,307;18732,496;-2219,665
 456,02; 1369,056;18879,480;-2927,947
 456,61; 1339,111;17317,459;-2925,275
 457,20; 1393,859;16921,363;-2786,753
 457,79; 1733,602;17588,131;-2922,554
 458,38; 2471,051;18338,264;-2132,467
 458,97; 2345,866;18039,641;-2515,104
 459,56; 1708,778;18190,479;-2760,565
 460,16; 1516,634;17832,258;-2082,894
 460,75; 1488,113;18157,518;-2072,146
 461,34; 1427,373;18077,887;-2962,020
 461,93; 1418,188;18381,186;-2200,853
 462,52; 1509,162;19333,275;-2744,993
 463,11; 1577,896;20546,688;-1989,639
 463,70; 1818,005;19458,643;-2869,295
 464,29; 2632,241;19945,082;-3150,376
 464,88; 3990,233;20795,807;-2743,024
 465,47; 3288,996;19885,285;-2748,139
 466,06; 1929,120;20915,713;-3191,692
 466,65; 1877,838;21667,572;-3018,635
 467,24; 2206,846;22030,848;-2539,986
 467,84; 2008,381;22443,164;-2020,371
 468,43; 1724,462;22325,051;-2238,559
 469,02; 1796,937;23517,170;-2702,135
 469,61; 2125,403;24168,936;-2593,555
 470,20; 2380,573;23781,063;-2841,085
 470,79; 2037,769;22760,100;-3232,475
 471,38; 1571,335;25266,463;-2192,395
 471,97; 1481,787;26009,732; -666,983
 472,56; 1501,042;25472,887;-3035,376
 473,15; 1445,738;25296,975;-2825,135
 473,74; 1419,263;26395,854;-3106,559
 474,33; 1350,707;25866,848;-2957,796
 474,92; 1406,276;27630,348;-3146,391
 475,51; 1488,100;29609,002;-2873,380
 476,10; 1628,850;29847,986;-3011,662
 476,69; 1728,275;26101,268;-2855,586
 477,28; 1688,071;25846,955;-2956,845
 477,87; 1633,576;27035,121; -173,956
 478,46; 1744,535;28695,639;-3029,460
 479,05; 2036,630;30507,100;-2134,284
 479,64; 2071,732;31679,756;-2718,655
 480,23; 1792,087;29541,508;-2845,548
 480,82; 1659,683;28549,996;-2736,807
 481,41; 1722,365;29371,510;-1873,929
 482,00; 1779,903;29284,885;-1364,185
 482,59; 1619,822;29593,998;-2298,998
 483,18; 1753,190;31702,244;-2376,723
 483,77; 1733,965;31703,139;-2193,865
 484,36; 1775,100;32475,002;-1701,380
 484,95; 1775,557;32990,410; -788,643
 485,54; 1891,740;35331,031;-1371,006
 486,13; 2241,544;35762,996; -945,616
 486,72; 2279,826;34334,137;  148,326
 487,31; 1984,803;31046,285;-1109,686
 487,89; 1914,979;32608,633; -193,697
 488,48; 1986,050;33798,164;-1523,728
 489,07; 2122,627;32913,941;-1248,674
 489,66; 2170,091;33511,645;-1505,224
 490,25; 2515,915;31095,299; -660,212
 490,84; 2896,638;34127,375;-1683,635
 491,43; 3094,145;34965,621; -701,552
 492,02; 3181,646;36094,652;-1864,987
 492,61; 3182,292;35362,902;-1043,094
 493,20; 3259,085;33776,426;-2019,743
 493,79; 3242,641;32749,434; 4824,494
 494,38; 3044,713;33706,043;-1938,342
 494,97; 2951,072;32583,934; -629,911
 495,55; 2873,887;34690,309;-2325,548
 496,14; 2593,032;35087,531;-2403,220
 496,73; 2575,228;35451,566;-1952,609
 497,32; 2369,645;34211,570;-2587,182
 497,91; 2428,322;35005,949;-1921,629
 498,50; 2373,829;34165,195;-2912,544
 499,09; 2397,645;34554,570;-3088,182
 499,68; 2373,937;32403,070;-2405,396
 500,27; 2422,424;33321,605;-2490,999
 500,85; 2538,941;32655,207;-2604,071
 501,44; 2706,528;32478,342;-2576,175
 502,03; 2550,586;33194,457;-3368,178
 502,62; 2304,798;31275,068;-3438,205
 503,21; 2381,649;29432,711;-3532,858
 503,80; 2266,438;32028,100;-2976,831
 504,39; 2132,105;32451,119;-3458,121
 504,97; 2292,240;31774,982;-3577,636
 505,56; 2390,174;31537,590;-2979,281
 506,15; 2527,111;32302,336;-3991,602
 506,74; 2646,536;32557,617;-2945,526
 507,33; 2642,060;32185,498;-3165,949
 507,92; 2584,487;33952,859;-3871,678
 508,51; 2298,545;35926,973;-3735,682
 509,09; 2364,647;34536,629;-3921,053
 509,68; 3427,033;34318,508;-3748,286
 510,27; 5295,503;33667,410;-3799,381
 510,86; 4098,804;32572,264;-4081,751
 511,45; 2331,172;33677,512;-3843,476
 512,03; 2186,348;34524,855;-3829,488
 512,62; 2284,573;36240,961;-3780,346
 513,21; 2386,458;33870,789;-3186,209
 513,80; 3181,750;34644,289;-3501,423
 514,39; 5618,634;32752,137;-3905,221
 514,97; 8291,763;35347,781;-4095,255
 515,56; 6239,646;34167,551;-4198,248
 516,15; 2831,188;35428,063;-3955,179
 516,74; 2147,390;32584,318;-4420,049
 517,33; 2018,372;33459,688;-3549,542
 517,91; 1931,754;33935,426;-4188,099
 518,50; 1997,974;32563,393;-3264,282
 519,09; 2222,015;33942,875;-3157,778
 519,68; 2823,117;35231,531;-4286,148
 520,26; 3683,229;38679,547;-4232,675
 520,85; 6982,288;39452,660;-4352,679
 521,44;12145,438;40826,078;-4358,897
 522,03; 9050,673;39485,539;-4271,912
 522,61; 3251,439;36773,078;-4364,897
 523,20; 2175,411;33924,090;-4337,233
 523,79; 1873,981;32040,590;-4337,828
 524,38; 1744,358;32850,191;-4344,709
 524,96; 1643,914;35883,199;-4321,473
 525,55; 1511,699;36021,449;-4542,771
 526,14; 1339,568;34018,723;-4434,931
 526,73; 1238,161;32852,074;-4389,515
 527,31; 1273,807;32903,324;-4488,622
 527,90; 1348,699;33630,449;-4564,771
 528,49; 1687,157;34155,938;-2529,839
 529,08; 2130,613;34601,344;-3467,103
 529,66; 1802,421;34848,445;-3911,389
 530,25; 1285,071;35279,832;-4414,172
 530,84; 1150,891;35334,348;-4583,485
 531,42; 1231,940;38583,105;-4365,332
 532,01; 1096,478;37528,480;-4291,588
 532,60; 1013,329;34512,125;-4473,241
 533,18;  962,272;35538,086;-4078,042
 533,77;  990,186;34969,984;-4236,374
 534,36; 1001,366;34459,469;-4374,061
 534,95; 1091,061;35483,477;-4088,015
 535,53; 1225,550;34236,090; -974,424
 536,12; 1179,492;36469,977;-2657,420
 536,71; 1103,554;36511,230;-3869,099
 537,29; 1063,621;36073,621;-3618,454
 537,88; 1139,439;33908,078;-3454,897
 538,47; 1197,989;32497,867;-2840,180
 539,05; 1221,249;36837,238;-2139,054
 539,64; 1104,768;40414,898;-1785,997
 540,22; 1060,594;37414,633; -764,790
 540,81; 1115,042;37501,766; 1008,297
 541,40; 1038,316;39018,629; 3425,591
 541,98;  947,832;38188,230; 4858,519
 542,57; 1063,492;39368,977; 4597,580
 543,16;  991,926;38645,613; 4952,500
 543,74; 1023,339;35774,480; 4083,603
 544,33;  944,517;36297,883; 3620,721
 544,92; 1015,795;37217,887; 3973,339
 545,50;  993,034;37338,488;11456,648
 546,09; 1009,519;40064,965;11359,916
 546,67; 1090,707;41948,727; 2857,878
 547,26; 1063,689;40050,094; -202,615
 547,85; 1012,727;39208,414; -567,501
 548,43;  940,899;38452,625; -849,836
 549,02;  942,944;39427,246;-1040,008
 549,60;  968,146;40570,500; -984,878
 550,19;  946,298;41166,996;-2192,901
 550,78;  913,823;42660,875;-2328,325
 551,36;  883,414;45349,148;-2432,104
 551,95;  913,433;45443,859; -585,416
 552,53;  991,333;43280,262; -296,916
 553,12; 1067,772;41420,035;-3431,672
 553,70; 1090,036;43188,547;-2878,222
 554,29;  974,410;44058,008;-2869,428
 554,88;  969,651;41831,668;-4247,989
 555,46;  915,077;43723,027;-3881,718
 556,05;  879,541;45007,734;-4207,268
 556,63;  955,750;45206,266;-3396,489
 557,22;  873,218;43875,109;-3394,714
 557,80;  931,764;41749,762;-3568,321
 558,39;  933,222;44188,250;-4145,390
 558,97;  891,656;47993,887;-3699,470
 559,56;  911,441;49889,137;-4544,768
 560,15;  834,073;50117,891;-3611,042
 560,73;  938,970;49814,152;-4287,867
 561,32;  934,787;47024,609;-3741,309
 561,90;  913,741;46041,910;-4382,333
 562,49;  969,975;48487,371;-3786,348
 563,07;  917,087;48074,387;-4783,875
 563,66; 1007,302;50064,133;-4352,577
 564,24; 1075,997;49228,145;-4763,531
 564,83;  966,373;51344,664;-4603,607
 565,41;  990,114;53840,375;-4329,539
 566,00;  929,803;52202,164;-2755,012
 566,58;  961,253;56465,375;-3725,729
 567,17;  996,701;56909,508;-4280,642
 567,75;  968,267;52392,871;-4653,562
 568,34;  975,598;55893,770;-3216,466
 568,92;  892,404;55738,793;-3987,947
 569,51; 1408,351;54852,895; 2680,576
 570,09; 1368,643;58247,391;-4676,638
 570,68;  951,641;53188,313;-4788,833
 571,26;  889,805;50733,242;-3886,817
 571,85;  888,819;57347,738;-4822,649
 572,43;  824,531;57011,379;-4704,111
 573,01;  807,392;52662,375;-4873,920
 573,60;  850,688;53819,012;-3785,810
 574,18;  814,333;55122,262;-4514,917
 574,77;  798,584;53284,277;-4737,634
 575,35;  785,688;56113,012;-4452,810
 575,94;  869,459;57300,770;-4076,275
 576,52;  912,889;54049,270;-2249,680
 577,11; 1007,252;51620,297;-3244,924
 577,69; 2398,731;48685,555;-3183,176
 578,27; 2513,298;51008,996;-3447,901
 578,86; 1137,897;55198,543;-2994,031
 579,44;  805,993;60080,004;-2805,855
 580,03;  908,580;60164,137;-2493,958
 580,61;  818,167;60267,270;-3206,062
 581,19;  822,400;56429,652;-2538,271
 581,78;  788,072;55361,813;-2364,238
 582,36;  813,216;57656,031;-2911,909
 582,95;  809,359;56180,172;-1497,776
 583,53;  840,342;59586,539;-2319,268
 584,11;  886,378;61608,883;-2241,088
 584,70;  902,956;61691,660;-1948,035
 585,28;  883,338;62070,398;-1853,592
 585,87;  788,269;60436,930;-2889,432
 586,45;  741,897;63023,543;-2375,031
 587,03;  635,839;64945,430;-1150,027
 587,62;  742,289;61494,641;-1834,745
 588,20;  784,418;62236,285;-1020,779
 588,78;  849,573;58157,840;-3411,673
 589,37;  822,889;57765,270;-3360,680
 589,95;  869,737;62238,773;-3385,657
 590,54;  777,480;63633,539;-3461,459
 591,12;  768,668;62116,301;-3508,497
 591,70;  756,126;59586,789;-3331,565
 592,29;  773,377;62881,805;-2923,283
 592,87;  839,114;63542,375;-2394,538
 593,45;  775,238;63404,801; 1487,908
 594,04;  761,888;62800,188;-3676,875
 594,62;  806,741;59709,910;-3708,333
 595,20;  745,461;62066,828;-4371,146
 595,79;  788,279;62681,285;-4165,588
 596,37;  797,731;61108,555;-3657,176
 596,95;  799,942;56922,164;-4321,203
 597,53;  767,598;58806,770;-4226,466
 598,12;  801,713;61848,922;-3959,669
 598,70;  786,925;64932,531;-3776,695
 599,28;  791,114;64911,375;-3404,538
 599,87;  815,293;64929,777;-3061,420
 600,45;  757,974;64938,293;-3907,543
 601,03;  755,570;63145,781;-4100,802
 601,62;  813,888;61727,188;-4468,875
 602,20;  752,449;59786,414;-4541,119
 602,78;  746,690;64399,070;-4770,680
 603,36;  753,807;64783,301;-3166,688
 603,95;  759,584;58863,277;-4492,634
 604,53;  803,001;62401,281;-4574,207
 605,11;  777,056;59505,258;-2755,535
 605,69;  810,248;62362,156;-3365,249
 606,28;  720,377;62594,805;-4223,283
 606,86;  795,283;61629,422;-3946,264
 607,44;  717,036;60431,547;-3906,222
 608,02;  769,516;58047,805;-4037,474
 608,61;  712,651;60099,668;-2866,989
 609,19;  698,005;58582,418;-2582,882
 609,77;  821,144;57398,422; -710,073
 610,35;  762,987;55748,785; 5794,625
 610,94;  771,991;56509,926;14509,949
 611,52;  776,651;55803,668;12610,011
 612,10;  690,770;53026,957; 8432,133
 612,68;  643,937;56637,949; 2694,278
 613,26;  682,592;57037,551; 2032,015
 613,85;  673,130;61759,926; -599,241
 614,43;  713,297;62306,918;-1030,096
 615,01;  682,860;62272,199;-1215,211
 615,59;  692,170;64874,328; -972,932
 616,17;  755,122;59402,648;-2561,890
 616,76;  737,656;62178,887;-2993,470
 617,34;  846,742;62666,988;-2389,138
 617,92;  759,598;58547,770;-3399,466
 618,50;  785,400;61202,652;-2562,271
 619,08;  748,355;57928,031;-2514,100
 619,67;  770,803;55968,164;-3196,012
 620,25;  816,289;54290,641;-2743,745
 620,83;  769,974;50498,293;-3495,543
 621,41;  819,960;52314,797;-2800,711
 621,99;  757,929;54560,672;-2529,371
 622,57;  817,719;55529,141;-3707,149
 623,15;  786,087;56213,387;-3783,875
 623,74;  766,652;58266,746;-3892,794
 624,32;  741,347;59330,754;-2827,749
 624,90;  756,907;58625,898;-2311,188
 625,48;  747,328;57897,043;-3132,436
 626,06;  790,643;56898,391;-4006,638
 626,64;  805,993;57787,004;-4162,855
 627,22;  696,382;58993,020;-3409,764
 627,81;  726,774;58046,117;-4334,478
 628,39;  650,136;57121,145;-4560,722
 628,97;  730,113;56597,293;-4437,733
 629,55;  727,791;55377,750;-4219,985
 630,13;  702,167;55669,270;-2959,062
 630,71;  671,212;54162,891;-2747,233
 631,29;  667,584;53129,277;-3824,634
 631,87;  711,562;52776,504;-4223,451
 632,45;  666,122;52786,648;-4716,890
 633,03;  707,007;54183,500;-4191,688
 633,62;  707,001;55423,281;-4714,207
 634,20;  627,498;54882,172;-4089,966
 634,78;  672,576;56497,000;-4430,283
 635,36;  679,844;56701,648;-4449,508
 635,94;  699,948;55183,383;-5398,684
 636,52;  615,566;51027,645;-5422,126
 637,10;  649,942;52116,164;-5488,203
 637,68;  616,508;50694,527;-4702,123
 638,26;  612,930;47618,750;-5536,176
 638,84;  578,185;48688,902;-5421,569
 639,42;  578,942;49235,164;-3756,203
 640,00;  597,133;51366,148;-5405,726
 640,58;  672,915;54579,402;-4806,027
 641,16;  619,697;55521,656;-5571,328
 641,74;  553,479;53214,906;-5433,630
 642,32;  592,261;50106,160;-5620,931
 642,90;  600,044;50434,414;-5856,232
 643,48;  583,826;49231,668;-5786,534
 644,06;  600,608;49280,922;-5796,835
 644,64;  557,390;49595,176;-5842,137
 645,22;  545,172;50513,430;-5562,438
 645,80;  512,954;50547,684;-4957,740
 646,39;  542,736;48107,938;-5515,041
 646,97;  528,518;49773,191;-5850,342
 647,54;  531,300;52328,441;-5717,644
 648,12;  545,082;54879,695;-5865,945
 648,70;  512,864;58954,949;-5885,247
 649,28;  621,646;56421,203;-6090,548
 649,86;  516,428;51091,457;-5609,850
 650,44;  499,210;48619,711;-5452,151
 651,02;  483,993;49970,965;-5474,452
 651,60;  485,775;51793,219;-5803,753
 652,18;  578,557;51320,473;-4735,055
 652,76;  505,339;53277,723;-5934,356
 653,34;  505,121;54817,977;-5939,658
 653,92;  572,903;57729,230;-5784,959
 654,50;  617,685;59042,484;-5818,261
 655,08;  630,467;58048,738;-5841,562
 655,66;  599,249;55058,992;-5115,863
 656,24;  673,031;56743,246;-5200,165
 656,82;  684,813;58989,500;-4979,466
 657,40;  615,595;58967,754;-5667,768
 657,98;  587,377;60169,008;-5486,069
 658,56;  562,159;61114,258;-5717,371
 659,14;  542,942;61380,512;-5913,672
 659,72;  568,724;63381,766;-5916,973
 660,29;  501,506;62437,020;-5907,275
 660,87;  529,288;59738,273;-5212,576
 661,45;  595,070;58590,527;-5664,877
 662,03;  554,852;57513,781;-4971,179
 662,61;  503,634;54945,035;-5638,480
 663,19;  490,416;54618,289;-5657,782
 663,77;  472,198;53917,543;-5939,083
 664,35;  452,980;56689,793;-5887,384
 664,93;  394,762;62595,047;-4922,686
 665,51;  460,544;61993,301;-6033,987
 666,08;  494,326;57747,555;-5652,289
 666,66;  451,108;51859,809;-4400,590
 667,24;  454,891;49420,063;-5952,892
 667,82;  447,673;50250,316;-5849,193
 668,40;  460,455;50723,570;-5932,494
 668,98;  429,237;51952,824;-5097,796
 669,56;  464,019;57957,078;-6096,097
 670,13;  419,801;61797,328;-6222,398
 670,71;  449,583;59698,582;-5900,700
 671,29;  418,365;57209,836;-6139,001
 671,87;  404,147;56814,090;-6051,303
 672,45;  441,929;51822,344;-6050,604
 673,03;  531,711;52592,598;-4769,906
 673,60;  594,493;58431,852;-3503,207
 674,18;  622,275;63679,105;-5938,508
 674,76;  553,057;61159,359;-6226,810
 675,34;  499,840;56361,613;-5251,111
 675,92;  430,622;55284,863;-6338,413
 676,50;  484,404;55051,117;-6085,714
 677,07;  408,186;56952,371;-6095,016
 677,65;  444,968;56680,625;-6163,317
 678,23;  388,750;55997,879;-5057,618
 678,81;  407,532;58016,133;-5299,919
 679,38;  426,314;56669,387;-5969,221
 679,96;  416,096;53267,641;-5846,522
 680,54;  406,878;55171,895;-5308,824
 681,12;  398,660;52485,148;-6126,125
 681,70;  361,442;54786,398;-4413,427
 682,27;  365,224;54740,652;-5851,728
 682,85;  332,006;58265,906;-5991,029
 683,43;  364,789;64943,160;-6140,331
 684,01;  368,571;64943,414;-5172,632
 684,58;  398,353;64307,668;-5138,934
 685,16;  390,135;64236,922;-4494,235
 685,74;  340,917;62790,176;-3853,536
 686,32;  337,699;59009,430;-6012,838
 686,89;  371,481;59552,684;-6015,139
 687,47;  308,263;59534,934;-6076,441
 688,05;  360,045;56416,188;-6019,742
 688,63;  348,827;59626,441;-6102,043
 689,20;  357,609;62884,695;-5971,345
 689,78;  424,391;58427,949;-5530,646
 690,36;  380,173;54291,203;-5381,948
 690,93;  393,955;54968,457;-6355,249
 691,51;  436,737;61453,711;-6326,550
 692,09;  386,520;64946,965;-6223,852
 692,67;  356,302;64947,219;-6047,153
 693,24;  356,084;60968,469;-5803,455
 693,82;  338,866;59538,723;-6235,756
 694,40;  413,648;58049,977;-3570,058
 694,97;  322,430;57456,230;-6046,359
 695,55;  321,212;59820,484;-5464,660
 696,13;  358,994;61729,738;-4454,962
 696,70;  326,776;58594,992;-6029,263
 697,28;  329,558;59108,246;-6266,564
 697,86;  388,340;60837,500;-6030,866
 698,43;  345,122;58827,754;-6198,167
 699,01;  313,904;55595,004;-6051,469
 699,59;  347,686;55751,258;-6402,770
 700,16;  285,469;54174,512;-5257,072
 700,74;  342,251;57040,766;-5497,373
 701,32;  351,033;56440,020;-6233,674
 701,89;  286,815;55792,273;-6049,976
 702,47;  337,597;60296,527;-6466,277
 703,05;  340,379;64951,781;-6309,579
 703,62;  293,161;64952,035;-6227,880
 704,20;  266,943;64952,285;-5306,182
 704,77;  292,725;64952,539;-6118,483
 705,35;  272,507;64213,793;-6006,784
 705,93;  283,289;64327,047;-4922,085
 706,50;  284,071;63796,301;-5267,387
 707,08;  244,853;60606,555;-5284,688
 707,65;  281,635;60046,809;-5620,990
 708,23;  311,418;64881,063;-5431,292
 708,81;  288,200;64954,316;-5019,593
 709,38;  260,982;64954,570;-5001,894
 709,96;  306,764;64954,820;-6025,195
 710,53;  299,546;64955,074;-6007,497
 711,11;  324,328;61503,328;-5752,798
 711,69;  320,110;61913,582;-3821,100
 712,26;  312,892;59012,836;-4642,401
 712,84;  263,674;63346,090;-5947,703
 713,41;  341,456;64411,344;-6153,004
 713,99;  252,238;64924,598;-6068,305
 714,56;  334,020;62057,852;-6326,607
 715,14;  323,802;60312,105;-6198,908
 715,71;  289,584;60246,355;-6210,209
 716,29;  302,367;62893,609;-6648,511
 716,86;  301,149;63573,863;-6510,813
 717,44;  327,931;63263,117;-6424,114
 718,02;  246,713;62110,371;-6462,415
 718,59;  273,495;61013,625;-5121,716
 719,17;  270,277;63488,879;-5649,018
 719,74;  305,059;62907,133;-5756,319
 720,32;  256,841;63502,387;-6451,621
 720,89;  293,623;64959,641;-6422,922
 721,47;  249,405;64959,891;-6388,224
 722,04;  285,187;64960,145;-5502,525
 722,62;  308,969;64252,398;-3979,826
 723,19;  296,751;60250,652;-4938,128
 723,77;  244,533;57638,906;-5673,429
 724,34;  334,315;60150,160;-5576,730
 724,92;  298,098;63789,414;-6558,032
 725,49;  299,880;64961,668;-5666,333
 726,07;  273,662;64961,922;-6491,635
 726,64;  287,444;64627,176;-6587,936
 727,21;  300,226;60249,426;-5627,238
 727,79;  272,008;63706,680;-6444,539
 728,36;  292,790;64962,934;-6722,840
 728,94;  267,572;64963,188;-6535,142
 729,51;  292,354;64963,441;-6365,443
 730,09;  301,136;64963,695;-5545,745
 730,66;  288,918;64963,949;-6358,046
 731,24;  370,700;64964,203;-6577,348
 731,81;  354,482;64964,457;-5151,649
 732,38;  316,264;64964,711;-6492,950
 732,96;  317,047;64964,961;-6263,251
 733,53;  364,829;60347,215;-6389,553
 734,11;  335,611;61575,469;-6617,854
 734,68;  359,393;64965,723;-6211,156
 735,26;  400,175;64965,977;-6389,458
 735,83;  383,957;64966,230;-6498,759
 736,40;  415,739;62243,484;-6516,060
 736,98;  453,521;61999,738;-6374,361
 737,55;  437,303;59236,992;-5827,663
 738,13;  435,085;57707,246;-5702,964
 738,70;  450,867;60991,496;-5529,266
 739,27;  484,649;62504,750;-6452,567
 739,85;  471,431;62745,004;-6283,869
 740,42;  513,213;64968,258;-6464,170
 740,99;  563,996;64968,512;-5618,471
 741,57;  589,778;64968,766;-4867,773
 742,14;  588,560;64969,020;-5349,074
 742,72;  558,342;64969,273;-4751,375
 743,29;  603,124;64969,527;-6563,677
 743,86;  603,906;64969,781;-6538,979
 744,44;  642,688;64970,031;-6113,280
 745,01;  572,470;64970,285;-5760,581
 745,58;  549,252;64970,539;-6259,882
 746,16;  545,034;64970,793;-6188,184
 746,73;  647,816;64971,047;-6479,485
 747,30;  598,598;61139,301;-6536,787
 747,88;  551,380;59621,555;-5621,088
 748,45;  542,162;64971,809;-5668,390
 749,02;  649,945;64972,063;-6384,691
 749,60;  580,727;62401,313;-6212,992
 750,17;  672,509;61766,566;-5269,294
 750,74;  638,291;62801,820;-6479,595
 751,31;  704,073;63306,074;-6347,896
 751,89;  689,855;64232,328;-6546,198
 752,46;  710,637;64973,582;-6282,500
 753,03;  700,419;64973,836;-6160,801
 753,61;  721,201;63755,090;-4858,102
 754,18;  709,983;64573,344;-6434,404
 754,75;  692,765;63888,598;-5191,705
 755,32;  675,547;60715,848;-6332,006
 755,90;  698,329;64975,102;-6493,308
 756,47;  688,111;64975,355;-4809,609
 757,04;  618,893;64975,609;-6457,911
 757,61;  609,676;64975,863;-5553,212
 758,19;  553,458;64976,117;-5253,514
 758,76;  494,240;64976,371;-6603,815
 759,33;  483,022;64976,625;-6664,116
 759,90;  496,804;64976,879;-5714,417
 760,48;  363,586;64977,133;-6778,719
 761,05;  393,368;64977,383;-6083,021
 761,62;  402,150;62082,637;-4888,322
 762,19;  391,932;58992,891;-6144,624
 762,77;  350,714;61730,145;-5963,925
 763,34;  352,496;64978,398;-6610,226
 763,91;  349,278;64978,652;-5818,527
 764,48;  395,060;64978,906;-6756,829
 765,05;  345,842;64979,160;-6543,130
 765,63;  337,625;63215,414;-6417,432
 766,20;  340,407;59753,668;-6004,733
 766,77;  256,189;57105,918;-5921,035
 767,34;  258,971;58807,172;-6640,336
 767,91;  246,753;59176,426;-6689,637
 768,49;  294,535;61368,680;-6772,939
 769,06;  255,317;64980,934;-5832,240
 769,63;  247,099;62272,188;-6636,542
 770,20;  234,881;59567,441;-5868,843
 770,77;  292,663;57921,695;-5645,145
 771,34;  210,445;60065,949;-6615,446
 771,91;  284,227;60549,203;-6102,747
 772,49;  226,009;58558,453;-6369,048
 773,06;  243,791;57687,707;-6203,350
 773,63;  276,574;60204,961;-6639,651
 774,20;  215,356;58197,215;-5918,953
 774,77;  240,138;56475,469;-6631,254
 775,34;  282,920;56707,723;-6214,556
 775,91;  343,702;57056,977;-6417,857
 776,49;  490,484;58787,230;-6590,158
 777,06;  683,266;60761,484;-6015,460
 777,63;  526,048;64224,738;-6367,761
 778,20;  440,830;62572,988;-6250,063
 778,77;  309,612;63316,242;-5763,364
 779,34;  296,394;64985,496;-6585,666
 779,91;  297,176;64985,750;-6534,967
 780,48;  293,958;59144,004;-5853,268
 781,05;  313,740;50716,258;-6586,570
 781,62;  365,523;52124,512;-6604,871
 782,20;  365,305;58813,766;-6500,172
 782,77;  313,087;64987,020;-6529,474
 783,34;  307,869;64052,273;-6522,775
 783,91;  257,651;61362,523;-6509,077
 784,48;  255,433;60480,777;-2126,378
 785,05;  203,215;59144,031;-6540,680
 785,62;  226,997;58221,285;-6452,981
 786,19;  289,779;58149,539;-5100,282
 786,76;  186,561;55130,793;-6677,583
 787,33;  257,343;56202,047;-6515,885
 787,90;  285,125;59491,301;-6591,187
 788,47;  264,907;60148,555;-5075,488
 789,04;  328,689;58988,809;-5763,790
 789,61;  304,472;58863,059;-5066,091
 790,18;  248,254;55747,313;-6561,392
 790,75;  286,036;50841,566;-6671,693
 791,32;  259,818;52056,820;-6577,995
 791,89;  293,600;55205,074;-6068,296
 792,46;  601,382;60806,328;-5763,598
 793,03; 1219,164;62404,582;-6702,899
 793,60; 1035,946;55699,836;-6440,201
 794,17;  506,728;52257,090;-5569,502
 794,74;  389,510;47273,344;-5886,803
 795,31;  293,292;50096,594;-6099,105
 795,88;  254,074;52579,848;-5572,406
 796,45;  263,856;53365,102;-6529,708
 797,02;  197,638;56004,355;-5046,009
 797,59;  208,421;57922,609;-6675,311
 798,16;  174,203;54563,863;-5861,612
 798,73;  162,985;53534,117;-6761,913
 799,30;  183,767;55088,371;-6611,214
 799,87;  146,549;55650,625;-6713,516
 800,44;  135,331;55353,875;-6729,817
 801,01;  150,113;56836,129;-6807,119
 801,58;  198,895;58477,383;-6537,420
 802,15;  182,677;52086,637;-6658,722
 802,72;  170,459;48849,891;-6694,023
 803,28;  156,241;52000,145;-6076,324
 803,85;  206,023;57179,398;-6728,626
 804,42;  199,805;55235,652;-5999,927
 804,99;  177,587;53752,906;-6539,229
 805,56;  133,369;52472,160;-6770,530
 806,13;  202,152;53387,410;-6075,832
 806,70;  194,934;52719,664;-6748,133
 807,27;  221,716;54477,918;-6672,434
 807,84;  254,498;52786,172;-6693,736
 808,41;  748,280;49728,426;-6022,037
 808,98; 1535,062;50479,680;-5986,338
 809,54; 1280,844;52469,934;-4958,640
 810,11;  588,626;48281,188;-6782,941
 810,68;  308,408;43021,441;-6680,243
 811,25;  209,190;41394,695;-6760,544
 811,82;  198,972;40374,945;-6886,846
 812,39;  179,754;37710,199;-3331,147
 812,96;  169,536;38779,453;-6767,448
 813,52;  193,318;41291,707;-6937,750
 814,09;  125,101;44522,961;-6766,051
 814,66;  137,883;50325,215;-6827,353
 815,23;  128,665;51240,469;-6669,654
 815,80;  115,447;50439,723;-5853,956
 816,37;  145,229;50917,977;-6801,257
 816,93;  127,011;49487,230;-6731,558
 817,50;  134,793;46790,480;-6102,859
 818,07;  184,575;46034,734;-6960,161
 818,64;  187,357;46919,988;-6856,462
 819,21;  186,139;46261,242;-6053,764
 819,77;  192,921;42742,496;-6571,065
 820,34;  206,703;42053,750;-6677,367
 820,91;  257,485;43276,004;-6469,668
 821,48;  281,267;43873,258;-6689,969
 822,05;  258,050;45571,512;-5875,271
 822,61;  239,832;44296,766;-5631,572
 823,18;  188,614;41860,016;-6620,874
 823,75;  201,396;42585,270;-6957,175
 824,32;  171,178;45286,523;-6923,477
 824,88;  161,960;45073,777;-6882,778
 825,45;  118,742;44018,031;-6899,079
 826,02;  132,524;43798,285;-6643,380
 826,59;  123,306;43974,539;-6639,682
 827,15;  116,088;46077,793;-6906,983
 827,72;  144,870;49519,047;-6723,285
 828,29;  105,652;51523,301;-6895,586
 828,86;   76,434;48827,551;-6791,888
 829,42;  101,216;40797,805;-6812,189
 829,99;   79,999;36802,059;-6647,490
 830,56;   91,781;36252,313;-6869,792
 831,13;  104,563;37220,566;-6060,093
 831,69;  111,345;38022,820;-6506,395
 832,26;  120,127;38832,074;-5062,696
 832,83;   58,909;40408,328;-5452,998
 833,39;  118,691;40187,582;-6904,299
 833,96;  101,473;39167,836;-6687,600
 834,53;   22,255;40039,086;-6928,902
 835,10;   85,037;39930,340;-6529,203
 835,66;   73,819;38972,594;-6920,504
 836,23;   93,601;39801,848;-6803,806
 836,80;   69,383;39428,102;-6790,107
 837,36;   87,165;37086,355;-6810,409
 837,93;   46,947;34475,609;-6902,710
 838,50;  118,730;35084,863;-6789,012
 839,06;   66,512;37684,117;-6288,313
 839,63;   58,294;37191,371;-6895,614
 840,19;   99,076;35132,621;-6607,916
 840,76;   70,858;35364,875;-6404,217
 841,33;   86,640;35892,129;-6509,519
 841,89;   84,422;36779,383;-6949,820
 842,46;   60,204;37103,637;-6751,122
 843,03;  122,986;35389,891;-6089,423
 843,59;   50,768;34224,145;-6403,724
 844,16;  102,550;34994,398;-6181,025
 844,73;  167,332;34249,652;-6067,327
 845,29;   99,114;32937,902;-5695,628
 845,86;   85,896;35699,156;-6800,930
 846,42;   31,679;36940,410;-7004,231
 846,99;   33,461;36477,664;-6967,533
 847,56;   44,243;36265,918;-5840,834
 848,12;   76,025;36240,172;-6745,135
 848,69;   48,807;35710,426;-6715,437
 849,25;   47,589;34401,680;-6845,738
 849,82;   34,371;34081,934;-3247,040
 850,38;   54,153;35064,188;-6840,341
 850,95;   33,935;32489,439;-6324,643
 851,52;   27,717;32520,693;-6565,944
 852,08;   55,499;32548,947;-6691,245
 852,65;   20,281;30323,199;-7005,546
 853,21;   16,063;27698,453;-6958,848
 853,78;   55,845;27362,707;-6363,149
 854,34;   48,628;28860,961;-6871,451
 854,91;   36,410;29081,215;-5086,752
 855,47;   17,192;29942,467;-5108,054
 856,04;   94,974;32027,721;-6746,355
 856,60;   38,756;33961,973;-6104,656
 857,17;   42,538;34979,227;-6840,958
 857,73;   30,320;33553,480;-6811,259
 858,30;   21,102;32532,734;-6985,561
 858,86;   87,884;31110,988;-5926,862
 859,43;   49,666;31430,242;-6226,164
 859,99;   47,448;32011,496;-6852,465
 860,56;   49,230;33126,750;-6903,766
 861,12;   28,012;35190,004;-6737,068
 861,69;   35,794;33669,258;-5924,369
 862,25;   76,577;34731,508;-6821,670
 862,82;   45,359;34419,762;-5972,972
 863,38;   92,141;31196,018;-6843,273
 863,95;   72,923;29305,270;-6239,575
 864,51;   64,705;30403,523;-5287,876
 865,08;   85,487;29284,777;-6090,178
 865,64;   43,269;26795,031;-7018,479
 866,21;   39,051;26131,285;-6745,780
 866,77;   28,833;26051,537;-5552,082
 867,34;  116,615;25734,791;-6672,383
 867,90;  155,397;24632,045;-6303,685
 868,46;  160,179;23835,299;-6041,986
 869,03;   71,961;24389,551;-6929,288
 869,59;   94,743;26353,805;-6884,589
 870,16;   68,526;27647,059;-6052,890
 870,72;   61,308;30060,313;-6657,191
 871,28;  102,090;32915,566;-5992,493
 871,85;  119,872;33142,820;-6907,794
 872,41;   38,654;31569,072;-6004,096
 872,98;   21,436;32738,326;-6050,397
 873,54;   40,218;33876,578;-5920,699
 874,10;   66,000;32768,832;-5876,000
 874,67;   31,000;32987,832;-6904,000
 875,23;   33,000;31068,834;-7032,000
 875,80;   52,000;28009,834;-6641,000
 876,36;   -2,000;25058,834;-6642,000
 876,92;   35,000;22832,834;-6189,000
 877,49;   45,000;23923,834;-6517,000
 878,05;   14,000;24896,834;-6797,000
 878,61;   54,000;26938,834;-6812,000
 879,18;   39,000;27553,834;-6252,000
 879,74;    9,000;28076,834;-6720,000
 880,30;   -2,000;28679,834;-5926,000
 880,87;  -17,000;28852,834;-6326,000
 881,43;   47,000;29533,834;-6871,000
 881,99;   -9,000;27306,834;-6879,000
 882,56;   -6,000;27610,834;-6661,000
 883,12;   21,000;29049,834;-5740,000
 883,68;   23,000;29120,834;-6518,000
 884,25;   39,000;28300,834;-6949,000
 884,81;   21,000;26343,834;-6701,000
 885,37;    3,000;24221,834;-6786,000
 885,94;   20,000;22940,834;-6851,000
 886,50;   39,000;23098,834;-6886,000
 887,06;   17,000;24358,834;-6796,000
 887,62;   10,000;25019,834;-6866,000
 888,19;    9,000;25774,834;-5986,000
 888,75;   14,000;26542,834;-6821,000
 889,31;   33,000;29043,834;-6778,000
 889,87;   22,000;30537,834;-6723,000
 890,44;   59,000;30349,834;-6696,000
 891,00;   10,000;28757,834;-6786,000
 891,56;   21,000;26457,834;-6998,000
 892,12;   56,000;24463,834;-6754,000
 892,69;   11,000;25310,834;-6373,000
 893,25;   55,000;28798,834;-6877,000
 893,81;   61,000;31774,834;-6696,000
 894,37;   74,000;31330,834;-6342,000
 894,94;   30,000;28713,834;-6772,000
 895,50;   45,000;26035,834; -212,000
 896,06;   75,000;24749,834;-6810,000
 896,62;   74,000;23405,834;-6707,000
 897,18;   47,000;24661,834;-6518,000
 897,75;   59,000;27406,834;-6895,000
 898,31;   48,000;27887,834;-6849,000
 898,87;   69,000;26274,834;-6860,000
 899,43;   41,000;25164,834;-6469,000
 899,99;   37,000;26592,834;-6866,000
 900,56;   33,000;25515,834;-6791,000
 901,12;   52,000;24875,834;-6890,000
 901,68;   88,000;27903,834;-6267,000
 902,24;   64,000;31800,834;-5930,000
 902,80;   26,000;32652,834;-6794,000
 903,36;  120,000;31893,834;-6691,000
 903,93;  184,000;32139,834;-6646,000
 904,49;  332,000;32761,834;-6913,000
 905,05;  902,000;30952,834;-6732,000
 905,61; 2057,000;28208,834;-6832,000
 906,17; 3894,000;28086,834;-6901,000
 906,73; 5298,000;25975,834;-5380,000
 907,29; 5926,000;24960,834;-6910,000
 907,86; 5379,000;25118,834;-6827,000
 908,42; 5018,000;28092,834;-6795,000
 908,98; 4455,000;31123,834;-5908,000
 909,54; 2533,000;38813,832;-6885,000
 910,10; 1015,000;48220,832;-6634,000
 910,66;  317,000;57581,832;-6781,000
 911,22;   93,000;65027,832;-6761,000
 911,78;   65,000;62593,832;-6841,000
 912,34;   30,000;53256,832;-6080,000
 912,90;   83,000;44610,832;-5232,000
 913,46;   30,000;37052,832;-6876,000
 914,03;   38,000;30620,834;-5746,000
 914,59;   34,000;27452,834;-6682,000
 915,15;   33,000;24908,834;-6891,000
 915,71;   23,000;24217,834;-6863,000
 916,27;   15,000;23800,834;-6723,000
 916,83;    5,000;23006,834;-5824,000
 917,39;   49,000;21742,834;-3512,000
 917,95;   66,000;20224,834;-6009,000
 918,51;  -15,000;19972,834;-6583,000
 919,07;   55,000;21780,834;-6791,000
 919,63;  -32,000;23295,834;-6661,000
 920,19;  -18,000;23935,834;-6865,000
 920,75;   19,000;23112,834;-6640,000
 921,31;   -2,000;21484,834;-4837,000
 921,87;    9,000;20216,834;-6845,000
 922,43;   10,000;18019,834;-5626,000
 922,99;   65,000;17321,834;-6706,000
 923,55;   47,000;18674,834;-6655,000
 924,11;   25,000;19094,834;-6976,000
 924,67;   20,000;19310,834;-6962,000
 925,23;   45,000;19485,834;-6778,000
 925,79;   56,000;20122,834;-6710,000
 926,35;   59,000;20219,834;-6573,000
 926,91;   30,000;19401,834;-6909,000
 927,47;    0,000;19367,834;-6660,000
 928,03;   66,000;20294,834;-6786,000
 928,59;   38,000;20503,834;-6678,000
 929,15;   63,000;20781,834;-6792,000
 929,71;   17,000;22016,834;-6840,000
 930,27;   86,000;23587,834;-6537,000
 930,82;   47,000;25573,834;-6728,000
 931,38;  -11,000;24317,834;-5852,000
 931,94;   37,000;22672,834;-6843,000
 932,50;   20,000;21252,834;-6481,000
 933,06;   67,000;20895,834;-6768,000
 933,62;   45,000;21092,834;-6443,000
 934,18;   44,000;20632,834;-6727,000
 934,74;   34,000;21320,834;-6709,000
 935,30;   88,000;22030,834;-6484,000
 935,86;   61,000;21213,834;-6505,000
 936,42;   44,000;20702,834;-6873,000
 936,97;   50,000;21656,834;-6563,000
 937,53;   45,000;20552,834;-6826,000
 938,09;   58,000;21087,834;  123,000
 938,65;   44,000;21186,834;-6268,000
 939,21;   68,000;20179,834;-6708,000
 939,77;   11,000;18946,834;-6213,000
 940,33;   30,000;18602,834;-6748,000
 940,88;   67,000;19429,834;-5908,000
 941,44;   16,000;21301,834;-6983,000
 942,00;    8,000;23225,834;-6697,000
 942,56;   31,000;24231,834;-6604,000
 943,12;   51,000;23427,834;-5907,000
 943,68;   39,000;22950,834;-5679,000
 944,23;   20,000;23124,834;-6749,000
 944,79;   36,000;22674,834;-6102,000
 945,35;    9,000;20741,834;-6599,000
 945,91;   43,000;19519,834;-6767,000
 946,47;   39,000;19827,834;-3353,000
 947,03;    6,000;19896,834;-6850,000
 947,58;   26,000;19661,834;-6840,000
 948,14;   94,000;20790,834;-5897,000
 948,70;   29,000;19573,834;-5855,000
 949,26;   61,000;18881,834;-6616,000
 949,81;    7,000;18342,834;-6644,000
 950,37;   29,000;18686,834;-6695,000
 950,93;   25,000;17993,834;-6224,000
 951,49;    6,000;17568,834;-6057,000
 952,05;    6,000;17926,834;-6571,000
 952,60;  -23,000;17299,834;-6951,000
 953,16;   20,000;16933,834;-5783,000
 953,72;  -28,000;15628,833;-5813,000
 954,27;  -19,000;15524,833;-6566,000
 954,83;    3,000;15317,833;-6703,000
 955,39;   24,000;14917,833;-6691,000
 955,95;    4,000;14456,833;-6849,000
 956,50;    0,000;14272,833;-6698,000
 957,06;    4,000;14126,833;-5922,000
 957,62;   13,000;13780,833;-6559,000
 958,18;    8,000;13872,833;-6741,000
 958,73;   28,000;13326,833;-6820,000
 959,29;    8,000;13518,833;-6106,000
 959,85;  -14,000;14785,833;-6864,000
 960,40;   14,000;16746,834;-4263,000
 960,96;   36,000;16386,834;-6738,000
 961,52;   24,000;14755,833;-6643,000
 962,07;   34,000;13711,833;-6742,000
 962,63;  -17,000;13208,833;-6723,000
 963,19;    7,000;13435,833;-5779,000
 963,74;   58,000;13877,833;-6582,000
 964,30;   -8,000;14475,833;-6595,000
 964,86;   35,000;14281,833;-6484,000
 965,41;   61,000;14290,833;-6705,000
 965,97;    5,000;14185,833;-6569,000
 966,53;   35,000;14792,833;-6750,000
 967,08;   60,000;15311,833;-6611,000
 967,64;   55,000;15082,833;-6705,000
 968,19;   22,000;14471,833;-6684,000
 968,75;   32,000;14662,833;-6566,000
 969,31;    7,000;14880,833;-5626,000
 969,86;   46,000;14995,833;-6505,000
 970,42;   51,000;13195,833;-6620,000
 970,97;   51,000;11567,833;-6437,000
 971,53;   42,000;11625,833;-6490,000
 972,09;   21,000;12998,833;-6646,000
 972,64;   53,000;13523,833;-5812,000
 973,20;   51,000;13815,833;-6599,000
 973,75;   25,000;14605,833;-5760,000
 974,31;   95,000;14826,833;-6578,000
 974,87;   56,000;14921,833;-6674,000
 975,42;   36,000;14507,833;-6727,000
 975,98;   43,000;13201,833;-6651,000
 976,53;   76,000;12100,833;-6555,000
 977,09;   39,000;11353,833;-4624,000
 977,64;   12,000;11164,833;-6532,000
 978,20;   82,000;10649,833;-6585,000
 978,75;   39,000;10482,833;-6429,000
 979,31;   54,000;10950,833;-6513,000
 979,86;   21,000;12220,833;-6739,000
 980,42;   18,000;12828,833;-5813,000
 980,97;   23,000;13290,833;-6642,000
 981,53;   79,000;14285,833;-6636,000
 982,08;   39,000;13803,833;-5046,000
 982,64;   40,000;12278,833;-6237,000
 983,19;   35,000;11308,833;-6760,000
 983,75;   59,000;10993,833;-6576,000
 984,30;   69,000;10430,833;-5581,000
 984,86;    1,000; 9867,833;-5898,000
 985,41;   74,000; 9457,833;-6634,000
 985,97;   71,000; 9632,833;-4797,000
 986,52;   57,000; 9894,833;-5853,000
 987,08;   52,000; 9953,833;-6174,000
 987,63;   -6,000;10165,833;-5608,000
 988,19;   35,000;11252,833;-6266,000
 988,74;   19,000;11710,833;-5682,000
 989,30;   12,000;11529,833;-6568,000
 989,85;   16,000;11470,833; -276,000
 990,40;   37,000;11314,833;-6617,000
 990,96;   67,000;11060,833;-6482,000
 991,51;   57,000;11149,833;-6578,000
 992,07;   44,000;10742,833;-6605,000
 992,62;   18,000;10285,833;-6519,000
 993,18;   -2,000;10035,833;-6504,000
 993,73;   65,000; 9986,833;-6440,000
 994,28;   34,000; 9800,833;-6464,000
 994,84;   56,000; 9019,833;-6240,000
 995,39;   43,000; 8474,833;-2971,000
 995,94;   63,000; 7953,833;-5673,000
 996,50;   58,000; 7647,833;-6543,000
 997,05;   77,000; 7872,833;-3481,000
 997,61;   46,000; 8363,833;-6489,000
 998,16;   41,000; 8581,833;-6555,000
 998,71;   67,000; 8850,833;-6340,000
 999,27;   37,000; 9115,833;-5223,000
 999,82;   10,000; 8706,833;-4778,000
1000,37;   45,000; 8661,833;-6520,000
1000,93;   48,000; 8920,833;-6107,000
1001,48;   53,000; 8799,833;-6543,000
1002,03;   44,000; 8477,833;-6469,000
1002,59;   41,000; 8715,833;-5972,000
1003,14;   56,000; 8758,833;-6113,000
1003,69;   34,000; 8484,833;-6513,000
1004,25;   18,000; 8299,833;-6507,000
1004,80;   42,000; 8322,833;-6266,000
1005,35;   28,000; 8313,833;-6361,000
1005,91;   94,000; 8515,833;-6558,000
1006,46;   27,000; 8426,833;-6084,000
1007,01;   45,000; 8227,833;-5479,000
1007,56;   69,000; 8599,833;-6440,000
1008,12;   62,000; 8342,833;-6178,000
1008,67;   81,000; 7867,833;-6312,000
1009,22;   77,000; 7509,833;-6481,000
1009,78;   58,000; 7205,833;-6163,000
1010,33;   68,000; 6649,833;-6443,000
1010,88;   61,000; 6413,833;-5618,000
1011,43;   36,000; 5995,833;-6433,000
1011,99;   88,000; 5972,833;-6198,000
1012,54;   89,000; 6320,833;-6387,000
1013,09;  102,000; 6048,833;-6299,000
1013,64;   32,000; 5802,833;-6362,000
1014,19;   78,000; 5823,833;-6442,000
1014,75;   90,000; 5928,833;-6408,000
1015,30;   98,000; 6394,833;-6425,000
1015,85;  101,000; 6370,833;-6367,000
1016,40;   44,000; 6247,833;-5436,000
1016,96;  109,000; 6235,833;-6268,000
1017,51;  101,000; 6150,833;-6351,000
1018,06;  131,000; 6095,833;-6310,000
1018,61;   78,000; 5695,833;-6665,000
1019,16;   98,000; 5609,833;-6697,000
1019,71;  120,000; 5663,833;-6373,000
1020,27;  106,000; 5567,833;-6353,000
1020,82;   83,000; 5375,833;-3700,000
1021,37;  203,000; 5405,833;-4798,000
1021,92;  139,000; 5984,833;-6454,000
1022,47;  150,000; 5965,833;-6548,000
1023,02;  175,000; 5463,833;-6512,000
1023,58;  161,000; 5045,833;-6573,000
1024,13;  207,000; 4730,833;-6258,000
1024,68;  171,000; 4434,833;-6298,000
1025,23;  197,000; 4324,833;-5525,000
1025,78;  179,000; 4613,833;-6475,000
1026,33;  244,000; 4932,833;-5510,000
1026,88;  243,000; 4843,833;-6236,000
1027,43;  233,000; 5167,833;-6276,000
1027,99;  232,000; 5134,833;-6002,000
1028,54;  297,000; 4732,833;-6395,000
1029,09;  292,000; 4106,833;-2478,000
1029,64;  355,000; 3919,833;-6303,000
1030,19;  376,000; 4147,833;-3821,000
1030,74;  392,000; 4243,833;-5134,000
1031,29;  436,000; 4284,833;-4765,000
1031,84;  540,000; 4491,833;-6300,000
1032,39;  527,000; 4563,833;-5403,000
1032,94;  598,000; 4617,833;-4326,000
1033,49;  664,000; 4361,833;-5476,000
1034,04;  834,000; 4236,833;-6312,000
1034,59;  898,000; 4205,833;-6507,000
1035,14;  843,000; 4117,833;-6145,000
1035,69;  973,000; 4318,833;-6224,000
1036,24; 1054,000; 4104,833;-4477,000
1036,80; 1103,000; 3986,833;-5453,000
1037,35; 1243,000; 4138,833;-6347,000
1037,90; 1359,000; 4172,833;-6274,000
1038,45; 1416,000; 4201,833;-6419,000
1039,00; 1501,000; 4340,833;-5490,000
1039,55; 1633,000; 4229,833;-6284,000
1040,10; 1767,000; 3977,833;-5615,000
1040,65; 1789,000; 3916,833;-5576,000
1041,20; 1946,000; 3850,833;-6325,000
1041,75; 2072,000; 4030,833;-4522,000
1042,30; 2262,000; 4164,833;-3585,000
1042,84; 2563,000; 4338,833;-4439,000
1043,39; 2880,000; 4248,833;-6313,000
1043,94; 3107,000; 4175,833;-5342,000
1044,49; 3308,000; 3887,833;-6246,000
1045,04; 3601,000; 3710,833;-5800,000
1045,59; 3899,000; 3809,833;-6299,000
1046,14; 4474,000; 3732,833;-6392,000
1046,69; 4959,000; 3591,833;-6294,000
1047,24; 5368,000; 3623,833;-5510,000
1047,79; 6208,000; 3737,833;-6139,000
1048,34; 6987,000; 4002,833;-5961,000
1048,89; 7947,000; 3948,833;-6259,000
1049,44; 9213,000; 3935,833;-5172,000
1049,99;10718,000; 3855,833;-4844,000
1050,54;12988,000; 3876,833;-6249,000
1051,08;16353,000; 3961,833;-6178,000
1051,63;22653,000; 4050,833;-5285,000
1052,18;33588,000; 5051,833;-6127,000
1052,73;51583,000; 7151,833;-6173,000
1053,28;65155,000;10516,833;-6386,000
1053,83;65155,000;15224,833;-6214,000
1054,38;65155,000;19203,834;-6254,000
1054,93;65155,000;21243,834;-6285,000
1055,47;65155,000;23825,834;-5328,000
1056,02;65155,000;26212,834;-5832,000
1056,57;65155,000;27830,834;-6198,000
1057,12;65155,000;30497,834;-6378,000
1057,67;65155,000;33805,832;-6078,000
1058,22;65155,000;36084,832;-6313,000
1058,76;65155,000;38542,832;-6093,000
1059,31;65155,000;44129,832;-3514,000
1059,86;65155,000;48778,832;-6204,000
1060,41;65155,000;49718,832;-6152,000
1060,96;65155,000;51396,832;-6226,000
1061,51;65155,000;53649,832;-5344,000
1062,05;65155,000;54082,832;-6122,000
1062,60;65155,000;50555,832;-6061,000
1063,15;65155,000;45221,832;-6149,000
1063,70;65155,000;41550,832;-6250,000
1064,24;65155,000;43676,832;-6169,000
1064,79;65155,000;45461,832;-6144,000
1065,34;65155,000;43989,832;-6064,000
1065,89;65155,000;41776,832;-6202,000
1066,44;65155,000;37631,832;-6120,000
1066,98;65155,000;32612,834;-6224,000
1067,53;65155,000;30790,834;-5953,000
1068,08;65155,000;30368,834;-4845,000
1068,63;65155,000;27618,834;-6096,000
1069,17;65155,000;24647,834;-5893,000
1069,72;65155,000;22350,834;-5857,000
1070,27;65155,000;20529,834;-6040,000
1070,81;65155,000;20388,834;-5996,000
1071,36;65155,000;20367,834;-3883,000
1071,91;65155,000;18745,834;  966,000
1072,46;65155,000;16791,834;-5058,000
1073,00;65155,000;14646,833;-5239,000
1073,55;65155,000;11404,833;-5935,000
1074,10;65155,000; 7803,833;-5981,000
1074,64;54927,000; 5240,833;-5860,000
1075,19;33034,000; 3535,833;-4958,000
1075,74;21117,000; 2551,833;-6091,000
1076,28;15308,000; 2312,833;-6075,000
1076,83;11649,000; 1951,833;-5286,000
1077,38; 9433,000; 1820,833;-5653,000
1077,92; 7663,000; 1783,833;-6332,000
1078,47; 6558,000; 1629,833;-5507,000
1079,02; 5388,000; 1578,833;-5959,000
1079,56; 4552,000; 1557,833;-5328,000
1080,11; 3962,000; 1304,833;-6094,000
1080,65; 3363,000; 1241,833;-5039,000
1081,20; 2813,000; 1186,833;-6151,000
1081,75; 2404,000; 1125,833;-6039,000
1082,29; 2080,000; 1128,833; -139,000
1082,84; 1741,000; 1184,833;-2678,000
1083,39; 1621,000; 1294,833;-5061,000
1083,93; 1554,000; 1335,833;-5025,000
1084,48; 1366,000; 1196,833;-5961,000
1085,02; 1192,000; 1082,833;-5783,000
1085,57; 1108,000; 1074,833;-5994,000
1086,11; 1100,000; 1079,833;-5968,000
1086,66;  991,000;  925,833;-5584,000
1087,21;  993,000; 1060,833;-5802,000
1087,75;  868,000;  939,833;-6125,000
1088,30;  864,000;  815,833;-5040,000
1088,84;  772,000;  783,833;-5963,000
1089,39;  711,000;  656,833;-5965,000
1089,93;  668,000;  664,833;-6100,000
1090,48;  604,000;  649,833;-4394,000
1091,02;  610,000;  733,833;-5181,000
1091,57;  540,000;  629,833;-5479,000
1092,11;  523,000;  642,833;-4094,000
1092,66;  504,000;  624,833;-6031,000
1093,20;  458,000;  580,833;-5180,000
1093,75;  389,000;  566,833;-4998,000
1094,29;  440,000;  486,833;-4979,000
1094,84;  419,000;  525,833;-5890,000
1095,38;  370,000;  528,833;-5097,000
1095,93;  353,000;  584,833;-5981,000
1096,47;  304,000;  615,833;-5612,000
1097,02;  282,000;  587,833;-4985,000
1097,56;  357,000;  614,833;-5772,000
1098,11;  289,000;  552,833;-5774,000
1098,65;  272,000;  508,833;-5992,000
1099,20;  246,000;  577,833;-5935,000
1099,74;  271,000;  487,833;-6002,000
1100,29;  260,000;  513,833;-4879,000
1100,83;  206,000;  496,833;-5934,000

