
Integration time [ms]:   1,000
Averaging Nr. [scans]: 1
Smoothing Nr. [pixels]: 0
Data measured with spectrometer [name]: 1703254U1
Wave   ;Sample   ;Dark     ;Reference;Scope
[nm]   ;[counts] ;[counts] ;[counts] 

 190,08;  -93,995; -370,119;11982,743
 190,69;  -76,131; -359,404;11603,049
 191,29;  -65,603; -311,651;11479,965
 191,90;  -86,955; -365,508;11440,717
 192,50;  -85,274; -379,511;10355,099
 193,10;  -65,308; -446,299;11244,381
 193,71;  -84,118; -367,888; 9821,736
 194,31;  -70,759; -399,273; 9436,327
 194,91;  -70,759; -382,273; 9291,327
 195,52;  -85,379; -338,386;10555,949
 196,12;  -13,156; -397,056; 8671,847
 196,72;  -81,175; -386,394; 8220,904
 197,32;  -60,118; -375,888; 8251,736
 197,93;  -15,725; -360,420; 8700,957
 198,53;  -67,545; -383,145; 7601,797
 199,13;  -87,270; -397,132; 8091,270
 199,74;  -72,769; -366,410; 7263,813
 200,34;  -11,196; -388,667; 7832,874
 200,94;  -66,779; -436,547; 6941,297
 201,55;  -68,131; -406,404; 7119,049
 202,15;  -44,179; -375,773; 6404,732
 202,75;  -28,182; -373,217; 6097,647
 203,36;   44,123; -338,664; 6822,492
 203,96;  -94,161; -357,943; 6332,678
 204,56;   17,760; -355,657;10275,729
 205,16;   -2,491; -363,018; 5478,458
 205,77;  -21,890; -360,244; 4767,892
 206,37;  -13,331; -409,017; 5556,267
 206,97;  -14,904; -363,760; 5129,205
 207,58;   38,384; -364,166; 5927,278
 208,18;  -11,951; -337,129; 5129,889
 208,78;   -2,430; -404,134; 5295,461
 209,38;  -40,247; -469,415; 4958,385
 209,99;  -11,142; -356,540; 3837,534
 210,59;   36,282; -361,662; 3890,301
 211,19;  -20,982; -364,538; 3938,343
 211,79;   14,058; -366,927; 4499,316
 212,40;  -14,053; -373,625; 3368,911
 213,00;    4,564; -388,891; 3903,118
 213,60;  -43,480; -386,882; 2992,972
 214,20;   -8,456; -401,230; 3081,175
 214,81;  -71,416; -422,618; 2884,148
 215,41;  -87,666; -376,979; 3235,877
 216,01;  -33,897; -373,067; 3109,636
 216,61;   29,347; -367,399; 2814,476
 217,22;  -66,483; -381,326; 2358,888
 217,82;  -19,879; -325,173; 2262,495
 218,42;  -56,124; -383,711; 2389,480
 219,02;  -54,642; -288,327; 3432,079
 219,63;  -65,565; -357,483; 2044,854
 220,23;    8,178; -366,602; 2425,239
 220,83;  -34,036; -395,730; 1901,770
 221,43;  -72,110; -393,195; 1850,167
 222,03;  -33,842; -348,940; 2326,296
 222,64;  -39,714; -380,348; 1769,560
 223,24;   24,608; -298,966; 1625,350
 223,84;  -60,208; -376,313; 2637,361
 224,44;  -36,530; -316,695; 2381,571
 225,05;   10,042; -313,952; 1440,632
 225,65;  -39,737; -301,065; 1227,445
 226,25;   -4,914; -364,961; 1139,777
 226,85;  -15,890; -294,309;  995,979
 227,45;  -34,646; -335,706; 1083,907
 228,06;  -32,859; -365,834; 1945,438
 228,66;  -58,334; -349,460; 4049,182
 229,26;   25,897; -313,438; 1131,510
 229,86;  -36,076; -396,342; 1760,797
 230,46;  -72,951; -358,194;  891,976
 231,06;  -28,741; -320,444;  757,273
 231,67;  -36,195; -346,732; 1228,961
 232,27;  -79,398; -343,789;  778,094
 232,87;  -63,310; -308,808;  526,384
 233,47; -107,445; -321,158;  525,777
 234,07;   -8,884; -268,486; 9912,235
 234,67;  -58,638; -291,013;  672,338
 235,28;  -82,445; -319,158;   65,777
 235,88;  -75,106; -316,882;  285,426
 236,48;  -25,585; -350,821;  165,911
 237,08;    3,019; -267,669;  448,518
 237,68; -153,208; -369,378; -267,552
 238,28;  -42,964; -304,774; -106,624
 238,89;  -94,211; -212,756; -205,723
 239,49;  -85,594; -282,023; 1280,483
 240,09;  -80,085; -284,608; -190,544
 240,69;  -94,730; -251,373; -319,124
 241,29;  -69,910; -289,647;  651,036
 241,89;  -93,330; -330,147; -260,559
 242,49;  -67,828; -248,490; -358,930
 243,10;  -73,465; -201,496; 3664,834
 243,70;  -91,828; -284,490;  239,070
 244,30;  -69,943; -275,501; -708,594
 244,90;  -38,536; -188,582; -568,598
 245,50;  -93,977; -177,355; 3274,777
 246,10;  -79,794; -307,636; -831,300
 246,70;  -72,204; -300,999;   17,620
 247,30;  -33,272; -251,641;  326,273
 247,91;  -88,967; -208,218; 5781,292
 248,51;  -82,923; -270,228; -806,563
 249,11;   10,782; -239,514;  417,933
 249,71;  -35,160; -303,008; -667,235
 250,31;  -25,190; -265,483; -567,693
 250,91;   -4,784; -238,500;   75,216
 251,51;  -62,604; -199,225; -822,945
 252,11;  -54,414; -239,813;  367,410
 252,71;  -75,462; -269,117;-1080,994
 253,31;  -70,339; -222,348; 3228,013
 253,91;  -77,058; -236,578; -676,170
 254,52;  -33,702; -237,342;-1063,750
 255,12;  -44,190; -293,483;-1104,693
 255,72;   27,908; -206,366;  557,112
 256,32;  -71,885; -242,061; -966,674
 256,92;   13,159; -190,070;-1147,529
 257,52;   26,186; -173,974; -883,243
 258,12;   16,566; -201,087;  -91,621
 258,72;  -15,095; -210,810;-1232,972
 259,32;   23,935; -211,335;-1169,514
 259,92;  -10,587; -199,330;-1343,086
 260,52;   19,345; -192,973;-1077,433
 261,12;  -19,725; -202,059; -662,865
 261,72;  -61,163; -238,452;-1312,319
 262,32;  -22,289; -215,600;-1561,498
 262,92;  -57,613; -238,426;  405,627
 263,53;  -18,475; -189,698;-1277,594
 264,13;  -37,149; -262,937; -268,632
 264,73;  -11,373; -217,202;-1694,617
 265,33;   11,688; -188,317;-1708,613
 265,93;   -4,037; -147,304;-1345,140
 266,53;   -6,451; -161,046;-1544,392
 267,13;  -48,390; -139,161; -857,388
 267,73;    8,929; -185,158;  270,230
 268,33;  -84,010; -166,274;-1788,766
 268,93;   -9,431; -213,708;-1702,449
 269,53;  -27,766; -204,670; -644,839
 270,13;   -1,820; -201,797;-1810,499
 270,73;  -41,284; -245,287;-1891,239
 271,33;    9,437; -200,678;-1778,884
 271,93;  -21,396; -242,919;-1867,732
 272,53;   10,960; -121,748;    8,776
 273,13;   -2,403; -146,677;-1117,075
 273,73;  -58,518; -119,753;-1955,652
 274,33;   16,227; -148,428;-2041,182
 274,93;  -56,626; -188,007;-1843,972
 275,53;  -33,040;  -68,748;-1881,224
 276,13;  -81,484; -121,965;-2261,935
 276,73;  -55,240; -118,361;-1570,007
 277,33;  -30,640; -179,522;-1926,659
 277,93;   -1,722; -213,680;-1864,693
 278,53;  -24,959; -194,526;-2112,278
 279,13;  -29,047; -125,506;-2152,568
 279,73;  -25,250; -140,498;-1388,522
 280,33;   -1,837; -154,756;-2179,270
 280,93;   43,648; -105,994;-2049,499
 281,53;  -12,789; -147,387;-2252,953
 282,13;   11,601; -127,363;-2193,816
 282,73;  -26,094; -156,875; -385,885
 283,33;  -36,776; -137,872;-2307,266
 283,92;   34,821;  -74,477;-2028,003
 284,52;   27,709;  -94,109;-2365,496
 285,12;    1,200; -138,524;-1425,469
 285,72;   62,675; -126,898;-1041,213
 286,32;   80,014;  -55,622;-1313,564
 286,92;  -10,481; -163,521;-2376,850
 287,52;   87,678;  -89,519;-2170,041
 288,12;   74,526;  -97,763;-2542,507
 288,72;   68,343; -106,417;-1625,518
 289,32;   87,459;  -54,470; 1692,233
 289,92;   53,309; -106,270;-2344,148
 290,52;   30,439;  -91,809;-2485,710
 291,12;   93,489;  -57,996;-1570,308
 291,72;   64,821;  -74,477;-1590,003
 292,32;  182,160;  -83,135;-2372,442
 292,92;  162,075;   -2,737;-2481,560
 293,51;  161,303;  -37,093;-2532,404
 294,11;  325,594;  -42,121;-1681,160
 294,71;  347,706;   -7,488;-2695,667
 295,31;  362,438;  -24,743;-1755,797
 295,91;  481,380;   46,751;-2713,629
 296,51;  554,513;   62,656;-1776,106
 297,11;  550,066;   35,061;-2900,988
 297,71;  657,543;    4,131;-2726,648
 298,31;  877,309;   38,730;-2329,148
 298,91;  767,858;   74,756;-2483,202
 299,50;  790,608;   41,395;-2689,473
 300,10;  986,391;  145,887;-2706,114
 300,70;  895,299;   95,528;-2492,576
 301,30;  907,119;   89,253;-2855,415
 301,90; 1131,641;   96,248;-2004,843
 302,50;  961,920;  163,640;-2515,198
 303,10;  867,065;  124,126;-2530,076
 303,70;  858,832;  208,660;-3000,488
 304,29;  905,418;  189,918;-2658,740
 304,89;  878,642;  266,183;-1090,755
 305,49; 1110,737;  163,922;-2773,122
 306,09; 1213,703;  214,133;-2874,839
 306,69; 1086,946;  262,736;-2915,911
 307,29; 1135,160;  312,865;-2008,442
 307,89; 1146,882;  303,408;-3029,000
 308,48;  918,611;  341,774;-2453,301
 309,08; 1096,794;  369,492;-2743,377
 309,68; 1311,923;  377,019;-3094,026
 310,28; 1170,675;  371,102;-2576,213
 310,88;  903,977;  321,211;-2936,453
 311,48;  974,591;  447,500;-2875,331
 312,07; 1001,899;  408,367;-2963,228
 312,67; 1129,204;  497,855;-2128,297
 313,27; 1155,492;  494,448;-1105,224
 313,87; 1242,943;  583,357;-2164,083
 314,47; 1406,549;  516,954;-3030,392
 315,06; 1843,064;  620,191; 2713,837
 315,66; 1928,896;  579,988;-3245,400
 316,26; 1937,956;  632,938;-1844,483
 316,86; 1972,983;  777,969;-3140,110
 317,46; 2284,003;  720,307;-2115,167
 318,06; 2382,061;  739,813; -825,335
 318,65; 2698,946;  781,801;-2807,999
 319,25; 3272,627;  821,798;-3195,617
 319,85; 3078,776;  932,663;-2908,323
 320,45; 3709,613;  986,283;-3213,304
 321,05; 5022,498;  901,271;-2761,968
 321,64; 5232,244;  889,531;-3219,411
 322,24; 5471,467; 1056,861;-3265,513
 322,84; 4691,409; 1080,356;-3261,345
 323,44; 3341,206; 1133,364;-3219,300
 324,03; 3029,782; 1194,486;-3072,067
 324,63; 3087,436; 1250,452;-2310,059
 325,23; 2775,625; 1241,928;-3097,792
 325,83; 2726,333; 1367,021;-2876,123
 326,42; 2679,418; 1442,622;-3285,005
 327,02; 2666,407; 1476,551;-3076,607
 327,62; 2698,681; 1439,629;-2505,221
 328,22; 3264,033; 1553,486;-3234,973
 328,82; 3245,178; 1577,037;-2229,938
 329,41; 2724,388; 1658,852;-3016,728
 330,01; 3318,349; 1652,750;-2961,704
 330,61; 3636,820; 1806,062;-2928,707
 331,20; 2907,884; 1778,325;-2868,531
 331,80; 2844,459; 1762,512;-2794,386
 332,40; 2922,429; 1752,102;-2896,932
 333,00; 2897,848; 1933,667;-2790,423
 333,59; 2865,672; 1748,771;-2855,091
 334,19; 2830,122; 1920,745;-1771,037
 334,79; 2914,749; 1712,615;-2861,316
 335,39; 2882,797; 1729,919;-2978,912
 335,98; 2833,469; 1726,714;-3126,958
 336,58; 2985,684; 1659,777;-3191,401
 337,18; 3097,843; 1720,779;-2958,592
 337,77; 3006,579; 1782,837;-2098,463
 338,37; 3065,230; 1806,359;-2021,540
 338,97; 3167,620; 1907,384;-2912,402
 339,57; 3362,040; 1862,948;-3044,894
 340,16; 4044,867; 1836,431;-2881,390
 340,76; 4150,684; 1962,712;-3053,314
 341,36; 3865,331; 1861,920;-3195,650
 341,95; 4262,822; 1934,506;-3027,623
 342,55; 4486,605; 1918,998;  703,736
 343,15; 4299,527; 2048,155;-3094,039
 343,74; 5157,992; 1924,644;-2382,298
 344,34; 5185,147; 1860,267;-3015,661
 344,94; 4019,212; 2068,530;-3069,485
 345,53; 3682,887; 2110,769;-2860,447
 346,13; 3858,680; 2174,398;-1283,573
 346,73; 4173,635; 1966,473;-2254,805
 347,32; 4342,470; 2268,649;-3080,871
 347,92; 3949,689; 2312,600;-2277,145
 348,52; 3997,575; 2270,523;-1878,722
 349,11; 4328,284; 2336,551;  975,034
 349,71; 3812,426; 2330,658;-3240,016
 350,31; 3432,565; 2441,387;-2672,237
 350,90; 3529,592; 2483,418;-2326,863
 351,50; 4104,639; 2390,852;-2105,634
 352,10; 5122,022; 2471,119;-3114,840
 352,69; 5858,785; 2532,273;-3182,424
 353,29; 6054,155; 2563,024;-3191,317
 353,89; 6251,894; 2645,527;-3255,104
 354,48; 5809,022; 2693,119;-3208,840
 355,08; 6700,853; 2871,980;-1117,164
 355,67; 7542,907; 2850,042;-2951,417
 356,27; 9270,979; 2839,128;-3232,985
 356,87;10349,219; 3010,288;-3383,142
 357,46;10325,867; 3049,431;-2351,390
 358,06;12157,538; 3306,291;-3073,523
 358,66; 9851,663; 3337,504;-3109,432
 359,25; 6516,118; 3260,792;-2344,119
 359,85; 7258,223; 3365,667;-3215,970
 360,44; 9329,198; 3389,015;-3292,172
 361,04; 9301,527; 3567,155;-2367,039
 361,64; 9253,527; 3696,155;-2309,039
 362,23; 8657,938; 3772,517;-2932,958
 362,83; 8396,514; 3755,639;-2990,726
 363,42; 8043,887; 3938,769;-2836,447
 364,02; 7314,111; 3910,034;-2973,462
 364,62; 8147,680; 3816,398;-2486,573
 365,21; 6410,924; 3857,937;-1741,558
 365,81; 4568,667; 3935,818;-2792,173
 366,40; 4576,819; 3970,062;-2080,707
 367,00; 5020,125; 4021,550;-2952,776
 367,59; 5807,942; 4071,831;-2979,699
 368,19; 6543,338; 4221,678;-3237,306
 368,79; 6362,481; 4198,720;-3125,268
 369,38; 5652,989; 4107,200;-2250,383
 369,98; 6079,243; 4101,940;-2935,940
 370,57; 6678,949; 4188,588;-3331,356
 371,17; 6567,810; 4164,860;-3326,135
 371,76; 7442,285; 4277,486;-3442,879
 372,36; 8286,904; 4057,598;-3195,501
 372,95;10480,505; 4115,372;  667,934
 373,55;11723,979; 4105,998;-3393,811
 374,14;11300,484; 4300,099;-3405,097
 374,74;11405,993; 4256,514;-3224,124
 375,34; 9799,067; 4286,979;-3189,521
 375,93; 9535,647; 4295,479;-2706,116
 376,53; 8507,630; 4344,585;-3575,974
 377,12; 5576,542; 4405,670;-1465,352
 377,72; 4360,437; 4480,730;-3410,414
 378,31; 4651,473; 4511,027;-2274,699
 378,91; 5358,708; 4291,429;-3262,199
 379,50; 6136,890; 4588,213;-3331,363
 380,10; 6158,164; 4327,226;-3398,890
 380,69; 6246,761; 4094,621;-2343,626
 381,29; 8480,541; 4586,735;-2550,439
 381,88;11196,771; 4518,758;-1605,111
 382,48;11184,744; 4519,727;-3286,485
 383,07; 9433,696; 4495,358;-3457,802
 383,67; 8769,771; 4635,758;-1847,111
 384,26; 8026,388; 4667,491;-2467,905
 384,86; 6071,320; 4921,849;-3182,252
 385,45; 6122,195; 4932,636;-3325,344
 386,05; 6030,486; 5073,608;-3419,100
 386,64; 4970,246; 4911,384;-3524,855
 387,24; 5259,188; 5016,878;-2585,688
 387,83; 5626,459; 4993,512;-2489,386
 388,42; 5884,581; 5182,346;-2109,466
 389,02; 5649,815; 5423,748;-3235,966
 389,61; 5226,270; 5688,036;-3413,653
 390,21; 5116,188; 5729,878;-3463,688
 390,80; 3989,043; 5816,392;-3208,810
 391,40; 4108,260; 6137,899;-2293,168
 391,99; 4749,110; 5981,099;-3195,550
 392,59; 4892,714; 6435,252;-2416,943
 393,18; 4194,680; 6683,398;-2491,573
 393,77; 3570,830; 6883,198;-3238,192
 394,37; 3811,267; 7145,657;-2198,825
 394,96; 4409,158; 7098,403;-2296,146
 395,56; 4188,949; 7264,588;-2834,356
 396,15; 4946,596; 6867,797;-3125,692
 396,75; 5568,324; 7343,163;-2889,993
 397,34; 4226,243; 7669,940;-2620,940
 397,93; 3370,874; 7720,188;-3358,047
 398,53; 3210,670; 7595,262;-2525,088
 399,12; 3564,039; 8192,013;-2154,981
 399,72; 4217,022; 8013,119;-2274,840
 400,31; 4535,558; 8034,629;-3169,581
 400,91; 3957,880; 8446,012;-2959,791
 401,50; 3391,830; 8820,198;-2330,192
 402,09; 3323,043; 8550,327;-2894,722
 402,69; 3446,714; 8691,187;-3072,856
 403,28; 3722,904; 9052,663;-2983,588
 403,88; 6441,081; 9162,560; 1927,079
 404,47; 8200,941; 9689,831;  884,300
 405,06; 5225,121; 9684,171;  -68,947
 405,66; 6088,718; 9753,565;-2875,684
 406,25; 8535,480;10085,720;-3119,268
 406,84; 8662,759;10446,177;-2892,711
 407,44; 6472,650;10847,858;-2219,944
 408,03; 4219,566;10422,257;-2906,063
 408,63; 3705,050;10373,085;-3011,379
 409,22; 3612,471;10191,584;-1945,783
 409,81; 3682,776;10681,007;-1849,765
 410,41; 3887,413;11553,078;-2857,615
 411,00; 4329,549;11336,362;-1814,921
 411,59; 4907,556;11251,120;-2826,578
 412,19; 4968,274;11468,350;-2245,394
 412,78; 5696,539;11399,226;-2830,436
 413,37; 6025,563;12151,878;-2704,234
 413,97; 6364,834;12410,512;-2618,933
 414,56; 5963,197;12071,506;-2503,169
 415,15; 5267,576;12410,394;-2121,547
 415,75; 4755,888;12408,639;-2698,272
 416,34; 4011,247;12590,254;-1893,681
 416,93; 4406,760;12922,047;-2777,536
 417,53; 5123,336;12696,169;-1423,303
 418,12; 5953,854;12570,785;-2217,903
 418,71; 6187,642;12907,592;-2673,285
 419,31; 7155,465;13054,695;-1884,952
 419,90; 7562,984;13470,313;-2786,552
 420,49; 5375,550;13619,298;-1733,834
 421,08; 4396,550;14201,298;-1674,834
 421,68; 4947,285;14723,421;-1908,792
 422,27; 5742,476;14035,832;-2004,437
 422,86; 6249,309;13874,073; -437,590
 423,46; 5925,655;14080,107;-2575,598
 424,05; 5408,988;14376,626;-2928,293
 424,64; 6140,893;13888,953;-2640,014
 425,24; 6347,699;14092,098;-2903,453
 425,83; 6251,056;13992,269;-2680,945
 426,42; 7018,988;12987,626;-2760,293
 427,01; 7309,290;13424,734;-2674,533
 427,61; 5216,459;14347,873;-2609,209
 428,20; 3785,958;14036,151;-1764,751
 428,79; 4002,612;14414,052;-2859,656
 429,38; 4799,357;14092,377;-1781,186
 429,98; 5820,165;14922,521; -994,625
 430,57; 7019,459;15058,873;-2193,209
 431,16; 5419,473;14580,389;-2784,522
 431,75; 5247,964;14357,909; -561,407
 432,35; 6547,008;13435,899;-1951,262
 432,94; 5173,304;14429,186;-2324,759
 433,53; 3684,198;14560,375;-1152,995
 434,12; 3449,924;14431,298;-2267,381
 434,72; 3471,270;14188,331;-1413,389
 435,31; 3244,158;14167,699; 7395,119
 435,90; 3018,426;14308,954; 8338,249
 436,49; 3004,009;13427,834; -683,175
 437,08; 3145,107;13895,951; -675,370
 437,68; 5531,372;14442,827;-2987,412
 438,27; 7082,403;14610,237;-2610,866
 438,86; 4077,850;14612,832;-1147,984
 439,45; 3168,704;15313,346;-1937,106
 440,05; 4905,406;15955,616;-2982,694
 440,64; 5124,108;15054,886;-1902,282
 441,23; 4007,857;14152,525;-1415,553
 441,82; 3153,491;13700,218;-2631,576
 442,41; 2383,386;14351,277;-3014,637
 443,00; 2302,932;13625,925;-2724,863
 443,60; 2422,630;14373,881;-3136,710
 444,19; 2525,451;15026,541;-1440,462
 444,78; 2321,332;14960,151;-3012,298
 445,37; 2359,298;15728,297;-2522,928
 445,96; 2635,518;15331,249;-3116,202
 446,56; 2629,813;15596,535;-1144,698
 447,15; 2576,461;16225,678; -884,947
 447,74; 2368,237;17097,412;-2709,931
 448,33; 2188,421;16443,066;-1985,920
 448,92; 2137,946;15422,440;-2964,176
 449,51; 2047,790;15095,817;-2848,813
 450,10; 1770,536;15133,078;-3063,256
 450,70; 1767,366;14904,939;-1957,581
 451,29; 1766,475;15329,193;-1112,260
 451,88; 1936,824;15513,671;-2929,183
 452,47; 2391,305;16565,055;-2795,584
 453,06; 2163,682;16495,498;-2401,047
 453,65; 1718,367;16071,874;-2873,493
 454,24; 1718,733;17329,246;-2173,558
 454,84; 1829,068;17793,209;-1379,168
 455,43; 1734,364;18732,496;-2219,665
 456,02; 1753,930;18879,480;-2927,947
 456,61; 1590,699;17317,459;-2925,275
 457,20; 1744,831;16921,363;-2786,753
 457,79; 1694,794;17588,131;-2922,554
 458,38; 1739,327;18338,264;-2132,467
 458,97; 1776,171;18039,641;-2515,104
 459,56; 1832,611;18190,479;-2760,565
 460,16; 1815,849;17832,258;-2082,894
 460,75; 1764,435;18157,518;-2072,146
 461,34; 1762,642;18077,887;-2962,020
 461,93; 1673,053;18381,186;-2200,853
 462,52; 1811,601;19333,275;-2744,993
 463,11; 1891,792;20546,688;-1989,639
 463,70; 2026,330;19458,643;-2869,295
 464,29; 2196,388;19945,082;-3150,376
 464,88; 2097,049;20795,807;-2743,024
 465,47; 1940,557;19885,285;-2748,139
 466,06; 1996,341;20915,713;-3191,692
 466,65; 2084,853;21667,572;-3018,635
 467,24; 2195,192;22030,848;-2539,986
 467,84; 2054,981;22443,164;-2020,371
 468,43; 1956,202;22325,051;-2238,559
 469,02; 2057,619;23517,170;-2702,135
 469,61; 2106,263;24168,936;-2593,555
 470,20; 2214,476;23781,063;-2841,085
 470,79; 2022,141;22760,100;-3232,475
 471,38; 1865,551;25266,463;-2192,395
 471,97; 1747,253;26009,732; -666,983
 472,56; 1824,857;25472,887;-3035,376
 473,15; 1831,087;25296,975;-2825,135
 473,74; 1891,670;26395,854;-3106,559
 474,33; 1946,033;25866,848;-2957,796
 474,92; 1853,612;27630,348;-3146,391
 475,51; 1810,796;29609,002;-2873,380
 476,10; 1807,362;29847,986;-3011,662
 476,69; 1833,179;26101,268;-2855,586
 477,28; 1785,175;25846,955;-2956,845
 477,87; 1755,213;27035,121; -173,956
 478,46; 1824,386;28695,639;-3029,460
 479,05; 1777,982;30507,100;-2134,284
 479,64; 1688,484;31679,756;-2718,655
 480,23; 1724,854;29541,508;-2845,548
 480,82; 1686,318;28549,996;-2736,807
 481,41; 1694,172;29371,510;-1873,929
 482,00; 1685,698;29284,885;-1364,185
 482,59; 1726,477;29593,998;-2298,998
 483,18; 1763,789;31702,244;-2376,723
 483,77; 1763,806;31703,139;-2193,865
 484,36; 1836,796;32475,002;-1701,380
 484,95; 1869,667;32990,410; -788,643
 485,54; 2171,823;35331,031;-1371,006
 486,13; 2479,158;35762,996; -945,616
 486,72; 3187,647;34334,137;  148,326
 487,31; 3183,932;31046,285;-1109,686
 487,89; 2565,749;32608,633; -193,697
 488,48; 3449,196;33798,164;-1523,728
 489,07; 4163,115;32913,941;-1248,674
 489,66; 2956,023;33511,645;-1505,224
 490,25; 2400,207;31095,299; -660,212
 490,84; 2466,321;34127,375;-1683,635
 491,43; 4095,792;34965,621; -701,552
 492,02; 5216,661;36094,652;-1864,987
 492,61; 3388,291;35362,902;-1043,094
 493,20; 2521,420;33776,426;-2019,743
 493,79; 2565,058;32749,434; 4824,494
 494,38; 2384,939;33706,043;-1938,342
 494,97; 3643,478;32583,934; -629,911
 495,55; 5391,322;34690,309;-2325,548
 496,14; 4249,084;35087,531;-2403,220
 496,73; 2568,749;35451,566;-1952,609
 497,32; 2394,227;34211,570;-2587,182
 497,91; 2614,912;35005,949;-1921,629
 498,50; 2841,383;34165,195;-2912,544
 499,09; 2533,227;34554,570;-3088,182
 499,68; 2793,488;32403,070;-2405,396
 500,27; 3519,414;33321,605;-2490,999
 500,85; 3471,658;32655,207;-2604,071
 501,44; 3239,349;32478,342;-2576,175
 502,03; 2907,288;33194,457;-3368,178
 502,62; 2425,329;31275,068;-3438,205
 503,21; 2246,397;29432,711;-3532,858
 503,80; 2234,356;32028,100;-2976,831
 504,39; 2334,269;32451,119;-3458,121
 504,97; 2233,258;31774,982;-3577,636
 505,56; 2201,980;31537,590;-2979,281
 506,15; 2236,871;32302,336;-3991,602
 506,74; 2365,689;32557,617;-2945,526
 507,33; 2362,272;32185,498;-3165,949
 507,92; 2342,522;33952,859;-3871,678
 508,51; 2191,461;35926,973;-3735,682
 509,09; 2208,964;34536,629;-3921,053
 509,68; 2276,387;34318,508;-3748,286
 510,27; 2243,201;33667,410;-3799,381
 510,86; 2207,235;32572,264;-4081,751
 511,45; 2335,547;33677,512;-3843,476
 512,03; 2423,363;34524,855;-3829,488
 512,62; 2685,346;36240,961;-3780,346
 513,21; 3050,205;33870,789;-3186,209
 513,80; 3435,466;34644,289;-3501,423
 514,39; 3146,021;32752,137;-3905,221
 514,97; 2742,408;35347,781;-4095,255
 515,56; 2930,530;34167,551;-4198,248
 516,15; 3862,225;35428,063;-3955,179
 516,74; 4259,493;32584,318;-4420,049
 517,33; 3096,381;33459,688;-3549,542
 517,91; 2650,635;33935,426;-4188,099
 518,50; 3120,448;32563,393;-3264,282
 519,09; 3632,275;33942,875;-3157,778
 519,68; 3171,777;35231,531;-4286,148
 520,26; 2806,052;38679,547;-4232,675
 520,85; 2820,991;39452,660;-4352,679
 521,44; 2834,659;40826,078;-4358,897
 522,03; 3321,415;39485,539;-4271,912
 522,61; 4171,659;36773,078;-4364,897
 523,20; 4048,775;33924,090;-4337,233
 523,79; 3121,354;32040,590;-4337,828
 524,38; 2672,439;32850,191;-4344,709
 524,96; 2449,076;35883,199;-4321,473
 525,55; 2487,866;36021,449;-4542,771
 526,14; 3262,046;34018,723;-4434,931
 526,73; 4127,341;32852,074;-4389,515
 527,31; 3246,971;32903,324;-4488,622
 527,90; 2676,866;33630,449;-4564,771
 528,49; 2417,171;34155,938;-2529,839
 529,08; 2051,042;34601,344;-3467,103
 529,66; 2050,547;34848,445;-3911,389
 530,25; 1983,348;35279,832;-4414,172
 530,84; 1978,361;35334,348;-4583,485
 531,42; 2034,527;38583,105;-4365,332
 532,01; 2719,053;37528,480;-4291,588
 532,60; 3059,121;34512,125;-4473,241
 533,18; 2325,615;35538,086;-4078,042
 533,77; 2021,792;34969,984;-4236,374
 534,36; 1944,778;34459,469;-4374,061
 534,95; 1770,575;35483,477;-4088,015
 535,53; 2031,934;34236,090; -974,424
 536,12; 2490,995;36469,977;-2657,420
 536,71; 3019,104;36511,230;-3869,099
 537,29; 2689,382;36073,621;-3618,454
 537,88; 2474,659;33908,078;-3454,897
 538,47; 2352,694;32497,867;-2840,180
 539,05; 2398,900;36837,238;-2139,054
 539,64; 2804,881;40414,898;-1785,997
 540,22; 3003,497;37414,633; -764,790
 540,81; 2861,030;37501,766; 1008,297
 541,40; 2409,178;39018,629; 3425,591
 541,98; 2350,422;38188,230; 4858,519
 542,57; 2414,995;39368,977; 4597,580
 543,16; 2109,585;38645,613; 4952,500
 543,74; 1979,894;35774,480; 4083,603
 544,33; 2088,447;36297,883; 3620,721
 544,92; 2035,765;37217,887; 3973,339
 545,50; 1998,690;37338,488;11456,648
 546,09; 1747,880;40064,965;11359,916
 546,67; 1715,205;41948,727; 2857,878
 547,26; 1629,093;40050,094; -202,615
 547,85; 1605,054;39208,414; -567,501
 548,43; 1597,701;38452,625; -849,836
 549,02; 1542,697;39427,246;-1040,008
 549,60; 1459,965;40570,500; -984,878
 550,19; 1549,067;41166,996;-2192,901
 550,78; 1469,650;42660,875;-2328,325
 551,36; 1342,511;45349,148;-2432,104
 551,95; 1345,056;45443,859; -585,416
 552,53; 1295,291;43280,262; -296,916
 553,12; 1358,050;41420,035;-3431,672
 553,70; 1390,427;43188,547;-2878,222
 554,29; 1347,341;44058,008;-2869,428
 554,88; 1390,003;41831,668;-4247,989
 555,46; 1317,253;43723,027;-3881,718
 556,05; 1402,161;45007,734;-4207,268
 556,63; 1709,769;45206,266;-3396,489
 557,22; 1848,846;43875,109;-3394,714
 557,80; 1673,711;41749,762;-3568,321
 558,39; 1896,016;44188,250;-4145,390
 558,97; 1552,606;47993,887;-3699,470
 559,56; 1460,396;49889,137;-4544,768
 560,15; 1318,084;50117,891;-3611,042
 560,73; 1502,148;49814,152;-4287,867
 561,32; 1924,426;47024,609;-3741,309
 561,90; 1719,996;46041,910;-4382,333
 562,49; 1441,751;48487,371;-3786,348
 563,07; 1235,026;48074,387;-4783,875
 563,66; 1275,236;50064,133;-4352,577
 564,24; 1255,033;49228,145;-4763,531
 564,83; 1219,684;51344,664;-4603,607
 565,41; 1401,911;53840,375;-4329,539
 566,00; 1321,104;52202,164;-2755,012
 566,58; 1321,070;56465,375;-3725,729
 567,17; 1183,602;56909,508;-4280,642
 567,75; 1158,012;52392,871;-4653,562
 568,34; 1153,667;55893,770;-3216,466
 568,92; 1118,738;55738,793;-3987,947
 569,51; 1154,402;54852,895; 2680,576
 570,09; 1250,663;58247,391;-4676,638
 570,68; 1239,230;53188,313;-4788,833
 571,26; 1086,538;50733,242;-3886,817
 571,85; 1147,480;57347,738;-4822,649
 572,43; 1125,389;57011,379;-4704,111
 573,01; 1042,229;52662,375;-4873,920
 573,60; 1078,660;53819,012;-3785,810
 574,18; 1083,291;55122,262;-4514,917
 574,77; 1092,725;53284,277;-4737,634
 575,35; 1180,660;56113,012;-4452,810
 575,94; 1233,508;57300,770;-4076,275
 576,52; 1182,928;54049,270;-2249,680
 577,11; 1094,637;51620,297;-3244,924
 577,69; 1130,223;48685,555;-3183,176
 578,27; 1113,067;51008,996;-3447,901
 578,86; 1080,267;55198,543;-2994,031
 579,44; 1104,863;60080,004;-2805,855
 580,03; 1217,555;60164,137;-2493,958
 580,61; 1137,247;60267,270;-3206,062
 581,19; 1160,569;56429,652;-2538,271
 581,78; 1113,650;55361,813;-2364,238
 582,36; 1109,413;57656,031;-2911,909
 582,95; 1133,742;56180,172;-1497,776
 583,53; 1105,630;59586,539;-2319,268
 584,11; 1169,287;61608,883;-2241,088
 584,70; 1170,206;61691,660;-1948,035
 585,28; 1237,460;62070,398;-1853,592
 585,87; 1226,749;60436,930;-2889,432
 586,45; 1119,267;63023,543;-2375,031
 587,03; 1128,328;64945,430;-1150,027
 587,62; 1179,294;61494,641;-1834,745
 588,20; 1265,681;62236,285;-1020,779
 588,78; 1257,519;58157,840;-3411,673
 589,37; 1310,928;57765,270;-3360,680
 589,95; 1267,826;62238,773;-3385,657
 590,54; 1266,789;63633,539;-3461,459
 591,12; 1331,115;62116,301;-3508,497
 591,70; 1255,420;59586,789;-3331,565
 592,29; 1247,854;62881,805;-2923,283
 592,87; 1297,911;63542,375;-2394,538
 593,45; 1210,694;63404,801; 1487,908
 594,04; 1157,495;62800,188;-3676,875
 594,62; 1156,996;59709,910;-3708,333
 595,20; 1175,244;62066,828;-4371,146
 595,79; 1186,521;62681,285;-4165,588
 596,37; 1162,223;61108,555;-3657,176
 596,95; 1145,264;56922,164;-4321,203
 597,53; 1212,667;58806,770;-4226,466
 598,12; 1157,111;61848,922;-3959,669
 598,70; 1200,152;64932,531;-3776,695
 599,28; 1176,911;64911,375;-3404,538
 599,87; 1169,464;64929,777;-3061,420
 600,45; 1249,318;64938,293;-3907,543
 601,03; 1223,782;63145,781;-4100,802
 601,62; 1305,495;61727,188;-4468,875
 602,20; 1281,735;59786,414;-4541,119
 602,78; 1152,396;64399,070;-4770,680
 603,36; 1102,274;64783,301;-3166,688
 603,95; 1129,725;58863,277;-4492,634
 604,53; 1062,203;62401,281;-4574,207
 605,11; 1149,972;59505,258;-2755,535
 605,69; 1105,467;62362,156;-3365,249
 606,28; 1052,854;62594,805;-4223,283
 606,86; 1070,691;61629,422;-3946,264
 607,44;  960,427;60431,547;-3906,222
 608,02;  952,013;58047,805;-4037,474
 608,61;  962,003;60099,668;-2866,989
 609,19;  944,372;58582,418;-2582,882
 609,77;  959,532;57398,422; -710,073
 610,35;  942,260;55748,785; 5794,625
 610,94;  971,430;56509,926;14509,949
 611,52;  867,003;55803,668;12610,011
 612,10;  838,617;53026,957; 8432,133
 612,68;  845,661;56637,949; 2694,278
 613,26;  909,064;57037,551; 2032,015
 613,85;  915,589;61759,926; -599,241
 614,43;  826,633;62306,918;-1030,096
 615,01;  781,610;62272,199;-1215,211
 615,59;  809,983;64874,328; -972,932
 616,17;  824,250;59402,648;-2561,890
 616,76;  830,606;62178,887;-2993,470
 617,34;  898,429;62666,988;-2389,138
 617,92;  850,667;58547,770;-3399,466
 618,50;  912,569;61202,652;-2562,271
 619,08;  863,572;57928,031;-2514,100
 619,67;  783,104;55968,164;-3196,012
 620,25;  816,294;54290,641;-2743,745
 620,83;  764,318;50498,293;-3495,543
 621,41;  816,376;52314,797;-2800,711
 621,99;  773,321;54560,672;-2529,371
 622,57;  861,714;55529,141;-3707,149
 623,15;  878,026;56213,387;-3783,875
 623,74;  821,436;58266,746;-3892,794
 624,32;  773,233;59330,754;-2827,749
 624,90;  785,040;58625,898;-2311,188
 625,48;  745,688;57897,043;-3132,436
 626,06;  790,663;56898,391;-4006,638
 626,64;  642,863;57787,004;-4162,855
 627,22;  602,457;58993,020;-3409,764
 627,81;  702,484;58046,117;-4334,478
 628,39;  661,192;57121,145;-4560,722
 628,97;  652,477;56597,293;-4437,733
 629,55;  738,595;55377,750;-4219,985
 630,13;  769,247;55669,270;-2959,062
 630,71;  681,243;54162,891;-2747,233
 631,29;  671,725;53129,277;-3824,634
 631,87;  704,443;52776,504;-4223,451
 632,45;  635,250;52786,648;-4716,890
 633,03;  657,806;54183,500;-4191,688
 633,62;  680,203;55423,281;-4714,207
 634,20;  679,901;54882,172;-4089,966
 634,78;  619,385;56497,000;-4430,283
 635,36;  613,931;56701,648;-4449,508
 635,94;  699,867;55183,383;-5398,684
 636,52;  697,613;51027,645;-5422,126
 637,10;  654,264;52116,164;-5488,203
 637,68;  668,674;50694,527;-4702,123
 638,26;  669,755;47618,750;-5536,176
 638,84;  718,359;48688,902;-5421,569
 639,42;  700,264;49235,164;-3756,203
 640,00;  801,190;51366,148;-5405,726
 640,58;  812,977;54579,402;-4806,027
 641,16;  813,764;55521,656;-5571,328
 641,74;  733,551;53214,906;-5433,630
 642,32;  703,339;50106,160;-5620,931
 642,90;  662,126;50434,414;-5856,232
 643,48;  623,913;49231,668;-5786,534
 644,06;  641,700;49280,922;-5796,835
 644,64;  617,488;49595,176;-5842,137
 645,22;  564,275;50513,430;-5562,438
 645,80;  538,062;50547,684;-4957,740
 646,39;  572,849;48107,938;-5515,041
 646,97;  601,636;49773,191;-5850,342
 647,54;  547,424;52328,441;-5717,644
 648,12;  558,211;54879,695;-5865,945
 648,70;  672,998;58954,949;-5885,247
 649,28;  712,785;56421,203;-6090,548
 649,86;  594,573;51091,457;-5609,850
 650,44;  535,360;48619,711;-5452,151
 651,02;  597,147;49970,965;-5474,452
 651,60;  521,934;51793,219;-5803,753
 652,18;  609,722;51320,473;-4735,055
 652,76;  568,509;53277,723;-5934,356
 653,34;  601,296;54817,977;-5939,658
 653,92;  640,083;57729,230;-5784,959
 654,50;  669,870;59042,484;-5818,261
 655,08;  679,658;58048,738;-5841,562
 655,66;  791,445;55058,992;-5115,863
 656,24;  733,232;56743,246;-5200,165
 656,82;  749,019;58989,500;-4979,466
 657,40;  677,807;58967,754;-5667,768
 657,98;  680,594;60169,008;-5486,069
 658,56;  628,381;61114,258;-5717,371
 659,14;  705,168;61380,512;-5913,672
 659,72;  642,956;63381,766;-5916,973
 660,29;  582,743;62437,020;-5907,275
 660,87;  582,530;59738,273;-5212,576
 661,45;  572,317;58590,527;-5664,877
 662,03;  546,104;57513,781;-4971,179
 662,61;  554,892;54945,035;-5638,480
 663,19;  538,679;54618,289;-5657,782
 663,77;  496,466;53917,543;-5939,083
 664,35;  471,253;56689,793;-5887,384
 664,93;  476,041;62595,047;-4922,686
 665,51;  462,828;61993,301;-6033,987
 666,08;  478,615;57747,555;-5652,289
 666,66;  473,402;51859,809;-4400,590
 667,24;  524,190;49420,063;-5952,892
 667,82;  520,977;50250,316;-5849,193
 668,40;  489,764;50723,570;-5932,494
 668,98;  501,551;51952,824;-5097,796
 669,56;  459,338;57957,078;-6096,097
 670,13;  546,126;61797,328;-6222,398
 670,71;  580,913;59698,582;-5900,700
 671,29;  532,700;57209,836;-6139,001
 671,87;  448,487;56814,090;-6051,303
 672,45;  441,275;51822,344;-6050,604
 673,03;  529,062;52592,598;-4769,906
 673,60;  501,849;58431,852;-3503,207
 674,18;  517,636;63679,105;-5938,508
 674,76;  503,423;61159,359;-6226,810
 675,34;  488,211;56361,613;-5251,111
 675,92;  429,998;55284,863;-6338,413
 676,50;  421,785;55051,117;-6085,714
 677,07;  437,572;56952,371;-6095,016
 677,65;  456,360;56680,625;-6163,317
 678,23;  431,147;55997,879;-5057,618
 678,81;  489,934;58016,133;-5299,919
 679,38;  479,721;56669,387;-5969,221
 679,96;  443,509;53267,641;-5846,522
 680,54;  424,296;55171,895;-5308,824
 681,12;  432,083;52485,148;-6126,125
 681,70;  446,870;54786,398;-4413,427
 682,27;  489,657;54740,652;-5851,728
 682,85;  453,445;58265,906;-5991,029
 683,43;  456,232;64943,160;-6140,331
 684,01;  422,019;64943,414;-5172,632
 684,58;  456,806;64307,668;-5138,934
 685,16;  472,594;64236,922;-4494,235
 685,74;  540,381;62790,176;-3853,536
 686,32;  437,168;59009,430;-6012,838
 686,89;  481,955;59552,684;-6015,139
 687,47;  455,743;59534,934;-6076,441
 688,05;  469,530;56416,188;-6019,742
 688,63;  403,317;59626,441;-6102,043
 689,20;  425,104;62884,695;-5971,345
 689,78;  455,891;58427,949;-5530,646
 690,36;  394,679;54291,203;-5381,948
 690,93;  379,466;54968,457;-6355,249
 691,51;  432,253;61453,711;-6326,550
 692,09;  337,040;64946,965;-6223,852
 692,67;  419,828;64947,219;-6047,153
 693,24;  423,615;60968,469;-5803,455
 693,82;  445,402;59538,723;-6235,756
 694,40;  460,189;58049,977;-3570,058
 694,97;  385,977;57456,230;-6046,359
 695,55;  397,764;59820,484;-5464,660
 696,13;  449,551;61729,738;-4454,962
 696,70;  394,338;58594,992;-6029,263
 697,28;  415,125;59108,246;-6266,564
 697,86;  411,913;60837,500;-6030,866
 698,43;  377,700;58827,754;-6198,167
 699,01;  389,487;55595,004;-6051,469
 699,59;  412,274;55751,258;-6402,770
 700,16;  418,062;54174,512;-5257,072
 700,74;  362,849;57040,766;-5497,373
 701,32;  363,636;56440,020;-6233,674
 701,89;  351,423;55792,273;-6049,976
 702,47;  426,211;60296,527;-6466,277
 703,05;  392,998;64951,781;-6309,579
 703,62;  325,785;64952,035;-6227,880
 704,20;  357,572;64952,285;-5306,182
 704,77;  325,359;64952,539;-6118,483
 705,35;  293,147;64213,793;-6006,784
 705,93;  331,934;64327,047;-4922,085
 706,50;  336,721;63796,301;-5267,387
 707,08;  322,508;60606,555;-5284,688
 707,65;  292,296;60046,809;-5620,990
 708,23;  350,083;64881,063;-5431,292
 708,81;  332,870;64954,316;-5019,593
 709,38;  339,657;64954,570;-5001,894
 709,96;  384,444;64954,820;-6025,195
 710,53;  365,232;64955,074;-6007,497
 711,11;  342,019;61503,328;-5752,798
 711,69;  352,806;61913,582;-3821,100
 712,26;  352,593;59012,836;-4642,401
 712,84;  336,381;63346,090;-5947,703
 713,41;  355,168;64411,344;-6153,004
 713,99;  356,955;64924,598;-6068,305
 714,56;  330,742;62057,852;-6326,607
 715,14;  364,530;60312,105;-6198,908
 715,71;  342,317;60246,355;-6210,209
 716,29;  355,104;62893,609;-6648,511
 716,86;  331,891;63573,863;-6510,813
 717,44;  332,678;63263,117;-6424,114
 718,02;  335,466;62110,371;-6462,415
 718,59;  408,253;61013,625;-5121,716
 719,17;  339,040;63488,879;-5649,018
 719,74;  376,827;62907,133;-5756,319
 720,32;  355,615;63502,387;-6451,621
 720,89;  404,402;64959,641;-6422,922
 721,47;  311,189;64959,891;-6388,224
 722,04;  353,976;64960,145;-5502,525
 722,62;  330,764;64252,398;-3979,826
 723,19;  314,551;60250,652;-4938,128
 723,77;  322,338;57638,906;-5673,429
 724,34;  398,125;60150,160;-5576,730
 724,92;  344,912;63789,414;-6558,032
 725,49;  291,700;64961,668;-5666,333
 726,07;  337,487;64961,922;-6491,635
 726,64;  335,274;64627,176;-6587,936
 727,21;  361,061;60249,426;-5627,238
 727,79;  309,849;63706,680;-6444,539
 728,36;  385,636;64962,934;-6722,840
 728,94;  380,423;64963,188;-6535,142
 729,51;  355,210;64963,441;-6365,443
 730,09;  385,998;64963,695;-5545,745
 730,66;  373,785;64963,949;-6358,046
 731,24;  367,572;64964,203;-6577,348
 731,81;  419,359;64964,457;-5151,649
 732,38;  364,146;64964,711;-6492,950
 732,96;  357,934;64964,961;-6263,251
 733,53;  455,721;60347,215;-6389,553
 734,11;  368,508;61575,469;-6617,854
 734,68;  442,295;64965,723;-6211,156
 735,26;  464,083;64965,977;-6389,458
 735,83;  452,870;64966,230;-6498,759
 736,40;  493,657;62243,484;-6516,060
 736,98;  460,444;61999,738;-6374,361
 737,55;  477,232;59236,992;-5827,663
 738,13;  486,019;57707,246;-5702,964
 738,70;  499,806;60991,496;-5529,266
 739,27;  522,593;62504,750;-6452,567
 739,85;  589,380;62745,004;-6283,869
 740,42;  570,168;64968,258;-6464,170
 740,99;  583,955;64968,512;-5618,471
 741,57;  682,742;64968,766;-4867,773
 742,14;  692,529;64969,020;-5349,074
 742,72;  631,317;64969,273;-4751,375
 743,29;  684,104;64969,527;-6563,677
 743,86;  710,891;64969,781;-6538,979
 744,44;  727,678;64970,031;-6113,280
 745,01;  654,466;64970,285;-5760,581
 745,58;  630,253;64970,539;-6259,882
 746,16;  628,040;64970,793;-6188,184
 746,73;  661,827;64971,047;-6479,485
 747,30;  625,614;61139,301;-6536,787
 747,88;  741,402;59621,555;-5621,088
 748,45;  727,189;64971,809;-5668,390
 749,02;  851,976;64972,063;-6384,691
 749,60;  886,763;62401,313;-6212,992
 750,17;  852,551;61766,566;-5269,294
 750,74; 1026,338;62801,820;-6479,595
 751,31;  995,125;63306,074;-6347,896
 751,89;  920,912;64232,328;-6546,198
 752,46;  970,700;64973,582;-6282,500
 753,03;  977,487;64973,836;-6160,801
 753,61;  948,274;63755,090;-4858,102
 754,18;  796,061;64573,344;-6434,404
 754,75;  762,848;63888,598;-5191,705
 755,32;  773,636;60715,848;-6332,006
 755,90;  739,423;64975,102;-6493,308
 756,47;  800,210;64975,355;-4809,609
 757,04;  679,997;64975,609;-6457,911
 757,61;  627,785;64975,863;-5553,212
 758,19;  700,572;64976,117;-5253,514
 758,76;  633,359;64976,371;-6603,815
 759,33;  552,146;64976,625;-6664,116
 759,90;  519,933;64976,879;-5714,417
 760,48;  525,721;64977,133;-6778,719
 761,05;  445,508;64977,383;-6083,021
 761,62;  496,295;62082,637;-4888,322
 762,19;  437,082;58992,891;-6144,624
 762,77;  420,870;61730,145;-5963,925
 763,34;  409,657;64978,398;-6610,226
 763,91;  365,444;64978,652;-5818,527
 764,48;  377,231;64978,906;-6756,829
 765,05;  393,019;64979,160;-6543,130
 765,63;  372,806;63215,414;-6417,432
 766,20;  409,593;59753,668;-6004,733
 766,77;  407,380;57105,918;-5921,035
 767,34;  351,167;58807,172;-6640,336
 767,91;  302,955;59176,426;-6689,637
 768,49;  244,742;61368,680;-6772,939
 769,06;  338,529;64980,934;-5832,240
 769,63;  275,316;62272,188;-6636,542
 770,20;  305,104;59567,441;-5868,843
 770,77;  310,891;57921,695;-5645,145
 771,34;  265,678;60065,949;-6615,446
 771,91;  318,465;60549,203;-6102,747
 772,49;  327,253;58558,453;-6369,048
 773,06;  294,040;57687,707;-6203,350
 773,63;  312,827;60204,961;-6639,651
 774,20;  291,614;58197,215;-5918,953
 774,77;  310,401;56475,469;-6631,254
 775,34;  326,189;56707,723;-6214,556
 775,91;  367,976;57056,977;-6417,857
 776,49;  466,763;58787,230;-6590,158
 777,06;  574,550;60761,484;-6015,460
 777,63;  445,338;64224,738;-6367,761
 778,20;  401,125;62572,988;-6250,063
 778,77;  375,912;63316,242;-5763,364
 779,34;  301,699;64985,496;-6585,666
 779,91;  309,487;64985,750;-6534,967
 780,48;  262,274;59144,004;-5853,268
 781,05;  242,061;50716,258;-6586,570
 781,62;  219,848;52124,512;-6604,871
 782,20;  288,635;58813,766;-6500,172
 782,77;  284,423;64987,020;-6529,474
 783,34;  336,210;64052,273;-6522,775
 783,91;  287,997;61362,523;-6509,077
 784,48;  216,784;60480,777;-2126,378
 785,05;  213,572;59144,031;-6540,680
 785,62;  223,359;58221,285;-6452,981
 786,19;  259,146;58149,539;-5100,282
 786,76;  210,933;55130,793;-6677,583
 787,33;  232,721;56202,047;-6515,885
 787,90;  199,508;59491,301;-6591,187
 788,47;  212,295;60148,555;-5075,488
 789,04;  210,082;58988,809;-5763,790
 789,61;  173,869;58863,059;-5066,091
 790,18;  182,657;55747,313;-6561,392
 790,75;  249,444;50841,566;-6671,693
 791,32;  250,231;52056,820;-6577,995
 791,89;  185,018;55205,074;-6068,296
 792,46;  236,806;60806,328;-5763,598
 793,03;  236,593;62404,582;-6702,899
 793,60;  314,380;55699,836;-6440,201
 794,17;  336,167;52257,090;-5569,502
 794,74;  325,954;47273,344;-5886,803
 795,31;  257,742;50096,594;-6099,105
 795,88;  251,529;52579,848;-5572,406
 796,45;  194,316;53365,102;-6529,708
 797,02;  185,103;56004,355;-5046,009
 797,59;  191,891;57922,609;-6675,311
 798,16;  193,678;54563,863;-5861,612
 798,73;  180,465;53534,117;-6761,913
 799,30;  203,252;55088,371;-6611,214
 799,87;  215,040;55650,625;-6713,516
 800,44;  219,827;55353,875;-6729,817
 801,01;  194,614;56836,129;-6807,119
 801,58;  222,401;58477,383;-6537,420
 802,15;  215,188;52086,637;-6658,722
 802,72;  168,976;48849,891;-6694,023
 803,28;  199,763;52000,145;-6076,324
 803,85;  238,550;57179,398;-6728,626
 804,42;  238,337;55235,652;-5999,927
 804,99;  207,125;53752,906;-6539,229
 805,56;  141,912;52472,160;-6770,530
 806,13;  168,699;53387,410;-6075,832
 806,70;  222,486;52719,664;-6748,133
 807,27;  216,274;54477,918;-6672,434
 807,84;  146,061;52786,172;-6693,736
 808,41;  181,848;49728,426;-6022,037
 808,98;  220,635;50479,680;-5986,338
 809,54;  169,422;52469,934;-4958,640
 810,11;  156,210;48281,188;-6782,941
 810,68;  168,997;43021,441;-6680,243
 811,25;  156,784;41394,695;-6760,544
 811,82;  136,571;40374,945;-6886,846
 812,39;  150,359;37710,199;-3331,147
 812,96;  168,146;38779,453;-6767,448
 813,52;  163,933;41291,707;-6937,750
 814,09;  103,720;44522,961;-6766,051
 814,66;  119,508;50325,215;-6827,353
 815,23;  158,295;51240,469;-6669,654
 815,80;  137,082;50439,723;-5853,956
 816,37;  198,869;50917,977;-6801,257
 816,93;  124,656;49487,230;-6731,558
 817,50;  134,444;46790,480;-6102,859
 818,07;  166,231;46034,734;-6960,161
 818,64;  163,018;46919,988;-6856,462
 819,21;  201,805;46261,242;-6053,764
 819,77;  246,593;42742,496;-6571,065
 820,34;  167,380;42053,750;-6677,367
 820,91;  265,167;43276,004;-6469,668
 821,48;  293,954;43873,258;-6689,969
 822,05;  308,742;45571,512;-5875,271
 822,61;  251,529;44296,766;-5631,572
 823,18;  219,316;41860,016;-6620,874
 823,75;  208,103;42585,270;-6957,175
 824,32;  154,890;45286,523;-6923,477
 824,88;  177,678;45073,777;-6882,778
 825,45;  159,465;44018,031;-6899,079
 826,02;  171,252;43798,285;-6643,380
 826,59;  177,039;43974,539;-6639,682
 827,15;  150,827;46077,793;-6906,983
 827,72;  193,614;49519,047;-6723,285
 828,29;  168,401;51523,301;-6895,586
 828,86;  146,188;48827,551;-6791,888
 829,42;  154,976;40797,805;-6812,189
 829,99;  135,763;36802,059;-6647,490
 830,56;  165,550;36252,313;-6869,792
 831,13;  140,337;37220,566;-6060,093
 831,69;  157,124;38022,820;-6506,395
 832,26;  185,912;38832,074;-5062,696
 832,83;  151,699;40408,328;-5452,998
 833,39;  196,486;40187,582;-6904,299
 833,96;  160,273;39167,836;-6687,600
 834,53;  110,061;40039,086;-6928,902
 835,10;  118,848;39930,340;-6529,203
 835,66;  121,635;38972,594;-6920,504
 836,23;  139,422;39801,848;-6803,806
 836,80;   83,210;39428,102;-6790,107
 837,36;  143,997;37086,355;-6810,409
 837,93;  130,784;34475,609;-6902,710
 838,50;  185,571;35084,863;-6789,012
 839,06;  150,358;37684,117;-6288,313
 839,63;   82,146;37191,371;-6895,614
 840,19;   96,933;35132,621;-6607,916
 840,76;   97,720;35364,875;-6404,217
 841,33;  109,507;35892,129;-6509,519
 841,89;  151,295;36779,383;-6949,820
 842,46;   93,082;37103,637;-6751,122
 843,03;  168,869;35389,891;-6089,423
 843,59;  110,656;34224,145;-6403,724
 844,16;  130,443;34994,398;-6181,025
 844,73;  237,231;34249,652;-6067,327
 845,29;  136,018;32937,902;-5695,628
 845,86;  135,805;35699,156;-6800,930
 846,42;   76,592;36940,410;-7004,231
 846,99;  112,380;36477,664;-6967,533
 847,56;  122,167;36265,918;-5840,834
 848,12;  112,954;36240,172;-6745,135
 848,69;   92,741;35710,426;-6715,437
 849,25;  145,529;34401,680;-6845,738
 849,82;   77,316;34081,934;-3247,040
 850,38;  106,103;35064,188;-6840,341
 850,95;  120,890;32489,439;-6324,643
 851,52;   74,677;32520,693;-6565,944
 852,08;   77,465;32548,947;-6691,245
 852,65;   77,252;30323,199;-7005,546
 853,21;   85,039;27698,453;-6958,848
 853,78;   60,826;27362,707;-6363,149
 854,34;  105,614;28860,961;-6871,451
 854,91;   88,401;29081,215;-5086,752
 855,47;  112,188;29942,467;-5108,054
 856,04;  163,975;32027,721;-6746,355
 856,60;   61,763;33961,973;-6104,656
 857,17;   96,550;34979,227;-6840,958
 857,73;   97,337;33553,480;-6811,259
 858,30;   73,124;32532,734;-6985,561
 858,86;  122,911;31110,988;-5926,862
 859,43;   23,699;31430,242;-6226,164
 859,99;   57,486;32011,496;-6852,465
 860,56;   73,273;33126,750;-6903,766
 861,12;   81,060;35190,004;-6737,068
 861,69;   33,848;33669,258;-5924,369
 862,25;   94,635;34731,508;-6821,670
 862,82;  119,422;34419,762;-5972,972
 863,38;   81,209;31196,018;-6843,273
 863,95;   74,997;29305,270;-6239,575
 864,51;   96,784;30403,523;-5287,876
 865,08;  139,571;29284,777;-6090,178
 865,64;  113,358;26795,031;-7018,479
 866,21;  112,145;26131,285;-6745,780
 866,77;   64,933;26051,537;-5552,082
 867,34;  115,720;25734,791;-6672,383
 867,90;  119,507;24632,045;-6303,685
 868,46;  148,294;23835,299;-6041,986
 869,03;   93,082;24389,551;-6929,288
 869,59;   79,869;26353,805;-6884,589
 870,16;   92,656;27647,059;-6052,890
 870,72;   62,443;30060,313;-6657,191
 871,28;  119,231;32915,566;-5992,493
 871,85;  121,018;33142,820;-6907,794
 872,41;   70,805;31569,072;-6004,096
 872,98;   68,592;32738,326;-6050,397
 873,54;   63,379;33876,578;-5920,699
 874,10;  112,167;32768,832;-5876,000
 874,67;   55,167;32987,832;-6904,000
 875,23;   78,167;31068,834;-7032,000
 875,80;   81,167;28009,834;-6641,000
 876,36;   52,167;25058,834;-6642,000
 876,92;   59,167;22832,834;-6189,000
 877,49;   52,167;23923,834;-6517,000
 878,05;   56,167;24896,834;-6797,000
 878,61;   49,167;26938,834;-6812,000
 879,18;   55,167;27553,834;-6252,000
 879,74;   66,167;28076,834;-6720,000
 880,30;   45,167;28679,834;-5926,000
 880,87;   45,167;28852,834;-6326,000
 881,43;   87,167;29533,834;-6871,000
 881,99;   94,167;27306,834;-6879,000
 882,56;   60,167;27610,834;-6661,000
 883,12;   67,167;29049,834;-5740,000
 883,68;   45,167;29120,834;-6518,000
 884,25;   82,167;28300,834;-6949,000
 884,81;   86,167;26343,834;-6701,000
 885,37;   79,167;24221,834;-6786,000
 885,94;   26,167;22940,834;-6851,000
 886,50;   67,167;23098,834;-6886,000
 887,06;   26,167;24358,834;-6796,000
 887,62;   88,167;25019,834;-6866,000
 888,19;   36,167;25774,834;-5986,000
 888,75;   70,167;26542,834;-6821,000
 889,31;  100,167;29043,834;-6778,000
 889,87;   48,167;30537,834;-6723,000
 890,44;  121,167;30349,834;-6696,000
 891,00;   67,167;28757,834;-6786,000
 891,56;   46,167;26457,834;-6998,000
 892,12;  143,167;24463,834;-6754,000
 892,69;   89,167;25310,834;-6373,000
 893,25;   99,167;28798,834;-6877,000
 893,81;  128,167;31774,834;-6696,000
 894,37;  118,167;31330,834;-6342,000
 894,94;   72,167;28713,834;-6772,000
 895,50;   53,167;26035,834; -212,000
 896,06;   90,167;24749,834;-6810,000
 896,62;  135,167;23405,834;-6707,000
 897,18;  144,167;24661,834;-6518,000
 897,75;  127,167;27406,834;-6895,000
 898,31;  157,167;27887,834;-6849,000
 898,87;  128,167;26274,834;-6860,000
 899,43;  136,167;25164,834;-6469,000
 899,99;  159,167;26592,834;-6866,000
 900,56;  146,167;25515,834;-6791,000
 901,12;  149,167;24875,834;-6890,000
 901,68;  197,167;27903,834;-6267,000
 902,24;  161,167;31800,834;-5930,000
 902,80;  134,167;32652,834;-6794,000
 903,36;  242,167;31893,834;-6691,000
 903,93;  323,167;32139,834;-6646,000
 904,49;  739,167;32761,834;-6913,000
 905,05; 1951,167;30952,834;-6732,000
 905,61; 4828,167;28208,834;-6832,000
 906,17; 9142,167;28086,834;-6901,000
 906,73;14078,167;25975,834;-5380,000
 907,29;18782,166;24960,834;-6910,000
 907,86;22028,166;25118,834;-6827,000
 908,42;22977,166;28092,834;-6795,000
 908,98;20010,166;31123,834;-5908,000
 909,54;11740,167;38813,832;-6885,000
 910,10; 4024,167;48220,832;-6634,000
 910,66;  907,167;57581,832;-6781,000
 911,22;  337,167;65027,832;-6761,000
 911,78;  202,167;62593,832;-6841,000
 912,34;  167,167;53256,832;-6080,000
 912,90;  207,167;44610,832;-5232,000
 913,46;  152,167;37052,832;-6876,000
 914,03;  127,167;30620,834;-5746,000
 914,59;  134,167;27452,834;-6682,000
 915,15;  110,167;24908,834;-6891,000
 915,71;  102,167;24217,834;-6863,000
 916,27;  111,167;23800,834;-6723,000
 916,83;  116,167;23006,834;-5824,000
 917,39;  112,167;21742,834;-3512,000
 917,95;   82,167;20224,834;-6009,000
 918,51;   56,167;19972,834;-6583,000
 919,07;  116,167;21780,834;-6791,000
 919,63;   55,167;23295,834;-6661,000
 920,19;   31,167;23935,834;-6865,000
 920,75;   90,167;23112,834;-6640,000
 921,31;   49,167;21484,834;-4837,000
 921,87;   77,167;20216,834;-6845,000
 922,43;   52,167;18019,834;-5626,000
 922,99;   80,167;17321,834;-6706,000
 923,55;  100,167;18674,834;-6655,000
 924,11;   63,167;19094,834;-6976,000
 924,67;   73,167;19310,834;-6962,000
 925,23;   83,167;19485,834;-6778,000
 925,79;   95,167;20122,834;-6710,000
 926,35;  121,167;20219,834;-6573,000
 926,91;   68,167;19401,834;-6909,000
 927,47;   15,167;19367,834;-6660,000
 928,03;   92,167;20294,834;-6786,000
 928,59;   72,167;20503,834;-6678,000
 929,15;  103,167;20781,834;-6792,000
 929,71;   87,167;22016,834;-6840,000
 930,27;  116,167;23587,834;-6537,000
 930,82;   89,167;25573,834;-6728,000
 931,38;   25,167;24317,834;-5852,000
 931,94;   56,167;22672,834;-6843,000
 932,50;   42,167;21252,834;-6481,000
 933,06;   91,167;20895,834;-6768,000
 933,62;  115,167;21092,834;-6443,000
 934,18;   99,167;20632,834;-6727,000
 934,74;   91,167;21320,834;-6709,000
 935,30;  128,167;22030,834;-6484,000
 935,86;   60,167;21213,834;-6505,000
 936,42;   38,167;20702,834;-6873,000
 936,97;   52,167;21656,834;-6563,000
 937,53;   54,167;20552,834;-6826,000
 938,09;   81,167;21087,834;  123,000
 938,65;   81,167;21186,834;-6268,000
 939,21;   62,167;20179,834;-6708,000
 939,77;   37,167;18946,834;-6213,000
 940,33;   52,167;18602,834;-6748,000
 940,88;   85,167;19429,834;-5908,000
 941,44;   65,167;21301,834;-6983,000
 942,00;   42,167;23225,834;-6697,000
 942,56;   53,167;24231,834;-6604,000
 943,12;   79,167;23427,834;-5907,000
 943,68;   99,167;22950,834;-5679,000
 944,23;   69,167;23124,834;-6749,000
 944,79;   26,167;22674,834;-6102,000
 945,35;   19,167;20741,834;-6599,000
 945,91;   78,167;19519,834;-6767,000
 946,47;   84,167;19827,834;-3353,000
 947,03;   85,167;19896,834;-6850,000
 947,58;   46,167;19661,834;-6840,000
 948,14;  102,167;20790,834;-5897,000
 948,70;   56,167;19573,834;-5855,000
 949,26;   69,167;18881,834;-6616,000
 949,81;   27,167;18342,834;-6644,000
 950,37;   86,167;18686,834;-6695,000
 950,93;   88,167;17993,834;-6224,000
 951,49;   69,167;17568,834;-6057,000
 952,05;   53,167;17926,834;-6571,000
 952,60;   44,167;17299,834;-6951,000
 953,16;   30,167;16933,834;-5783,000
 953,72;   25,167;15628,833;-5813,000
 954,27;   15,167;15524,833;-6566,000
 954,83;   61,167;15317,833;-6703,000
 955,39;   35,167;14917,833;-6691,000
 955,95;   32,167;14456,833;-6849,000
 956,50;   57,167;14272,833;-6698,000
 957,06;   44,167;14126,833;-5922,000
 957,62;   53,167;13780,833;-6559,000
 958,18;   46,167;13872,833;-6741,000
 958,73;   59,167;13326,833;-6820,000
 959,29;   63,167;13518,833;-6106,000
 959,85;   33,167;14785,833;-6864,000
 960,40;   71,167;16746,834;-4263,000
 960,96;   64,167;16386,834;-6738,000
 961,52;   74,167;14755,833;-6643,000
 962,07;   52,167;13711,833;-6742,000
 962,63;   31,167;13208,833;-6723,000
 963,19;   64,167;13435,833;-5779,000
 963,74;   75,167;13877,833;-6582,000
 964,30;   50,167;14475,833;-6595,000
 964,86;   89,167;14281,833;-6484,000
 965,41;  126,167;14290,833;-6705,000
 965,97;   17,167;14185,833;-6569,000
 966,53;   70,167;14792,833;-6750,000
 967,08;   74,167;15311,833;-6611,000
 967,64;  107,167;15082,833;-6705,000
 968,19;   82,167;14471,833;-6684,000
 968,75;   49,167;14662,833;-6566,000
 969,31;   78,167;14880,833;-5626,000
 969,86;   44,167;14995,833;-6505,000
 970,42;  110,167;13195,833;-6620,000
 970,97;   70,167;11567,833;-6437,000
 971,53;   67,167;11625,833;-6490,000
 972,09;   38,167;12998,833;-6646,000
 972,64;   97,167;13523,833;-5812,000
 973,20;  102,167;13815,833;-6599,000
 973,75;   74,167;14605,833;-5760,000
 974,31;  130,167;14826,833;-6578,000
 974,87;   70,167;14921,833;-6674,000
 975,42;   67,167;14507,833;-6727,000
 975,98;   62,167;13201,833;-6651,000
 976,53;  144,167;12100,833;-6555,000
 977,09;   52,167;11353,833;-4624,000
 977,64;   76,167;11164,833;-6532,000
 978,20;   78,167;10649,833;-6585,000
 978,75;   54,167;10482,833;-6429,000
 979,31;   33,167;10950,833;-6513,000
 979,86;  107,167;12220,833;-6739,000
 980,42;   69,167;12828,833;-5813,000
 980,97;   98,167;13290,833;-6642,000
 981,53;  128,167;14285,833;-6636,000
 982,08;   71,167;13803,833;-5046,000
 982,64;   90,167;12278,833;-6237,000
 983,19;   53,167;11308,833;-6760,000
 983,75;  118,167;10993,833;-6576,000
 984,30;   81,167;10430,833;-5581,000
 984,86;   74,167; 9867,833;-5898,000
 985,41;  124,167; 9457,833;-6634,000
 985,97;  113,167; 9632,833;-4797,000
 986,52;   98,167; 9894,833;-5853,000
 987,08;   81,167; 9953,833;-6174,000
 987,63;  112,167;10165,833;-5608,000
 988,19;  101,167;11252,833;-6266,000
 988,74;   59,167;11710,833;-5682,000
 989,30;   86,167;11529,833;-6568,000
 989,85;  123,167;11470,833; -276,000
 990,40;   75,167;11314,833;-6617,000
 990,96;  119,167;11060,833;-6482,000
 991,51;  104,167;11149,833;-6578,000
 992,07;   92,167;10742,833;-6605,000
 992,62;  114,167;10285,833;-6519,000
 993,18;   82,167;10035,833;-6504,000
 993,73;  110,167; 9986,833;-6440,000
 994,28;   91,167; 9800,833;-6464,000
 994,84;  101,167; 9019,833;-6240,000
 995,39;   68,167; 8474,833;-2971,000
 995,94;  116,167; 7953,833;-5673,000
 996,50;   98,167; 7647,833;-6543,000
 997,05;  130,167; 7872,833;-3481,000
 997,61;   99,167; 8363,833;-6489,000
 998,16;  105,167; 8581,833;-6555,000
 998,71;  141,167; 8850,833;-6340,000
 999,27;   88,167; 9115,833;-5223,000
 999,82;  120,167; 8706,833;-4778,000
1000,37;  110,167; 8661,833;-6520,000
1000,93;  103,167; 8920,833;-6107,000
1001,48;  115,167; 8799,833;-6543,000
1002,03;   99,167; 8477,833;-6469,000
1002,59;  129,167; 8715,833;-5972,000
1003,14;  112,167; 8758,833;-6113,000
1003,69;  102,167; 8484,833;-6513,000
1004,25;   58,167; 8299,833;-6507,000
1004,80;  128,167; 8322,833;-6266,000
1005,35;   95,167; 8313,833;-6361,000
1005,91;  175,167; 8515,833;-6558,000
1006,46;  124,167; 8426,833;-6084,000
1007,01;  142,167; 8227,833;-5479,000
1007,56;  123,167; 8599,833;-6440,000
1008,12;   94,167; 8342,833;-6178,000
1008,67;  142,167; 7867,833;-6312,000
1009,22;   91,167; 7509,833;-6481,000
1009,78;   94,167; 7205,833;-6163,000
1010,33;  138,167; 6649,833;-6443,000
1010,88;  126,167; 6413,833;-5618,000
1011,43;  166,167; 5995,833;-6433,000
1011,99;  148,167; 5972,833;-6198,000
1012,54;  154,167; 6320,833;-6387,000
1013,09;  170,167; 6048,833;-6299,000
1013,64;  138,167; 5802,833;-6362,000
1014,19;  140,167; 5823,833;-6442,000
1014,75;  163,167; 5928,833;-6408,000
1015,30;  162,167; 6394,833;-6425,000
1015,85;  136,167; 6370,833;-6367,000
1016,40;  146,167; 6247,833;-5436,000
1016,96;  241,167; 6235,833;-6268,000
1017,51;  188,167; 6150,833;-6351,000
1018,06;  200,167; 6095,833;-6310,000
1018,61;  189,167; 5695,833;-6665,000
1019,16;  152,167; 5609,833;-6697,000
1019,71;  273,167; 5663,833;-6373,000
1020,27;  239,167; 5567,833;-6353,000
1020,82;  221,167; 5375,833;-3700,000
1021,37;  265,167; 5405,833;-4798,000
1021,92;  229,167; 5984,833;-6454,000
1022,47;  237,167; 5965,833;-6548,000
1023,02;  296,167; 5463,833;-6512,000
1023,58;  313,167; 5045,833;-6573,000
1024,13;  331,167; 4730,833;-6258,000
1024,68;  321,167; 4434,833;-6298,000
1025,23;  349,167; 4324,833;-5525,000
1025,78;  387,167; 4613,833;-6475,000
1026,33;  335,167; 4932,833;-5510,000
1026,88;  416,167; 4843,833;-6236,000
1027,43;  377,167; 5167,833;-6276,000
1027,99;  465,167; 5134,833;-6002,000
1028,54;  460,167; 4732,833;-6395,000
1029,09;  486,167; 4106,833;-2478,000
1029,64;  533,167; 3919,833;-6303,000
1030,19;  615,167; 4147,833;-3821,000
1030,74;  625,167; 4243,833;-5134,000
1031,29;  725,167; 4284,833;-4765,000
1031,84;  780,167; 4491,833;-6300,000
1032,39;  883,167; 4563,833;-5403,000
1032,94;  916,167; 4617,833;-4326,000
1033,49; 1029,167; 4361,833;-5476,000
1034,04; 1123,167; 4236,833;-6312,000
1034,59; 1305,167; 4205,833;-6507,000
1035,14; 1292,167; 4117,833;-6145,000
1035,69; 1385,167; 4318,833;-6224,000
1036,24; 1555,167; 4104,833;-4477,000
1036,80; 1660,167; 3986,833;-5453,000
1037,35; 1801,167; 4138,833;-6347,000
1037,90; 1933,167; 4172,833;-6274,000
1038,45; 2075,167; 4201,833;-6419,000
1039,00; 2156,167; 4340,833;-5490,000
1039,55; 2219,167; 4229,833;-6284,000
1040,10; 2459,167; 3977,833;-5615,000
1040,65; 2581,167; 3916,833;-5576,000
1041,20; 2714,167; 3850,833;-6325,000
1041,75; 2981,167; 4030,833;-4522,000
1042,30; 3254,167; 4164,833;-3585,000
1042,84; 3642,167; 4338,833;-4439,000
1043,39; 4065,167; 4248,833;-6313,000
1043,94; 4478,167; 4175,833;-5342,000
1044,49; 4915,167; 3887,833;-6246,000
1045,04; 5472,167; 3710,833;-5800,000
1045,59; 5996,167; 3809,833;-6299,000
1046,14; 6689,167; 3732,833;-6392,000
1046,69; 7700,167; 3591,833;-6294,000
1047,24; 8664,167; 3623,833;-5510,000
1047,79; 9759,167; 3737,833;-6139,000
1048,34;11103,167; 4002,833;-5961,000
1048,89;12765,167; 3948,833;-6259,000
1049,44;14977,167; 3935,833;-5172,000
1049,99;17451,166; 3855,833;-4844,000
1050,54;21274,166; 3876,833;-6249,000
1051,08;27628,166; 3961,833;-6178,000
1051,63;39263,168; 4050,833;-5285,000
1052,18;57293,168; 5051,833;-6127,000
1052,73;65153,168; 7151,833;-6173,000
1053,28;65153,168;10516,833;-6386,000
1053,83;65153,168;15224,833;-6214,000
1054,38;65153,168;19203,834;-6254,000
1054,93;65153,168;21243,834;-6285,000
1055,47;65153,168;23825,834;-5328,000
1056,02;65153,168;26212,834;-5832,000
1056,57;65153,168;27830,834;-6198,000
1057,12;65153,168;30497,834;-6378,000
1057,67;65153,168;33805,832;-6078,000
1058,22;65153,168;36084,832;-6313,000
1058,76;65153,168;38542,832;-6093,000
1059,31;65153,168;44129,832;-3514,000
1059,86;65153,168;48778,832;-6204,000
1060,41;65153,168;49718,832;-6152,000
1060,96;65153,168;51396,832;-6226,000
1061,51;65153,168;53649,832;-5344,000
1062,05;65153,168;54082,832;-6122,000
1062,60;65153,168;50555,832;-6061,000
1063,15;65153,168;45221,832;-6149,000
1063,70;65153,168;41550,832;-6250,000
1064,24;65153,168;43676,832;-6169,000
1064,79;65153,168;45461,832;-6144,000
1065,34;65153,168;43989,832;-6064,000
1065,89;65153,168;41776,832;-6202,000
1066,44;65153,168;37631,832;-6120,000
1066,98;65153,168;32612,834;-6224,000
1067,53;65153,168;30790,834;-5953,000
1068,08;65153,168;30368,834;-4845,000
1068,63;65153,168;27618,834;-6096,000
1069,17;65153,168;24647,834;-5893,000
1069,72;65153,168;22350,834;-5857,000
1070,27;65153,168;20529,834;-6040,000
1070,81;65153,168;20388,834;-5996,000
1071,36;65153,168;20367,834;-3883,000
1071,91;65153,168;18745,834;  966,000
1072,46;65153,168;16791,834;-5058,000
1073,00;65153,168;14646,833;-5239,000
1073,55;65153,168;11404,833;-5935,000
1074,10;65153,168; 7803,833;-5981,000
1074,64;65153,168; 5240,833;-5860,000
1075,19;65153,168; 3535,833;-4958,000
1075,74;45477,168; 2551,833;-6091,000
1076,28;34705,168; 2312,833;-6075,000
1076,83;28148,166; 1951,833;-5286,000
1077,38;23506,166; 1820,833;-5653,000
1077,92;19900,166; 1783,833;-6332,000
1078,47;16863,166; 1629,833;-5507,000
1079,02;14283,167; 1578,833;-5959,000
1079,56;12601,167; 1557,833;-5328,000
1080,11;10652,167; 1304,833;-6094,000
1080,65; 9229,167; 1241,833;-5039,000
1081,20; 7794,167; 1186,833;-6151,000
1081,75; 6780,167; 1125,833;-6039,000
1082,29; 5739,167; 1128,833; -139,000
1082,84; 5001,167; 1184,833;-2678,000
1083,39; 4713,167; 1294,833;-5061,000
1083,93; 4386,167; 1335,833;-5025,000
1084,48; 3859,167; 1196,833;-5961,000
1085,02; 3526,167; 1082,833;-5783,000
1085,57; 3241,167; 1074,833;-5994,000
1086,11; 3077,167; 1079,833;-5968,000
1086,66; 2674,167;  925,833;-5584,000
1087,21; 2714,167; 1060,833;-5802,000
1087,75; 2486,167;  939,833;-6125,000
1088,30; 2395,167;  815,833;-5040,000
1088,84; 2235,167;  783,833;-5963,000
1089,39; 2018,167;  656,833;-5965,000
1089,93; 1888,167;  664,833;-6100,000
1090,48; 1682,167;  649,833;-4394,000
1091,02; 1508,167;  733,833;-5181,000
1091,57; 1348,167;  629,833;-5479,000
1092,11; 1290,167;  642,833;-4094,000
1092,66; 1263,167;  624,833;-6031,000
1093,20; 1046,167;  580,833;-5180,000
1093,75; 1113,167;  566,833;-4998,000
1094,29; 1043,167;  486,833;-4979,000
1094,84;  962,167;  525,833;-5890,000
1095,38;  900,167;  528,833;-5097,000
1095,93;  864,167;  584,833;-5981,000
1096,47;  819,167;  615,833;-5612,000
1097,02;  758,167;  587,833;-4985,000
1097,56;  742,167;  614,833;-5772,000
1098,11;  711,167;  552,833;-5774,000
1098,65;  649,167;  508,833;-5992,000
1099,20;  622,167;  577,833;-5935,000
1099,74;  546,167;  487,833;-6002,000
1100,29;  556,167;  513,833;-4879,000
1100,83;  504,167;  496,833;-5934,000

