
Integration time [ms]:   1,000
Averaging Nr. [scans]: 1
Smoothing Nr. [pixels]: 0
Data measured with spectrometer [name]: 1703254U1
Wave   ;Sample   ;Dark     ;Reference;Scope
[nm]   ;[counts] ;[counts] ;[counts] 

 190,08;  -86,352; -370,119;11982,743
 190,69;  -67,853; -359,404;11603,049
 191,29;  -69,377; -311,651;11479,965
 191,90;  -79,061; -365,508;11440,717
 192,50;  -77,320; -379,511;10355,099
 193,10;  -56,645; -446,299;11244,381
 193,71;  -76,123; -367,888; 9821,736
 194,31;  -70,574; -399,273; 9436,327
 194,91;  -70,574; -382,273; 9291,327
 195,52;  -77,429; -338,386;10555,949
 196,12;  -53,381; -397,056; 8671,847
 196,72;  -73,076; -386,394; 8220,904
 197,32;  -76,123; -375,888; 8251,736
 197,93;  -59,148; -360,420; 8700,957
 198,53;  -72,424; -383,145; 7601,797
 199,13;  -79,388; -397,132; 8091,270
 199,74;  -64,371; -366,410; 7263,813
 200,34;  -60,672; -388,667; 7832,874
 200,94;  -58,169; -436,547; 6941,297
 201,55;  -67,853; -406,404; 7119,049
 202,15;  -71,009; -375,773; 6404,732
 202,75; -101,042; -373,217; 6097,647
 203,36;  -62,413; -338,664; 6822,492
 203,96; -113,447; -357,943; 6332,678
 204,56;  -65,895; -355,657;10275,729
 205,16;  -73,403; -363,018; 5478,458
 205,77;  -86,243; -360,244; 4767,892
 206,37;  -74,273; -409,017; 5556,267
 206,97;  -77,973; -363,760; 5129,205
 207,58;  -61,107; -364,166; 5927,278
 208,18;  -81,129; -337,129; 5129,889
 208,78;  -78,517; -404,134; 5295,461
 209,38;  -61,760; -469,415; 4958,385
 209,99;  -61,651; -356,540; 3837,534
 210,59;  -63,283; -361,662; 3890,301
 211,19;  -62,521; -364,538; 3938,343
 211,79;  -55,231; -366,927; 4499,316
 212,40;  -83,305; -373,625; 3368,911
 213,00;  -74,382; -388,891; 3903,118
 213,60;  -79,605; -386,882; 2992,972
 214,20;  -94,078; -401,230; 3081,175
 214,81;  -86,787; -422,618; 2884,148
 215,41;  -94,296; -376,979; 3235,877
 216,01; -114,209; -373,067; 3109,636
 216,61;  -70,465; -367,399; 2814,476
 217,22; -109,639; -381,326; 2358,888
 217,82; -124,546; -325,173; 2262,495
 218,42; -104,089; -383,711; 2389,480
 219,02; -108,768; -288,327; 3432,079
 219,63;  -92,119; -357,483; 2044,854
 220,23;  -95,493; -366,602; 2425,239
 220,83;  -93,643; -395,730; 1901,770
 221,43; -112,359; -393,195; 1850,167
 222,03;  -96,188; -348,940; 2326,296
 222,64;  -97,451; -380,348; 1769,560
 223,24;  -84,260; -298,966; 1625,350
 223,84; -116,603; -376,313; 2637,361
 224,44; -112,794; -316,695; 2381,571
 225,05; -109,095; -313,952; 1440,632
 225,65; -115,079; -301,065; 1227,445
 226,25; -103,871; -364,961; 1139,777
 226,85;  -98,344; -294,309;  995,979
 227,45; -106,701; -335,706; 1083,907
 228,06; -104,851; -365,834; 1945,438
 228,66; -104,307; -349,460; 4049,182
 229,26; -104,494; -313,438; 1131,510
 229,86; -100,933; -396,342; 1760,797
 230,46; -113,230; -358,194;  891,976
 231,06; -111,012; -320,444;  757,273
 231,67;  -92,772; -346,732; 1228,961
 232,27; -129,225; -343,789;  778,094
 232,87; -104,779; -308,808;  526,384
 233,47; -132,381; -321,158;  525,777
 234,07;  -90,378; -268,486; 9912,235
 234,67; -130,936; -291,013;  672,338
 235,28; -132,381; -319,158;   65,777
 235,88; -135,527; -316,882;  285,426
 236,48; -105,815; -350,821;  165,911
 237,08; -109,723; -267,669;  448,518
 237,68; -148,704; -369,378; -267,552
 238,28; -110,060; -304,774; -106,624
 238,89; -127,636; -212,756; -205,723
 239,49; -114,713; -282,023; 1280,483
 240,09; -112,932; -284,608; -190,544
 240,69; -151,315; -251,373; -319,124
 241,29; -138,040; -289,647;  651,036
 241,89; -138,475; -330,147; -260,559
 242,49;  -92,559; -248,490; -358,930
 243,10; -125,077; -201,496; 3664,834
 243,70; -118,559; -284,490;  239,070
 244,30; -128,465; -275,501; -708,594
 244,90;  -78,861; -188,582; -568,598
 245,50; -125,891; -177,355; 3274,777
 246,10; -105,133; -307,636; -831,300
 246,70; -150,771; -300,999;   17,620
 247,30; -117,522; -251,641;  326,273
 247,91; -158,093; -208,218; 5781,292
 248,51;  -84,870; -270,228; -806,563
 249,11; -107,501; -239,514;  417,933
 249,71;  -88,548; -303,008; -667,235
 250,31;  -75,041; -265,483; -567,693
 250,91;  -58,336; -238,500;   75,216
 251,51; -113,611; -199,225; -822,945
 252,11; -106,089; -239,813;  367,410
 252,71; -122,144; -269,117;-1080,994
 253,31; -106,373; -222,348; 3228,013
 253,91; -121,472; -236,578; -676,170
 254,52;  -92,855; -237,342;-1063,750
 255,12; -103,041; -293,483;-1104,693
 255,72;  -32,797; -206,366;  557,112
 256,32; -141,613; -242,061; -966,674
 256,92;  -76,390; -190,070;-1147,529
 257,52;  -58,829; -173,974; -883,243
 258,12;  -48,684; -201,087;  -91,621
 258,72;  -59,830; -210,810;-1232,972
 259,32;  -30,337; -211,335;-1169,514
 259,92;  -46,949; -199,330;-1343,086
 260,52;  -44,699; -192,973;-1077,433
 261,12;  -80,483; -202,059; -662,865
 261,72;  -95,581; -238,452;-1312,319
 262,32;  -27,285; -215,600;-1561,498
 262,92; -114,509; -238,426;  405,627
 263,53;  -39,975; -189,698;-1277,594
 264,13; -131,851; -262,937; -268,632
 264,73;  -59,799; -217,202;-1694,617
 265,33;  -46,913; -188,317;-1708,613
 265,93;  -64,877; -147,304;-1345,140
 266,53;  -89,447; -161,046;-1544,392
 267,13;  -85,562; -139,161; -857,388
 267,73;  -71,303; -185,158;  270,230
 268,33;  -75,417; -166,274;-1788,766
 268,93;  -69,752; -213,708;-1702,449
 269,53; -105,774; -204,670; -644,839
 270,13;  -75,795; -201,797;-1810,499
 270,73; -113,453; -245,287;-1891,239
 271,33;  -42,421; -200,678;-1778,884
 271,93;  -76,427; -242,919;-1867,732
 272,53;  -62,910; -121,748;    8,776
 273,13;  -31,292; -146,677;-1117,075
 273,73;  -89,299; -119,753;-1955,652
 274,33;  -25,639; -148,428;-2041,182
 274,93;  -57,340; -188,007;-1843,972
 275,53;  -78,910;  -68,748;-1881,224
 276,13;  -78,974; -121,965;-2261,935
 276,73;  -91,330; -118,361;-1570,007
 277,33;  -70,070; -179,522;-1926,659
 277,93;  -59,551; -213,680;-1864,693
 278,53;   -8,329; -194,526;-2112,278
 279,13;  -57,775; -125,506;-2152,568
 279,73;  -90,128; -140,498;-1388,522
 280,33;  -60,558; -154,756;-2179,270
 280,93;   11,696; -105,994;-2049,499
 281,53;  -69,402; -147,387;-2252,953
 282,13;  -83,460; -127,363;-2193,816
 282,73;  -92,931; -156,875; -385,885
 283,33;  -80,672; -137,872;-2307,266
 283,92;  -25,445;  -74,477;-2028,003
 284,52;  -71,419;  -94,109;-2365,496
 285,12;  -30,200; -138,524;-1425,469
 285,72;  -48,744; -126,898;-1041,213
 286,32;  -27,890;  -55,622;-1313,564
 286,92;  -61,941; -163,521;-2376,850
 287,52;  -19,811;  -89,519;-2170,041
 288,12;    6,924;  -97,763;-2542,507
 288,72;  -28,733; -106,417;-1625,518
 289,32;  -27,927;  -54,470; 1692,233
 289,92;  -44,158; -106,270;-2344,148
 290,52;  -73,623;  -91,809;-2485,710
 291,12;  -17,434;  -57,996;-1570,308
 291,72;  -40,445;  -74,477;-1590,003
 292,32;  -39,490;  -83,135;-2372,442
 292,92;   -9,004;   -2,737;-2481,560
 293,51;   -1,124;  -37,093;-2532,404
 294,11;    7,675;  -42,121;-1681,160
 294,71;   30,649;   -7,488;-2695,667
 295,31;   13,478;  -24,743;-1755,797
 295,91;   77,525;   46,751;-2713,629
 296,51;   78,094;   62,656;-1776,106
 297,11;   77,098;   35,061;-2900,988
 297,71;   28,587;    4,131;-2726,648
 298,31;   60,842;   38,730;-2329,148
 298,91;  110,913;   74,756;-2483,202
 299,50;  106,405;   41,395;-2689,473
 300,10;  173,322;  145,887;-2706,114
 300,70;  143,944;   95,528;-2492,576
 301,30;  178,219;   89,253;-2855,415
 301,90;  144,831;   96,248;-2004,843
 302,50;  199,799;  163,640;-2515,198
 303,10;  194,198;  124,126;-2530,076
 303,70;  174,353;  208,660;-3000,488
 304,29;  127,782;  189,918;-2658,740
 304,89;   99,730;  266,183;-1090,755
 305,49;  158,041;  163,922;-2773,122
 306,09;  272,716;  214,133;-2874,839
 306,69;  293,360;  262,736;-2915,911
 307,29;  276,510;  312,865;-2008,442
 307,89;  275,441;  303,408;-3029,000
 308,48;  302,338;  341,774;-2453,301
 309,08;  422,095;  369,492;-2743,377
 309,68;  509,732;  377,019;-3094,026
 310,28;  621,256;  371,102;-2576,213
 310,88;  640,853;  321,211;-2936,453
 311,48;  598,743;  447,500;-2875,331
 312,07;  710,204;  408,367;-2963,228
 312,67;  813,733;  497,855;-2128,297
 313,27;  671,599;  494,448;-1105,224
 313,87;  776,427;  583,357;-2164,083
 314,47;  767,553;  516,954;-3030,392
 315,06;  637,299;  620,191; 2713,837
 315,66;  587,271;  579,988;-3245,400
 316,26;  678,258;  632,938;-1844,483
 316,86;  819,718;  777,969;-3140,110
 317,46;  877,413;  720,307;-2115,167
 318,06;  743,367;  739,813; -825,335
 318,65;  799,460;  781,801;-2807,999
 319,25;  913,201;  821,798;-3195,617
 319,85;  857,533;  932,663;-2908,323
 320,45;  991,471;  986,283;-3213,304
 321,05; 1097,565;  901,271;-2761,968
 321,64; 1129,124;  889,531;-3219,411
 322,24; 1497,173; 1056,861;-3265,513
 322,84; 1940,219; 1080,356;-3261,345
 323,44; 2964,867; 1133,364;-3219,300
 324,03; 7562,499; 1194,486;-3072,067
 324,63; 9653,780; 1250,452;-2310,059
 325,23; 5350,403; 1241,928;-3097,792
 325,83; 2443,704; 1367,021;-2876,123
 326,42; 3988,218; 1442,622;-3285,005
 327,02; 7472,521; 1476,551;-3076,607
 327,62; 7024,658; 1439,629;-2505,221
 328,22; 3988,343; 1553,486;-3234,973
 328,82; 3503,843; 1577,037;-2229,938
 329,41; 2892,161; 1658,852;-3016,728
 330,01; 3402,004; 1652,750;-2961,704
 330,61; 3874,628; 1806,062;-2928,707
 331,20; 2990,446; 1778,325;-2868,531
 331,80; 2452,179; 1762,512;-2794,386
 332,40; 2176,787; 1752,102;-2896,932
 333,00; 2157,323; 1933,667;-2790,423
 333,59; 2149,531; 1748,771;-2855,091
 334,19; 2111,459; 1920,745;-1771,037
 334,79; 2140,179; 1712,615;-2861,316
 335,39; 2096,234; 1729,919;-2978,912
 335,98; 2144,077; 1726,714;-3126,958
 336,58; 1996,127; 1659,777;-3191,401
 337,18; 1995,256; 1720,779;-2958,592
 337,77; 2006,917; 1782,837;-2098,463
 338,37; 1874,165; 1806,359;-2021,540
 338,97; 1753,107; 1907,384;-2912,402
 339,57; 1764,643; 1862,948;-3044,894
 340,16; 1855,784; 1836,431;-2881,390
 340,76; 1764,026; 1962,712;-3053,314
 341,36; 1768,442; 1861,920;-3195,650
 341,95; 1775,661; 1934,506;-3027,623
 342,55; 1586,579; 1918,998;  703,736
 343,15; 1578,930; 2048,155;-3094,039
 343,74; 1535,588; 1924,644;-2382,298
 344,34; 1711,785; 1860,267;-3015,661
 344,94; 1897,603; 2068,530;-3069,485
 345,53; 1886,479; 2110,769;-2860,447
 346,13; 1733,194; 2174,398;-1283,573
 346,73; 1835,072; 1966,473;-2254,805
 347,32; 1969,977; 2268,649;-3080,871
 347,92; 2054,093; 2312,600;-2277,145
 348,52; 1842,085; 2270,523;-1878,722
 349,11; 1671,287; 2336,551;  975,034
 349,71; 1596,754; 2330,658;-3240,016
 350,31; 1847,288; 2441,387;-2672,237
 350,90; 2015,748; 2483,418;-2326,863
 351,50; 2198,004; 2390,852;-2105,634
 352,10; 2329,081; 2471,119;-3114,840
 352,69; 2321,303; 2532,273;-3182,424
 353,29; 2169,650; 2563,024;-3191,317
 353,89; 1939,344; 2645,527;-3255,104
 354,48; 1808,081; 2693,119;-3208,840
 355,08; 1795,154; 2871,980;-1117,164
 355,67; 1658,074; 2850,042;-2951,417
 356,27; 1643,858; 2839,128;-3232,985
 356,87; 1628,468; 3010,288;-3383,142
 357,46; 1656,784; 3049,431;-2351,390
 358,06; 1762,727; 3306,291;-3073,523
 358,66; 1824,532; 3337,504;-3109,432
 359,25; 2448,292; 3260,792;-2344,119
 359,85; 2828,401; 3365,667;-3215,970
 360,44; 2565,873; 3389,015;-3292,172
 361,04; 2346,930; 3567,155;-2367,039
 361,64; 2365,930; 3696,155;-2309,039
 362,23; 2378,568; 3772,517;-2932,958
 362,83; 2142,200; 3755,639;-2990,726
 363,42; 1990,479; 3938,769;-2836,447
 364,02; 2033,427; 3910,034;-2973,462
 364,62; 1948,194; 3816,398;-2486,573
 365,21; 2026,737; 3857,937;-1741,558
 365,81; 2012,364; 3935,818;-2792,173
 366,40; 1971,628; 3970,062;-2080,707
 367,00; 1949,157; 4021,550;-2952,776
 367,59; 1959,399; 4071,831;-2979,699
 368,19; 2113,307; 4221,678;-3237,306
 368,79; 2027,674; 4198,720;-3125,268
 369,38; 1982,555; 4107,200;-2250,383
 369,98; 1980,996; 4101,940;-2935,940
 370,57; 1938,264; 4188,588;-3331,356
 371,17; 1863,730; 4164,860;-3326,135
 371,76; 1790,186; 4277,486;-3442,879
 372,36; 1887,041; 4057,598;-3195,501
 372,95; 1864,201; 4115,372;  667,934
 373,55; 1874,657; 4105,998;-3393,811
 374,14; 2018,606; 4300,099;-3405,097
 374,74; 2062,387; 4256,514;-3224,124
 375,34; 1994,103; 4286,979;-3189,521
 375,93; 2004,668; 4295,479;-2706,116
 376,53; 1929,005; 4344,585;-3575,974
 377,12; 2051,660; 4405,670;-1465,352
 377,72; 2054,450; 4480,730;-3410,414
 378,31; 2077,909; 4511,027;-2274,699
 378,91; 1971,654; 4291,429;-3262,199
 379,50; 2027,513; 4588,213;-3331,363
 380,10; 2064,548; 4327,226;-3398,890
 380,69; 1991,776; 4094,621;-2343,626
 381,29; 2022,760; 4586,735;-2550,439
 381,88; 1882,573; 4518,758;-1605,111
 382,48; 1864,113; 4519,727;-3286,485
 383,07; 1794,958; 4495,358;-3457,802
 383,67; 1760,573; 4635,758;-1847,111
 384,26; 1764,496; 4667,491;-2467,905
 384,86; 1707,745; 4921,849;-3182,252
 385,45; 1727,941; 4932,636;-3325,344
 386,05; 1769,740; 5073,608;-3419,100
 386,64; 1706,029; 4911,384;-3524,855
 387,24; 1698,076; 5016,878;-2585,688
 387,83; 1696,179; 4993,512;-2489,386
 388,42; 1674,051; 5182,346;-2109,466
 389,02; 1741,796; 5423,748;-3235,966
 389,61; 1694,557; 5688,036;-3413,653
 390,21; 1628,076; 5729,878;-3463,688
 390,80; 1696,677; 5816,392;-3208,810
 391,40; 1656,759; 6137,899;-2293,168
 391,99; 1746,528; 5981,099;-3195,550
 392,59; 1761,620; 6435,252;-2416,943
 393,18; 1676,194; 6683,398;-2491,573
 393,77; 1715,426; 6883,198;-3238,192
 394,37; 1689,624; 7145,657;-2198,825
 394,96; 1787,583; 7098,403;-2296,146
 395,56; 1702,264; 7264,588;-2834,356
 396,15; 1759,681; 6867,797;-3125,692
 396,75; 1813,577; 7343,163;-2889,993
 397,34; 1724,996; 7669,940;-2620,940
 397,93; 1777,649; 7720,188;-3358,047
 398,53; 1812,397; 7595,262;-2525,088
 399,12; 2005,744; 8192,013;-2154,981
 399,72; 2060,081; 8013,119;-2274,840
 400,31; 2031,423; 8034,629;-3169,581
 400,91; 2051,615; 8446,012;-2959,791
 401,50; 2204,426; 8820,198;-2330,192
 402,09; 2291,576; 8550,327;-2894,722
 402,69; 2271,519; 8691,187;-3072,856
 403,28; 2192,142; 9052,663;-2983,588
 403,88; 2234,934; 9162,560; 1927,079
 404,47; 2340,399; 9689,831;  884,300
 405,06; 2354,225; 9684,171;  -68,947
 405,66; 2665,452; 9753,565;-2875,684
 406,25; 2935,674;10085,720;-3119,268
 406,84; 2697,742;10446,177;-2892,711
 407,44; 2481,601;10847,858;-2219,944
 408,03; 2079,087;10422,257;-2906,063
 408,63; 1851,441;10373,085;-3011,379
 409,22; 1996,876;10191,584;-1945,783
 409,81; 1958,304;10681,007;-1849,765
 410,41; 2035,923;11553,078;-2857,615
 411,00; 1948,424;11336,362;-1814,921
 411,59; 1940,289;11251,120;-2826,578
 412,19; 2035,388;11468,350;-2245,394
 412,78; 1898,627;11399,226;-2830,436
 413,37; 1872,154;12151,878;-2704,234
 413,97; 1801,257;12410,512;-2618,933
 414,56; 1874,740;12071,506;-2503,169
 415,15; 1833,884;12410,394;-2121,547
 415,75; 1792,278;12408,639;-2698,272
 416,34; 1859,828;12590,254;-1893,681
 416,93; 1897,541;12922,047;-2777,536
 417,53; 2046,173;12696,169;-1423,303
 418,12; 2083,853;12570,785;-2217,903
 418,71; 1953,602;12907,592;-2673,285
 419,31; 1961,810;13054,695;-1884,952
 419,90; 1936,489;13470,313;-2786,552
 420,49; 1928,323;13619,298;-1733,834
 421,08; 1928,323;14201,298;-1674,834
 421,68; 2007,085;14723,421;-1908,792
 422,27; 1918,607;14035,832;-2004,437
 422,86; 2016,613;13874,073; -437,590
 423,46; 1978,332;14080,107;-2575,598
 424,05; 2068,321;14376,626;-2928,293
 424,64; 2275,110;13888,953;-2640,014
 425,24; 2207,555;14092,098;-2903,453
 425,83; 2124,071;13992,269;-2680,945
 426,42; 2245,321;12987,626;-2760,293
 427,01; 3155,917;13424,734;-2674,533
 427,61; 3434,844;14347,873;-2609,209
 428,20; 2469,827;14036,151;-1764,751
 428,79; 2114,008;14414,052;-2859,656
 429,38; 2100,668;14092,377;-1781,186
 429,98; 1991,113;14922,521; -994,625
 430,57; 2112,844;15058,873;-2193,209
 431,16; 2069,574;14580,389;-2784,522
 431,75; 2123,692;14357,909; -561,407
 432,35; 2226,916;13435,899;-1951,262
 432,94; 2240,546;14429,186;-2324,759
 433,53; 2284,538;14560,375;-1152,995
 434,12; 2462,402;14431,298;-2267,381
 434,72; 2504,121;14188,331;-1413,389
 435,31; 2545,147;14167,699; 7395,119
 435,90; 2561,318;14308,954; 8338,249
 436,49; 2456,815;13427,834; -683,175
 437,08; 2574,059;13895,951; -675,370
 437,68; 2851,297;14442,827;-2987,412
 438,27; 2593,689;14610,237;-2610,866
 438,86; 2260,686;14612,832;-1147,984
 439,45; 2054,286;15313,346;-1937,106
 440,05; 1936,622;15955,616;-2982,694
 440,64; 1852,958;15054,886;-1902,282
 441,23; 1943,450;14152,525;-1415,553
 441,82; 1922,136;13700,218;-2631,576
 442,41; 1603,926;14351,277;-3014,637
 443,00; 1603,065;13625,925;-2724,863
 443,60; 1601,570;14373,881;-3136,710
 444,19; 1611,745;15026,541;-1440,462
 444,78; 1581,906;14960,151;-3012,298
 445,37; 1533,480;15728,297;-2522,928
 445,96; 1551,596;15331,249;-3116,202
 446,56; 1499,227;15596,535;-1144,698
 447,15; 1514,542;16225,678; -884,947
 447,74; 1515,594;17097,412;-2709,931
 448,33; 1559,251;16443,066;-1985,920
 448,92; 1463,796;15422,440;-2964,176
 449,51; 1440,599;15095,817;-2848,813
 450,10; 1835,158;15133,078;-3063,256
 450,70; 2417,231;14904,939;-1957,581
 451,29; 1982,272;15329,193;-1112,260
 451,88; 1628,024;15513,671;-2929,183
 452,47; 1672,345;16565,055;-2795,584
 453,06; 1913,457;16495,498;-2401,047
 453,65; 2191,130;16071,874;-2873,493
 454,24; 1879,545;17329,246;-2173,558
 454,84; 1500,567;17793,209;-1379,168
 455,43; 1454,198;18732,496;-2219,665
 456,02; 1431,032;18879,480;-2927,947
 456,61; 1362,220;17317,459;-2925,275
 457,20; 1384,788;16921,363;-2786,753
 457,79; 1698,430;17588,131;-2922,554
 458,38; 2538,839;18338,264;-2132,467
 458,97; 2378,642;18039,641;-2515,104
 459,56; 1669,773;18190,479;-2760,565
 460,16; 1539,451;17832,258;-2082,894
 460,75; 1535,881;18157,518;-2072,146
 461,34; 1484,166;18077,887;-2962,020
 461,93; 1419,703;18381,186;-2200,853
 462,52; 1656,875;19333,275;-2744,993
 463,11; 1576,397;20546,688;-1989,639
 463,70; 1799,772;19458,643;-2869,295
 464,29; 2541,625;19945,082;-3150,376
 464,88; 3981,771;20795,807;-2743,024
 465,47; 3254,652;19885,285;-2748,139
 466,06; 2001,469;20915,713;-3191,692
 466,65; 1950,283;21667,572;-3018,635
 467,24; 2200,137;22030,848;-2539,986
 467,84; 2057,020;22443,164;-2020,371
 468,43; 1844,035;22325,051;-2238,559
 469,02; 1802,538;23517,170;-2702,135
 469,61; 2150,921;24168,936;-2593,555
 470,20; 2345,071;23781,063;-2841,085
 470,79; 2045,049;22760,100;-3232,475
 471,38; 1570,686;25266,463;-2192,395
 471,97; 1518,022;26009,732; -666,983
 472,56; 1431,115;25472,887;-3035,376
 473,15; 1413,028;25296,975;-2825,135
 473,74; 1402,525;26395,854;-3106,559
 474,33; 1433,007;25866,848;-2957,796
 474,92; 1391,572;27630,348;-3146,391
 475,51; 1570,229;29609,002;-2873,380
 476,10; 1625,064;29847,986;-3011,662
 476,69; 1772,306;26101,268;-2855,586
 477,28; 1758,474;25846,955;-2956,845
 477,87; 1644,732;27035,121; -173,956
 478,46; 1768,591;28695,639;-3029,460
 479,05; 2033,919;30507,100;-2134,284
 479,64; 2030,835;31679,756;-2718,655
 480,23; 1724,182;29541,508;-2845,548
 480,82; 1781,841;28549,996;-2736,807
 481,41; 1769,441;29371,510;-1873,929
 482,00; 1821,985;29284,885;-1364,185
 482,59; 1846,970;29593,998;-2298,998
 483,18; 1736,364;31702,244;-2376,723
 483,77; 1802,026;31703,139;-2193,865
 484,36; 1817,229;32475,002;-1701,380
 484,95; 1869,492;32990,410; -788,643
 485,54; 1922,689;35331,031;-1371,006
 486,13; 2271,711;35762,996; -945,616
 486,72; 2240,897;34334,137;  148,326
 487,31; 1998,730;31046,285;-1109,686
 487,89; 1851,073;32608,633; -193,697
 488,48; 2084,969;33798,164;-1523,728
 489,07; 2182,387;32913,941;-1248,674
 489,66; 2251,109;33511,645;-1505,224
 490,25; 2581,766;31095,299; -660,212
 490,84; 3007,773;34127,375;-1683,635
 491,43; 3404,296;34965,621; -701,552
 492,02; 3512,627;36094,652;-1864,987
 492,61; 3410,280;35362,902;-1043,094
 493,20; 3400,916;33776,426;-2019,743
 493,79; 3521,434;32749,434; 4824,494
 494,38; 3192,595;33706,043;-1938,342
 494,97; 3146,869;32583,934; -629,911
 495,55; 2934,672;34690,309;-2325,548
 496,14; 2786,995;35087,531;-2403,220
 496,73; 2674,973;35451,566;-1952,609
 497,32; 2494,361;34211,570;-2587,182
 497,91; 2493,035;35005,949;-1921,629
 498,50; 2486,558;34165,195;-2912,544
 499,09; 2415,361;34554,570;-3088,182
 499,68; 2460,667;32403,070;-2405,396
 500,27; 2530,951;33321,605;-2490,999
 500,85; 2642,594;32655,207;-2604,071
 501,44; 2742,132;32478,342;-2576,175
 502,03; 2646,247;33194,457;-3368,178
 502,62; 2471,537;31275,068;-3438,205
 503,21; 2590,288;29432,711;-3532,858
 503,80; 2354,997;32028,100;-2976,831
 504,39; 2212,551;32451,119;-3458,121
 504,97; 2316,754;31774,982;-3577,636
 505,56; 2564,785;31537,590;-2979,281
 506,15; 2564,744;32302,336;-3991,602
 506,74; 2747,986;32557,617;-2945,526
 507,33; 2787,484;32185,498;-3165,949
 507,92; 2787,992;33952,859;-3871,678
 508,51; 2466,106;35926,973;-3735,682
 509,09; 2376,022;34536,629;-3921,053
 509,68; 3380,390;34318,508;-3748,286
 510,27; 5252,700;33667,410;-3799,381
 510,86; 4003,125;32572,264;-4081,751
 511,45; 2401,519;33677,512;-3843,476
 512,03; 2224,862;34524,855;-3829,488
 512,62; 2284,200;36240,961;-3780,346
 513,21; 2393,632;33870,789;-3186,209
 513,80; 3004,938;34644,289;-3501,423
 514,39; 5430,975;32752,137;-3905,221
 514,97; 7991,985;35347,781;-4095,255
 515,56; 5979,756;34167,551;-4198,248
 516,15; 2817,227;35428,063;-3955,179
 516,74; 2151,398;32584,318;-4420,049
 517,33; 1977,424;33459,688;-3549,542
 517,91; 1952,865;33935,426;-4188,099
 518,50; 2019,276;32563,393;-3264,282
 519,09; 2234,416;33942,875;-3157,778
 519,68; 2719,332;35231,531;-4286,148
 520,26; 3521,368;38679,547;-4232,675
 520,85; 6605,482;39452,660;-4352,679
 521,44;11756,393;40826,078;-4358,897
 522,03; 8845,850;39485,539;-4271,912
 522,61; 3170,393;36773,078;-4364,897
 523,20; 2114,299;33924,090;-4337,233
 523,79; 1801,864;32040,590;-4337,828
 524,38; 1676,377;32850,191;-4344,709
 524,96; 1573,895;35883,199;-4321,473
 525,55; 1505,678;36021,449;-4542,771
 526,14; 1273,402;34018,723;-4434,931
 526,73; 1360,134;32852,074;-4389,515
 527,31; 1243,786;32903,324;-4488,622
 527,90; 1296,678;33630,449;-4564,771
 528,49; 1623,207;34155,938;-2529,839
 529,08; 2041,470;34601,344;-3467,103
 529,66; 1753,419;34848,445;-3911,389
 530,25; 1246,999;35279,832;-4414,172
 530,84; 1204,729;35334,348;-4583,485
 531,42; 1169,723;38583,105;-4365,332
 532,01; 1098,267;37528,480;-4291,588
 532,60; 1069,018;34512,125;-4473,241
 533,18;  962,169;35538,086;-4078,042
 533,77; 1069,961;34969,984;-4236,374
 534,36; 1043,231;34459,469;-4374,061
 534,95; 1192,879;35483,477;-4088,015
 535,53; 1310,428;34236,090; -974,424
 536,12; 1140,314;36469,977;-2657,420
 536,71; 1135,355;36511,230;-3869,099
 537,29; 1101,324;36073,621;-3618,454
 537,88; 1151,393;33908,078;-3454,897
 538,47; 1210,718;32497,867;-2840,180
 539,05; 1252,003;36837,238;-2139,054
 539,64; 1155,307;40414,898;-1785,997
 540,22; 1117,230;37414,633; -764,790
 540,81; 1133,639;37501,766; 1008,297
 541,40; 1028,971;39018,629; 3425,591
 541,98;  995,614;38188,230; 4858,519
 542,57; 1123,314;39368,977; 4597,580
 543,16; 1088,676;38645,613; 4952,500
 543,74; 1115,138;35774,480; 4083,603
 544,33;  990,142;36297,883; 3620,721
 544,92; 1004,401;37217,887; 3973,339
 545,50; 1099,785;37338,488;11456,648
 546,09; 1188,408;40064,965;11359,916
 546,67; 1159,532;41948,727; 2857,878
 547,26; 1026,558;40050,094; -202,615
 547,85; 1003,167;39208,414; -567,501
 548,43; 1042,583;38452,625; -849,836
 549,02;  988,650;39427,246;-1040,008
 549,60;  990,821;40570,500; -984,878
 550,19;  993,997;41166,996;-2192,901
 550,78;  937,494;42660,875;-2328,325
 551,36;  948,960;45349,148;-2432,104
 551,95;  937,200;45443,859; -585,416
 552,53;  994,945;43280,262; -296,916
 553,12; 1080,234;41420,035;-3431,672
 553,70; 1094,446;43188,547;-2878,222
 554,29; 1055,033;44058,008;-2869,428
 554,88;  929,078;41831,668;-4247,989
 555,46;  972,587;43723,027;-3881,718
 556,05;  962,308;45007,734;-4207,268
 556,63;  928,333;45206,266;-3396,489
 557,22;  901,982;43875,109;-3394,714
 557,80;  928,380;41749,762;-3568,321
 558,39;  942,909;44188,250;-4145,390
 558,97;  847,271;47993,887;-3699,470
 559,56;  932,054;49889,137;-4544,768
 560,15;  898,660;50117,891;-3611,042
 560,73;  951,478;49814,152;-4287,867
 561,32; 1006,547;47024,609;-3741,309
 561,90;  949,213;46041,910;-4382,333
 562,49; 1018,671;48487,371;-3786,348
 563,07; 1003,706;48074,387;-4783,875
 563,66; 1073,924;50064,133;-4352,577
 564,24; 1047,572;49228,145;-4763,531
 564,83; 1028,819;51344,664;-4603,607
 565,41; 1056,800;53840,375;-4329,539
 566,00; 1005,255;52202,164;-2755,012
 566,58; 1116,930;56465,375;-3725,729
 567,17; 1022,339;56909,508;-4280,642
 567,75; 1029,976;52392,871;-4653,562
 568,34; 1005,157;55893,770;-3216,466
 568,92;  986,840;55738,793;-3987,947
 569,51; 1411,919;54852,895; 2680,576
 570,09; 1388,224;58247,391;-4676,638
 570,68; 1049,958;53188,313;-4788,833
 571,26;  903,521;50733,242;-3886,817
 571,85;  894,567;57347,738;-4822,649
 572,43;  897,189;57011,379;-4704,111
 573,01;  837,059;52662,375;-4873,920
 573,60;  858,292;53819,012;-3785,810
 574,18;  879,945;55122,262;-4514,917
 574,77;  846,110;53284,277;-4737,634
 575,35;  874,292;56113,012;-4452,810
 575,94;  895,027;57300,770;-4076,275
 576,52;  858,463;54049,270;-2249,680
 577,11; 1058,664;51620,297;-3244,924
 577,69; 2331,094;48685,555;-3183,176
 578,27; 2349,997;51008,996;-3447,901
 578,86; 1060,317;55198,543;-2994,031
 579,44;  853,645;60080,004;-2805,855
 580,03;  866,183;60164,137;-2493,958
 580,61;  866,722;60267,270;-3206,062
 581,19;  798,913;56429,652;-2538,271
 581,78;  859,394;55361,813;-2364,238
 582,36;  857,716;57656,031;-2911,909
 582,95;  849,773;56180,172;-1497,776
 583,53;  848,799;59586,539;-2319,268
 584,11;  885,012;61608,883;-2241,088
 584,70;  947,431;61691,660;-1948,035
 585,28;  957,872;62070,398;-1853,592
 585,87;  820,638;60436,930;-2889,432
 586,45;  778,317;63023,543;-2375,031
 587,03;  753,202;64945,430;-1150,027
 587,62;  772,877;61494,641;-1834,745
 588,20;  787,887;62236,285;-1020,779
 588,78;  851,724;58157,840;-3411,673
 589,37;  877,463;57765,270;-3360,680
 589,95;  825,286;62238,773;-3385,657
 590,54;  796,928;63633,539;-3461,459
 591,12;  776,052;62116,301;-3508,497
 591,70;  811,581;59586,789;-3331,565
 592,29;  750,746;62881,805;-2923,283
 592,87;  834,800;63542,375;-2394,538
 593,45;  781,617;63404,801; 1487,908
 594,04;  839,197;62800,188;-3676,875
 594,62;  811,213;59709,910;-3708,333
 595,20;  833,688;62066,828;-4371,146
 595,79;  844,757;62681,285;-4165,588
 596,37;  861,093;61108,555;-3657,176
 596,95;  734,384;56922,164;-4321,203
 597,53;  800,157;58806,770;-4226,466
 598,12;  784,120;61848,922;-3959,669
 598,70;  789,410;64932,531;-3776,695
 599,28;  859,800;64911,375;-3404,538
 599,87;  798,804;64929,777;-3061,420
 600,45;  872,405;64938,293;-3907,543
 601,03;  817,063;63145,781;-4100,802
 601,62;  755,197;61727,188;-4468,875
 602,20;  760,908;59786,414;-4541,119
 602,78;  778,953;64399,070;-4770,680
 603,36;  733,182;64783,301;-3166,688
 603,95;  765,110;58863,277;-4492,634
 604,53;  725,498;62401,281;-4574,207
 605,11;  725,686;59505,258;-2755,535
 605,69;  744,737;62362,156;-3365,249
 606,28;  789,746;62594,805;-4223,283
 606,86;  787,684;61629,422;-3946,264
 607,44;  750,446;60431,547;-3906,222
 608,02;  747,876;58047,805;-4037,474
 608,61;  754,078;60099,668;-2866,989
 609,19;  751,425;58582,418;-2582,882
 609,77;  811,555;57398,422; -710,073
 610,35;  859,452;55748,785; 5794,625
 610,94;  857,379;56509,926;14509,949
 611,52;  773,078;55803,668;12610,011
 612,10;  746,968;53026,957; 8432,133
 612,68;  689,191;56637,949; 2694,278
 613,26;  638,964;57037,551; 2032,015
 613,85;  658,508;61759,926; -599,241
 614,43;  769,731;62306,918;-1030,096
 615,01;  645,103;62272,199;-1215,211
 615,59;  685,383;64874,328; -972,932
 616,17;  745,654;59402,648;-2561,890
 616,76;  767,271;62178,887;-2993,470
 617,34;  845,479;62666,988;-2389,138
 617,92;  777,157;58547,770;-3399,466
 618,50;  750,913;61202,652;-2562,271
 619,08;  805,846;57928,031;-2514,100
 619,67;  815,255;55968,164;-3196,012
 620,25;  785,877;54290,641;-2743,745
 620,83;  773,405;50498,293;-3495,543
 621,41;  901,358;52314,797;-2800,711
 621,99;  826,337;54560,672;-2529,371
 622,57;  846,313;55529,141;-3707,149
 623,15;  803,706;56213,387;-3783,875
 623,74;  821,344;58266,746;-3892,794
 624,32;  787,992;59330,754;-2827,749
 624,90;  789,436;58625,898;-2311,188
 625,48;  779,752;57897,043;-3132,436
 626,06;  851,224;56898,391;-4006,638
 626,64;  767,645;57787,004;-4162,855
 627,22;  711,939;58993,020;-3409,764
 627,81;  737,500;58046,117;-4334,478
 628,39;  690,701;57121,145;-4560,722
 628,97;  772,534;56597,293;-4437,733
 629,55;  783,474;55377,750;-4219,985
 630,13;  787,722;55669,270;-2959,062
 630,71;  710,789;54162,891;-2747,233
 631,29;  738,110;53129,277;-3824,634
 631,87;  633,209;52776,504;-4223,451
 632,45;  681,654;52786,648;-4716,890
 633,03;  655,691;54183,500;-4191,688
 633,62;  683,498;55423,281;-4714,207
 634,20;  694,902;54882,172;-4089,966
 634,78;  686,256;56497,000;-4430,283
 635,36;  653,395;56701,648;-4449,508
 635,94;  668,577;55183,383;-5398,684
 636,52;  674,136;51027,645;-5422,126
 637,10;  620,384;52116,164;-5488,203
 637,68;  566,022;50694,527;-4702,123
 638,26;  599,603;47618,750;-5536,176
 638,84;  592,695;48688,902;-5421,569
 639,42;  596,384;49235,164;-3756,203
 640,00;  604,698;51366,148;-5405,726
 640,58;  619,478;54579,402;-4806,027
 641,16;  601,258;55521,656;-5571,328
 641,74;  649,037;53214,906;-5433,630
 642,32;  533,817;50106,160;-5620,931
 642,90;  597,597;50434,414;-5856,232
 643,48;  603,376;49231,668;-5786,534
 644,06;  648,156;49280,922;-5796,835
 644,64;  575,936;49595,176;-5842,137
 645,22;  455,715;50513,430;-5562,438
 645,80;  555,495;50547,684;-4957,740
 646,39;  530,275;48107,938;-5515,041
 646,97;  515,054;49773,191;-5850,342
 647,54;  512,834;52328,441;-5717,644
 648,12;  508,614;54879,695;-5865,945
 648,70;  524,393;58954,949;-5885,247
 649,28;  511,173;56421,203;-6090,548
 649,86;  501,953;51091,457;-5609,850
 650,44;  544,732;48619,711;-5452,151
 651,02;  556,512;49970,965;-5474,452
 651,60;  462,292;51793,219;-5803,753
 652,18;  481,071;51320,473;-4735,055
 652,76;  436,851;53277,723;-5934,356
 653,34;  453,631;54817,977;-5939,658
 653,92;  445,410;57729,230;-5784,959
 654,50;  524,190;59042,484;-5818,261
 655,08;  543,970;58048,738;-5841,562
 655,66;  545,749;55058,992;-5115,863
 656,24;  539,529;56743,246;-5200,165
 656,82;  617,309;58989,500;-4979,466
 657,40;  529,088;58967,754;-5667,768
 657,98;  494,868;60169,008;-5486,069
 658,56;  529,648;61114,258;-5717,371
 659,14;  458,427;61380,512;-5913,672
 659,72;  477,207;63381,766;-5916,973
 660,29;  438,987;62437,020;-5907,275
 660,87;  459,766;59738,273;-5212,576
 661,45;  446,546;58590,527;-5664,877
 662,03;  489,326;57513,781;-4971,179
 662,61;  450,105;54945,035;-5638,480
 663,19;  482,885;54618,289;-5657,782
 663,77;  465,665;53917,543;-5939,083
 664,35;  354,444;56689,793;-5887,384
 664,93;  436,224;62595,047;-4922,686
 665,51;  428,004;61993,301;-6033,987
 666,08;  458,783;57747,555;-5652,289
 666,66;  465,563;51859,809;-4400,590
 667,24;  466,343;49420,063;-5952,892
 667,82;  393,122;50250,316;-5849,193
 668,40;  406,902;50723,570;-5932,494
 668,98;  425,682;51952,824;-5097,796
 669,56;  395,461;57957,078;-6096,097
 670,13;  381,241;61797,328;-6222,398
 670,71;  369,021;59698,582;-5900,700
 671,29;  415,800;57209,836;-6139,001
 671,87;  398,580;56814,090;-6051,303
 672,45;  377,360;51822,344;-6050,604
 673,03;  502,139;52592,598;-4769,906
 673,60;  545,919;58431,852;-3503,207
 674,18;  573,699;63679,105;-5938,508
 674,76;  546,478;61159,359;-6226,810
 675,34;  508,258;56361,613;-5251,111
 675,92;  432,038;55284,863;-6338,413
 676,50;  461,817;55051,117;-6085,714
 677,07;  355,597;56952,371;-6095,016
 677,65;  412,377;56680,625;-6163,317
 678,23;  329,156;55997,879;-5057,618
 678,81;  404,936;58016,133;-5299,919
 679,38;  415,716;56669,387;-5969,221
 679,96;  350,495;53267,641;-5846,522
 680,54;  396,275;55171,895;-5308,824
 681,12;  339,055;52485,148;-6126,125
 681,70;  368,835;54786,398;-4413,427
 682,27;  353,614;54740,652;-5851,728
 682,85;  325,394;58265,906;-5991,029
 683,43;  348,174;64943,160;-6140,331
 684,01;  328,953;64943,414;-5172,632
 684,58;  333,733;64307,668;-5138,934
 685,16;  348,513;64236,922;-4494,235
 685,74;  400,292;62790,176;-3853,536
 686,32;  339,072;59009,430;-6012,838
 686,89;  345,852;59552,684;-6015,139
 687,47;  339,631;59534,934;-6076,441
 688,05;  385,411;56416,188;-6019,742
 688,63;  349,191;59626,441;-6102,043
 689,20;  393,970;62884,695;-5971,345
 689,78;  385,750;58427,949;-5530,646
 690,36;  396,530;54291,203;-5381,948
 690,93;  377,309;54968,457;-6355,249
 691,51;  443,089;61453,711;-6326,550
 692,09;  388,869;64946,965;-6223,852
 692,67;  390,648;64947,219;-6047,153
 693,24;  292,428;60968,469;-5803,455
 693,82;  352,208;59538,723;-6235,756
 694,40;  408,987;58049,977;-3570,058
 694,97;  301,767;57456,230;-6046,359
 695,55;  322,547;59820,484;-5464,660
 696,13;  367,326;61729,738;-4454,962
 696,70;  327,106;58594,992;-6029,263
 697,28;  301,886;59108,246;-6266,564
 697,86;  319,665;60837,500;-6030,866
 698,43;  378,445;58827,754;-6198,167
 699,01;  360,225;55595,004;-6051,469
 699,59;  320,004;55751,258;-6402,770
 700,16;  329,784;54174,512;-5257,072
 700,74;  320,564;57040,766;-5497,373
 701,32;  277,343;56440,020;-6233,674
 701,89;  294,123;55792,273;-6049,976
 702,47;  311,903;60296,527;-6466,277
 703,05;  320,682;64951,781;-6309,579
 703,62;  288,462;64952,035;-6227,880
 704,20;  262,242;64952,285;-5306,182
 704,77;  323,021;64952,539;-6118,483
 705,35;  265,801;64213,793;-6006,784
 705,93;  281,581;64327,047;-4922,085
 706,50;  283,360;63796,301;-5267,387
 707,08;  278,140;60606,555;-5284,688
 707,65;  304,920;60046,809;-5620,990
 708,23;  317,699;64881,063;-5431,292
 708,81;  283,479;64954,316;-5019,593
 709,38;  320,259;64954,570;-5001,894
 709,96;  350,038;64954,820;-6025,195
 710,53;  266,818;64955,074;-6007,497
 711,11;  305,598;61503,328;-5752,798
 711,69;  330,377;61913,582;-3821,100
 712,26;  280,157;59012,836;-4642,401
 712,84;  240,937;63346,090;-5947,703
 713,41;  265,716;64411,344;-6153,004
 713,99;  286,496;64924,598;-6068,305
 714,56;  313,276;62057,852;-6326,607
 715,14;  304,055;60312,105;-6198,908
 715,71;  323,835;60246,355;-6210,209
 716,29;  320,615;62893,609;-6648,511
 716,86;  212,394;63573,863;-6510,813
 717,44;  290,174;63263,117;-6424,114
 718,02;  244,954;62110,371;-6462,415
 718,59;  266,733;61013,625;-5121,716
 719,17;  289,513;63488,879;-5649,018
 719,74;  307,293;62907,133;-5756,319
 720,32;  230,072;63502,387;-6451,621
 720,89;  212,852;64959,641;-6422,922
 721,47;  239,632;64959,891;-6388,224
 722,04;  293,411;64960,145;-5502,525
 722,62;  272,191;64252,398;-3979,826
 723,19;  268,971;60250,652;-4938,128
 723,77;  286,750;57638,906;-5673,429
 724,34;  329,530;60150,160;-5576,730
 724,92;  302,310;63789,414;-6558,032
 725,49;  288,089;64961,668;-5666,333
 726,07;  271,869;64961,922;-6491,635
 726,64;  284,649;64627,176;-6587,936
 727,21;  256,428;60249,426;-5627,238
 727,79;  208,208;63706,680;-6444,539
 728,36;  328,988;64962,934;-6722,840
 728,94;  310,767;64963,188;-6535,142
 729,51;  271,547;64963,441;-6365,443
 730,09;  305,327;64963,695;-5545,745
 730,66;  265,106;64963,949;-6358,046
 731,24;  290,886;64964,203;-6577,348
 731,81;  353,666;64964,457;-5151,649
 732,38;  348,445;64964,711;-6492,950
 732,96;  309,225;64964,961;-6263,251
 733,53;  317,005;60347,215;-6389,553
 734,11;  315,784;61575,469;-6617,854
 734,68;  352,564;64965,723;-6211,156
 735,26;  300,344;64965,977;-6389,458
 735,83;  322,124;64966,230;-6498,759
 736,40;  333,903;62243,484;-6516,060
 736,98;  385,683;61999,738;-6374,361
 737,55;  341,462;59236,992;-5827,663
 738,13;  333,242;57707,246;-5702,964
 738,70;  408,022;60991,496;-5529,266
 739,27;  373,802;62504,750;-6452,567
 739,85;  411,581;62745,004;-6283,869
 740,42;  423,361;64968,258;-6464,170
 740,99;  389,141;64968,512;-5618,471
 741,57;  426,920;64968,766;-4867,773
 742,14;  461,700;64969,020;-5349,074
 742,72;  430,480;64969,273;-4751,375
 743,29;  420,259;64969,527;-6563,677
 743,86;  461,039;64969,781;-6538,979
 744,44;  487,819;64970,031;-6113,280
 745,01;  460,598;64970,285;-5760,581
 745,58;  389,378;64970,539;-6259,882
 746,16;  420,158;64970,793;-6188,184
 746,73;  463,937;64971,047;-6479,485
 747,30;  387,717;61139,301;-6536,787
 747,88;  439,497;59621,555;-5621,088
 748,45;  428,276;64971,809;-5668,390
 749,02;  469,056;64972,063;-6384,691
 749,60;  408,836;62401,313;-6212,992
 750,17;  418,615;61766,566;-5269,294
 750,74;  482,395;62801,820;-6479,595
 751,31;  505,175;63306,074;-6347,896
 751,89;  486,954;64232,328;-6546,198
 752,46;  548,734;64973,582;-6282,500
 753,03;  497,514;64973,836;-6160,801
 753,61;  517,293;63755,090;-4858,102
 754,18;  445,073;64573,344;-6434,404
 754,75;  481,853;63888,598;-5191,705
 755,32;  486,632;60715,848;-6332,006
 755,90;  450,412;64975,102;-6493,308
 756,47;  468,192;64975,355;-4809,609
 757,04;  521,971;64975,609;-6457,911
 757,61;  450,751;64975,863;-5553,212
 758,19;  420,531;64976,117;-5253,514
 758,76;  362,310;64976,371;-6603,815
 759,33;  367,090;64976,625;-6664,116
 759,90;  331,870;64976,879;-5714,417
 760,48;  298,649;64977,133;-6778,719
 761,05;  327,429;64977,383;-6083,021
 761,62;  328,209;62082,637;-4888,322
 762,19;  259,988;58992,891;-6144,624
 762,77;  330,768;61730,145;-5963,925
 763,34;  323,548;64978,398;-6610,226
 763,91;  330,327;64978,652;-5818,527
 764,48;  366,107;64978,906;-6756,829
 765,05;  279,887;64979,160;-6543,130
 765,63;  259,666;63215,414;-6417,432
 766,20;  325,446;59753,668;-6004,733
 766,77;  271,226;57105,918;-5921,035
 767,34;  237,005;58807,172;-6640,336
 767,91;  253,785;59176,426;-6689,637
 768,49;  241,565;61368,680;-6772,939
 769,06;  268,344;64980,934;-5832,240
 769,63;  251,124;62272,188;-6636,542
 770,20;  263,904;59567,441;-5868,843
 770,77;  231,683;57921,695;-5645,145
 771,34;  207,463;60065,949;-6615,446
 771,91;  241,243;60549,203;-6102,747
 772,49;  266,022;58558,453;-6369,048
 773,06;  220,802;57687,707;-6203,350
 773,63;  218,582;60204,961;-6639,651
 774,20;  272,361;58197,215;-5918,953
 774,77;  303,141;56475,469;-6631,254
 775,34;  280,921;56707,723;-6214,556
 775,91;  356,700;57056,977;-6417,857
 776,49;  551,480;58787,230;-6590,158
 777,06;  692,260;60761,484;-6015,460
 777,63;  609,039;64224,738;-6367,761
 778,20;  401,819;62572,988;-6250,063
 778,77;  307,599;63316,242;-5763,364
 779,34;  259,378;64985,496;-6585,666
 779,91;  317,158;64985,750;-6534,967
 780,48;  237,938;59144,004;-5853,268
 781,05;  279,717;50716,258;-6586,570
 781,62;  358,497;52124,512;-6604,871
 782,20;  352,277;58813,766;-6500,172
 782,77;  285,056;64987,020;-6529,474
 783,34;  257,836;64052,273;-6522,775
 783,91;  222,616;61362,523;-6509,077
 784,48;  211,395;60480,777;-2126,378
 785,05;  230,175;59144,031;-6540,680
 785,62;  238,955;58221,285;-6452,981
 786,19;  294,734;58149,539;-5100,282
 786,76;  251,514;55130,793;-6677,583
 787,33;  265,294;56202,047;-6515,885
 787,90;  309,073;59491,301;-6591,187
 788,47;  286,853;60148,555;-5075,488
 789,04;  320,633;58988,809;-5763,790
 789,61;  303,412;58863,059;-5066,091
 790,18;  268,192;55747,313;-6561,392
 790,75;  267,972;50841,566;-6671,693
 791,32;  286,751;52056,820;-6577,995
 791,89;  275,531;55205,074;-6068,296
 792,46;  614,311;60806,328;-5763,598
 793,03; 1065,090;62404,582;-6702,899
 793,60;  946,870;55699,836;-6440,201
 794,17;  523,650;52257,090;-5569,502
 794,74;  382,430;47273,344;-5886,803
 795,31;  263,209;50096,594;-6099,105
 795,88;  268,989;52579,848;-5572,406
 796,45;  179,769;53365,102;-6529,708
 797,02;  189,548;56004,355;-5046,009
 797,59;  161,328;57922,609;-6675,311
 798,16;  215,108;54563,863;-5861,612
 798,73;  183,887;53534,117;-6761,913
 799,30;  161,667;55088,371;-6611,214
 799,87;  126,447;55650,625;-6713,516
 800,44;  142,226;55353,875;-6729,817
 801,01;  171,006;56836,129;-6807,119
 801,58;  166,786;58477,383;-6537,420
 802,15;  143,565;52086,637;-6658,722
 802,72;  132,345;48849,891;-6694,023
 803,28;  158,125;52000,145;-6076,324
 803,85;  161,904;57179,398;-6728,626
 804,42;  181,684;55235,652;-5999,927
 804,99;  178,464;53752,906;-6539,229
 805,56;  172,243;52472,160;-6770,530
 806,13;  153,023;53387,410;-6075,832
 806,70;  182,803;52719,664;-6748,133
 807,27;  222,582;54477,918;-6672,434
 807,84;  239,362;52786,172;-6693,736
 808,41;  622,142;49728,426;-6022,037
 808,98; 1437,921;50479,680;-5986,338
 809,54; 1210,701;52469,934;-4958,640
 810,11;  520,481;48281,188;-6782,941
 810,68;  267,260;43021,441;-6680,243
 811,25;  196,040;41394,695;-6760,544
 811,82;  173,820;40374,945;-6886,846
 812,39;  102,599;37710,199;-3331,147
 812,96;  165,379;38779,453;-6767,448
 813,52;  148,159;41291,707;-6937,750
 814,09;  140,938;44522,961;-6766,051
 814,66;   95,718;50325,215;-6827,353
 815,23;  107,498;51240,469;-6669,654
 815,80;  105,277;50439,723;-5853,956
 816,37;  118,057;50917,977;-6801,257
 816,93;  134,837;49487,230;-6731,558
 817,50;  169,616;46790,480;-6102,859
 818,07;  211,396;46034,734;-6960,161
 818,64;  188,176;46919,988;-6856,462
 819,21;  174,955;46261,242;-6053,764
 819,77;  240,735;42742,496;-6571,065
 820,34;  150,515;42053,750;-6677,367
 820,91;  247,294;43276,004;-6469,668
 821,48;  243,074;43873,258;-6689,969
 822,05;  262,854;45571,512;-5875,271
 822,61;  193,633;44296,766;-5631,572
 823,18;  232,413;41860,016;-6620,874
 823,75;  208,193;42585,270;-6957,175
 824,32;  143,972;45286,523;-6923,477
 824,88;  177,752;45073,777;-6882,778
 825,45;  115,532;44018,031;-6899,079
 826,02;  126,311;43798,285;-6643,380
 826,59;  168,091;43974,539;-6639,682
 827,15;  125,871;46077,793;-6906,983
 827,72;   84,650;49519,047;-6723,285
 828,29;  107,430;51523,301;-6895,586
 828,86;  115,210;48827,551;-6791,888
 829,42;   39,989;40797,805;-6812,189
 829,99;   84,769;36802,059;-6647,490
 830,56;   57,549;36252,313;-6869,792
 831,13;   61,328;37220,566;-6060,093
 831,69;   73,108;38022,820;-6506,395
 832,26;   40,888;38832,074;-5062,696
 832,83;   61,667;40408,328;-5452,998
 833,39;   97,447;40187,582;-6904,299
 833,96;   87,227;39167,836;-6687,600
 834,53;   49,006;40039,086;-6928,902
 835,10;   48,786;39930,340;-6529,203
 835,66;   19,566;38972,594;-6920,504
 836,23;   91,345;39801,848;-6803,806
 836,80;   18,125;39428,102;-6790,107
 837,36;   50,905;37086,355;-6810,409
 837,93;   48,684;34475,609;-6902,710
 838,50;  115,464;35084,863;-6789,012
 839,06;   59,244;37684,117;-6288,313
 839,63;   35,023;37191,371;-6895,614
 840,19;   72,803;35132,621;-6607,916
 840,76;   47,583;35364,875;-6404,217
 841,33;   61,362;35892,129;-6509,519
 841,89;   91,142;36779,383;-6949,820
 842,46;   72,922;37103,637;-6751,122
 843,03;   71,701;35389,891;-6089,423
 843,59;   56,481;34224,145;-6403,724
 844,16;  121,261;34994,398;-6181,025
 844,73;  134,040;34249,652;-6067,327
 845,29;  102,820;32937,902;-5695,628
 845,86;   46,600;35699,156;-6800,930
 846,42;   52,379;36940,410;-7004,231
 846,99;   49,159;36477,664;-6967,533
 847,56;    8,939;36265,918;-5840,834
 848,12;   39,719;36240,172;-6745,135
 848,69;   29,498;35710,426;-6715,437
 849,25;   62,278;34401,680;-6845,738
 849,82;   24,058;34081,934;-3247,040
 850,38;   33,837;35064,188;-6840,341
 850,95;   49,617;32489,439;-6324,643
 851,52;   56,397;32520,693;-6565,944
 852,08;   38,176;32548,947;-6691,245
 852,65;    8,956;30323,199;-7005,546
 853,21;   37,736;27698,453;-6958,848
 853,78;   27,515;27362,707;-6363,149
 854,34;   39,295;28860,961;-6871,451
 854,91;   16,075;29081,215;-5086,752
 855,47;   52,854;29942,467;-5108,054
 856,04;  103,634;32027,721;-6746,355
 856,60;   22,414;33961,973;-6104,656
 857,17;   58,193;34979,227;-6840,958
 857,73;   31,973;33553,480;-6811,259
 858,30;   -1,247;32532,734;-6985,561
 858,86;   35,532;31110,988;-5926,862
 859,43;   49,312;31430,242;-6226,164
 859,99;   21,092;32011,496;-6852,465
 860,56;   47,871;33126,750;-6903,766
 861,12;   24,651;35190,004;-6737,068
 861,69;   -2,569;33669,258;-5924,369
 862,25;   54,210;34731,508;-6821,670
 862,82;   89,990;34419,762;-5972,972
 863,38;   70,770;31196,018;-6843,273
 863,95;   71,549;29305,270;-6239,575
 864,51;   59,329;30403,523;-5287,876
 865,08;   50,109;29284,777;-6090,178
 865,64;   39,888;26795,031;-7018,479
 866,21;   55,668;26131,285;-6745,780
 866,77;   92,448;26051,537;-5552,082
 867,34;  122,227;25734,791;-6672,383
 867,90;  171,007;24632,045;-6303,685
 868,46;  135,787;23835,299;-6041,986
 869,03;   75,566;24389,551;-6929,288
 869,59;   82,346;26353,805;-6884,589
 870,16;   57,126;27647,059;-6052,890
 870,72;   42,905;30060,313;-6657,191
 871,28;   77,685;32915,566;-5992,493
 871,85;   53,465;33142,820;-6907,794
 872,41;  -13,756;31569,072;-6004,096
 872,98;   -1,976;32738,326;-6050,397
 873,54;    2,804;33876,578;-5920,699
 874,10;   49,583;32768,832;-5876,000
 874,67;   -2,417;32987,832;-6904,000
 875,23;   12,583;31068,834;-7032,000
 875,80;    8,583;28009,834;-6641,000
 876,36;    4,583;25058,834;-6642,000
 876,92;   24,583;22832,834;-6189,000
 877,49;   14,583;23923,834;-6517,000
 878,05;   13,583;24896,834;-6797,000
 878,61;   29,583;26938,834;-6812,000
 879,18;  -10,417;27553,834;-6252,000
 879,74;   -2,417;28076,834;-6720,000
 880,30;  -41,417;28679,834;-5926,000
 880,87;  -45,417;28852,834;-6326,000
 881,43;   24,583;29533,834;-6871,000
 881,99;  -29,417;27306,834;-6879,000
 882,56;  -43,417;27610,834;-6661,000
 883,12;  -29,417;29049,834;-5740,000
 883,68;   -9,417;29120,834;-6518,000
 884,25;   41,583;28300,834;-6949,000
 884,81;   26,583;26343,834;-6701,000
 885,37;   15,583;24221,834;-6786,000
 885,94;  -19,417;22940,834;-6851,000
 886,50;   18,583;23098,834;-6886,000
 887,06;    6,583;24358,834;-6796,000
 887,62;    0,583;25019,834;-6866,000
 888,19;  -28,417;25774,834;-5986,000
 888,75;  -16,417;26542,834;-6821,000
 889,31;   18,583;29043,834;-6778,000
 889,87;    0,583;30537,834;-6723,000
 890,44;   11,583;30349,834;-6696,000
 891,00;   11,583;28757,834;-6786,000
 891,56;  -42,417;26457,834;-6998,000
 892,12;   46,583;24463,834;-6754,000
 892,69;   29,583;25310,834;-6373,000
 893,25;   17,583;28798,834;-6877,000
 893,81;    3,583;31774,834;-6696,000
 894,37;   82,583;31330,834;-6342,000
 894,94;    8,583;28713,834;-6772,000
 895,50;   -3,417;26035,834; -212,000
 896,06;   10,583;24749,834;-6810,000
 896,62;   63,583;23405,834;-6707,000
 897,18;   30,583;24661,834;-6518,000
 897,75;   43,583;27406,834;-6895,000
 898,31;   31,583;27887,834;-6849,000
 898,87;    6,583;26274,834;-6860,000
 899,43;   11,583;25164,834;-6469,000
 899,99;    2,583;26592,834;-6866,000
 900,56;  -16,417;25515,834;-6791,000
 901,12;   27,583;24875,834;-6890,000
 901,68;   24,583;27903,834;-6267,000
 902,24;   65,583;31800,834;-5930,000
 902,80;   -9,417;32652,834;-6794,000
 903,36;   91,583;31893,834;-6691,000
 903,93;   59,583;32139,834;-6646,000
 904,49;  139,583;32761,834;-6913,000
 905,05;  216,583;30952,834;-6732,000
 905,61;  538,583;28208,834;-6832,000
 906,17; 1023,583;28086,834;-6901,000
 906,73; 1485,583;25975,834;-5380,000
 907,29; 1887,583;24960,834;-6910,000
 907,86; 2109,583;25118,834;-6827,000
 908,42; 2002,583;28092,834;-6795,000
 908,98; 1745,583;31123,834;-5908,000
 909,54; 1084,583;38813,832;-6885,000
 910,10;  483,583;48220,832;-6634,000
 910,66;  154,583;57581,832;-6781,000
 911,22;   26,583;65027,832;-6761,000
 911,78;   38,583;62593,832;-6841,000
 912,34;  -16,417;53256,832;-6080,000
 912,90;   39,583;44610,832;-5232,000
 913,46;   46,583;37052,832;-6876,000
 914,03;   24,583;30620,834;-5746,000
 914,59;   -3,417;27452,834;-6682,000
 915,15;   -0,417;24908,834;-6891,000
 915,71;    1,583;24217,834;-6863,000
 916,27;  -11,417;23800,834;-6723,000
 916,83;   27,583;23006,834;-5824,000
 917,39;  -14,417;21742,834;-3512,000
 917,95;    7,583;20224,834;-6009,000
 918,51;    6,583;19972,834;-6583,000
 919,07;   43,583;21780,834;-6791,000
 919,63;  -92,417;23295,834;-6661,000
 920,19;  -47,417;23935,834;-6865,000
 920,75;  -22,417;23112,834;-6640,000
 921,31;  -27,417;21484,834;-4837,000
 921,87;  -24,417;20216,834;-6845,000
 922,43;   -0,417;18019,834;-5626,000
 922,99;   21,583;17321,834;-6706,000
 923,55;   32,583;18674,834;-6655,000
 924,11;  -12,417;19094,834;-6976,000
 924,67;    3,583;19310,834;-6962,000
 925,23;  -16,417;19485,834;-6778,000
 925,79;  -13,417;20122,834;-6710,000
 926,35;   25,583;20219,834;-6573,000
 926,91;    9,583;19401,834;-6909,000
 927,47;    7,583;19367,834;-6660,000
 928,03;   59,583;20294,834;-6786,000
 928,59;    2,583;20503,834;-6678,000
 929,15;   78,583;20781,834;-6792,000
 929,71;   46,583;22016,834;-6840,000
 930,27;   53,583;23587,834;-6537,000
 930,82;   51,583;25573,834;-6728,000
 931,38;  -19,417;24317,834;-5852,000
 931,94;   -5,417;22672,834;-6843,000
 932,50;   36,583;21252,834;-6481,000
 933,06;    0,583;20895,834;-6768,000
 933,62;   13,583;21092,834;-6443,000
 934,18;   21,583;20632,834;-6727,000
 934,74;    4,583;21320,834;-6709,000
 935,30;   23,583;22030,834;-6484,000
 935,86;   37,583;21213,834;-6505,000
 936,42;  -17,417;20702,834;-6873,000
 936,97;  -35,417;21656,834;-6563,000
 937,53;  -10,417;20552,834;-6826,000
 938,09;   11,583;21087,834;  123,000
 938,65;   48,583;21186,834;-6268,000
 939,21;   36,583;20179,834;-6708,000
 939,77;   11,583;18946,834;-6213,000
 940,33;    0,583;18602,834;-6748,000
 940,88;    9,583;19429,834;-5908,000
 941,44;   39,583;21301,834;-6983,000
 942,00;   11,583;23225,834;-6697,000
 942,56;    5,583;24231,834;-6604,000
 943,12;   31,583;23427,834;-5907,000
 943,68;    8,583;22950,834;-5679,000
 944,23;    5,583;23124,834;-6749,000
 944,79;  -14,417;22674,834;-6102,000
 945,35;  -29,417;20741,834;-6599,000
 945,91;   37,583;19519,834;-6767,000
 946,47;  -20,417;19827,834;-3353,000
 947,03;    2,583;19896,834;-6850,000
 947,58;   20,583;19661,834;-6840,000
 948,14;   58,583;20790,834;-5897,000
 948,70;  -23,417;19573,834;-5855,000
 949,26;   29,583;18881,834;-6616,000
 949,81;  -17,417;18342,834;-6644,000
 950,37;   -0,417;18686,834;-6695,000
 950,93;   30,583;17993,834;-6224,000
 951,49;   -4,417;17568,834;-6057,000
 952,05;    2,583;17926,834;-6571,000
 952,60;   -9,417;17299,834;-6951,000
 953,16;    7,583;16933,834;-5783,000
 953,72;   -5,417;15628,833;-5813,000
 954,27;  -42,417;15524,833;-6566,000
 954,83;   14,583;15317,833;-6703,000
 955,39;   18,583;14917,833;-6691,000
 955,95;   17,583;14456,833;-6849,000
 956,50;  -29,417;14272,833;-6698,000
 957,06;  -47,417;14126,833;-5922,000
 957,62;    4,583;13780,833;-6559,000
 958,18;  -21,417;13872,833;-6741,000
 958,73;   -3,417;13326,833;-6820,000
 959,29;   -1,417;13518,833;-6106,000
 959,85;  -68,417;14785,833;-6864,000
 960,40;   23,583;16746,834;-4263,000
 960,96;   12,583;16386,834;-6738,000
 961,52;   -0,417;14755,833;-6643,000
 962,07;  -17,417;13711,833;-6742,000
 962,63;  -30,417;13208,833;-6723,000
 963,19;  -22,417;13435,833;-5779,000
 963,74;   39,583;13877,833;-6582,000
 964,30;  -16,417;14475,833;-6595,000
 964,86;   10,583;14281,833;-6484,000
 965,41;   -1,417;14290,833;-6705,000
 965,97;  -29,417;14185,833;-6569,000
 966,53;   -2,417;14792,833;-6750,000
 967,08;   -0,417;15311,833;-6611,000
 967,64;    2,583;15082,833;-6705,000
 968,19;   10,583;14471,833;-6684,000
 968,75;    2,583;14662,833;-6566,000
 969,31;  -23,417;14880,833;-5626,000
 969,86;    3,583;14995,833;-6505,000
 970,42;   -9,417;13195,833;-6620,000
 970,97;  -17,417;11567,833;-6437,000
 971,53;  -11,417;11625,833;-6490,000
 972,09;  -60,417;12998,833;-6646,000
 972,64;   13,583;13523,833;-5812,000
 973,20;   12,583;13815,833;-6599,000
 973,75;   -5,417;14605,833;-5760,000
 974,31;   35,583;14826,833;-6578,000
 974,87;   11,583;14921,833;-6674,000
 975,42;    4,583;14507,833;-6727,000
 975,98;  -44,417;13201,833;-6651,000
 976,53;    8,583;12100,833;-6555,000
 977,09;  -26,417;11353,833;-4624,000
 977,64;   19,583;11164,833;-6532,000
 978,20;   11,583;10649,833;-6585,000
 978,75;    5,583;10482,833;-6429,000
 979,31;    3,583;10950,833;-6513,000
 979,86;   30,583;12220,833;-6739,000
 980,42;  -26,417;12828,833;-5813,000
 980,97;  -20,417;13290,833;-6642,000
 981,53;   16,583;14285,833;-6636,000
 982,08;   -8,417;13803,833;-5046,000
 982,64;   70,583;12278,833;-6237,000
 983,19;  -15,417;11308,833;-6760,000
 983,75;   17,583;10993,833;-6576,000
 984,30;  -16,417;10430,833;-5581,000
 984,86;  -10,417; 9867,833;-5898,000
 985,41;  -41,417; 9457,833;-6634,000
 985,97;    3,583; 9632,833;-4797,000
 986,52;   -7,417; 9894,833;-5853,000
 987,08;  -18,417; 9953,833;-6174,000
 987,63;   20,583;10165,833;-5608,000
 988,19;  -37,417;11252,833;-6266,000
 988,74;  -10,417;11710,833;-5682,000
 989,30;    3,583;11529,833;-6568,000
 989,85;    6,583;11470,833; -276,000
 990,40;  -18,417;11314,833;-6617,000
 990,96;   30,583;11060,833;-6482,000
 991,51;    6,583;11149,833;-6578,000
 992,07;  -16,417;10742,833;-6605,000
 992,62;   18,583;10285,833;-6519,000
 993,18;  -21,417;10035,833;-6504,000
 993,73;   -3,417; 9986,833;-6440,000
 994,28;   24,583; 9800,833;-6464,000
 994,84;  -20,417; 9019,833;-6240,000
 995,39;   14,583; 8474,833;-2971,000
 995,94;   36,583; 7953,833;-5673,000
 996,50;    3,583; 7647,833;-6543,000
 997,05;  -12,417; 7872,833;-3481,000
 997,61;    9,583; 8363,833;-6489,000
 998,16;   -1,417; 8581,833;-6555,000
 998,71;   11,583; 8850,833;-6340,000
 999,27;   -6,417; 9115,833;-5223,000
 999,82;   21,583; 8706,833;-4778,000
1000,37;    4,583; 8661,833;-6520,000
1000,93;   -5,417; 8920,833;-6107,000
1001,48;    9,583; 8799,833;-6543,000
1002,03;  -13,417; 8477,833;-6469,000
1002,59;   58,583; 8715,833;-5972,000
1003,14;   11,583; 8758,833;-6113,000
1003,69;   34,583; 8484,833;-6513,000
1004,25;    8,583; 8299,833;-6507,000
1004,80;   14,583; 8322,833;-6266,000
1005,35;  -25,417; 8313,833;-6361,000
1005,91;   33,583; 8515,833;-6558,000
1006,46;    4,583; 8426,833;-6084,000
1007,01;   -0,417; 8227,833;-5479,000
1007,56;    8,583; 8599,833;-6440,000
1008,12;    2,583; 8342,833;-6178,000
1008,67;   14,583; 7867,833;-6312,000
1009,22;    3,583; 7509,833;-6481,000
1009,78;  -12,417; 7205,833;-6163,000
1010,33;    3,583; 6649,833;-6443,000
1010,88;   22,583; 6413,833;-5618,000
1011,43;   14,583; 5995,833;-6433,000
1011,99;   25,583; 5972,833;-6198,000
1012,54;   21,583; 6320,833;-6387,000
1013,09;   33,583; 6048,833;-6299,000
1013,64;   22,583; 5802,833;-6362,000
1014,19;   20,583; 5823,833;-6442,000
1014,75;   38,583; 5928,833;-6408,000
1015,30;   -7,417; 6394,833;-6425,000
1015,85;   78,583; 6370,833;-6367,000
1016,40;   40,583; 6247,833;-5436,000
1016,96;  103,583; 6235,833;-6268,000
1017,51;   74,583; 6150,833;-6351,000
1018,06;   27,583; 6095,833;-6310,000
1018,61;   28,583; 5695,833;-6665,000
1019,16;   11,583; 5609,833;-6697,000
1019,71;   83,583; 5663,833;-6373,000
1020,27;   36,583; 5567,833;-6353,000
1020,82;   39,583; 5375,833;-3700,000
1021,37;   57,583; 5405,833;-4798,000
1021,92;   43,583; 5984,833;-6454,000
1022,47;   23,583; 5965,833;-6548,000
1023,02;   55,583; 5463,833;-6512,000
1023,58;   71,583; 5045,833;-6573,000
1024,13;   92,583; 4730,833;-6258,000
1024,68;   81,583; 4434,833;-6298,000
1025,23;   61,583; 4324,833;-5525,000
1025,78;   93,583; 4613,833;-6475,000
1026,33;  131,583; 4932,833;-5510,000
1026,88;  117,583; 4843,833;-6236,000
1027,43;  112,583; 5167,833;-6276,000
1027,99;  112,583; 5134,833;-6002,000
1028,54;  168,583; 4732,833;-6395,000
1029,09;  145,583; 4106,833;-2478,000
1029,64;  182,583; 3919,833;-6303,000
1030,19;  233,583; 4147,833;-3821,000
1030,74;  225,583; 4243,833;-5134,000
1031,29;  263,583; 4284,833;-4765,000
1031,84;  294,583; 4491,833;-6300,000
1032,39;  310,583; 4563,833;-5403,000
1032,94;  322,583; 4617,833;-4326,000
1033,49;  432,583; 4361,833;-5476,000
1034,04;  465,583; 4236,833;-6312,000
1034,59;  546,583; 4205,833;-6507,000
1035,14;  508,583; 4117,833;-6145,000
1035,69;  610,583; 4318,833;-6224,000
1036,24;  633,583; 4104,833;-4477,000
1036,80;  668,583; 3986,833;-5453,000
1037,35;  712,583; 4138,833;-6347,000
1037,90;  787,583; 4172,833;-6274,000
1038,45;  796,583; 4201,833;-6419,000
1039,00;  866,583; 4340,833;-5490,000
1039,55;  895,583; 4229,833;-6284,000
1040,10;  953,583; 3977,833;-5615,000
1040,65; 1031,583; 3916,833;-5576,000
1041,20; 1023,583; 3850,833;-6325,000
1041,75; 1112,583; 4030,833;-4522,000
1042,30; 1223,583; 4164,833;-3585,000
1042,84; 1394,583; 4338,833;-4439,000
1043,39; 1423,583; 4248,833;-6313,000
1043,94; 1609,583; 4175,833;-5342,000
1044,49; 1809,583; 3887,833;-6246,000
1045,04; 1955,583; 3710,833;-5800,000
1045,59; 2116,583; 3809,833;-6299,000
1046,14; 2293,583; 3732,833;-6392,000
1046,69; 2578,583; 3591,833;-6294,000
1047,24; 2934,583; 3623,833;-5510,000
1047,79; 3249,583; 3737,833;-6139,000
1048,34; 3721,583; 4002,833;-5961,000
1048,89; 4258,583; 3948,833;-6259,000
1049,44; 4884,583; 3935,833;-5172,000
1049,99; 5840,583; 3855,833;-4844,000
1050,54; 7106,583; 3876,833;-6249,000
1051,08; 9228,583; 3961,833;-6178,000
1051,63;12686,583; 4050,833;-5285,000
1052,18;18983,584; 5051,833;-6127,000
1052,73;30159,584; 7151,833;-6173,000
1053,28;46026,582;10516,833;-6386,000
1053,83;64143,582;15224,833;-6214,000
1054,38;65150,582;19203,834;-6254,000
1054,93;65150,582;21243,834;-6285,000
1055,47;65150,582;23825,834;-5328,000
1056,02;65150,582;26212,834;-5832,000
1056,57;65150,582;27830,834;-6198,000
1057,12;65150,582;30497,834;-6378,000
1057,67;65150,582;33805,832;-6078,000
1058,22;65150,582;36084,832;-6313,000
1058,76;65150,582;38542,832;-6093,000
1059,31;65150,582;44129,832;-3514,000
1059,86;65150,582;48778,832;-6204,000
1060,41;65150,582;49718,832;-6152,000
1060,96;65150,582;51396,832;-6226,000
1061,51;65150,582;53649,832;-5344,000
1062,05;65150,582;54082,832;-6122,000
1062,60;65150,582;50555,832;-6061,000
1063,15;65150,582;45221,832;-6149,000
1063,70;65150,582;41550,832;-6250,000
1064,24;65150,582;43676,832;-6169,000
1064,79;65150,582;45461,832;-6144,000
1065,34;65150,582;43989,832;-6064,000
1065,89;65150,582;41776,832;-6202,000
1066,44;65150,582;37631,832;-6120,000
1066,98;65150,582;32612,834;-6224,000
1067,53;65150,582;30790,834;-5953,000
1068,08;65150,582;30368,834;-4845,000
1068,63;65150,582;27618,834;-6096,000
1069,17;65150,582;24647,834;-5893,000
1069,72;65150,582;22350,834;-5857,000
1070,27;65150,582;20529,834;-6040,000
1070,81;65150,582;20388,834;-5996,000
1071,36;65150,582;20367,834;-3883,000
1071,91;65150,582;18745,834;  966,000
1072,46;65150,582;16791,834;-5058,000
1073,00;65150,582;14646,833;-5239,000
1073,55;65150,582;11404,833;-5935,000
1074,10;65150,582; 7803,833;-5981,000
1074,64;44086,582; 5240,833;-5860,000
1075,19;26351,584; 3535,833;-4958,000
1075,74;16937,584; 2551,833;-6091,000
1076,28;12047,583; 2312,833;-6075,000
1076,83; 9145,583; 1951,833;-5286,000
1077,38; 7464,583; 1820,833;-5653,000
1077,92; 5995,583; 1783,833;-6332,000
1078,47; 5004,583; 1629,833;-5507,000
1079,02; 4139,583; 1578,833;-5959,000
1079,56; 3572,583; 1557,833;-5328,000
1080,11; 2885,583; 1304,833;-6094,000
1080,65; 2541,583; 1241,833;-5039,000
1081,20; 2151,583; 1186,833;-6151,000
1081,75; 1763,583; 1125,833;-6039,000
1082,29; 1463,583; 1128,833; -139,000
1082,84; 1292,583; 1184,833;-2678,000
1083,39; 1142,583; 1294,833;-5061,000
1083,93; 1033,583; 1335,833;-5025,000
1084,48;  969,583; 1196,833;-5961,000
1085,02;  803,583; 1082,833;-5783,000
1085,57;  787,583; 1074,833;-5994,000
1086,11;  706,583; 1079,833;-5968,000
1086,66;  656,583;  925,833;-5584,000
1087,21;  678,583; 1060,833;-5802,000
1087,75;  539,583;  939,833;-6125,000
1088,30;  575,583;  815,833;-5040,000
1088,84;  528,583;  783,833;-5963,000
1089,39;  479,583;  656,833;-5965,000
1089,93;  442,583;  664,833;-6100,000
1090,48;  407,583;  649,833;-4394,000
1091,02;  413,583;  733,833;-5181,000
1091,57;  301,583;  629,833;-5479,000
1092,11;  363,583;  642,833;-4094,000
1092,66;  304,583;  624,833;-6031,000
1093,20;  257,583;  580,833;-5180,000
1093,75;  232,583;  566,833;-4998,000
1094,29;  216,583;  486,833;-4979,000
1094,84;  301,583;  525,833;-5890,000
1095,38;  191,583;  528,833;-5097,000
1095,93;  224,583;  584,833;-5981,000
1096,47;  175,583;  615,833;-5612,000
1097,02;  179,583;  587,833;-4985,000
1097,56;  216,583;  614,833;-5772,000
1098,11;  181,583;  552,833;-5774,000
1098,65;  141,583;  508,833;-5992,000
1099,20;  139,583;  577,833;-5935,000
1099,74;  143,583;  487,833;-6002,000
1100,29;  121,583;  513,833;-4879,000
1100,83;  120,583;  496,833;-5934,000

