
Integration time [ms]:   1,000
Averaging Nr. [scans]: 1
Smoothing Nr. [pixels]: 0
Data measured with spectrometer [name]: 1703254U1
Wave   ;Sample   ;Dark     ;Reference;Scope
[nm]   ;[counts] ;[counts] ;[counts] 

 190,08; 1969,772; -370,119;11982,743
 190,69; 1918,401; -359,404;11603,049
 191,29; 1841,279; -311,651;11479,965
 191,90; 1831,144; -365,508;11440,717
 192,50; 1871,427; -379,511;10355,099
 193,10; 1945,659; -446,299;11244,381
 193,71; 1972,308; -367,888; 9821,736
 194,31; 2052,397; -399,273; 9436,327
 194,91; 2157,397; -382,273; 9291,327
 195,52; 2139,346; -338,386;10555,949
 196,12; 2189,064; -397,056; 8671,847
 196,72; 2214,553; -386,394; 8220,904
 197,32; 2192,308; -375,888; 8251,736
 197,93; 2247,815; -360,420; 8700,957
 198,53; 2291,034; -383,145; 7601,797
 199,13; 2313,903; -397,132; 8091,270
 199,74; 2338,967; -366,410; 7263,813
 200,34; 2427,693; -388,667; 7832,874
 200,94; 2477,537; -436,547; 6941,297
 201,55; 2518,402; -406,404; 7119,049
 202,15; 2508,076; -375,773; 6404,732
 202,75; 2620,949; -373,217; 6097,647
 203,36; 2600,410; -338,664; 6822,492
 203,96; 2502,809; -357,943; 6332,678
 204,56; 2555,845; -355,657;10275,729
 205,16; 2526,313; -363,018; 5478,458
 205,77; 2588,852; -360,244; 4767,892
 206,37; 2508,671; -409,017; 5556,267
 206,97; 2487,946; -363,760; 5129,205
 207,58; 2551,372; -364,166; 5927,278
 208,18; 2486,621; -337,129; 5129,889
 208,78; 2454,545; -404,134; 5295,461
 209,38; 2426,891; -469,415; 4958,385
 209,99; 2599,971; -356,540; 3837,534
 210,59; 2477,769; -361,662; 3890,301
 211,19; 2429,330; -364,538; 3938,343
 211,79; 2391,701; -366,927; 4499,316
 212,40; 2431,017; -373,625; 3368,911
 213,00; 2402,591; -388,891; 3903,118
 213,60; 2289,743; -386,882; 2992,972
 214,20; 2275,080; -401,230; 3081,175
 214,81; 2262,451; -422,618; 2884,148
 215,41; 2262,920; -376,979; 3235,877
 216,01; 2243,248; -373,067; 3109,636
 216,61; 2282,477; -367,399; 2814,476
 217,22; 2229,615; -381,326; 2358,888
 217,82; 2187,632; -325,173; 2262,495
 218,42; 2233,704; -383,711; 2389,480
 219,02; 2246,257; -288,327; 3432,079
 219,63; 2271,523; -357,483; 2044,854
 220,23; 2187,038; -366,602; 2425,239
 220,83; 2191,401; -395,730; 1901,770
 221,43; 2190,611; -393,195; 1850,167
 222,03; 2140,527; -348,940; 2326,296
 222,64; 2056,595; -380,348; 1769,560
 223,24; 1984,789; -298,966; 1625,350
 223,84; 1898,484; -376,313; 2637,361
 224,44; 1988,290; -316,695; 2381,571
 225,05; 1981,016; -313,952; 1440,632
 225,65; 1919,607; -301,065; 1227,445
 226,25; 1821,865; -364,961; 1139,777
 226,85; 1857,202; -294,309;  995,979
 227,45; 1829,780; -335,706; 1083,907
 228,06; 1678,143; -365,834; 1945,438
 228,66; 1667,544; -349,460; 4049,182
 229,26; 1665,564; -313,438; 1131,510
 229,86; 1642,029; -396,342; 1760,797
 230,46; 1586,970; -358,194;  891,976
 231,06; 1465,130; -320,444;  757,273
 231,67; 1572,042; -346,732; 1228,961
 232,27; 1473,184; -343,789;  778,094
 232,87; 1448,881; -308,808;  526,384
 233,47; 1313,859; -321,158;  525,777
 234,07; 1439,806; -268,486; 9912,235
 234,67; 1373,083; -291,013;  672,338
 235,28; 1298,859; -319,158;   65,777
 235,88; 1316,437; -316,882;  285,426
 236,48; 1392,012; -350,821;  165,911
 237,08; 1336,028; -267,669;  448,518
 237,68; 1293,833; -369,378; -267,552
 238,28; 1321,412; -304,774; -106,624
 238,89; 1208,357; -212,756; -205,723
 239,49; 1267,931; -282,023; 1280,483
 240,09; 1156,297; -284,608; -190,544
 240,69; 1144,909; -251,373; -319,124
 241,29; 1143,690; -289,647;  651,036
 241,89; 1202,370; -330,147; -260,559
 242,49; 1180,783; -248,490; -358,930
 243,10; 1183,348; -201,496; 3664,834
 243,70; 1099,783; -284,490;  239,070
 244,30; 1105,272; -275,501; -708,594
 244,90; 1153,035; -188,582; -568,598
 245,50; 1139,854; -177,355; 3274,777
 246,10; 1082,201; -307,636; -831,300
 246,70;  976,310; -300,999;   17,620
 247,30; 1106,125; -251,641;  326,273
 247,91;  995,284; -208,218; 5781,292
 248,51; 1076,133; -270,228; -806,563
 249,11; 1069,403; -239,514;  417,933
 249,71; 1121,158; -303,008; -667,235
 250,31; 1028,217; -265,483; -567,693
 250,91; 1128,631; -238,500;   75,216
 251,51; 1047,850; -199,225; -822,945
 252,11; 1058,499; -239,813;  367,410
 252,71; 1044,825; -269,117;-1080,994
 253,31; 1102,289; -222,348; 3228,013
 253,91; 1067,111; -236,578; -676,170
 254,52; 1044,723; -237,342;-1063,750
 255,12; 1072,217; -293,483;-1104,693
 255,72; 1137,344; -206,366;  557,112
 256,32; 1038,377; -242,061; -966,674
 256,92; 1134,225; -190,070;-1147,529
 257,52; 1107,689; -173,974; -883,243
 258,12; 1021,639; -201,087;  -91,621
 258,72; 1044,216; -210,810;-1232,972
 259,32; 1137,158; -211,335;-1169,514
 259,92; 1123,233; -199,330;-1343,086
 260,52; 1111,048; -192,973;-1077,433
 261,12; 1081,735; -202,059; -662,865
 261,72;  995,031; -238,452;-1312,319
 262,32; 1072,090; -215,600;-1561,498
 262,92; 1030,769; -238,426;  405,627
 263,53; 1019,267; -189,698;-1277,594
 264,13; 1001,938; -262,937; -268,632
 264,73; 1086,870; -217,202;-1694,617
 265,33; 1035,102; -188,317;-1708,613
 265,93; 1094,971; -147,304;-1345,140
 266,53; 1033,604; -161,046;-1544,392
 267,13;  995,836; -139,161; -857,388
 267,73; 1027,553; -185,158;  270,230
 268,33; 1015,785; -166,274;-1788,766
 268,93;  912,115; -213,708;-1702,449
 269,53; 1012,364; -204,670; -644,839
 270,13;  946,085; -201,797;-1810,499
 270,73;  929,916; -245,287;-1891,239
 271,33;  958,570; -200,678;-1778,884
 271,93; 1007,883; -242,919;-1867,732
 272,53; 1038,844; -121,748;    8,776
 273,13; 1000,929; -146,677;-1117,075
 273,73;  881,768; -119,753;-1955,652
 274,33;  946,410; -148,428;-2041,182
 274,93;  942,211; -188,007;-1843,972
 275,53;  987,844;  -68,748;-1881,224
 276,13;  898,535; -121,965;-2261,935
 276,73;  921,114; -118,361;-1570,007
 277,33;  974,304; -179,522;-1926,659
 277,93;  940,212; -213,680;-1864,693
 278,53;  888,587; -194,526;-2112,278
 279,13;  898,890; -125,506;-2152,568
 279,73;  870,683; -140,498;-1388,522
 280,33;  956,051; -154,756;-2179,270
 280,93;  945,080; -105,994;-2049,499
 281,53;  930,376; -147,387;-2252,953
 282,13;  941,755; -127,363;-2193,816
 282,73;  912,565; -156,875; -385,885
 283,33;  948,283; -137,872;-2307,266
 283,92;  967,346;  -74,477;-2028,003
 284,52;  897,312;  -94,109;-2365,496
 285,12;  922,945; -138,524;-1425,469
 285,72;  997,545; -126,898;-1041,213
 286,32;  988,122;  -55,622;-1313,564
 286,92;  982,663; -163,521;-2376,850
 287,52;  922,021;  -89,519;-2170,041
 288,12; 1012,616;  -97,763;-2542,507
 288,72;  916,921; -106,417;-1625,518
 289,32;  985,780;  -54,470; 1692,233
 289,92;  933,502; -106,270;-2344,148
 290,52;  883,269;  -91,809;-2485,710
 291,12;  964,721;  -57,996;-1570,308
 291,72;  959,346;  -74,477;-1590,003
 292,32; 1025,574;  -83,135;-2372,442
 292,92;  948,354;   -2,737;-2481,560
 293,51;  942,898;  -37,093;-2532,404
 294,11; 1037,802;  -42,121;-1681,160
 294,71; 1069,835;   -7,488;-2695,667
 295,31; 1000,920;  -24,743;-1755,797
 295,91; 1115,165;   46,751;-2713,629
 296,51; 1100,058;   62,656;-1776,106
 297,11; 1094,273;   35,061;-2900,988
 297,71; 1069,000;    4,131;-2726,648
 298,31; 1132,502;   38,730;-2329,148
 298,91; 1118,240;   74,756;-2483,202
 299,50; 1042,708;   41,395;-2689,473
 300,10; 1170,595;  145,887;-2706,114
 300,70; 1147,421;   95,528;-2492,576
 301,30; 1137,202;   89,253;-2855,415
 301,90; 1187,127;   96,248;-2004,843
 302,50; 1217,472;  163,640;-2515,198
 303,10; 1249,924;  124,126;-2530,076
 303,70; 1271,776;  208,660;-3000,488
 304,29; 1210,408;  189,918;-2658,740
 304,89; 1202,476;  266,183;-1090,755
 305,49; 1290,126;  163,922;-2773,122
 306,09; 1368,358;  214,133;-2874,839
 306,69; 1452,937;  262,736;-2915,911
 307,29; 1486,574;  312,865;-2008,442
 307,89; 1450,577;  303,408;-3029,000
 308,48; 1475,185;  341,774;-2453,301
 309,08; 1635,532;  369,492;-2743,377
 309,68; 1710,949;  377,019;-3094,026
 310,28; 1878,545;  371,102;-2576,213
 310,88; 1863,878;  321,211;-2936,453
 311,48; 1916,325;  447,500;-2875,331
 312,07; 1993,612;  408,367;-2963,228
 312,67; 2265,422;  497,855;-2128,297
 313,27; 2107,849;  494,448;-1105,224
 313,87; 2257,460;  583,357;-2164,083
 314,47; 2230,604;  516,954;-3030,392
 315,06; 2288,575;  620,191; 2713,837
 315,66; 2234,135;  579,988;-3245,400
 316,26; 2445,018;  632,938;-1844,483
 316,86; 2635,832;  777,969;-3140,110
 317,46; 2607,343;  720,307;-2115,167
 318,06; 2740,098;  739,813; -825,335
 318,65; 2914,588;  781,801;-2807,999
 319,25; 3210,871;  821,798;-3195,617
 319,85; 3308,799;  932,663;-2908,323
 320,45; 3594,964;  986,283;-3213,304
 321,05; 3701,453;  901,271;-2761,968
 321,64; 4056,445;  889,531;-3219,411
 322,24; 4525,163; 1056,861;-3265,513
 322,84; 5102,408; 1080,356;-3261,345
 323,44; 6335,201; 1133,364;-3219,300
 324,03;10667,403; 1194,486;-3072,067
 324,63;12814,872; 1250,452;-2310,059
 325,23; 9525,172; 1241,928;-3097,792
 325,83; 7551,919; 1367,021;-2876,123
 326,42; 9495,140; 1442,622;-3285,005
 327,02;13124,360; 1476,551;-3076,607
 327,62;12995,880; 1439,629;-2505,221
 328,22;11512,016; 1553,486;-3234,973
 328,82;11574,118; 1577,037;-2229,938
 329,41;12062,929; 1658,852;-3016,728
 330,01;13345,336; 1652,750;-2961,704
 330,61;14721,109; 1806,062;-2928,707
 331,20;14953,818; 1778,325;-2868,531
 331,80;15449,671; 1762,512;-2794,386
 332,40;16181,381; 1752,102;-2896,932
 333,00;17074,352; 1933,667;-2790,423
 333,59;17920,609; 1748,771;-2855,091
 334,19;18627,873; 1920,745;-1771,037
 334,79;19282,877; 1712,615;-2861,316
 335,39;19260,551; 1729,919;-2978,912
 335,98;19003,752; 1726,714;-3126,958
 336,58;18547,738; 1659,777;-3191,401
 337,18;18103,098; 1720,779;-2958,592
 337,77;17621,008; 1782,837;-2098,463
 338,37;16859,350; 1806,359;-2021,540
 338,97;15928,729; 1907,384;-2912,402
 339,57;14864,700; 1862,948;-3044,894
 340,16;13753,435; 1836,431;-2881,390
 340,76;12762,088; 1962,712;-3053,314
 341,36;12367,604; 1861,920;-3195,650
 341,95;12001,237; 1934,506;-3027,623
 342,55;11954,123; 1918,998;  703,736
 343,15;12196,856; 2048,155;-3094,039
 343,74;12443,025; 1924,644;-2382,298
 344,34;13068,907; 1860,267;-3015,661
 344,94;13340,616; 2068,530;-3069,485
 345,53;13365,945; 2110,769;-2860,447
 346,13;13181,262; 2174,398;-1283,573
 346,73;12444,064; 1966,473;-2254,805
 347,32;12127,102; 2268,649;-3080,871
 347,92;11298,343; 2312,600;-2277,145
 348,52;10226,182; 2270,523;-1878,722
 349,11; 9553,278; 2336,551;  975,034
 349,71; 9418,253; 2330,658;-3240,016
 350,31; 9493,752; 2441,387;-2672,237
 350,90; 9841,565; 2483,418;-2326,863
 351,50;10313,541; 2390,852;-2105,634
 352,10;10521,967; 2471,119;-3114,840
 352,69;10385,342; 2532,273;-3182,424
 353,29; 9747,861; 2563,024;-3191,317
 353,89; 9102,899; 2645,527;-3255,104
 354,48; 8510,967; 2693,119;-3208,840
 355,08; 7788,178; 2871,980;-1117,164
 355,67; 7564,806; 2850,042;-2951,417
 356,27; 7608,119; 2839,128;-3232,985
 356,87; 7502,570; 3010,288;-3383,142
 357,46; 7464,434; 3049,431;-2351,390
 358,06; 7540,287; 3306,291;-3073,523
 358,66; 7357,878; 3337,504;-3109,432
 359,25; 7516,966; 3260,792;-2344,119
 359,85; 7357,046; 3365,667;-3215,970
 360,44; 7031,709; 3389,015;-3292,172
 361,04; 6802,856; 3567,155;-2367,039
 361,64; 6686,856; 3696,155;-2309,039
 362,23; 6710,747; 3772,517;-2932,958
 362,83; 6413,950; 3755,639;-2990,726
 363,42; 6161,945; 3938,769;-2836,447
 364,02; 5866,013; 3910,034;-2973,462
 364,62; 5662,262; 3816,398;-2486,573
 365,21; 5421,189; 3857,937;-1741,558
 365,81; 5377,704; 3935,818;-2792,173
 366,40; 5281,109; 3970,062;-2080,707
 367,00; 5298,919; 4021,550;-2952,776
 367,59; 4966,573; 4071,831;-2979,699
 368,19; 5140,557; 4221,678;-3237,306
 368,79; 4782,881; 4198,720;-3125,268
 369,38; 4731,898; 4107,200;-2250,383
 369,98; 4607,907; 4101,940;-2935,940
 370,57; 4608,526; 4188,588;-3331,356
 371,17; 4470,028; 4164,860;-3326,135
 371,76; 4410,627; 4277,486;-3442,879
 372,36; 4364,678; 4057,598;-3195,501
 372,95; 4201,218; 4115,372;  667,934
 373,55; 4281,817; 4105,998;-3393,811
 374,14; 4200,357; 4300,099;-3405,097
 374,74; 4128,724; 4256,514;-3224,124
 375,34; 4231,514; 4286,979;-3189,521
 375,93; 4120,193; 4295,479;-2706,116
 376,53; 3981,809; 4344,585;-3575,974
 377,12; 4040,764; 4405,670;-1465,352
 377,72; 3983,032; 4480,730;-3410,414
 378,31; 4089,578; 4511,027;-2274,699
 378,91; 3898,076; 4291,429;-3262,199
 379,50; 3949,073; 4588,213;-3331,363
 380,10; 3948,942; 4327,226;-3398,890
 380,69; 3952,005; 4094,621;-2343,626
 381,29; 3862,415; 4586,735;-2550,439
 381,88; 3771,435; 4518,758;-1605,111
 382,48; 3636,621; 4519,727;-3286,485
 383,07; 3615,296; 4495,358;-3457,802
 383,67; 3536,435; 4635,758;-1847,111
 384,26; 3476,009; 4667,491;-2467,905
 384,86; 3381,824; 4921,849;-3182,252
 385,45; 3388,233; 4932,636;-3325,344
 386,05; 3447,136; 5073,608;-3419,100
 386,64; 3289,034; 4911,384;-3524,855
 387,24; 3371,279; 5016,878;-2585,688
 387,83; 3257,671; 4993,512;-2489,386
 388,42; 3329,786; 5182,346;-2109,466
 389,02; 3211,283; 5423,748;-3235,966
 389,61; 3178,371; 5688,036;-3413,653
 390,21; 3269,279; 5729,878;-3463,688
 390,80; 3342,827; 5816,392;-3208,810
 391,40; 3233,941; 6137,899;-2293,168
 391,99; 3283,664; 5981,099;-3195,550
 392,59; 3169,680; 6435,252;-2416,943
 393,18; 3194,262; 6683,398;-2491,573
 393,77; 3124,539; 6883,198;-3238,192
 394,37; 3129,895; 7145,657;-2198,825
 394,96; 3050,338; 7098,403;-2296,146
 395,56; 2906,527; 7264,588;-2834,356
 396,15; 3046,042; 6867,797;-3125,692
 396,75; 3098,650; 7343,163;-2889,993
 397,34; 3021,907; 7669,940;-2620,940
 397,93; 3246,388; 7720,188;-3358,047
 398,53; 3402,832; 7595,262;-2525,088
 399,12; 3603,351; 8192,013;-2154,981
 399,72; 3565,967; 8013,119;-2274,840
 400,31; 3538,798; 8034,629;-3169,581
 400,91; 3537,992; 8446,012;-2959,791
 401,50; 3513,539; 8820,198;-2330,192
 402,09; 3580,177; 8550,327;-2894,722
 402,69; 3486,029; 8691,187;-3072,856
 403,28; 3517,329; 9052,663;-2983,588
 403,88; 3716,071; 9162,560; 1927,079
 404,47; 3827,573; 9689,831;  884,300
 405,06; 3845,443; 9684,171;  -68,947
 405,66; 4101,506; 9753,565;-2875,684
 406,25; 4386,881;10085,720;-3119,268
 406,84; 4087,877;10446,177;-2892,711
 407,44; 3773,670;10847,858;-2219,944
 408,03; 3478,450;10422,257;-2906,063
 408,63; 3215,130;10373,085;-3011,379
 409,22; 3273,451;10191,584;-1945,783
 409,81; 3352,610;10681,007;-1849,765
 410,41; 3299,696;11553,078;-2857,615
 411,00; 3375,066;11336,362;-1814,921
 411,59; 3247,020;11251,120;-2826,578
 412,19; 3256,197;11468,350;-2245,394
 412,78; 3224,636;11399,226;-2830,436
 413,37; 3116,973;12151,878;-2704,234
 413,97; 3200,365;12410,512;-2618,933
 414,56; 3185,931;12071,506;-2503,169
 415,15; 3113,880;12410,394;-2121,547
 415,75; 3105,644;12408,639;-2698,272
 416,34; 3119,733;12590,254;-1893,681
 416,93; 3097,576;12922,047;-2777,536
 417,53; 3222,778;12696,169;-1423,303
 418,12; 3340,226;12570,785;-2217,903
 418,71; 3218,938;12907,592;-2673,285
 419,31; 3274,196;13054,695;-1884,952
 419,90; 3133,643;13470,313;-2786,552
 420,49; 3163,415;13619,298;-1733,834
 421,08; 3126,415;14201,298;-1674,834
 421,68; 3128,977;14723,421;-1908,792
 422,27; 3280,626;14035,832;-2004,437
 422,86; 3256,313;13874,073; -437,590
 423,46; 3250,845;14080,107;-2575,598
 424,05; 3298,469;14376,626;-2928,293
 424,64; 3458,470;13888,953;-2640,014
 425,24; 3349,693;14092,098;-2903,453
 425,83; 3421,654;13992,269;-2680,945
 426,42; 3462,469;12987,626;-2760,293
 427,01; 4352,802;13424,734;-2674,533
 427,61; 4519,591;14347,873;-2609,209
 428,20; 3580,527;14036,151;-1764,751
 428,79; 3367,345;14414,052;-2859,656
 429,38; 3287,988;14092,377;-1781,186
 429,98; 3312,211;14922,521; -994,625
 430,57; 3247,591;15058,873;-2193,209
 431,16; 3313,498;14580,389;-2784,522
 431,75; 3361,481;14357,909; -561,407
 432,35; 3414,329;13435,899;-1951,262
 432,94; 3426,058;14429,186;-2324,759
 433,53; 3476,629;14560,375;-1152,995
 434,12; 3556,109;14431,298;-2267,381
 434,72; 3692,640;14188,331;-1413,389
 435,31; 3669,607;14167,699; 7395,119
 435,90; 3690,522;14308,954; 8338,249
 436,49; 3438,678;13427,834; -683,175
 437,08; 3718,805;13895,951; -675,370
 437,68; 4019,244;14442,827;-2987,412
 438,27; 3636,534;14610,237;-2610,866
 438,86; 3375,320;14612,832;-1147,984
 439,45; 3226,868;15313,346;-1937,106
 440,05; 3052,011;15955,616;-2982,694
 440,64; 2930,154;15054,886;-1902,282
 441,23; 3090,622;14152,525;-1415,553
 441,82; 2940,231;13700,218;-2631,576
 442,41; 2779,500;14351,277;-3014,637
 443,00; 2766,761;13625,925;-2724,863
 443,60; 2737,078;14373,881;-3136,710
 444,19; 2670,208;15026,541;-1440,462
 444,78; 2612,221;14960,151;-3012,298
 445,37; 2620,803;15728,297;-2522,928
 445,96; 2702,045;15331,249;-3116,202
 446,56; 2716,774;15596,535;-1144,698
 447,15; 2570,639;16225,678; -884,947
 447,74; 2800,571;17097,412;-2709,931
 448,33; 2684,267;16443,066;-1985,920
 448,92; 2747,668;15422,440;-2964,176
 449,51; 2654,786;15095,817;-2848,813
 450,10; 2955,777;15133,078;-3063,256
 450,70; 3446,989;14904,939;-1957,581
 451,29; 3106,545;15329,193;-1112,260
 451,88; 2787,204;15513,671;-2929,183
 452,47; 2793,757;16565,055;-2795,584
 453,06; 2934,578;16495,498;-2401,047
 453,65; 3323,338;16071,874;-2873,493
 454,24; 3031,380;17329,246;-2173,558
 454,84; 2754,132;17793,209;-1379,168
 455,43; 2632,861;18732,496;-2219,665
 456,02; 2564,634;18879,480;-2927,947
 456,61; 2623,613;17317,459;-2925,275
 457,20; 2635,507;16921,363;-2786,753
 457,79; 3000,612;17588,131;-2922,554
 458,38; 3525,966;18338,264;-2132,467
 458,97; 3484,084;18039,641;-2515,104
 459,56; 2807,916;18190,479;-2760,565
 460,16; 2675,890;17832,258;-2082,894
 460,75; 2726,523;18157,518;-2072,146
 461,34; 2530,207;18077,887;-2962,020
 461,93; 2581,446;18381,186;-2200,853
 462,52; 2694,835;19333,275;-2744,993
 463,11; 2726,484;20546,688;-1989,639
 463,70; 3045,443;19458,643;-2869,295
 464,29; 3606,547;19945,082;-3150,376
 464,88; 4791,970;20795,807;-2743,024
 465,47; 4219,987;19885,285;-2748,139
 466,06; 3078,222;20915,713;-3191,692
 466,65; 2967,716;21667,572;-3018,635
 467,24; 3200,294;22030,848;-2539,986
 467,84; 3099,784;22443,164;-2020,371
 468,43; 2923,375;22325,051;-2238,559
 469,02; 2890,219;23517,170;-2702,135
 469,61; 3230,607;24168,936;-2593,555
 470,20; 3398,244;23781,063;-2841,085
 470,79; 3165,492;22760,100;-3232,475
 471,38; 2804,383;25266,463;-2192,395
 471,97; 2627,526;26009,732; -666,983
 472,56; 2509,542;25472,887;-3035,376
 473,15; 2620,214;25296,975;-2825,135
 473,74; 2515,370;26395,854;-3106,559
 474,33; 2592,935;25866,848;-2957,796
 474,92; 2518,615;27630,348;-3146,391
 475,51; 2685,310;29609,002;-2873,380
 476,10; 2823,083;29847,986;-3011,662
 476,69; 2965,736;26101,268;-2855,586
 477,28; 2809,910;25846,955;-2956,845
 477,87; 2706,154;27035,121; -173,956
 478,46; 2898,420;28695,639;-3029,460
 479,05; 3070,134;30507,100;-2134,284
 479,64; 3061,546;31679,756;-2718,655
 480,23; 2830,065;29541,508;-2845,548
 480,82; 2829,234;28549,996;-2736,807
 481,41; 2918,782;29371,510;-1873,929
 482,00; 2907,183;29284,885;-1364,185
 482,59; 2845,593;29593,998;-2298,998
 483,18; 2932,357;31702,244;-2376,723
 483,77; 2851,740;31703,139;-2193,865
 484,36; 2932,310;32475,002;-1701,380
 484,95; 2947,242;32990,410; -788,643
 485,54; 2995,124;35331,031;-1371,006
 486,13; 3303,876;35762,996; -945,616
 486,72; 3299,382;34334,137;  148,326
 487,31; 3135,681;31046,285;-1109,686
 487,89; 3084,985;32608,633; -193,697
 488,48; 3008,120;33798,164;-1523,728
 489,07; 3236,376;32913,941;-1248,674
 489,66; 3362,854;33511,645;-1505,224
 490,25; 3656,550;31095,299; -660,212
 490,84; 4100,711;34127,375;-1683,635
 491,43; 4407,833;34965,621; -701,552
 492,02; 4495,289;36094,652;-1864,987
 492,61; 4360,770;35362,902;-1043,094
 493,20; 4550,187;33776,426;-2019,743
 493,79; 4390,622;32749,434; 4824,494
 494,38; 4275,634;33706,043;-1938,342
 494,97; 4160,942;32583,934; -629,911
 495,55; 3871,060;34690,309;-2325,548
 496,14; 3763,086;35087,531;-2403,220
 496,73; 3597,334;35451,566;-1952,609
 497,32; 3557,410;34211,570;-2587,182
 497,91; 3444,170;35005,949;-1921,629
 498,50; 3539,292;34165,195;-2912,544
 499,09; 3556,410;34554,570;-3088,182
 499,68; 3495,372;32403,070;-2405,396
 500,27; 3630,583;33321,605;-2490,999
 500,85; 3811,161;32655,207;-2604,071
 501,44; 3768,874;32478,342;-2576,175
 502,03; 3609,642;33194,457;-3368,178
 502,62; 3414,014;31275,068;-3438,205
 503,21; 3603,199;29432,711;-3532,858
 503,80; 3437,827;32028,100;-2976,831
 504,39; 3323,131;32451,119;-3458,121
 504,97; 3433,701;31774,982;-3577,636
 505,56; 3648,355;31537,590;-2979,281
 506,15; 3743,798;32302,336;-3991,602
 506,74; 3715,452;32557,617;-2945,526
 507,33; 3959,608;32185,498;-3165,949
 507,92; 3742,139;33952,859;-3871,678
 508,51; 3487,907;35926,973;-3735,682
 509,09; 3500,321;34536,629;-3921,053
 509,68; 4337,118;34318,508;-3748,286
 510,27; 5959,294;33667,410;-3799,381
 510,86; 4956,713;32572,264;-4081,751
 511,45; 3459,477;33677,512;-3843,476
 512,03; 3330,781;34524,855;-3829,488
 512,62; 3409,397;36240,961;-3780,346
 513,21; 3395,771;33870,789;-3186,209
 513,80; 4022,733;34644,289;-3501,423
 514,39; 6082,076;32752,137;-3905,221
 514,97; 8577,979;35347,781;-4095,255
 515,56; 6641,442;34167,551;-4198,248
 516,15; 3807,632;35428,063;-3955,179
 516,74; 3204,547;32584,318;-4420,049
 517,33; 2983,514;33459,688;-3549,542
 517,91; 3017,522;33935,426;-4188,099
 518,50; 3070,350;32563,393;-3264,282
 519,09; 3232,084;33942,875;-3157,778
 519,68; 3745,497;35231,531;-4286,148
 520,26; 4390,366;38679,547;-4232,675
 520,85; 7205,134;39452,660;-4352,679
 521,44;11870,859;40826,078;-4358,897
 522,03; 9244,932;39485,539;-4271,912
 522,61; 4100,859;36773,078;-4364,897
 523,20; 3153,370;33924,090;-4337,233
 523,79; 3017,049;32040,590;-4337,828
 524,38; 2745,269;32850,191;-4344,709
 524,96; 2685,703;35883,199;-4321,473
 525,55; 2615,543;36021,449;-4542,771
 526,14; 2461,762;34018,723;-4434,931
 526,73; 2377,142;32852,074;-4389,515
 527,31; 2383,623;32903,324;-4488,622
 527,90; 2436,543;33630,449;-4564,771
 528,49; 2768,353;34155,938;-2529,839
 529,08; 3117,285;34601,344;-3467,103
 529,66; 2809,826;34848,445;-3911,389
 530,25; 2438,095;35279,832;-4414,172
 530,84; 2251,002;35334,348;-4583,485
 531,42; 2272,314;38583,105;-4365,332
 532,01; 2261,715;37528,480;-4291,588
 532,60; 2158,901;34512,125;-4473,241
 533,18; 2143,011;35538,086;-4078,042
 533,77; 2176,753;34969,984;-4236,374
 534,36; 2122,846;34459,469;-4374,061
 534,95; 2284,639;35483,477;-4088,015
 535,53; 2408,728;34236,090; -974,424
 536,12; 2289,960;36469,977;-2657,420
 536,71; 2187,517;36511,230;-3869,099
 537,29; 2256,863;36073,621;-3618,454
 537,88; 2263,859;33908,078;-3454,897
 538,47; 2442,626;32497,867;-2840,180
 539,05; 2387,310;36837,238;-2139,054
 539,64; 2245,799;40414,898;-1785,997
 540,22; 2220,373;37414,633; -764,790
 540,81; 2354,728;37501,766; 1008,297
 541,40; 2251,656;39018,629; 3425,591
 541,98; 2088,234;38188,230; 4858,519
 542,57; 2232,960;39368,977; 4597,580
 543,16; 2246,070;38645,613; 4952,500
 543,74; 2146,357;35774,480; 4083,603
 544,33; 2218,571;36297,883; 3620,721
 544,92; 2103,289;37217,887; 3973,339
 545,50; 2158,150;37338,488;11456,648
 546,09; 2236,450;40064,965;11359,916
 546,67; 2169,121;41948,727; 2857,878
 547,26; 2120,087;40050,094; -202,615
 547,85; 2228,064;39208,414; -567,501
 548,43; 2170,580;38452,625; -849,836
 549,02; 2127,103;39427,246;-1040,008
 549,60; 2095,019;40570,500; -984,878
 550,19; 2080,622;41166,996;-2192,901
 550,78; 2057,778;42660,875;-2328,325
 551,36; 2058,280;45349,148;-2432,104
 551,95; 2132,192;45443,859; -585,416
 552,53; 2068,689;43280,262; -296,916
 553,12; 2164,588;41420,035;-3431,672
 553,70; 2171,060;43188,547;-2878,222
 554,29; 2221,491;44058,008;-2869,428
 554,88; 2076,263;41831,668;-4247,989
 555,46; 2052,795;43723,027;-3881,718
 556,05; 2121,272;45007,734;-4207,268
 556,63; 2097,765;45206,266;-3396,489
 557,22; 2076,032;43875,109;-3394,714
 557,80; 2046,010;41749,762;-3568,321
 558,39; 2040,821;44188,250;-4145,390
 558,97; 1982,930;47993,887;-3699,470
 559,56; 2059,770;49889,137;-4544,768
 560,15; 2043,006;50117,891;-3611,042
 560,73; 2065,715;49814,152;-4287,867
 561,32; 2079,711;47024,609;-3741,309
 561,90; 2139,309;46041,910;-4382,333
 562,49; 2145,382;48487,371;-3786,348
 563,07; 2150,251;48074,387;-4783,875
 563,66; 2104,411;50064,133;-4352,577
 564,24; 2172,204;49228,145;-4763,531
 564,83; 2174,545;51344,664;-4603,607
 565,41; 2124,740;53840,375;-4329,539
 566,00; 2051,866;52202,164;-2755,012
 566,58; 2264,099;56465,375;-3725,729
 567,17; 2260,453;56909,508;-4280,642
 567,75; 2207,344;52392,871;-4653,562
 568,34; 2146,162;55893,770;-3216,466
 568,92; 2096,824;55738,793;-3987,947
 569,51; 2530,723;54852,895; 2680,576
 570,09; 2514,685;58247,391;-4676,638
 570,68; 2109,807;53188,313;-4788,833
 571,26; 2053,745;50733,242;-3886,817
 571,85; 2054,990;57347,738;-4822,649
 572,43; 2107,816;57011,379;-4704,111
 573,01; 1985,458;52662,375;-4873,920
 573,60; 2084,208;53819,012;-3785,810
 574,18; 2016,689;55122,262;-4514,917
 574,77; 1956,917;53284,277;-4737,634
 575,35; 1997,208;56113,012;-4452,810
 575,94; 2051,803;57300,770;-4076,275
 576,52; 2103,124;54049,270;-2249,680
 577,11; 2162,220;51620,297;-3244,924
 577,69; 3389,853;48685,555;-3183,176
 578,27; 3452,622;51008,996;-3447,901
 578,86; 2281,702;55198,543;-2994,031
 579,44; 2147,415;60080,004;-2805,855
 580,03; 2151,128;60164,137;-2493,958
 580,61; 2084,841;60267,270;-3206,062
 581,19; 2058,035;56429,652;-2538,271
 581,78; 1949,127;55361,813;-2364,238
 582,36; 1972,153;57656,031;-2911,909
 582,95; 1890,301;56180,172;-1497,776
 583,53; 1981,267;59586,539;-2319,268
 584,11; 2055,213;61608,883;-2241,088
 584,70; 2022,470;61691,660;-1948,035
 585,28; 2066,478;62070,398;-1853,592
 585,87; 1969,254;60436,930;-2889,432
 586,45; 1882,702;63023,543;-2375,031
 587,03; 1845,933;64945,430;-1150,027
 587,62; 1848,166;61494,641;-1834,745
 588,20; 1914,069;62236,285;-1020,779
 588,78; 1877,583;58157,840;-3411,673
 589,37; 1943,124;57765,270;-3360,680
 589,95; 1916,521;62238,773;-3385,657
 590,54; 1863,626;63633,539;-3461,459
 591,12; 1874,296;62116,301;-3508,497
 591,70; 1873,107;59586,789;-3331,565
 592,29; 1924,334;62881,805;-2923,283
 592,87; 1972,740;63542,375;-2394,538
 593,45; 1816,976;63404,801; 1487,908
 594,04; 1886,245;62800,188;-3676,875
 594,62; 1884,309;59709,910;-3708,333
 595,20; 1839,714;62066,828;-4371,146
 595,79; 1864,710;62681,285;-4165,588
 596,37; 1860,853;61108,555;-3657,176
 596,95; 1837,225;56922,164;-4321,203
 597,53; 1739,162;58806,770;-4226,466
 598,12; 1756,820;61848,922;-3959,669
 598,70; 1822,191;64932,531;-3776,695
 599,28; 1871,740;64911,375;-3404,538
 599,87; 1912,955;64929,777;-3061,420
 600,45; 1890,503;64938,293;-3907,543
 601,03; 1918,672;63145,781;-4100,802
 601,62; 1860,245;61727,188;-4468,875
 602,20; 1904,347;59786,414;-4541,119
 602,78; 1958,119;64399,070;-4770,680
 603,36; 2068,655;64783,301;-3166,688
 603,95; 2120,917;58863,277;-4492,634
 604,53; 1969,993;62401,281;-4574,207
 605,11; 2033,972;59505,258;-2755,535
 605,69; 1952,432;62362,156;-3365,249
 606,28; 1885,334;62594,805;-4223,283
 606,86; 1806,499;61629,422;-3946,264
 607,44; 1731,060;60431,547;-3906,222
 608,02; 1714,693;58047,805;-4037,474
 608,61; 1809,263;60099,668;-2866,989
 609,19; 1621,782;58582,418;-2582,882
 609,77; 1742,140;57398,422; -710,073
 610,35; 1647,748;55748,785; 5794,625
 610,94; 1674,537;56509,926;14509,949
 611,52; 1712,263;55803,668;12610,011
 612,10; 1590,709;53026,957; 8432,133
 612,68; 1619,558;56637,949; 2694,278
 613,26; 1670,495;57037,551; 2032,015
 613,85; 1694,896;61759,926; -599,241
 614,43; 1621,744;62306,918;-1030,096
 615,01; 1657,756;62272,199;-1215,211
 615,59; 1866,752;64874,328; -972,932
 616,17; 2017,318;59402,648;-2561,890
 616,76; 2186,930;62178,887;-2993,470
 617,34; 2227,188;62666,988;-2389,138
 617,92; 2079,162;58547,770;-3399,466
 618,50; 1966,035;61202,652;-2562,271
 619,08; 1854,512;57928,031;-2514,100
 619,67; 1819,866;55968,164;-3196,012
 620,25; 1949,166;54290,641;-2743,745
 620,83; 1900,503;50498,293;-3495,543
 621,41; 1921,258;52314,797;-2800,711
 621,99; 1774,980;54560,672;-2529,371
 622,57; 1917,487;55529,141;-3707,149
 623,15; 2003,251;56213,387;-3783,875
 623,74; 2075,141;58266,746;-3892,794
 624,32; 1927,934;59330,754;-2827,749
 624,90; 1920,158;58625,898;-2311,188
 625,48; 1792,022;57897,043;-3132,436
 626,06; 1882,685;56898,391;-4006,638
 626,64; 1925,415;57787,004;-4162,855
 627,22; 1805,002;58993,020;-3409,764
 627,81; 1762,466;58046,117;-4334,478
 628,39; 1810,563;57121,145;-4560,722
 628,97; 1860,862;56597,293;-4437,733
 629,55; 1815,500;55377,750;-4219,985
 630,13; 1801,841;55669,270;-2959,062
 630,71; 1748,365;54162,891;-2747,233
 631,29; 1798,917;53129,277;-3824,634
 631,87; 1865,095;52776,504;-4223,451
 632,45; 1745,318;52786,648;-4716,890
 633,03; 1765,660;54183,500;-4191,688
 633,62; 1792,993;55423,281;-4714,207
 634,20; 1749,659;54882,172;-4089,966
 634,78; 1705,339;56497,000;-4430,283
 635,36; 1768,601;56701,648;-4449,508
 635,94; 1680,892;55183,383;-5398,684
 636,52; 1820,883;51027,645;-5422,126
 637,10; 1678,225;52116,164;-5488,203
 637,68; 1639,115;50694,527;-4702,123
 638,26; 1707,859;47618,750;-5536,176
 638,84; 1708,875;48688,902;-5421,569
 639,42; 1662,225;49235,164;-3756,203
 640,00; 1699,561;51366,148;-5405,726
 640,58; 1693,398;54579,402;-4806,027
 641,16; 1702,236;55521,656;-5571,328
 641,74; 1680,074;53214,906;-5433,630
 642,32; 1686,911;50106,160;-5620,931
 642,90; 1618,749;50434,414;-5856,232
 643,48; 1573,587;49231,668;-5786,534
 644,06; 1760,424;49280,922;-5796,835
 644,64; 1609,262;49595,176;-5842,137
 645,22; 1630,100;50513,430;-5562,438
 645,80; 1629,938;50547,684;-4957,740
 646,39; 1527,775;48107,938;-5515,041
 646,97; 1538,613;49773,191;-5850,342
 647,54; 1545,450;52328,441;-5717,644
 648,12; 1501,288;54879,695;-5865,945
 648,70; 1489,126;58954,949;-5885,247
 649,28; 1487,964;56421,203;-6090,548
 649,86; 1509,801;51091,457;-5609,850
 650,44; 1546,639;48619,711;-5452,151
 651,02; 1588,476;49970,965;-5474,452
 651,60; 1454,314;51793,219;-5803,753
 652,18; 1504,152;51320,473;-4735,055
 652,76; 1448,990;53277,723;-5934,356
 653,34; 1462,827;54817,977;-5939,658
 653,92; 1475,665;57729,230;-5784,959
 654,50; 1496,502;59042,484;-5818,261
 655,08; 1557,340;58048,738;-5841,562
 655,66; 1578,178;55058,992;-5115,863
 656,24; 1617,016;56743,246;-5200,165
 656,82; 1668,853;58989,500;-4979,466
 657,40; 1521,691;58967,754;-5667,768
 657,98; 1481,528;60169,008;-5486,069
 658,56; 1480,366;61114,258;-5717,371
 659,14; 1503,204;61380,512;-5913,672
 659,72; 1507,042;63381,766;-5916,973
 660,29; 1421,879;62437,020;-5907,275
 660,87; 1407,717;59738,273;-5212,576
 661,45; 1418,554;58590,527;-5664,877
 662,03; 1556,392;57513,781;-4971,179
 662,61; 1438,230;54945,035;-5638,480
 663,19; 1415,068;54618,289;-5657,782
 663,77; 1471,905;53917,543;-5939,083
 664,35; 1407,743;56689,793;-5887,384
 664,93; 1538,580;62595,047;-4922,686
 665,51; 1489,418;61993,301;-6033,987
 666,08; 1553,256;57747,555;-5652,289
 666,66; 1548,094;51859,809;-4400,590
 667,24; 1503,931;49420,063;-5952,892
 667,82; 1456,769;50250,316;-5849,193
 668,40; 1498,606;50723,570;-5932,494
 668,98; 1506,444;51952,824;-5097,796
 669,56; 1359,282;57957,078;-6096,097
 670,13; 1419,120;61797,328;-6222,398
 670,71; 1407,957;59698,582;-5900,700
 671,29; 1374,795;57209,836;-6139,001
 671,87; 1372,632;56814,090;-6051,303
 672,45; 1396,470;51822,344;-6050,604
 673,03; 1480,308;52592,598;-4769,906
 673,60; 1561,146;58431,852;-3503,207
 674,18; 1525,983;63679,105;-5938,508
 674,76; 1512,821;61159,359;-6226,810
 675,34; 1444,658;56361,613;-5251,111
 675,92; 1392,496;55284,863;-6338,413
 676,50; 1397,334;55051,117;-6085,714
 677,07; 1383,172;56952,371;-6095,016
 677,65; 1333,009;56680,625;-6163,317
 678,23; 1358,847;55997,879;-5057,618
 678,81; 1406,684;58016,133;-5299,919
 679,38; 1370,522;56669,387;-5969,221
 679,96; 1277,360;53267,641;-5846,522
 680,54; 1364,198;55171,895;-5308,824
 681,12; 1203,035;52485,148;-6126,125
 681,70; 1334,873;54786,398;-4413,427
 682,27; 1280,710;54740,652;-5851,728
 682,85; 1290,548;58265,906;-5991,029
 683,43; 1257,386;64943,160;-6140,331
 684,01; 1355,224;64943,414;-5172,632
 684,58; 1317,061;64307,668;-5138,934
 685,16; 1337,899;64236,922;-4494,235
 685,74; 1328,736;62790,176;-3853,536
 686,32; 1291,574;59009,430;-6012,838
 686,89; 1304,412;59552,684;-6015,139
 687,47; 1415,250;59534,934;-6076,441
 688,05; 1362,087;56416,188;-6019,742
 688,63; 1340,925;59626,441;-6102,043
 689,20; 1444,762;62884,695;-5971,345
 689,78; 1390,600;58427,949;-5530,646
 690,36; 1496,438;54291,203;-5381,948
 690,93; 1395,276;54968,457;-6355,249
 691,51; 1469,113;61453,711;-6326,550
 692,09; 1534,951;64946,965;-6223,852
 692,67; 1459,788;64947,219;-6047,153
 693,24; 1462,626;60968,469;-5803,455
 693,82; 1437,464;59538,723;-6235,756
 694,40; 1370,302;58049,977;-3570,058
 694,97; 1437,139;57456,230;-6046,359
 695,55; 1447,977;59820,484;-5464,660
 696,13; 1456,814;61729,738;-4454,962
 696,70; 1444,652;58594,992;-6029,263
 697,28; 1400,490;59108,246;-6266,564
 697,86; 1456,328;60837,500;-6030,866
 698,43; 1365,165;58827,754;-6198,167
 699,01; 1346,003;55595,004;-6051,469
 699,59; 1359,840;55751,258;-6402,770
 700,16; 1429,678;54174,512;-5257,072
 700,74; 1339,516;57040,766;-5497,373
 701,32; 1367,354;56440,020;-6233,674
 701,89; 1320,191;55792,273;-6049,976
 702,47; 1395,029;60296,527;-6466,277
 703,05; 1353,866;64951,781;-6309,579
 703,62; 1286,704;64952,035;-6227,880
 704,20; 1382,542;64952,285;-5306,182
 704,77; 1346,380;64952,539;-6118,483
 705,35; 1286,217;64213,793;-6006,784
 705,93; 1279,055;64327,047;-4922,085
 706,50; 1379,892;63796,301;-5267,387
 707,08; 1285,730;60606,555;-5284,688
 707,65; 1255,568;60046,809;-5620,990
 708,23; 1357,406;64881,063;-5431,292
 708,81; 1283,243;64954,316;-5019,593
 709,38; 1340,081;64954,570;-5001,894
 709,96; 1380,918;64954,820;-6025,195
 710,53; 1395,756;64955,074;-6007,497
 711,11; 1378,594;61503,328;-5752,798
 711,69; 1389,432;61913,582;-3821,100
 712,26; 1327,269;59012,836;-4642,401
 712,84; 1320,107;63346,090;-5947,703
 713,41; 1340,944;64411,344;-6153,004
 713,99; 1370,782;64924,598;-6068,305
 714,56; 1419,620;62057,852;-6326,607
 715,14; 1402,458;60312,105;-6198,908
 715,71; 1383,295;60246,355;-6210,209
 716,29; 1357,133;62893,609;-6648,511
 716,86; 1353,971;63573,863;-6510,813
 717,44; 1450,808;63263,117;-6424,114
 718,02; 1321,646;62110,371;-6462,415
 718,59; 1336,484;61013,625;-5121,716
 719,17; 1395,321;63488,879;-5649,018
 719,74; 1513,159;62907,133;-5756,319
 720,32; 1401,997;63502,387;-6451,621
 720,89; 1402,834;64959,641;-6422,922
 721,47; 1298,672;64959,891;-6388,224
 722,04; 1475,510;64960,145;-5502,525
 722,62; 1500,347;64252,398;-3979,826
 723,19; 1507,185;60250,652;-4938,128
 723,77; 1499,023;57638,906;-5673,429
 724,34; 1570,860;60150,160;-5576,730
 724,92; 1535,698;63789,414;-6558,032
 725,49; 1601,536;64961,668;-5666,333
 726,07; 1647,373;64961,922;-6491,635
 726,64; 1695,211;64627,176;-6587,936
 727,21; 1827,049;60249,426;-5627,238
 727,79; 1836,886;63706,680;-6444,539
 728,36; 2047,724;64962,934;-6722,840
 728,94; 2116,562;64963,188;-6535,142
 729,51; 2110,399;64963,441;-6365,443
 730,09; 2486,237;64963,695;-5545,745
 730,66; 2633,074;64963,949;-6358,046
 731,24; 3048,912;64964,203;-6577,348
 731,81; 3244,750;64964,457;-5151,649
 732,38; 3429,588;64964,711;-6492,950
 732,96; 3575,425;64964,961;-6263,251
 733,53; 3641,263;60347,215;-6389,553
 734,11; 4039,101;61575,469;-6617,854
 734,68; 4582,938;64965,723;-6211,156
 735,26; 5214,776;64965,977;-6389,458
 735,83; 5881,614;64966,230;-6498,759
 736,40; 6340,451;62243,484;-6516,060
 736,98; 6651,289;61999,738;-6374,361
 737,55; 6663,126;59236,992;-5827,663
 738,13; 6564,964;57707,246;-5702,964
 738,70; 6794,802;60991,496;-5529,266
 739,27; 6887,640;62504,750;-6452,567
 739,85; 7261,477;62745,004;-6283,869
 740,42; 7801,315;64968,258;-6464,170
 740,99; 8696,152;64968,512;-5618,471
 741,57; 9228,990;64968,766;-4867,773
 742,14; 9608,828;64969,020;-5349,074
 742,72; 9963,666;64969,273;-4751,375
 743,29; 9695,503;64969,527;-6563,677
 743,86; 9677,341;64969,781;-6538,979
 744,44; 9197,179;64970,031;-6113,280
 745,01; 8781,017;64970,285;-5760,581
 745,58; 8350,854;64970,539;-6259,882
 746,16; 8260,691;64970,793;-6188,184
 746,73; 8119,529;64971,047;-6479,485
 747,30; 8669,367;61139,301;-6536,787
 747,88; 9239,204;59621,555;-5621,088
 748,45; 9644,042;64971,809;-5668,390
 749,02;10718,880;64972,063;-6384,691
 749,60;11673,718;62401,313;-6212,992
 750,17;12246,556;61766,566;-5269,294
 750,74;13129,393;62801,820;-6479,595
 751,31;14088,230;63306,074;-6347,896
 751,89;14359,068;64232,328;-6546,198
 752,46;14534,906;64973,582;-6282,500
 753,03;14516,743;64973,836;-6160,801
 753,61;14396,581;63755,090;-4858,102
 754,18;14043,419;64573,344;-6434,404
 754,75;13455,257;63888,598;-5191,705
 755,32;12659,094;60715,848;-6332,006
 755,90;11949,932;64975,102;-6493,308
 756,47;11287,770;64975,355;-4809,609
 757,04;10244,607;64975,609;-6457,911
 757,61; 9596,445;64975,863;-5553,212
 758,19; 8700,282;64976,117;-5253,514
 758,76; 7826,120;64976,371;-6603,815
 759,33; 7202,958;64976,625;-6664,116
 759,90; 6326,795;64976,879;-5714,417
 760,48; 5758,633;64977,133;-6778,719
 761,05; 5350,471;64977,383;-6083,021
 761,62; 4915,309;62082,637;-4888,322
 762,19; 4324,146;58992,891;-6144,624
 762,77; 4137,984;61730,145;-5963,925
 763,34; 3651,822;64978,398;-6610,226
 763,91; 3437,659;64978,652;-5818,527
 764,48; 3229,497;64978,906;-6756,829
 765,05; 3018,334;64979,160;-6543,130
 765,63; 2829,172;63215,414;-6417,432
 766,20; 2578,010;59753,668;-6004,733
 766,77; 2422,848;57105,918;-5921,035
 767,34; 2392,685;58807,172;-6640,336
 767,91; 2248,523;59176,426;-6689,637
 768,49; 2114,361;61368,680;-6772,939
 769,06; 2148,198;64980,934;-5832,240
 769,63; 2049,036;62272,188;-6636,542
 770,20; 1927,874;59567,441;-5868,843
 770,77; 1873,711;57921,695;-5645,145
 771,34; 1892,549;60065,949;-6615,446
 771,91; 1777,387;60549,203;-6102,747
 772,49; 1801,224;58558,453;-6369,048
 773,06; 1743,062;57687,707;-6203,350
 773,63; 1729,900;60204,961;-6639,651
 774,20; 1672,737;58197,215;-5918,953
 774,77; 1651,575;56475,469;-6631,254
 775,34; 1633,413;56707,723;-6214,556
 775,91; 1646,250;57056,977;-6417,857
 776,49; 1811,088;58787,230;-6590,158
 777,06; 1928,926;60761,484;-6015,460
 777,63; 1849,763;64224,738;-6367,761
 778,20; 1656,601;62572,988;-6250,063
 778,77; 1575,439;63316,242;-5763,364
 779,34; 1529,276;64985,496;-6585,666
 779,91; 1612,114;64985,750;-6534,967
 780,48; 1610,952;59144,004;-5853,268
 781,05; 1543,789;50716,258;-6586,570
 781,62; 1587,627;52124,512;-6604,871
 782,20; 1510,465;58813,766;-6500,172
 782,77; 1549,302;64987,020;-6529,474
 783,34; 1501,140;64052,273;-6522,775
 783,91; 1478,978;61362,523;-6509,077
 784,48; 1472,815;60480,777;-2126,378
 785,05; 1470,653;59144,031;-6540,680
 785,62; 1485,491;58221,285;-6452,981
 786,19; 1413,328;58149,539;-5100,282
 786,76; 1398,166;55130,793;-6677,583
 787,33; 1449,004;56202,047;-6515,885
 787,90; 1469,841;59491,301;-6591,187
 788,47; 1463,679;60148,555;-5075,488
 789,04; 1541,517;58988,809;-5763,790
 789,61; 1517,354;58863,059;-5066,091
 790,18; 1521,192;55747,313;-6561,392
 790,75; 1435,030;50841,566;-6671,693
 791,32; 1551,867;52056,820;-6577,995
 791,89; 1468,705;55205,074;-6068,296
 792,46; 1700,543;60806,328;-5763,598
 793,03; 2212,380;62404,582;-6702,899
 793,60; 2065,218;55699,836;-6440,201
 794,17; 1664,056;52257,090;-5569,502
 794,74; 1531,893;47273,344;-5886,803
 795,31; 1501,731;50096,594;-6099,105
 795,88; 1477,569;52579,848;-5572,406
 796,45; 1370,406;53365,102;-6529,708
 797,02; 1359,244;56004,355;-5046,009
 797,59; 1341,082;57922,609;-6675,311
 798,16; 1345,919;54563,863;-5861,612
 798,73; 1259,757;53534,117;-6761,913
 799,30; 1326,595;55088,371;-6611,214
 799,87; 1326,432;55650,625;-6713,516
 800,44; 1293,270;55353,875;-6729,817
 801,01; 1368,108;56836,129;-6807,119
 801,58; 1356,945;58477,383;-6537,420
 802,15; 1313,783;52086,637;-6658,722
 802,72; 1351,621;48849,891;-6694,023
 803,28; 1307,458;52000,145;-6076,324
 803,85; 1280,296;57179,398;-6728,626
 804,42; 1373,134;55235,652;-5999,927
 804,99; 1358,971;53752,906;-6539,229
 805,56; 1351,809;52472,160;-6770,530
 806,13; 1313,647;53387,410;-6075,832
 806,70; 1380,484;52719,664;-6748,133
 807,27; 1332,322;54477,918;-6672,434
 807,84; 1315,160;52786,172;-6693,736
 808,41; 1773,997;49728,426;-6022,037
 808,98; 2358,835;50479,680;-5986,338
 809,54; 2153,673;52469,934;-4958,640
 810,11; 1535,510;48281,188;-6782,941
 810,68; 1407,348;43021,441;-6680,243
 811,25; 1220,186;41394,695;-6760,544
 811,82; 1269,023;40374,945;-6886,846
 812,39; 1177,861;37710,199;-3331,147
 812,96; 1168,699;38779,453;-6767,448
 813,52; 1240,536;41291,707;-6937,750
 814,09; 1137,374;44522,961;-6766,051
 814,66; 1209,212;50325,215;-6827,353
 815,23; 1174,049;51240,469;-6669,654
 815,80; 1126,887;50439,723;-5853,956
 816,37; 1132,725;50917,977;-6801,257
 816,93; 1175,562;49487,230;-6731,558
 817,50; 1189,400;46790,480;-6102,859
 818,07; 1197,238;46034,734;-6960,161
 818,64; 1178,075;46919,988;-6856,462
 819,21; 1218,913;46261,242;-6053,764
 819,77; 1203,751;42742,496;-6571,065
 820,34; 1262,588;42053,750;-6677,367
 820,91; 1238,426;43276,004;-6469,668
 821,48; 1255,264;43873,258;-6689,969
 822,05; 1309,101;45571,512;-5875,271
 822,61; 1257,939;44296,766;-5631,572
 823,18; 1270,777;41860,016;-6620,874
 823,75; 1174,614;42585,270;-6957,175
 824,32; 1237,452;45286,523;-6923,477
 824,88; 1198,290;45073,777;-6882,778
 825,45; 1134,127;44018,031;-6899,079
 826,02; 1130,965;43798,285;-6643,380
 826,59; 1106,803;43974,539;-6639,682
 827,15; 1075,640;46077,793;-6906,983
 827,72; 1104,478;49519,047;-6723,285
 828,29; 1048,316;51523,301;-6895,586
 828,86; 1054,153;48827,551;-6791,888
 829,42; 1063,991;40797,805;-6812,189
 829,99; 1074,829;36802,059;-6647,490
 830,56; 1052,666;36252,313;-6869,792
 831,13; 1048,504;37220,566;-6060,093
 831,69; 1051,342;38022,820;-6506,395
 832,26; 1056,179;38832,074;-5062,696
 832,83; 1020,017;40408,328;-5452,998
 833,39; 1060,855;40187,582;-6904,299
 833,96; 1096,692;39167,836;-6687,600
 834,53; 1003,530;40039,086;-6928,902
 835,10; 1072,368;39930,340;-6529,203
 835,66;  996,205;38972,594;-6920,504
 836,23; 1014,043;39801,848;-6803,806
 836,80; 1027,881;39428,102;-6790,107
 837,36;  963,718;37086,355;-6810,409
 837,93; 1067,556;34475,609;-6902,710
 838,50; 1041,394;35084,863;-6789,012
 839,06; 1034,231;37684,117;-6288,313
 839,63; 1017,069;37191,371;-6895,614
 840,19; 1048,907;35132,621;-6607,916
 840,76; 1032,744;35364,875;-6404,217
 841,33;  995,582;35892,129;-6509,519
 841,89; 1050,420;36779,383;-6949,820
 842,46; 1013,257;37103,637;-6751,122
 843,03; 1001,095;35389,891;-6089,423
 843,59; 1042,933;34224,145;-6403,724
 844,16; 1040,770;34994,398;-6181,025
 844,73; 1081,608;34249,652;-6067,327
 845,29; 1113,446;32937,902;-5695,628
 845,86;  987,283;35699,156;-6800,930
 846,42;  896,121;36940,410;-7004,231
 846,99;  980,959;36477,664;-6967,533
 847,56;  968,796;36265,918;-5840,834
 848,12;  980,634;36240,172;-6745,135
 848,69;  965,472;35710,426;-6715,437
 849,25;  992,309;34401,680;-6845,738
 849,82;  896,147;34081,934;-3247,040
 850,38;  961,985;35064,188;-6840,341
 850,95; 1021,822;32489,439;-6324,643
 851,52;  950,660;32520,693;-6565,944
 852,08;  861,498;32548,947;-6691,245
 852,65;  927,335;30323,199;-7005,546
 853,21;  900,173;27698,453;-6958,848
 853,78;  974,011;27362,707;-6363,149
 854,34;  980,848;28860,961;-6871,451
 854,91;  999,686;29081,215;-5086,752
 855,47;  976,524;29942,467;-5108,054
 856,04;  959,361;32027,721;-6746,355
 856,60; 1050,199;33961,973;-6104,656
 857,17;  985,037;34979,227;-6840,958
 857,73;  970,874;33553,480;-6811,259
 858,30;  950,712;32532,734;-6985,561
 858,86;  924,550;31110,988;-5926,862
 859,43;  993,387;31430,242;-6226,164
 859,99; 1003,225;32011,496;-6852,465
 860,56;  964,063;33126,750;-6903,766
 861,12;  953,900;35190,004;-6737,068
 861,69;  988,738;33669,258;-5924,369
 862,25;  972,576;34731,508;-6821,670
 862,82;  907,413;34419,762;-5972,972
 863,38;  958,251;31196,018;-6843,273
 863,95;  947,089;29305,270;-6239,575
 864,51;  991,926;30403,523;-5287,876
 865,08;  889,764;29284,777;-6090,178
 865,64;  973,602;26795,031;-7018,479
 866,21;  952,439;26131,285;-6745,780
 866,77;  977,277;26051,537;-5552,082
 867,34; 1023,115;25734,791;-6672,383
 867,90; 1043,952;24632,045;-6303,685
 868,46; 1045,790;23835,299;-6041,986
 869,03;  975,628;24389,551;-6929,288
 869,59;  971,465;26353,805;-6884,589
 870,16; 1018,303;27647,059;-6052,890
 870,72; 1023,141;30060,313;-6657,191
 871,28;  965,978;32915,566;-5992,493
 871,85;  950,816;33142,820;-6907,794
 872,41;  984,654;31569,072;-6004,096
 872,98;  941,491;32738,326;-6050,397
 873,54;  910,329;33876,578;-5920,699
 874,10; 1043,167;32768,832;-5876,000
 874,67; 1008,167;32987,832;-6904,000
 875,23;  911,167;31068,834;-7032,000
 875,80;  887,167;28009,834;-6641,000
 876,36;  884,167;25058,834;-6642,000
 876,92;  940,167;22832,834;-6189,000
 877,49;  941,167;23923,834;-6517,000
 878,05;  898,167;24896,834;-6797,000
 878,61;  982,167;26938,834;-6812,000
 879,18;  869,167;27553,834;-6252,000
 879,74;  935,167;28076,834;-6720,000
 880,30;  913,167;28679,834;-5926,000
 880,87;  866,167;28852,834;-6326,000
 881,43;  918,167;29533,834;-6871,000
 881,99;  909,167;27306,834;-6879,000
 882,56;  896,167;27610,834;-6661,000
 883,12;  865,167;29049,834;-5740,000
 883,68;  838,167;29120,834;-6518,000
 884,25;  938,167;28300,834;-6949,000
 884,81;  835,167;26343,834;-6701,000
 885,37;  937,167;24221,834;-6786,000
 885,94;  945,167;22940,834;-6851,000
 886,50;  958,167;23098,834;-6886,000
 887,06;  888,167;24358,834;-6796,000
 887,62;  884,167;25019,834;-6866,000
 888,19;  985,167;25774,834;-5986,000
 888,75;  937,167;26542,834;-6821,000
 889,31;  970,167;29043,834;-6778,000
 889,87; 1031,167;30537,834;-6723,000
 890,44;  999,167;30349,834;-6696,000
 891,00; 1007,167;28757,834;-6786,000
 891,56;  969,167;26457,834;-6998,000
 892,12; 1036,167;24463,834;-6754,000
 892,69; 1038,167;25310,834;-6373,000
 893,25; 1006,167;28798,834;-6877,000
 893,81; 1016,167;31774,834;-6696,000
 894,37; 1113,167;31330,834;-6342,000
 894,94; 1095,167;28713,834;-6772,000
 895,50; 1158,167;26035,834; -212,000
 896,06; 1198,167;24749,834;-6810,000
 896,62; 1251,167;23405,834;-6707,000
 897,18; 1211,167;24661,834;-6518,000
 897,75; 1246,167;27406,834;-6895,000
 898,31; 1298,167;27887,834;-6849,000
 898,87; 1268,167;26274,834;-6860,000
 899,43; 1308,167;25164,834;-6469,000
 899,99; 1284,167;26592,834;-6866,000
 900,56; 1302,167;25515,834;-6791,000
 901,12; 1380,167;24875,834;-6890,000
 901,68; 1467,167;27903,834;-6267,000
 902,24; 1427,167;31800,834;-5930,000
 902,80; 1567,167;32652,834;-6794,000
 903,36; 1832,167;31893,834;-6691,000
 903,93; 2427,167;32139,834;-6646,000
 904,49; 4582,167;32761,834;-6913,000
 905,05;11376,167;30952,834;-6732,000
 905,61;28066,166;28208,834;-6832,000
 906,17;50965,168;28086,834;-6901,000
 906,73;64961,168;25975,834;-5380,000
 907,29;64961,168;24960,834;-6910,000
 907,86;64961,168;25118,834;-6827,000
 908,42;64961,168;28092,834;-6795,000
 908,98;64961,168;31123,834;-5908,000
 909,54;59980,168;38813,832;-6885,000
 910,10;26405,166;48220,832;-6634,000
 910,66; 8340,167;57581,832;-6781,000
 911,22; 3530,167;65027,832;-6761,000
 911,78; 2135,167;62593,832;-6841,000
 912,34; 1699,167;53256,832;-6080,000
 912,90; 1627,167;44610,832;-5232,000
 913,46; 1565,167;37052,832;-6876,000
 914,03; 1446,167;30620,834;-5746,000
 914,59; 1384,167;27452,834;-6682,000
 915,15; 1354,167;24908,834;-6891,000
 915,71; 1290,167;24217,834;-6863,000
 916,27; 1305,167;23800,834;-6723,000
 916,83; 1208,167;23006,834;-5824,000
 917,39; 1333,167;21742,834;-3512,000
 917,95; 1240,167;20224,834;-6009,000
 918,51; 1198,167;19972,834;-6583,000
 919,07; 1203,167;21780,834;-6791,000
 919,63; 1147,167;23295,834;-6661,000
 920,19; 1071,167;23935,834;-6865,000
 920,75; 1165,167;23112,834;-6640,000
 921,31; 1196,167;21484,834;-4837,000
 921,87; 1194,167;20216,834;-6845,000
 922,43; 1162,167;18019,834;-5626,000
 922,99; 1208,167;17321,834;-6706,000
 923,55; 1119,167;18674,834;-6655,000
 924,11; 1179,167;19094,834;-6976,000
 924,67; 1190,167;19310,834;-6962,000
 925,23; 1168,167;19485,834;-6778,000
 925,79; 1195,167;20122,834;-6710,000
 926,35; 1184,167;20219,834;-6573,000
 926,91; 1126,167;19401,834;-6909,000
 927,47; 1118,167;19367,834;-6660,000
 928,03; 1189,167;20294,834;-6786,000
 928,59; 1148,167;20503,834;-6678,000
 929,15; 1203,167;20781,834;-6792,000
 929,71; 1218,167;22016,834;-6840,000
 930,27; 1224,167;23587,834;-6537,000
 930,82; 1111,167;25573,834;-6728,000
 931,38; 1159,167;24317,834;-5852,000
 931,94; 1190,167;22672,834;-6843,000
 932,50; 1220,167;21252,834;-6481,000
 933,06; 1263,167;20895,834;-6768,000
 933,62; 1190,167;21092,834;-6443,000
 934,18; 1168,167;20632,834;-6727,000
 934,74; 1146,167;21320,834;-6709,000
 935,30; 1185,167;22030,834;-6484,000
 935,86; 1200,167;21213,834;-6505,000
 936,42; 1156,167;20702,834;-6873,000
 936,97; 1203,167;21656,834;-6563,000
 937,53; 1226,167;20552,834;-6826,000
 938,09; 1161,167;21087,834;  123,000
 938,65; 1215,167;21186,834;-6268,000
 939,21; 1191,167;20179,834;-6708,000
 939,77; 1220,167;18946,834;-6213,000
 940,33; 1184,167;18602,834;-6748,000
 940,88; 1167,167;19429,834;-5908,000
 941,44; 1208,167;21301,834;-6983,000
 942,00; 1190,167;23225,834;-6697,000
 942,56; 1237,167;24231,834;-6604,000
 943,12; 1221,167;23427,834;-5907,000
 943,68; 1256,167;22950,834;-5679,000
 944,23; 1271,167;23124,834;-6749,000
 944,79; 1238,167;22674,834;-6102,000
 945,35; 1189,167;20741,834;-6599,000
 945,91; 1301,167;19519,834;-6767,000
 946,47; 1249,167;19827,834;-3353,000
 947,03; 1280,167;19896,834;-6850,000
 947,58; 1230,167;19661,834;-6840,000
 948,14; 1253,167;20790,834;-5897,000
 948,70; 1267,167;19573,834;-5855,000
 949,26; 1271,167;18881,834;-6616,000
 949,81; 1219,167;18342,834;-6644,000
 950,37; 1272,167;18686,834;-6695,000
 950,93; 1285,167;17993,834;-6224,000
 951,49; 1196,167;17568,834;-6057,000
 952,05; 1328,167;17926,834;-6571,000
 952,60; 1198,167;17299,834;-6951,000
 953,16; 1237,167;16933,834;-5783,000
 953,72; 1193,167;15628,833;-5813,000
 954,27; 1191,167;15524,833;-6566,000
 954,83; 1319,167;15317,833;-6703,000
 955,39; 1340,167;14917,833;-6691,000
 955,95; 1279,167;14456,833;-6849,000
 956,50; 1251,167;14272,833;-6698,000
 957,06; 1222,167;14126,833;-5922,000
 957,62; 1260,167;13780,833;-6559,000
 958,18; 1295,167;13872,833;-6741,000
 958,73; 1354,167;13326,833;-6820,000
 959,29; 1380,167;13518,833;-6106,000
 959,85; 1302,167;14785,833;-6864,000
 960,40; 1345,167;16746,834;-4263,000
 960,96; 1306,167;16386,834;-6738,000
 961,52; 1388,167;14755,833;-6643,000
 962,07; 1351,167;13711,833;-6742,000
 962,63; 1362,167;13208,833;-6723,000
 963,19; 1323,167;13435,833;-5779,000
 963,74; 1402,167;13877,833;-6582,000
 964,30; 1437,167;14475,833;-6595,000
 964,86; 1434,167;14281,833;-6484,000
 965,41; 1464,167;14290,833;-6705,000
 965,97; 1476,167;14185,833;-6569,000
 966,53; 1512,167;14792,833;-6750,000
 967,08; 1543,167;15311,833;-6611,000
 967,64; 1664,167;15082,833;-6705,000
 968,19; 1645,167;14471,833;-6684,000
 968,75; 1661,167;14662,833;-6566,000
 969,31; 1639,167;14880,833;-5626,000
 969,86; 1746,167;14995,833;-6505,000
 970,42; 1761,167;13195,833;-6620,000
 970,97; 1729,167;11567,833;-6437,000
 971,53; 1773,167;11625,833;-6490,000
 972,09; 1776,167;12998,833;-6646,000
 972,64; 1850,167;13523,833;-5812,000
 973,20; 1895,167;13815,833;-6599,000
 973,75; 1951,167;14605,833;-5760,000
 974,31; 1951,167;14826,833;-6578,000
 974,87; 1957,167;14921,833;-6674,000
 975,42; 2026,167;14507,833;-6727,000
 975,98; 2024,167;13201,833;-6651,000
 976,53; 2106,167;12100,833;-6555,000
 977,09; 2044,167;11353,833;-4624,000
 977,64; 2107,167;11164,833;-6532,000
 978,20; 2120,167;10649,833;-6585,000
 978,75; 2155,167;10482,833;-6429,000
 979,31; 2138,167;10950,833;-6513,000
 979,86; 2125,167;12220,833;-6739,000
 980,42; 2084,167;12828,833;-5813,000
 980,97; 2067,167;13290,833;-6642,000
 981,53; 2138,167;14285,833;-6636,000
 982,08; 2106,167;13803,833;-5046,000
 982,64; 2229,167;12278,833;-6237,000
 983,19; 2163,167;11308,833;-6760,000
 983,75; 2154,167;10993,833;-6576,000
 984,30; 2136,167;10430,833;-5581,000
 984,86; 2186,167; 9867,833;-5898,000
 985,41; 2215,167; 9457,833;-6634,000
 985,97; 2126,167; 9632,833;-4797,000
 986,52; 2160,167; 9894,833;-5853,000
 987,08; 2211,167; 9953,833;-6174,000
 987,63; 2264,167;10165,833;-5608,000
 988,19; 2258,167;11252,833;-6266,000
 988,74; 2154,167;11710,833;-5682,000
 989,30; 2107,167;11529,833;-6568,000
 989,85; 2250,167;11470,833; -276,000
 990,40; 2155,167;11314,833;-6617,000
 990,96; 2202,167;11060,833;-6482,000
 991,51; 2172,167;11149,833;-6578,000
 992,07; 2192,167;10742,833;-6605,000
 992,62; 2158,167;10285,833;-6519,000
 993,18; 2224,167;10035,833;-6504,000
 993,73; 2378,167; 9986,833;-6440,000
 994,28; 2259,167; 9800,833;-6464,000
 994,84; 2367,167; 9019,833;-6240,000
 995,39; 2348,167; 8474,833;-2971,000
 995,94; 2461,167; 7953,833;-5673,000
 996,50; 2396,167; 7647,833;-6543,000
 997,05; 2548,167; 7872,833;-3481,000
 997,61; 2580,167; 8363,833;-6489,000
 998,16; 2591,167; 8581,833;-6555,000
 998,71; 2555,167; 8850,833;-6340,000
 999,27; 2621,167; 9115,833;-5223,000
 999,82; 2623,167; 8706,833;-4778,000
1000,37; 2655,167; 8661,833;-6520,000
1000,93; 2704,167; 8920,833;-6107,000
1001,48; 2750,167; 8799,833;-6543,000
1002,03; 2773,167; 8477,833;-6469,000
1002,59; 2808,167; 8715,833;-5972,000
1003,14; 2780,167; 8758,833;-6113,000
1003,69; 2755,167; 8484,833;-6513,000
1004,25; 2730,167; 8299,833;-6507,000
1004,80; 2729,167; 8322,833;-6266,000
1005,35; 2661,167; 8313,833;-6361,000
1005,91; 2823,167; 8515,833;-6558,000
1006,46; 2760,167; 8426,833;-6084,000
1007,01; 2774,167; 8227,833;-5479,000
1007,56; 2767,167; 8599,833;-6440,000
1008,12; 2871,167; 8342,833;-6178,000
1008,67; 2866,167; 7867,833;-6312,000
1009,22; 2865,167; 7509,833;-6481,000
1009,78; 3028,167; 7205,833;-6163,000
1010,33; 2826,167; 6649,833;-6443,000
1010,88; 2974,167; 6413,833;-5618,000
1011,43; 3048,167; 5995,833;-6433,000
1011,99; 3065,167; 5972,833;-6198,000
1012,54; 3097,167; 6320,833;-6387,000
1013,09; 3256,167; 6048,833;-6299,000
1013,64; 3316,167; 5802,833;-6362,000
1014,19; 3411,167; 5823,833;-6442,000
1014,75; 3517,167; 5928,833;-6408,000
1015,30; 3707,167; 6394,833;-6425,000
1015,85; 3767,167; 6370,833;-6367,000
1016,40; 3723,167; 6247,833;-5436,000
1016,96; 4088,167; 6235,833;-6268,000
1017,51; 4191,167; 6150,833;-6351,000
1018,06; 4380,167; 6095,833;-6310,000
1018,61; 4680,167; 5695,833;-6665,000
1019,16; 4706,167; 5609,833;-6697,000
1019,71; 4997,167; 5663,833;-6373,000
1020,27; 5178,167; 5567,833;-6353,000
1020,82; 5353,167; 5375,833;-3700,000
1021,37; 5551,167; 5405,833;-4798,000
1021,92; 5650,167; 5984,833;-6454,000
1022,47; 5853,167; 5965,833;-6548,000
1023,02; 6238,167; 5463,833;-6512,000
1023,58; 6325,167; 5045,833;-6573,000
1024,13; 6630,167; 4730,833;-6258,000
1024,68; 6802,167; 4434,833;-6298,000
1025,23; 7297,167; 4324,833;-5525,000
1025,78; 7476,167; 4613,833;-6475,000
1026,33; 7711,167; 4932,833;-5510,000
1026,88; 8108,167; 4843,833;-6236,000
1027,43; 8582,167; 5167,833;-6276,000
1027,99; 9285,167; 5134,833;-6002,000
1028,54; 9767,167; 4732,833;-6395,000
1029,09;10626,167; 4106,833;-2478,000
1029,64;11489,167; 3919,833;-6303,000
1030,19;12246,167; 4147,833;-3821,000
1030,74;13349,167; 4243,833;-5134,000
1031,29;14560,167; 4284,833;-4765,000
1031,84;16240,167; 4491,833;-6300,000
1032,39;18007,166; 4563,833;-5403,000
1032,94;19986,166; 4617,833;-4326,000
1033,49;21863,166; 4361,833;-5476,000
1034,04;23609,166; 4236,833;-6312,000
1034,59;25893,166; 4205,833;-6507,000
1035,14;28212,166; 4117,833;-6145,000
1035,69;30594,166; 4318,833;-6224,000
1036,24;33794,168; 4104,833;-4477,000
1036,80;36033,168; 3986,833;-5453,000
1037,35;38253,168; 4138,833;-6347,000
1037,90;40199,168; 4172,833;-6274,000
1038,45;42812,168; 4201,833;-6419,000
1039,00;44788,168; 4340,833;-5490,000
1039,55;47195,168; 4229,833;-6284,000
1040,10;49611,168; 3977,833;-5615,000
1040,65;50746,168; 3916,833;-5576,000
1041,20;52741,168; 3850,833;-6325,000
1041,75;55533,168; 4030,833;-4522,000
1042,30;59560,168; 4164,833;-3585,000
1042,84;64314,168; 4338,833;-4439,000
1043,39;64961,168; 4248,833;-6313,000
1043,94;64961,168; 4175,833;-5342,000
1044,49;64961,168; 3887,833;-6246,000
1045,04;64961,168; 3710,833;-5800,000
1045,59;64961,168; 3809,833;-6299,000
1046,14;64961,168; 3732,833;-6392,000
1046,69;64961,168; 3591,833;-6294,000
1047,24;64961,168; 3623,833;-5510,000
1047,79;64961,168; 3737,833;-6139,000
1048,34;64961,168; 4002,833;-5961,000
1048,89;64961,168; 3948,833;-6259,000
1049,44;64961,168; 3935,833;-5172,000
1049,99;64961,168; 3855,833;-4844,000
1050,54;64961,168; 3876,833;-6249,000
1051,08;64961,168; 3961,833;-6178,000
1051,63;64961,168; 4050,833;-5285,000
1052,18;64961,168; 5051,833;-6127,000
1052,73;64961,168; 7151,833;-6173,000
1053,28;64961,168;10516,833;-6386,000
1053,83;64961,168;15224,833;-6214,000
1054,38;64961,168;19203,834;-6254,000
1054,93;64961,168;21243,834;-6285,000
1055,47;64961,168;23825,834;-5328,000
1056,02;64961,168;26212,834;-5832,000
1056,57;64961,168;27830,834;-6198,000
1057,12;64961,168;30497,834;-6378,000
1057,67;64961,168;33805,832;-6078,000
1058,22;64961,168;36084,832;-6313,000
1058,76;64961,168;38542,832;-6093,000
1059,31;64961,168;44129,832;-3514,000
1059,86;64961,168;48778,832;-6204,000
1060,41;64961,168;49718,832;-6152,000
1060,96;64961,168;51396,832;-6226,000
1061,51;64961,168;53649,832;-5344,000
1062,05;64961,168;54082,832;-6122,000
1062,60;64961,168;50555,832;-6061,000
1063,15;64961,168;45221,832;-6149,000
1063,70;64961,168;41550,832;-6250,000
1064,24;64961,168;43676,832;-6169,000
1064,79;64961,168;45461,832;-6144,000
1065,34;64961,168;43989,832;-6064,000
1065,89;64961,168;41776,832;-6202,000
1066,44;64961,168;37631,832;-6120,000
1066,98;64961,168;32612,834;-6224,000
1067,53;64961,168;30790,834;-5953,000
1068,08;64961,168;30368,834;-4845,000
1068,63;64961,168;27618,834;-6096,000
1069,17;64961,168;24647,834;-5893,000
1069,72;64961,168;22350,834;-5857,000
1070,27;64961,168;20529,834;-6040,000
1070,81;64961,168;20388,834;-5996,000
1071,36;64961,168;20367,834;-3883,000
1071,91;64961,168;18745,834;  966,000
1072,46;64961,168;16791,834;-5058,000
1073,00;64961,168;14646,833;-5239,000
1073,55;64961,168;11404,833;-5935,000
1074,10;64961,168; 7803,833;-5981,000
1074,64;64961,168; 5240,833;-5860,000
1075,19;64961,168; 3535,833;-4958,000
1075,74;64961,168; 2551,833;-6091,000
1076,28;64961,168; 2312,833;-6075,000
1076,83;64961,168; 1951,833;-5286,000
1077,38;64961,168; 1820,833;-5653,000
1077,92;64961,168; 1783,833;-6332,000
1078,47;64961,168; 1629,833;-5507,000
1079,02;64961,168; 1578,833;-5959,000
1079,56;64961,168; 1557,833;-5328,000
1080,11;64961,168; 1304,833;-6094,000
1080,65;64961,168; 1241,833;-5039,000
1081,20;64961,168; 1186,833;-6151,000
1081,75;64961,168; 1125,833;-6039,000
1082,29;63214,168; 1128,833; -139,000
1082,84;55917,168; 1184,833;-2678,000
1083,39;50910,168; 1294,833;-5061,000
1083,93;47813,168; 1335,833;-5025,000
1084,48;44034,168; 1196,833;-5961,000
1085,02;39438,168; 1082,833;-5783,000
1085,57;36405,168; 1074,833;-5994,000
1086,11;34338,168; 1079,833;-5968,000
1086,66;31893,166;  925,833;-5584,000
1087,21;30686,166; 1060,833;-5802,000
1087,75;27992,166;  939,833;-6125,000
1088,30;26493,166;  815,833;-5040,000
1088,84;24630,166;  783,833;-5963,000
1089,39;23197,166;  656,833;-5965,000
1089,93;21348,166;  664,833;-6100,000
1090,48;19643,166;  649,833;-4394,000
1091,02;18077,166;  733,833;-5181,000
1091,57;16892,166;  629,833;-5479,000
1092,11;15711,167;  642,833;-4094,000
1092,66;14809,167;  624,833;-6031,000
1093,20;14166,167;  580,833;-5180,000
1093,75;13203,167;  566,833;-4998,000
1094,29;13093,167;  486,833;-4979,000
1094,84;12384,167;  525,833;-5890,000
1095,38;11825,167;  528,833;-5097,000
1095,93;11258,167;  584,833;-5981,000
1096,47;10950,167;  615,833;-5612,000
1097,02;10521,167;  587,833;-4985,000
1097,56;10189,167;  614,833;-5772,000
1098,11; 9737,167;  552,833;-5774,000
1098,65; 9238,167;  508,833;-5992,000
1099,20; 8862,167;  577,833;-5935,000
1099,74; 8215,167;  487,833;-6002,000
1100,29; 8185,167;  513,833;-4879,000
1100,83; 7953,167;  496,833;-5934,000

