
Integration time [ms]:   1,000
Averaging Nr. [scans]: 1
Smoothing Nr. [pixels]: 0
Data measured with spectrometer [name]: 1703254U1
Wave   ;Sample   ;Dark     ;Reference;Scope
[nm]   ;[counts] ;[counts] ;[counts] 

 190,08;  -86,538; -370,119;11982,743
 190,69;  -68,299; -359,404;11603,049
 191,29;  -69,801; -311,651;11479,965
 191,90;  -79,349; -365,508;11440,717
 192,50;  -77,633; -379,511;10355,099
 193,10;  -57,248; -446,299;11244,381
 193,71;  -76,453; -367,888; 9821,736
 194,31;  -70,981; -399,273; 9436,327
 194,91;  -70,981; -382,273; 9291,327
 195,52;  -77,740; -338,386;10555,949
 196,12;  -54,029; -397,056; 8671,847
 196,72;  -73,449; -386,394; 8220,904
 197,32;  -76,453; -375,888; 8251,736
 197,93;  -59,716; -360,420; 8700,957
 198,53;  -72,805; -383,145; 7601,797
 199,13;  -79,671; -397,132; 8091,270
 199,74;  -64,866; -366,410; 7263,813
 200,34;  -61,218; -388,667; 7832,874
 200,94;  -58,750; -436,547; 6941,297
 201,55;  -68,299; -406,404; 7119,049
 202,15;  -71,410; -375,773; 6404,732
 202,75;  -93,022; -373,217; 6097,647
 203,36;  -62,934; -338,664; 6822,492
 203,96; -113,252; -357,943; 6332,678
 204,56;  -66,368; -355,657;10275,729
 205,16;  -72,770; -363,018; 5478,458
 205,77;  -76,430; -360,244; 4767,892
 206,37;  -74,629; -409,017; 5556,267
 206,97;  -78,277; -363,760; 5129,205
 207,58;  -61,647; -364,166; 5927,278
 208,18;  -81,388; -337,129; 5129,889
 208,78;  -75,813; -404,134; 5295,461
 209,38;  -62,291; -469,415; 4958,385
 209,99;  -59,183; -356,540; 3837,534
 210,59;  -63,793; -361,662; 3890,301
 211,19;  -12,042; -364,538; 3938,343
 211,79;  -32,853; -366,927; 4499,316
 212,40;  -83,534; -373,625; 3368,911
 213,00;  -59,736; -388,891; 3903,118
 213,60;  -60,886; -386,882; 2992,972
 214,20;  -83,155; -401,230; 3081,175
 214,81;  -79,967; -422,618; 2884,148
 215,41;  -89,370; -376,979; 3235,877
 216,01;  -97,003; -373,067; 3109,636
 216,61;  -41,874; -367,399; 2814,476
 217,22;  -88,497; -381,326; 2358,888
 217,82; -124,196; -325,173; 2262,495
 218,42; -104,026; -383,711; 2389,480
 219,02; -108,639; -288,327; 3432,079
 219,63;  -92,224; -357,483; 2044,854
 220,23;  -95,550; -366,602; 2425,239
 220,83;  -70,726; -395,730; 1901,770
 221,43; -106,179; -393,195; 1850,167
 222,03;  -92,969; -348,940; 2326,296
 222,64;  -97,481; -380,348; 1769,560
 223,24;  -47,236; -298,966; 1625,350
 223,84; -109,364; -376,313; 2637,361
 224,44; -103,609; -316,695; 2381,571
 225,05;  -73,961; -313,952; 1440,632
 225,65;  -88,862; -301,065; 1227,445
 226,25; -100,811; -364,961; 1139,777
 226,85;  -71,080; -294,309;  995,979
 227,45;  -88,600; -335,706; 1083,907
 228,06; -104,777; -365,834; 1945,438
 228,66; -104,240; -349,460; 4049,182
 229,26;  -63,256; -313,438; 1131,510
 229,86; -100,914; -396,342; 1760,797
 230,46; -113,038; -358,194;  891,976
 231,06;  -59,823; -320,444;  757,273
 231,67;  -86,868; -346,732; 1228,961
 232,27; -128,809; -343,789;  778,094
 232,87; -110,509; -308,808;  526,384
 233,47; -131,920; -321,158;  525,777
 234,07;  -86,507; -268,486; 9912,235
 234,67; -137,327; -291,013;  672,338
 235,28; -110,920; -319,158;   65,777
 235,88; -129,868; -316,882;  285,426
 236,48;  -92,643; -350,821;  165,911
 237,08; -116,341; -267,669;  448,518
 237,68; -148,014; -369,378; -267,552
 238,28; -102,534; -304,774; -106,624
 238,89; -123,975; -212,756; -205,723
 239,49; -112,177; -282,023; 1280,483
 240,09; -115,099; -284,608; -190,544
 240,69; -119,588; -251,373; -319,124
 241,29; -137,499; -289,647;  651,036
 241,89; -136,928; -330,147; -260,559
 242,49; -102,773; -248,490; -358,930
 243,10;  -86,339; -201,496; 3664,834
 243,70; -109,773; -284,490;  239,070
 244,30;  -85,765; -275,501; -708,594
 244,90;  -87,831; -188,582; -568,598
 245,50; -118,030; -177,355; 3274,777
 246,10;  -65,507; -307,636; -831,300
 246,70; -144,052; -300,999;   17,620
 247,30;  -83,933; -251,641;  326,273
 247,91; -112,145; -208,218; 5781,292
 248,51; -107,995; -270,228; -806,563
 249,11;  -70,898; -239,514;  417,933
 249,71; -103,902; -303,008; -667,235
 250,31;  -62,206; -265,483; -567,693
 250,91;  -48,623; -238,500;   75,216
 251,51;  -80,712; -199,225; -822,945
 252,11; -130,916; -239,813;  367,410
 252,71; -113,378; -269,117;-1080,994
 253,31;  -85,463; -222,348; 3228,013
 253,91;  -76,406; -236,578; -676,170
 254,52;  -93,896; -237,342;-1063,750
 255,12;  -93,206; -293,483;-1104,693
 255,72;   -6,022; -206,366;  557,112
 256,32; -102,418; -242,061; -966,674
 256,92;  -51,269; -190,070;-1147,529
 257,52;  -42,927; -173,974; -883,243
 258,12; -107,686; -201,087;  -91,621
 258,72;  -91,633; -210,810;-1232,972
 259,32;  -44,329; -211,335;-1169,514
 259,92;  -39,904; -199,330;-1343,086
 260,52;  -31,785; -192,973;-1077,433
 261,12;  -69,277; -202,059; -662,865
 261,72;  -74,514; -238,452;-1312,319
 262,32;  -49,390; -215,600;-1561,498
 262,92; -120,246; -238,426;  405,627
 263,53;  -62,874; -189,698;-1277,594
 264,13; -109,667; -262,937; -268,632
 264,73;  -66,728; -217,202;-1694,617
 265,33;  -43,771; -188,317;-1708,613
 265,93;  -32,637; -147,304;-1345,140
 266,53;  -52,143; -161,046;-1544,392
 267,13;  -90,186; -139,161; -857,388
 267,73;  -67,902; -185,158;  270,230
 268,33;  -98,945; -166,274;-1788,766
 268,93;  -86,724; -213,708;-1702,449
 269,53;  -76,465; -204,670; -644,839
 270,13;  -65,499; -201,797;-1810,499
 270,73; -101,078; -245,287;-1891,239
 271,33;  -39,174; -200,678;-1778,884
 271,93;  -88,109; -242,919;-1867,732
 272,53;  -51,249; -121,748;    8,776
 273,13;  -28,032; -146,677;-1117,075
 273,73;  -70,674; -119,753;-1955,652
 274,33;  -29,388; -148,428;-2041,182
 274,93;  -73,742; -188,007;-1843,972
 275,53;  -50,249;  -68,748;-1881,224
 276,13; -130,058; -121,965;-2261,935
 276,73;  -89,579; -118,361;-1570,007
 277,33;  -68,589; -179,522;-1926,659
 277,93;  -27,315; -213,680;-1864,693
 278,53;  -16,872; -194,526;-2112,278
 279,13;  -68,172; -125,506;-2152,568
 279,73;  -40,463; -140,498;-1388,522
 280,33;  -66,957; -154,756;-2179,270
 280,93;  -19,609; -105,994;-2049,499
 281,53;  -68,846; -147,387;-2252,953
 282,13;  -73,720; -127,363;-2193,816
 282,73; -105,283; -156,875; -385,885
 283,33;  -67,000; -137,872;-2307,266
 283,92;  -10,621;  -74,477;-2028,003
 284,52;  -55,651;  -94,109;-2365,496
 285,12;  -48,730; -138,524;-1425,469
 285,72;  -10,267; -126,898;-1041,213
 286,32;    1,786;  -55,622;-1313,564
 286,92;  -36,447; -163,521;-2376,850
 287,52;  -33,305;  -89,519;-2170,041
 288,12;    4,476;  -97,763;-2542,507
 288,72;  -19,396; -106,417;-1625,518
 289,32;    9,946;  -54,470; 1692,233
 289,92;  -28,661; -106,270;-2344,148
 290,52;  -44,473;  -91,809;-2485,710
 291,12;  -21,751;  -57,996;-1570,308
 291,72;   -0,621;  -74,477;-1590,003
 292,32;   46,081;  -83,135;-2372,442
 292,92;   -6,257;   -2,737;-2481,560
 293,51;   14,766;  -37,093;-2532,404
 294,11;   26,357;  -42,121;-1681,160
 294,71;   37,387;   -7,488;-2695,667
 295,31;   -0,823;  -24,743;-1755,797
 295,91;   98,181;   46,751;-2713,629
 296,51;   52,980;   62,656;-1776,106
 297,11;   70,209;   35,061;-2900,988
 297,71;   30,284;    4,131;-2726,648
 298,31;   98,339;   38,730;-2329,148
 298,91;  100,606;   74,756;-2483,202
 299,50;  106,203;   41,395;-2689,473
 300,10;  195,065;  145,887;-2706,114
 300,70;  175,804;   95,528;-2492,576
 301,30;  163,893;   89,253;-2855,415
 301,90;  246,468;   96,248;-2004,843
 302,50;  310,563;  163,640;-2515,198
 303,10;  449,859;  124,126;-2530,076
 303,70;  533,264;  208,660;-3000,488
 304,29;  699,757;  189,918;-2658,740
 304,89; 1137,818;  266,183;-1090,755
 305,49; 1549,041;  163,922;-2773,122
 306,09; 1699,426;  214,133;-2874,839
 306,69; 1634,905;  262,736;-2915,911
 307,29; 2621,082;  312,865;-2008,442
 307,89; 4547,336;  303,408;-3029,000
 308,48; 6070,165;  341,774;-2453,301
 309,08; 6533,687;  369,492;-2743,377
 309,68; 5151,525;  377,019;-3094,026
 310,28; 2891,733;  371,102;-2576,213
 310,88; 1893,209;  321,211;-2936,453
 311,48; 1353,395;  447,500;-2875,331
 312,07; 1114,794;  408,367;-2963,228
 312,67; 1093,231;  497,855;-2128,297
 313,27;  916,861;  494,448;-1105,224
 313,87;  859,944;  583,357;-2164,083
 314,47;  770,857;  516,954;-3030,392
 315,06;  834,509;  620,191; 2713,837
 315,66;  773,832;  579,988;-3245,400
 316,26;  761,440;  632,938;-1844,483
 316,86;  682,132;  777,969;-3140,110
 317,46;  767,551;  720,307;-2115,167
 318,06;  818,547;  739,813; -825,335
 318,65;  756,555;  781,801;-2807,999
 319,25;  755,272;  821,798;-3195,617
 319,85;  762,529;  932,663;-2908,323
 320,45;  738,426;  986,283;-3213,304
 321,05;  755,434;  901,271;-2761,968
 321,64;  724,069;  889,531;-3219,411
 322,24;  762,780; 1056,861;-3265,513
 322,84;  794,784; 1080,356;-3261,345
 323,44;  802,493; 1133,364;-3219,300
 324,03;  896,102; 1194,486;-3072,067
 324,63;  975,126; 1250,452;-2310,059
 325,23;  850,572; 1241,928;-3097,792
 325,83;  914,630; 1367,021;-2876,123
 326,42;  916,968; 1442,622;-3285,005
 327,02; 1090,734; 1476,551;-3076,607
 327,62; 1031,517; 1439,629;-2505,221
 328,22;  991,066; 1553,486;-3234,973
 328,82; 1051,011; 1577,037;-2229,938
 329,41; 1169,876; 1658,852;-3016,728
 330,01; 1219,949; 1652,750;-2961,704
 330,61; 1259,101; 1806,062;-2928,707
 331,20; 1263,020; 1778,325;-2868,531
 331,80; 1297,279; 1762,512;-2794,386
 332,40; 1374,625; 1752,102;-2896,932
 333,00; 1406,704; 1933,667;-2790,423
 333,59; 1398,755; 1748,771;-2855,091
 334,19; 1434,488; 1920,745;-1771,037
 334,79; 1437,170; 1712,615;-2861,316
 335,39; 1446,631; 1729,919;-2978,912
 335,98; 1412,813; 1726,714;-3126,958
 336,58; 1297,340; 1659,777;-3191,401
 337,18; 1281,481; 1720,779;-2958,592
 337,77; 1320,582; 1782,837;-2098,463
 338,37; 1341,995; 1806,359;-2021,540
 338,97; 1226,121; 1907,384;-2912,402
 339,57; 1229,200; 1862,948;-3044,894
 340,16; 1265,212; 1836,431;-2881,390
 340,76; 1211,690; 1962,712;-3053,314
 341,36; 1301,791; 1861,920;-3195,650
 341,95; 1271,712; 1934,506;-3027,623
 342,55; 1306,574; 1918,998;  703,736
 343,15; 1308,159; 2048,155;-3094,039
 343,74; 1292,738; 1924,644;-2382,298
 344,34; 1271,918; 1860,267;-3015,661
 344,94; 1397,838; 2068,530;-3069,485
 345,53; 1348,631; 2110,769;-2860,447
 346,13; 1411,378; 2174,398;-1283,573
 346,73; 1417,878; 1966,473;-2254,805
 347,32; 1480,163; 2268,649;-3080,871
 347,92; 1553,912; 2312,600;-2277,145
 348,52; 1483,271; 2270,523;-1878,722
 349,11; 1488,680; 2336,551;  975,034
 349,71; 1536,014; 2330,658;-3240,016
 350,31; 1618,386; 2441,387;-2672,237
 350,90; 1654,078; 2483,418;-2326,863
 351,50; 1815,840; 2390,852;-2105,634
 352,10; 1895,042; 2471,119;-3114,840
 352,69; 2314,485; 2532,273;-3182,424
 353,29; 2253,842; 2563,024;-3191,317
 353,89; 2356,554; 2645,527;-3255,104
 354,48; 2553,042; 2693,119;-3208,840
 355,08; 2870,016; 2871,980;-1117,164
 355,67; 3305,400; 2850,042;-2951,417
 356,27; 3915,892; 2839,128;-3232,985
 356,87; 5119,761; 3010,288;-3383,142
 357,46; 7761,212; 3049,431;-2351,390
 358,06;11616,044; 3306,291;-3073,523
 358,66;12745,570; 3337,504;-3109,432
 359,25;11102,615; 3260,792;-2344,119
 359,85;10595,722; 3365,667;-3215,970
 360,44;10325,991; 3389,015;-3292,172
 361,04; 8741,159; 3567,155;-2367,039
 361,64; 6936,159; 3696,155;-2309,039
 362,23; 5207,704; 3772,517;-2932,958
 362,83; 4199,313; 3755,639;-2990,726
 363,42; 3678,631; 3938,769;-2836,447
 364,02; 3234,692; 3910,034;-2973,462
 364,62; 2857,378; 3816,398;-2486,573
 365,21; 2560,208; 3857,937;-1741,558
 365,81; 2485,882; 3935,818;-2792,173
 366,40; 2438,101; 3970,062;-2080,707
 367,00; 2304,538; 4021,550;-2952,776
 367,59; 2286,016; 4071,831;-2979,699
 368,19; 2202,714; 4221,678;-3237,306
 368,79; 2316,398; 4198,720;-3125,268
 369,38; 2332,127; 4107,200;-2250,383
 369,98; 2425,491; 4101,940;-2935,940
 370,57; 2467,939; 4188,588;-3331,356
 371,17; 2701,566; 4164,860;-3326,135
 371,76; 2681,030; 4277,486;-3442,879
 372,36; 2661,789; 4057,598;-3195,501
 372,95; 2483,129; 4115,372;  667,934
 373,55; 2440,593; 4105,998;-3393,811
 374,14; 2215,360; 4300,099;-3405,097
 374,74; 2060,438; 4256,514;-3224,124
 375,34; 2059,892; 4286,979;-3189,521
 375,93; 1962,463; 4295,479;-2706,116
 376,53; 1947,655; 4344,585;-3575,974
 377,12; 1888,005; 4405,670;-1465,352
 377,72; 1873,248; 4480,730;-3410,414
 378,31; 1853,125; 4511,027;-2274,699
 378,91; 1742,070; 4291,429;-3262,199
 379,50; 1836,242; 4588,213;-3331,363
 380,10; 1810,376; 4327,226;-3398,890
 380,69; 1856,755; 4094,621;-2343,626
 381,29; 1995,655; 4586,735;-2550,439
 381,88; 2039,639; 4518,758;-1605,111
 382,48; 2100,947; 4519,727;-3286,485
 383,07; 2019,836; 4495,358;-3457,802
 383,67; 1975,639; 4635,758;-1847,111
 384,26; 1940,437; 4667,491;-2467,905
 384,86; 1941,556; 4921,849;-3182,252
 385,45; 1819,030; 4932,636;-3325,344
 386,05; 1848,621; 5073,608;-3419,100
 386,64; 1897,103; 4911,384;-3524,855
 387,24; 1920,107; 5016,878;-2585,688
 387,83; 1959,279; 4993,512;-2489,386
 388,42; 2087,844; 5182,346;-2109,466
 389,02; 2122,789; 5423,748;-3235,966
 389,61; 2223,833; 5688,036;-3413,653
 390,21; 2313,107; 5729,878;-3463,688
 390,80; 2405,811; 5816,392;-3208,810
 391,40; 2623,949; 6137,899;-2293,168
 391,99; 3000,342; 5981,099;-3195,550
 392,59; 3806,643; 6435,252;-2416,943
 393,18; 6237,378; 6683,398;-2491,573
 393,77;15128,985; 6883,198;-3238,192
 394,37;21587,871; 7145,657;-2198,825
 394,96;18166,803; 7098,403;-2296,146
 395,56;23174,939; 7264,588;-2834,356
 396,15;28302,039; 6867,797;-3125,692
 396,75;21139,867; 7343,163;-2889,993
 397,34;11658,491; 7669,940;-2620,940
 397,93; 7833,135; 7720,188;-3358,047
 398,53; 5774,494; 7595,262;-2525,088
 399,12; 4524,850; 8192,013;-2154,981
 399,72; 3737,042; 8013,119;-2274,840
 400,31; 3192,463; 8034,629;-3169,581
 400,91; 3015,708; 8446,012;-2959,791
 401,50; 2711,985; 8820,198;-2330,192
 402,09; 2635,161; 8550,327;-2894,722
 402,69; 2607,993; 8691,187;-3072,856
 403,28; 2609,439; 9052,663;-2983,588
 403,88; 2609,388; 9162,560; 1927,079
 404,47; 2471,016; 9689,831;  884,300
 405,06; 2431,576; 9684,171;  -68,947
 405,66; 2427,955; 9753,565;-2875,684
 406,25; 2448,398;10085,720;-3119,268
 406,84; 2435,143;10446,177;-2892,711
 407,44; 2439,425;10847,858;-2219,944
 408,03; 2390,086;10422,257;-2906,063
 408,63; 2357,084;10373,085;-3011,379
 409,22; 2461,514;10191,584;-1945,783
 409,81; 2492,301;10681,007;-1849,765
 410,41; 2741,518;11553,078;-2857,615
 411,00; 2644,279;11336,362;-1814,921
 411,59; 2593,202;11251,120;-2826,578
 412,19; 2596,145;11468,350;-2245,394
 412,78; 2627,394;11399,226;-2830,436
 413,37; 2642,125;12151,878;-2704,234
 413,97; 2521,297;12410,512;-2618,933
 414,56; 2667,730;12071,506;-2503,169
 415,15; 2718,971;12410,394;-2121,547
 415,75; 2809,331;12408,639;-2698,272
 416,34; 2860,803;12590,254;-1893,681
 416,93; 2817,843;12922,047;-2777,536
 417,53; 2697,453;12696,169;-1423,303
 418,12; 2685,066;12570,785;-2217,903
 418,71; 2615,240;12907,592;-2673,285
 419,31; 2553,291;13054,695;-1884,952
 419,90; 2575,904;13470,313;-2786,552
 420,49; 2442,629;13619,298;-1733,834
 421,08; 2371,629;14201,298;-1674,834
 421,68; 2470,380;14723,421;-1908,792
 422,27; 2637,175;14035,832;-2004,437
 422,86; 2549,111;13874,073; -437,590
 423,46; 2258,086;14080,107;-2575,598
 424,05; 2229,216;14376,626;-2928,293
 424,64; 2163,643;13888,953;-2640,014
 425,24; 2148,236;14092,098;-2903,453
 425,83; 2139,096;13992,269;-2680,945
 426,42; 2070,216;12987,626;-2760,293
 427,01; 2098,691;13424,734;-2674,533
 427,61; 2092,718;14347,873;-2609,209
 428,20; 2070,912;14036,151;-1764,751
 428,79; 2029,286;14414,052;-2859,656
 429,38; 2138,572;14092,377;-1781,186
 429,98; 2010,165;14922,521; -994,625
 430,57; 2004,718;15058,873;-2193,209
 431,16; 2075,564;14580,389;-2784,522
 431,75; 2052,835;14357,909; -561,407
 432,35; 2044,985;13435,899;-1951,262
 432,94; 2060,888;14429,186;-2324,759
 433,53; 2055,430;14560,375;-1152,995
 434,12; 2072,647;14431,298;-2267,381
 434,72; 2102,623;14188,331;-1413,389
 435,31; 2105,592;14167,699; 7395,119
 435,90; 2114,803;14308,954; 8338,249
 436,49; 2095,335;13427,834; -683,175
 437,08; 2224,519;13895,951; -675,370
 437,68; 2255,768;14442,827;-2987,412
 438,27; 2311,422;14610,237;-2610,866
 438,86; 2331,193;14612,832;-1147,984
 439,45; 2296,898;15313,346;-1937,106
 440,05; 2359,384;15955,616;-2982,694
 440,64; 2348,869;15054,886;-1902,282
 441,23; 2410,467;14152,525;-1415,553
 441,82; 2356,722;13700,218;-2631,576
 442,41; 2374,965;14351,277;-3014,637
 443,00; 2458,270;13625,925;-2724,863
 443,60; 2639,444;14373,881;-3136,710
 444,19; 2722,884;15026,541;-1440,462
 444,78; 2852,930;14960,151;-3012,298
 445,37; 3078,665;15728,297;-2522,928
 445,96; 3212,414;15331,249;-3116,202
 446,56; 3462,317;15596,535;-1144,698
 447,15; 3589,768;16225,678; -884,947
 447,74; 3744,708;17097,412;-2709,931
 448,33; 3843,580;16443,066;-1985,920
 448,92; 3878,116;15422,440;-2964,176
 449,51; 3931,936;15095,817;-2848,813
 450,10; 3992,572;15133,078;-3063,256
 450,70; 4655,545;14904,939;-1957,581
 451,29; 4920,614;15329,193;-1112,260
 451,88; 5311,201;15513,671;-2929,183
 452,47; 5661,588;16565,055;-2795,584
 453,06; 6022,217;16495,498;-2401,047
 453,65; 5601,896;16071,874;-2873,493
 454,24; 4759,290;17329,246;-2173,558
 454,84; 4140,031;17793,209;-1379,168
 455,43; 3726,934;18732,496;-2219,665
 456,02; 3390,659;18879,480;-2927,947
 456,61; 3192,675;17317,459;-2925,275
 457,20; 2900,475;16921,363;-2786,753
 457,79; 2650,248;17588,131;-2922,554
 458,38; 2623,707;18338,264;-2132,467
 458,97; 2564,527;18039,641;-2515,104
 459,56; 2381,375;18190,479;-2760,565
 460,16; 2261,282;17832,258;-2082,894
 460,75; 2231,776;18157,518;-2072,146
 461,34; 2187,029;18077,887;-2962,020
 461,93; 2122,924;18381,186;-2200,853
 462,52; 2182,841;19333,275;-2744,993
 463,11; 2219,636;20546,688;-1989,639
 463,70; 2173,669;19458,643;-2869,295
 464,29; 2285,015;19945,082;-3150,376
 464,88; 2579,962;20795,807;-2743,024
 465,47; 2873,691;19885,285;-2748,139
 466,06; 3541,904;20915,713;-3191,692
 466,65; 3577,594;21667,572;-3018,635
 467,24; 3222,646;22030,848;-2539,986
 467,84; 2680,082;22443,164;-2020,371
 468,43; 2504,181;22325,051;-2238,559
 469,02; 2402,648;23517,170;-2702,135
 469,61; 2276,138;24168,936;-2593,555
 470,20; 2268,314;23781,063;-2841,085
 470,79; 2077,573;22760,100;-3232,475
 471,38; 2057,118;25266,463;-2192,395
 471,97; 1992,604;26009,732; -666,983
 472,56; 1939,905;25472,887;-3035,376
 473,15; 1852,539;25296,975;-2825,135
 473,74; 1833,072;26395,854;-3106,559
 474,33; 1856,505;25866,848;-2957,796
 474,92; 1757,076;27630,348;-3146,391
 475,51; 1728,948;29609,002;-2873,380
 476,10; 1755,673;29847,986;-3011,662
 476,69; 1648,150;26101,268;-2855,586
 477,28; 1769,839;25846,955;-2956,845
 477,87; 1646,416;27035,121; -173,956
 478,46; 1668,403;28695,639;-3029,460
 479,05; 1635,432;30507,100;-2134,284
 479,64; 1640,588;31679,756;-2718,655
 480,23; 1551,944;29541,508;-2845,548
 480,82; 1571,523;28549,996;-2736,807
 481,41; 1527,227;29371,510;-1873,929
 482,00; 1532,764;29284,885;-1364,185
 482,59; 1483,665;29593,998;-2298,998
 483,18; 1482,025;31702,244;-2376,723
 483,77; 1954,833;31703,139;-2193,865
 484,36; 2488,948;32475,002;-1701,380
 484,95; 2283,460;32990,410; -788,643
 485,54; 2251,640;35331,031;-1371,006
 486,13; 2273,381;35762,996; -945,616
 486,72; 2417,691;34334,137;  148,326
 487,31; 2186,709;31046,285;-1109,686
 487,89; 2121,837;32608,633; -193,697
 488,48; 2033,958;33798,164;-1523,728
 489,07; 1990,582;32913,941;-1248,674
 489,66; 1831,970;33511,645;-1505,224
 490,25; 1827,843;31095,299; -660,212
 490,84; 1837,484;34127,375;-1683,635
 491,43; 1768,986;34965,621; -701,552
 492,02; 1659,537;36094,652;-1864,987
 492,61; 1653,181;35362,902;-1043,094
 493,20; 1602,019;33776,426;-2019,743
 493,79; 1546,586;32749,434; 4824,494
 494,38; 1519,632;33706,043;-1938,342
 494,97; 1505,015;32583,934; -629,911
 495,55; 1418,835;34690,309;-2325,548
 496,14; 1495,928;35087,531;-2403,220
 496,73; 1438,187;35451,566;-1952,609
 497,32; 1356,612;34211,570;-2587,182
 497,91; 1404,290;35005,949;-1921,629
 498,50; 1455,792;34165,195;-2912,544
 499,09; 1388,612;34554,570;-3088,182
 499,68; 1414,899;32403,070;-2405,396
 500,27; 1437,446;33321,605;-2490,999
 500,85; 1422,926;32655,207;-2604,071
 501,44; 1375,527;32478,342;-2576,175
 502,03; 1257,569;33194,457;-3368,178
 502,62; 1274,758;31275,068;-3438,205
 503,21; 1332,638;29432,711;-3532,858
 503,80; 1372,450;32028,100;-2976,831
 504,39; 1230,150;32451,119;-3458,121
 504,97; 1241,266;31774,982;-3577,636
 505,56; 1271,171;31537,590;-2979,281
 506,15; 1250,102;32302,336;-3991,602
 506,74; 1199,579;32557,617;-2945,526
 507,33; 1197,112;32185,498;-3165,949
 507,92; 1422,515;33952,859;-3871,678
 508,51; 1354,557;35926,973;-3735,682
 509,09; 1375,713;34536,629;-3921,053
 509,68; 1405,104;34318,508;-3748,286
 510,27; 1464,620;33667,410;-3799,381
 510,86; 1410,885;32572,264;-4081,751
 511,45; 1433,245;33677,512;-3843,476
 512,03; 1573,373;34524,855;-3829,488
 512,62; 1510,565;36240,961;-3780,346
 513,21; 1402,581;33870,789;-3186,209
 513,80; 1515,869;34644,289;-3501,423
 514,39; 1469,709;32752,137;-3905,221
 514,97; 1450,873;35347,781;-4095,255
 515,56; 1420,788;34167,551;-4198,248
 516,15; 1380,351;35428,063;-3955,179
 516,74; 1339,561;32584,318;-4420,049
 517,33; 1333,531;33459,688;-3549,542
 517,91; 1332,895;33935,426;-4188,099
 518,50; 1272,061;32563,393;-3264,282
 519,09; 1248,073;33942,875;-3157,778
 519,68; 1214,229;35231,531;-4286,148
 520,26; 1176,363;38679,547;-4232,675
 520,85; 1152,405;39452,660;-4352,679
 521,44; 1095,626;40826,078;-4358,897
 522,03; 1177,796;39485,539;-4271,912
 522,61; 1098,626;36773,078;-4364,897
 523,20; 1081,618;33924,090;-4337,233
 523,79; 1068,189;32040,590;-4337,828
 524,38; 1029,527;32850,191;-4344,709
 524,96;  961,093;35883,199;-4321,473
 525,55;  916,879;36021,449;-4542,771
 526,14; 1026,790;34018,723;-4434,931
 526,73;  952,342;32852,074;-4389,515
 527,31;  971,986;32903,324;-4488,622
 527,90;  996,879;33630,449;-4564,771
 528,49;  975,316;34155,938;-2529,839
 529,08;  867,828;34601,344;-3467,103
 529,66;  914,596;34848,445;-3911,389
 530,25;  910,266;35279,832;-4414,172
 530,84;  942,112;35334,348;-4583,485
 531,42;  845,176;38583,105;-4365,332
 532,01;  878,713;37528,480;-4291,588
 532,60;  846,593;34512,125;-4473,241
 533,18;  828,476;35538,086;-4078,042
 533,77;  855,425;34969,984;-4236,374
 534,36;  891,579;34459,469;-4374,061
 534,95;  884,288;35483,477;-4088,015
 535,53;  871,759;34236,090; -974,424
 536,12;  946,717;36469,977;-2657,420
 536,71;  839,786;36511,230;-3869,099
 537,29;  920,881;36073,621;-3618,454
 537,88;  959,626;33908,078;-3454,897
 538,47;  894,241;32497,867;-2840,180
 539,05;  914,494;36837,238;-2139,054
 539,64;  865,075;40414,898;-1785,997
 540,22;  888,873;37414,633; -764,790
 540,81;  997,332;37501,766; 1008,297
 541,40;  951,589;39018,629; 3425,591
 541,98;  956,069;38188,230; 4858,519
 542,57;  990,717;39368,977; 4597,580
 543,16;  970,172;38645,613; 4952,500
 543,74;  964,571;35774,480; 4083,603
 544,33;  986,800;36297,883; 3620,721
 544,92; 1000,083;37217,887; 3973,339
 545,50;  990,280;37338,488;11456,648
 546,09;  985,725;40064,965;11359,916
 546,67; 1020,931;41948,727; 2857,878
 547,26;  939,901;40050,094; -202,615
 547,85;  925,063;39208,414; -567,501
 548,43;  943,164;38452,625; -849,836
 549,02;  933,203;39427,246;-1040,008
 549,60;  894,413;40570,500; -984,878
 550,19;  908,559;41166,996;-2192,901
 550,78;  934,091;42660,875;-2328,325
 551,36;  912,719;45349,148;-2432,104
 551,95;  924,674;45443,859; -585,416
 552,53;  988,620;43280,262; -296,916
 553,12;  981,101;41420,035;-3431,672
 553,70;  958,381;43188,547;-2878,222
 554,29;  912,693;44058,008;-2869,428
 554,88;  980,990;41831,668;-4247,989
 555,46; 1025,393;43723,027;-3881,718
 556,05;  959,782;45007,734;-4207,268
 556,63; 1102,045;45206,266;-3396,489
 557,22; 1103,460;43875,109;-3394,714
 557,80; 1071,049;41749,762;-3568,321
 558,39; 1176,486;44188,250;-4145,390
 558,97; 1110,942;47993,887;-3699,470
 559,56; 1206,727;49889,137;-4544,768
 560,15; 1156,367;50117,891;-3611,042
 560,73; 1106,286;49814,152;-4287,867
 561,32; 1168,031;47024,609;-3741,309
 561,90; 1095,067;46041,910;-4382,333
 562,49; 1107,237;48487,371;-3786,348
 563,07; 1088,371;48074,387;-4783,875
 563,66; 1084,585;50064,133;-4352,577
 564,24; 1122,294;49228,145;-4763,531
 564,83; 1194,707;51344,664;-4603,607
 565,41; 1222,379;53840,375;-4329,539
 566,00; 1301,136;52202,164;-2755,012
 566,58; 1455,521;56465,375;-3725,729
 567,17; 1590,980;56909,508;-4280,642
 567,75; 1825,525;52392,871;-4653,562
 568,34; 2224,899;55893,770;-3216,466
 568,92; 2689,741;55738,793;-3987,947
 569,51; 2794,650;54852,895; 2680,576
 570,09; 2385,938;58247,391;-4676,638
 570,68; 2074,012;53188,313;-4788,833
 571,26; 2060,061;50733,242;-3886,817
 571,85; 2113,065;57347,738;-4822,649
 572,43; 1919,804;57011,379;-4704,111
 573,01; 1505,662;52662,375;-4873,920
 573,60; 1341,976;53819,012;-3785,810
 574,18; 1167,620;55122,262;-4514,917
 574,77; 1126,895;53284,277;-4737,634
 575,35; 1034,976;56113,012;-4452,810
 575,94; 1070,757;57300,770;-4076,275
 576,52;  968,186;54049,270;-2249,680
 577,11;  947,595;51620,297;-3244,924
 577,69;  971,089;48685,555;-3183,176
 578,27;  951,559;51008,996;-3447,901
 578,86;  840,239;55198,543;-2994,031
 579,44;  923,267;60080,004;-2805,855
 580,03;  923,869;60164,137;-2493,958
 580,61;  943,470;60267,270;-3206,062
 581,19;  906,715;56429,652;-2538,271
 581,78;  892,441;55361,813;-2364,238
 582,36;  815,535;57656,031;-2911,909
 582,95;  872,703;56180,172;-1497,776
 583,53;  848,672;59586,539;-2319,268
 584,11;  925,658;61608,883;-2241,088
 584,70;  915,282;61691,660;-1948,035
 585,28;  901,646;62070,398;-1853,592
 585,87;  823,626;60436,930;-2889,432
 586,45;  904,239;63023,543;-2375,031
 587,03;  861,197;64945,430;-1150,027
 587,62;  895,581;61494,641;-1834,745
 588,20; 1249,745;62236,285;-1020,779
 588,78; 1696,992;58157,840;-3411,673
 589,37; 1651,187;57765,270;-3360,680
 589,95; 1092,041;62238,773;-3385,657
 590,54;  897,814;63633,539;-3461,459
 591,12;  911,020;62116,301;-3508,497
 591,70;  869,458;59586,789;-3331,565
 592,29;  883,733;62881,805;-2923,283
 592,87;  955,379;63542,375;-2394,538
 593,45;  925,591;63404,801; 1487,908
 594,04;  888,261;62800,188;-3676,875
 594,62;  905,067;59709,910;-3708,333
 595,20;  843,858;62066,828;-4371,146
 595,79;  902,603;62681,285;-4165,588
 596,37;  849,089;61108,555;-3657,176
 596,95;  870,278;56922,164;-4321,203
 597,53;  857,899;58806,770;-4226,466
 598,12;  835,059;61848,922;-3959,669
 598,70;  770,247;64932,531;-3776,695
 599,28;  856,379;64911,375;-3404,538
 599,87;  831,607;64929,777;-3061,420
 600,45;  859,312;64938,293;-3907,543
 601,03;  801,891;63145,781;-4100,802
 601,62;  831,261;61727,188;-4468,875
 602,20;  758,780;59786,414;-4541,119
 602,78;  825,077;64399,070;-4770,680
 603,36;  860,162;64783,301;-3166,688
 603,95;  858,895;58863,277;-4492,634
 604,53;  875,320;62401,281;-4574,207
 605,11;  924,336;59505,258;-2755,535
 605,69;  797,569;62362,156;-3365,249
 606,28;  824,733;62594,805;-4223,283
 606,86;  854,630;61629,422;-3946,264
 607,44;  808,381;60431,547;-3906,222
 608,02;  820,875;58047,805;-4037,474
 608,61;  805,990;60099,668;-2866,989
 609,19;  756,346;58582,418;-2582,882
 609,77;  822,488;57398,422; -710,073
 610,35;  826,316;55748,785; 5794,625
 610,94;  817,342;56509,926;14509,949
 611,52;  814,990;55803,668;12610,011
 612,10;  755,176;53026,957; 8432,133
 612,68;  746,326;56637,949; 2694,278
 613,26;  759,948;57037,551; 2032,015
 613,85;  713,484;61759,926; -599,241
 614,43;  737,634;62306,918;-1030,096
 615,01;  687,253;62272,199;-1215,211
 615,59;  703,571;64874,328; -972,932
 616,17;  777,431;59402,648;-2561,890
 616,76;  821,942;62178,887;-2993,470
 617,34;  929,992;62666,988;-2389,138
 617,92;  859,899;58547,770;-3399,466
 618,50;  892,715;61202,652;-2562,271
 619,08;  961,676;57928,031;-2514,100
 619,67;  926,136;55968,164;-3196,012
 620,25; 1007,581;54290,641;-2743,745
 620,83; 1010,312;50498,293;-3495,543
 621,41; 1001,308;52314,797;-2800,711
 621,99; 1074,273;54560,672;-2529,371
 622,57; 1295,010;55529,141;-3707,149
 623,15; 1407,371;56213,387;-3783,875
 623,74; 1482,915;58266,746;-3892,794
 624,32; 1607,624;59330,754;-2827,749
 624,90; 1717,217;58625,898;-2311,188
 625,48; 1687,668;57897,043;-3132,436
 626,06; 1638,938;56898,391;-4006,638
 626,64; 1509,267;57787,004;-4162,855
 627,22; 1331,684;58993,020;-3409,764
 627,81; 1341,027;58046,117;-4334,478
 628,39; 1246,435;57121,145;-4560,722
 628,97; 1333,454;56597,293;-4437,733
 629,55; 1193,057;55377,750;-4219,985
 630,13; 1117,470;55669,270;-2959,062
 630,71; 1088,508;54162,891;-2747,233
 631,29; 1031,895;53129,277;-3824,634
 631,87;  980,838;52776,504;-4223,451
 632,45;  932,431;52786,648;-4716,890
 633,03;  926,272;54183,500;-4191,688
 633,62;  947,320;55423,281;-4714,207
 634,20;  824,844;54882,172;-4089,966
 634,78;  848,842;56497,000;-4430,283
 635,36;  768,148;56701,648;-4449,508
 635,94;  831,229;55183,383;-5398,684
 636,52;  772,865;51027,645;-5422,126
 637,10;  736,278;52116,164;-5488,203
 637,68;  700,822;50694,527;-4702,123
 638,26;  706,199;47618,750;-5536,176
 638,84;  597,500;48688,902;-5421,569
 639,42;  579,278;49235,164;-3756,203
 640,00;  619,433;51366,148;-5405,726
 640,58;  696,216;54579,402;-4806,027
 641,16;  675,998;55521,656;-5571,328
 641,74;  668,781;53214,906;-5433,630
 642,32;  602,564;50106,160;-5620,931
 642,90;  554,347;50434,414;-5856,232
 643,48;  653,129;49231,668;-5786,534
 644,06;  608,912;49280,922;-5796,835
 644,64;  662,695;49595,176;-5842,137
 645,22;  553,478;50513,430;-5562,438
 645,80;  561,260;50547,684;-4957,740
 646,39;  561,043;48107,938;-5515,041
 646,97;  528,826;49773,191;-5850,342
 647,54;  519,609;52328,441;-5717,644
 648,12;  580,391;54879,695;-5865,945
 648,70;  574,174;58954,949;-5885,247
 649,28;  541,957;56421,203;-6090,548
 649,86;  489,740;51091,457;-5609,850
 650,44;  547,523;48619,711;-5452,151
 651,02;  559,305;49970,965;-5474,452
 651,60;  486,088;51793,219;-5803,753
 652,18;  519,871;51320,473;-4735,055
 652,76;  563,654;53277,723;-5934,356
 653,34;  548,436;54817,977;-5939,658
 653,92;  524,219;57729,230;-5784,959
 654,50;  556,002;59042,484;-5818,261
 655,08;  510,785;58048,738;-5841,562
 655,66;  586,567;55058,992;-5115,863
 656,24;  550,350;56743,246;-5200,165
 656,82;  600,133;58989,500;-4979,466
 657,40;  553,916;58967,754;-5667,768
 657,98;  551,698;60169,008;-5486,069
 658,56;  531,481;61114,258;-5717,371
 659,14;  557,264;61380,512;-5913,672
 659,72;  548,047;63381,766;-5916,973
 660,29;  566,830;62437,020;-5907,275
 660,87;  527,612;59738,273;-5212,576
 661,45;  537,395;58590,527;-5664,877
 662,03;  520,178;57513,781;-4971,179
 662,61;  432,961;54945,035;-5638,480
 663,19;  460,743;54618,289;-5657,782
 663,77;  492,526;53917,543;-5939,083
 664,35;  439,309;56689,793;-5887,384
 664,93;  467,092;62595,047;-4922,686
 665,51;  426,874;61993,301;-6033,987
 666,08;  482,657;57747,555;-5652,289
 666,66;  420,440;51859,809;-4400,590
 667,24;  472,223;49420,063;-5952,892
 667,82;  488,005;50250,316;-5849,193
 668,40;  483,788;50723,570;-5932,494
 668,98;  571,571;51952,824;-5097,796
 669,56;  618,354;57957,078;-6096,097
 670,13;  600,137;61797,328;-6222,398
 670,71;  577,919;59698,582;-5900,700
 671,29;  491,702;57209,836;-6139,001
 671,87;  475,485;56814,090;-6051,303
 672,45;  390,268;51822,344;-6050,604
 673,03;  495,050;52592,598;-4769,906
 673,60;  487,833;58431,852;-3503,207
 674,18;  452,616;63679,105;-5938,508
 674,76;  444,399;61159,359;-6226,810
 675,34;  440,181;56361,613;-5251,111
 675,92;  441,964;55284,863;-6338,413
 676,50;  456,747;55051,117;-6085,714
 677,07;  420,530;56952,371;-6095,016
 677,65;  424,312;56680,625;-6163,317
 678,23;  440,095;55997,879;-5057,618
 678,81;  460,878;58016,133;-5299,919
 679,38;  442,661;56669,387;-5969,221
 679,96;  430,444;53267,641;-5846,522
 680,54;  458,226;55171,895;-5308,824
 681,12;  512,009;52485,148;-6126,125
 681,70;  475,792;54786,398;-4413,427
 682,27;  456,575;54740,652;-5851,728
 682,85;  466,357;58265,906;-5991,029
 683,43;  584,140;64943,160;-6140,331
 684,01;  556,923;64943,414;-5172,632
 684,58;  538,706;64307,668;-5138,934
 685,16;  607,488;64236,922;-4494,235
 685,74;  562,271;62790,176;-3853,536
 686,32;  511,054;59009,430;-6012,838
 686,89;  526,837;59552,684;-6015,139
 687,47;  491,619;59534,934;-6076,441
 688,05;  504,402;56416,188;-6019,742
 688,63;  471,185;59626,441;-6102,043
 689,20;  461,968;62884,695;-5971,345
 689,78;  449,751;58427,949;-5530,646
 690,36;  443,533;54291,203;-5381,948
 690,93;  432,316;54968,457;-6355,249
 691,51;  519,099;61453,711;-6326,550
 692,09;  516,882;64946,965;-6223,852
 692,67;  496,664;64947,219;-6047,153
 693,24;  445,447;60968,469;-5803,455
 693,82;  537,230;59538,723;-6235,756
 694,40;  497,013;58049,977;-3570,058
 694,97;  501,795;57456,230;-6046,359
 695,55;  485,578;59820,484;-5464,660
 696,13;  499,361;61729,738;-4454,962
 696,70;  549,144;58594,992;-6029,263
 697,28;  564,926;59108,246;-6266,564
 697,86;  517,709;60837,500;-6030,866
 698,43;  519,492;58827,754;-6198,167
 699,01;  618,275;55595,004;-6051,469
 699,59;  581,057;55751,258;-6402,770
 700,16;  614,840;54174,512;-5257,072
 700,74;  702,623;57040,766;-5497,373
 701,32;  711,406;56440,020;-6233,674
 701,89;  863,189;55792,273;-6049,976
 702,47; 1097,971;60296,527;-6466,277
 703,05; 1380,754;64951,781;-6309,579
 703,62; 1616,537;64952,035;-6227,880
 704,20; 1577,320;64952,285;-5306,182
 704,77; 1525,102;64952,539;-6118,483
 705,35; 1351,885;64213,793;-6006,784
 705,93; 1179,668;64327,047;-4922,085
 706,50;  957,451;63796,301;-5267,387
 707,08;  757,233;60606,555;-5284,688
 707,65;  695,016;60046,809;-5620,990
 708,23;  650,799;64881,063;-5431,292
 708,81;  500,582;64954,316;-5019,593
 709,38;  457,365;64954,570;-5001,894
 709,96;  517,147;64954,820;-6025,195
 710,53;  501,930;64955,074;-6007,497
 711,11;  457,713;61503,328;-5752,798
 711,69;  522,496;61913,582;-3821,100
 712,26;  448,278;59012,836;-4642,401
 712,84;  368,061;63346,090;-5947,703
 713,41;  438,844;64411,344;-6153,004
 713,99;  406,627;64924,598;-6068,305
 714,56;  412,409;62057,852;-6326,607
 715,14;  375,192;60312,105;-6198,908
 715,71;  388,975;60246,355;-6210,209
 716,29;  376,758;62893,609;-6648,511
 716,86;  358,540;63573,863;-6510,813
 717,44;  373,323;63263,117;-6424,114
 718,02;  362,106;62110,371;-6462,415
 718,59;  308,889;61013,625;-5121,716
 719,17;  366,671;63488,879;-5649,018
 719,74;  383,454;62907,133;-5756,319
 720,32;  289,237;63502,387;-6451,621
 720,89;  343,020;64959,641;-6422,922
 721,47;  304,803;64959,891;-6388,224
 722,04;  345,585;64960,145;-5502,525
 722,62;  317,368;64252,398;-3979,826
 723,19;  334,151;60250,652;-4938,128
 723,77;  292,934;57638,906;-5673,429
 724,34;  357,716;60150,160;-5576,730
 724,92;  292,499;63789,414;-6558,032
 725,49;  344,282;64961,668;-5666,333
 726,07;  336,065;64961,922;-6491,635
 726,64;  341,847;64627,176;-6587,936
 727,21;  359,630;60249,426;-5627,238
 727,79;  297,413;63706,680;-6444,539
 728,36;  415,196;64962,934;-6722,840
 728,94;  352,978;64963,188;-6535,142
 729,51;  341,761;64963,441;-6365,443
 730,09;  354,544;64963,695;-5545,745
 730,66;  339,327;64963,949;-6358,046
 731,24;  324,110;64964,203;-6577,348
 731,81;  390,892;64964,457;-5151,649
 732,38;  398,675;64964,711;-6492,950
 732,96;  391,458;64964,961;-6263,251
 733,53;  451,241;60347,215;-6389,553
 734,11;  370,023;61575,469;-6617,854
 734,68;  412,806;64965,723;-6211,156
 735,26;  402,589;64965,977;-6389,458
 735,83;  317,372;64966,230;-6498,759
 736,40;  411,154;62243,484;-6516,060
 736,98;  421,937;61999,738;-6374,361
 737,55;  389,720;59236,992;-5827,663
 738,13;  386,503;57707,246;-5702,964
 738,70;  357,285;60991,496;-5529,266
 739,27;  396,068;62504,750;-6452,567
 739,85;  385,851;62745,004;-6283,869
 740,42;  467,634;64968,258;-6464,170
 740,99;  475,417;64968,512;-5618,471
 741,57;  455,199;64968,766;-4867,773
 742,14;  451,982;64969,020;-5349,074
 742,72;  432,765;64969,273;-4751,375
 743,29;  477,548;64969,527;-6563,677
 743,86;  451,330;64969,781;-6538,979
 744,44;  459,113;64970,031;-6113,280
 745,01;  455,896;64970,285;-5760,581
 745,58;  491,679;64970,539;-6259,882
 746,16;  532,461;64970,793;-6188,184
 746,73;  551,244;64971,047;-6479,485
 747,30;  589,027;61139,301;-6536,787
 747,88;  602,810;59621,555;-5621,088
 748,45;  574,592;64971,809;-5668,390
 749,02;  599,375;64972,063;-6384,691
 749,60;  558,158;62401,313;-6212,992
 750,17;  574,941;61766,566;-5269,294
 750,74;  545,724;62801,820;-6479,595
 751,31;  529,506;63306,074;-6347,896
 751,89;  586,289;64232,328;-6546,198
 752,46;  641,072;64973,582;-6282,500
 753,03;  569,855;64973,836;-6160,801
 753,61;  580,637;63755,090;-4858,102
 754,18;  518,420;64573,344;-6434,404
 754,75;  493,203;63888,598;-5191,705
 755,32;  469,986;60715,848;-6332,006
 755,90;  478,768;64975,102;-6493,308
 756,47;  491,551;64975,355;-4809,609
 757,04;  446,334;64975,609;-6457,911
 757,61;  396,117;64975,863;-5553,212
 758,19;  433,899;64976,117;-5253,514
 758,76;  388,682;64976,371;-6603,815
 759,33;  406,465;64976,625;-6664,116
 759,90;  436,248;64976,879;-5714,417
 760,48;  327,031;64977,133;-6778,719
 761,05;  345,813;64977,383;-6083,021
 761,62;  352,596;62082,637;-4888,322
 762,19;  337,379;58992,891;-6144,624
 762,77;  370,162;61730,145;-5963,925
 763,34;  289,944;64978,398;-6610,226
 763,91;  296,727;64978,652;-5818,527
 764,48;  324,510;64978,906;-6756,829
 765,05;  352,293;64979,160;-6543,130
 765,63;  337,075;63215,414;-6417,432
 766,20;  468,858;59753,668;-6004,733
 766,77;  373,641;57105,918;-5921,035
 767,34;  303,424;58807,172;-6640,336
 767,91;  285,206;59176,426;-6689,637
 768,49;  327,989;61368,680;-6772,939
 769,06;  283,772;64980,934;-5832,240
 769,63;  351,555;62272,188;-6636,542
 770,20;  336,337;59567,441;-5868,843
 770,77;  241,120;57921,695;-5645,145
 771,34;  254,903;60065,949;-6615,446
 771,91;  242,686;60549,203;-6102,747
 772,49;  302,469;58558,453;-6369,048
 773,06;  320,251;57687,707;-6203,350
 773,63;  281,034;60204,961;-6639,651
 774,20;  265,817;58197,215;-5918,953
 774,77;  325,600;56475,469;-6631,254
 775,34;  317,382;56707,723;-6214,556
 775,91;  354,165;57056,977;-6417,857
 776,49;  475,948;58787,230;-6590,158
 777,06;  540,731;60761,484;-6015,460
 777,63;  476,513;64224,738;-6367,761
 778,20;  368,296;62572,988;-6250,063
 778,77;  332,079;63316,242;-5763,364
 779,34;  224,862;64985,496;-6585,666
 779,91;  259,645;64985,750;-6534,967
 780,48;  241,427;59144,004;-5853,268
 781,05;  229,210;50716,258;-6586,570
 781,62;  250,993;52124,512;-6604,871
 782,20;  296,776;58813,766;-6500,172
 782,77;  224,558;64987,020;-6529,474
 783,34;  319,341;64052,273;-6522,775
 783,91;  273,124;61362,523;-6509,077
 784,48;  231,907;60480,777;-2126,378
 785,05;  302,689;59144,031;-6540,680
 785,62;  274,472;58221,285;-6452,981
 786,19;  281,255;58149,539;-5100,282
 786,76;  244,038;55130,793;-6677,583
 787,33;  281,820;56202,047;-6515,885
 787,90;  224,603;59491,301;-6591,187
 788,47;  270,386;60148,555;-5075,488
 789,04;  240,169;58988,809;-5763,790
 789,61;  258,951;58863,059;-5066,091
 790,18;  209,734;55747,313;-6561,392
 790,75;  267,517;50841,566;-6671,693
 791,32;  258,300;52056,820;-6577,995
 791,89;  229,083;55205,074;-6068,296
 792,46;  217,865;60806,328;-5763,598
 793,03;  235,648;62404,582;-6702,899
 793,60;  254,431;55699,836;-6440,201
 794,17;  249,214;52257,090;-5569,502
 794,74;  260,996;47273,344;-5886,803
 795,31;  248,779;50096,594;-6099,105
 795,88;  239,562;52579,848;-5572,406
 796,45;  187,345;53365,102;-6529,708
 797,02;  164,127;56004,355;-5046,009
 797,59;  179,910;57922,609;-6675,311
 798,16;  229,693;54563,863;-5861,612
 798,73;  153,476;53534,117;-6761,913
 799,30;  141,258;55088,371;-6611,214
 799,87;  127,041;55650,625;-6713,516
 800,44;  134,824;55353,875;-6729,817
 801,01;  193,607;56836,129;-6807,119
 801,58;  237,390;58477,383;-6537,420
 802,15;  191,172;52086,637;-6658,722
 802,72;  173,955;48849,891;-6694,023
 803,28;  165,738;52000,145;-6076,324
 803,85;  181,521;57179,398;-6728,626
 804,42;  181,303;55235,652;-5999,927
 804,99;  206,086;53752,906;-6539,229
 805,56;  150,869;52472,160;-6770,530
 806,13;  170,652;53387,410;-6075,832
 806,70;  184,434;52719,664;-6748,133
 807,27;  174,217;54477,918;-6672,434
 807,84;  133,000;52786,172;-6693,736
 808,41;  194,783;49728,426;-6022,037
 808,98;  174,565;50479,680;-5986,338
 809,54;  123,348;52469,934;-4958,640
 810,11;  198,131;48281,188;-6782,941
 810,68;  195,914;43021,441;-6680,243
 811,25;  140,697;41394,695;-6760,544
 811,82;  140,479;40374,945;-6886,846
 812,39;  144,262;37710,199;-3331,147
 812,96;  164,045;38779,453;-6767,448
 813,52;  170,828;41291,707;-6937,750
 814,09;  120,610;44522,961;-6766,051
 814,66;  158,393;50325,215;-6827,353
 815,23;  144,176;51240,469;-6669,654
 815,80;  135,959;50439,723;-5853,956
 816,37;  125,741;50917,977;-6801,257
 816,93;  160,524;49487,230;-6731,558
 817,50;  165,307;46790,480;-6102,859
 818,07;  206,090;46034,734;-6960,161
 818,64;  197,872;46919,988;-6856,462
 819,21;  204,655;46261,242;-6053,764
 819,77;  243,438;42742,496;-6571,065
 820,34;  166,221;42053,750;-6677,367
 820,91;  226,004;43276,004;-6469,668
 821,48;  271,786;43873,258;-6689,969
 822,05;  271,569;45571,512;-5875,271
 822,61;  262,352;44296,766;-5631,572
 823,18;  204,135;41860,016;-6620,874
 823,75;  167,917;42585,270;-6957,175
 824,32;  194,700;45286,523;-6923,477
 824,88;  172,483;45073,777;-6882,778
 825,45;  173,266;44018,031;-6899,079
 826,02;  148,048;43798,285;-6643,380
 826,59;  141,831;43974,539;-6639,682
 827,15;  127,614;46077,793;-6906,983
 827,72;  142,397;49519,047;-6723,285
 828,29;  140,179;51523,301;-6895,586
 828,86;  123,962;48827,551;-6791,888
 829,42;  146,745;40797,805;-6812,189
 829,99;  125,528;36802,059;-6647,490
 830,56;  190,311;36252,313;-6869,792
 831,13;  145,093;37220,566;-6060,093
 831,69;  182,876;38022,820;-6506,395
 832,26;  132,659;38832,074;-5062,696
 832,83;  107,442;40408,328;-5452,998
 833,39;  136,224;40187,582;-6904,299
 833,96;  159,007;39167,836;-6687,600
 834,53;   95,790;40039,086;-6928,902
 835,10;  100,573;39930,340;-6529,203
 835,66;  136,355;38972,594;-6920,504
 836,23;  144,138;39801,848;-6803,806
 836,80;  105,921;39428,102;-6790,107
 837,36;  105,704;37086,355;-6810,409
 837,93;  114,486;34475,609;-6902,710
 838,50;  146,269;35084,863;-6789,012
 839,06;  122,052;37684,117;-6288,313
 839,63;   94,835;37191,371;-6895,614
 840,19;   92,617;35132,621;-6607,916
 840,76;  144,400;35364,875;-6404,217
 841,33;  114,183;35892,129;-6509,519
 841,89;  115,966;36779,383;-6949,820
 842,46;  104,749;37103,637;-6751,122
 843,03;  133,531;35389,891;-6089,423
 843,59;  111,314;34224,145;-6403,724
 844,16;  112,097;34994,398;-6181,025
 844,73;  174,880;34249,652;-6067,327
 845,29;  116,662;32937,902;-5695,628
 845,86;   95,445;35699,156;-6800,930
 846,42;   40,228;36940,410;-7004,231
 846,99;  124,011;36477,664;-6967,533
 847,56;  109,793;36265,918;-5840,834
 848,12;   78,576;36240,172;-6745,135
 848,69;   61,359;35710,426;-6715,437
 849,25;   98,142;34401,680;-6845,738
 849,82;   37,924;34081,934;-3247,040
 850,38;   56,707;35064,188;-6840,341
 850,95;  102,490;32489,439;-6324,643
 851,52;  106,273;32520,693;-6565,944
 852,08;   72,056;32548,947;-6691,245
 852,65;   37,838;30323,199;-7005,546
 853,21;   41,621;27698,453;-6958,848
 853,78;   50,404;27362,707;-6363,149
 854,34;   86,187;28860,961;-6871,451
 854,91;   24,969;29081,215;-5086,752
 855,47;  117,752;29942,467;-5108,054
 856,04;  129,535;32027,721;-6746,355
 856,60;   53,318;33961,973;-6104,656
 857,17;   67,100;34979,227;-6840,958
 857,73;   62,883;33553,480;-6811,259
 858,30;   68,666;32532,734;-6985,561
 858,86;   62,449;31110,988;-5926,862
 859,43;   96,231;31430,242;-6226,164
 859,99;   87,014;32011,496;-6852,465
 860,56;   84,797;33126,750;-6903,766
 861,12;   73,580;35190,004;-6737,068
 861,69;   70,363;33669,258;-5924,369
 862,25;  123,145;34731,508;-6821,670
 862,82;   86,928;34419,762;-5972,972
 863,38;  107,711;31196,018;-6843,273
 863,95;   79,494;29305,270;-6239,575
 864,51;  170,276;30403,523;-5287,876
 865,08;  142,059;29284,777;-6090,178
 865,64;   61,842;26795,031;-7018,479
 866,21;   98,625;26131,285;-6745,780
 866,77;   96,407;26051,537;-5552,082
 867,34;  117,190;25734,791;-6672,383
 867,90;  156,973;24632,045;-6303,685
 868,46;  144,756;23835,299;-6041,986
 869,03;   55,538;24389,551;-6929,288
 869,59;  118,321;26353,805;-6884,589
 870,16;  122,104;27647,059;-6052,890
 870,72;   75,887;30060,313;-6657,191
 871,28;  107,670;32915,566;-5992,493
 871,85;  129,452;33142,820;-6907,794
 872,41;   18,235;31569,072;-6004,096
 872,98;   98,018;32738,326;-6050,397
 873,54;   60,801;33876,578;-5920,699
 874,10;  106,583;32768,832;-5876,000
 874,67;   55,583;32987,832;-6904,000
 875,23;   40,583;31068,834;-7032,000
 875,80;   88,583;28009,834;-6641,000
 876,36;   47,583;25058,834;-6642,000
 876,92;   74,583;22832,834;-6189,000
 877,49;   87,583;23923,834;-6517,000
 878,05;  107,583;24896,834;-6797,000
 878,61;  103,583;26938,834;-6812,000
 879,18;   65,583;27553,834;-6252,000
 879,74;   66,583;28076,834;-6720,000
 880,30;   35,583;28679,834;-5926,000
 880,87;   57,583;28852,834;-6326,000
 881,43;   93,583;29533,834;-6871,000
 881,99;   96,583;27306,834;-6879,000
 882,56;   80,583;27610,834;-6661,000
 883,12;   73,583;29049,834;-5740,000
 883,68;   32,583;29120,834;-6518,000
 884,25;   94,583;28300,834;-6949,000
 884,81;   41,583;26343,834;-6701,000
 885,37;   29,583;24221,834;-6786,000
 885,94;   58,583;22940,834;-6851,000
 886,50;   29,583;23098,834;-6886,000
 887,06;   52,583;24358,834;-6796,000
 887,62;   58,583;25019,834;-6866,000
 888,19;   36,583;25774,834;-5986,000
 888,75;   50,583;26542,834;-6821,000
 889,31;   88,583;29043,834;-6778,000
 889,87;   57,583;30537,834;-6723,000
 890,44;   94,583;30349,834;-6696,000
 891,00;   59,583;28757,834;-6786,000
 891,56;   56,583;26457,834;-6998,000
 892,12;  143,583;24463,834;-6754,000
 892,69;   90,583;25310,834;-6373,000
 893,25;   98,583;28798,834;-6877,000
 893,81;  109,583;31774,834;-6696,000
 894,37;   97,583;31330,834;-6342,000
 894,94;  115,583;28713,834;-6772,000
 895,50;   78,583;26035,834; -212,000
 896,06;   82,583;24749,834;-6810,000
 896,62;  136,583;23405,834;-6707,000
 897,18;  126,583;24661,834;-6518,000
 897,75;  147,583;27406,834;-6895,000
 898,31;  150,583;27887,834;-6849,000
 898,87;  162,583;26274,834;-6860,000
 899,43;  139,583;25164,834;-6469,000
 899,99;  146,583;26592,834;-6866,000
 900,56;  103,583;25515,834;-6791,000
 901,12;  124,583;24875,834;-6890,000
 901,68;  156,583;27903,834;-6267,000
 902,24;  171,583;31800,834;-5930,000
 902,80;  118,583;32652,834;-6794,000
 903,36;  265,583;31893,834;-6691,000
 903,93;  367,583;32139,834;-6646,000
 904,49;  847,583;32761,834;-6913,000
 905,05; 2203,583;30952,834;-6732,000
 905,61; 5112,583;28208,834;-6832,000
 906,17; 8928,583;28086,834;-6901,000
 906,73;13701,583;25975,834;-5380,000
 907,29;18027,584;24960,834;-6910,000
 907,86;21449,584;25118,834;-6827,000
 908,42;22733,584;28092,834;-6795,000
 908,98;18761,584;31123,834;-5908,000
 909,54;10026,583;38813,832;-6885,000
 910,10; 3387,583;48220,832;-6634,000
 910,66;  868,583;57581,832;-6781,000
 911,22;  354,583;65027,832;-6761,000
 911,78;  190,583;62593,832;-6841,000
 912,34;  150,583;53256,832;-6080,000
 912,90;  175,583;44610,832;-5232,000
 913,46;  129,583;37052,832;-6876,000
 914,03;   84,583;30620,834;-5746,000
 914,59;  134,583;27452,834;-6682,000
 915,15;  140,583;24908,834;-6891,000
 915,71;   91,583;24217,834;-6863,000
 916,27;   54,583;23800,834;-6723,000
 916,83;   79,583;23006,834;-5824,000
 917,39;   68,583;21742,834;-3512,000
 917,95;  117,583;20224,834;-6009,000
 918,51;   53,583;19972,834;-6583,000
 919,07;   92,583;21780,834;-6791,000
 919,63;   13,583;23295,834;-6661,000
 920,19;   19,583;23935,834;-6865,000
 920,75;   66,583;23112,834;-6640,000
 921,31;   52,583;21484,834;-4837,000
 921,87;   89,583;20216,834;-6845,000
 922,43;   32,583;18019,834;-5626,000
 922,99;  103,583;17321,834;-6706,000
 923,55;   86,583;18674,834;-6655,000
 924,11;   59,583;19094,834;-6976,000
 924,67;   48,583;19310,834;-6962,000
 925,23;   59,583;19485,834;-6778,000
 925,79;   93,583;20122,834;-6710,000
 926,35;   88,583;20219,834;-6573,000
 926,91;    3,583;19401,834;-6909,000
 927,47;   35,583;19367,834;-6660,000
 928,03;  105,583;20294,834;-6786,000
 928,59;   82,583;20503,834;-6678,000
 929,15;   89,583;20781,834;-6792,000
 929,71;   89,583;22016,834;-6840,000
 930,27;   97,583;23587,834;-6537,000
 930,82;   72,583;25573,834;-6728,000
 931,38;   34,583;24317,834;-5852,000
 931,94;    6,583;22672,834;-6843,000
 932,50;   32,583;21252,834;-6481,000
 933,06;   60,583;20895,834;-6768,000
 933,62;   35,583;21092,834;-6443,000
 934,18;   60,583;20632,834;-6727,000
 934,74;   12,583;21320,834;-6709,000
 935,30;   85,583;22030,834;-6484,000
 935,86;   49,583;21213,834;-6505,000
 936,42;   17,583;20702,834;-6873,000
 936,97;   33,583;21656,834;-6563,000
 937,53;   31,583;20552,834;-6826,000
 938,09;   32,583;21087,834;  123,000
 938,65;   58,583;21186,834;-6268,000
 939,21;   54,583;20179,834;-6708,000
 939,77;   36,583;18946,834;-6213,000
 940,33;   39,583;18602,834;-6748,000
 940,88;   35,583;19429,834;-5908,000
 941,44;   40,583;21301,834;-6983,000
 942,00;   30,583;23225,834;-6697,000
 942,56;   25,583;24231,834;-6604,000
 943,12;   23,583;23427,834;-5907,000
 943,68;   49,583;22950,834;-5679,000
 944,23;   33,583;23124,834;-6749,000
 944,79;   -1,417;22674,834;-6102,000
 945,35;    4,583;20741,834;-6599,000
 945,91;   39,583;19519,834;-6767,000
 946,47;   30,583;19827,834;-3353,000
 947,03;   -1,417;19896,834;-6850,000
 947,58;    0,583;19661,834;-6840,000
 948,14;   39,583;20790,834;-5897,000
 948,70;   27,583;19573,834;-5855,000
 949,26;   62,583;18881,834;-6616,000
 949,81;   32,583;18342,834;-6644,000
 950,37;   31,583;18686,834;-6695,000
 950,93;   33,583;17993,834;-6224,000
 951,49;   -0,417;17568,834;-6057,000
 952,05;   30,583;17926,834;-6571,000
 952,60;   -8,417;17299,834;-6951,000
 953,16;   55,583;16933,834;-5783,000
 953,72;  -37,417;15628,833;-5813,000
 954,27;   -8,417;15524,833;-6566,000
 954,83;   32,583;15317,833;-6703,000
 955,39;   37,583;14917,833;-6691,000
 955,95;    1,583;14456,833;-6849,000
 956,50;   18,583;14272,833;-6698,000
 957,06;   15,583;14126,833;-5922,000
 957,62;   19,583;13780,833;-6559,000
 958,18;   16,583;13872,833;-6741,000
 958,73;   10,583;13326,833;-6820,000
 959,29;   20,583;13518,833;-6106,000
 959,85;  -22,417;14785,833;-6864,000
 960,40;   39,583;16746,834;-4263,000
 960,96;   27,583;16386,834;-6738,000
 961,52;   24,583;14755,833;-6643,000
 962,07;  -22,417;13711,833;-6742,000
 962,63;  -29,417;13208,833;-6723,000
 963,19;   -6,417;13435,833;-5779,000
 963,74;   49,583;13877,833;-6582,000
 964,30;   23,583;14475,833;-6595,000
 964,86;   20,583;14281,833;-6484,000
 965,41;   30,583;14290,833;-6705,000
 965,97;   26,583;14185,833;-6569,000
 966,53;   14,583;14792,833;-6750,000
 967,08;   29,583;15311,833;-6611,000
 967,64;   29,583;15082,833;-6705,000
 968,19;   16,583;14471,833;-6684,000
 968,75;   32,583;14662,833;-6566,000
 969,31;   28,583;14880,833;-5626,000
 969,86;   40,583;14995,833;-6505,000
 970,42;   44,583;13195,833;-6620,000
 970,97;   59,583;11567,833;-6437,000
 971,53;    5,583;11625,833;-6490,000
 972,09;  -12,417;12998,833;-6646,000
 972,64;   51,583;13523,833;-5812,000
 973,20;   21,583;13815,833;-6599,000
 973,75;   39,583;14605,833;-5760,000
 974,31;   64,583;14826,833;-6578,000
 974,87;   31,583;14921,833;-6674,000
 975,42;    7,583;14507,833;-6727,000
 975,98;   -5,417;13201,833;-6651,000
 976,53;   39,583;12100,833;-6555,000
 977,09;  -12,417;11353,833;-4624,000
 977,64;   21,583;11164,833;-6532,000
 978,20;   55,583;10649,833;-6585,000
 978,75;   36,583;10482,833;-6429,000
 979,31;   33,583;10950,833;-6513,000
 979,86;   -6,417;12220,833;-6739,000
 980,42;   12,583;12828,833;-5813,000
 980,97;   35,583;13290,833;-6642,000
 981,53;   39,583;14285,833;-6636,000
 982,08;   38,583;13803,833;-5046,000
 982,64;   30,583;12278,833;-6237,000
 983,19;   33,583;11308,833;-6760,000
 983,75;  -12,417;10993,833;-6576,000
 984,30;    5,583;10430,833;-5581,000
 984,86;   22,583; 9867,833;-5898,000
 985,41;   22,583; 9457,833;-6634,000
 985,97;   34,583; 9632,833;-4797,000
 986,52;   13,583; 9894,833;-5853,000
 987,08;   32,583; 9953,833;-6174,000
 987,63;   26,583;10165,833;-5608,000
 988,19;   16,583;11252,833;-6266,000
 988,74;  -17,417;11710,833;-5682,000
 989,30;   14,583;11529,833;-6568,000
 989,85;   17,583;11470,833; -276,000
 990,40;    6,583;11314,833;-6617,000
 990,96;   57,583;11060,833;-6482,000
 991,51;   22,583;11149,833;-6578,000
 992,07;    4,583;10742,833;-6605,000
 992,62;   26,583;10285,833;-6519,000
 993,18;  -15,417;10035,833;-6504,000
 993,73;   28,583; 9986,833;-6440,000
 994,28;   20,583; 9800,833;-6464,000
 994,84;   31,583; 9019,833;-6240,000
 995,39;   28,583; 8474,833;-2971,000
 995,94;   63,583; 7953,833;-5673,000
 996,50;   13,583; 7647,833;-6543,000
 997,05;   17,583; 7872,833;-3481,000
 997,61;   67,583; 8363,833;-6489,000
 998,16;   17,583; 8581,833;-6555,000
 998,71;    9,583; 8850,833;-6340,000
 999,27;   28,583; 9115,833;-5223,000
 999,82;   34,583; 8706,833;-4778,000
1000,37;   31,583; 8661,833;-6520,000
1000,93;   32,583; 8920,833;-6107,000
1001,48;   46,583; 8799,833;-6543,000
1002,03;    7,583; 8477,833;-6469,000
1002,59;   30,583; 8715,833;-5972,000
1003,14;   21,583; 8758,833;-6113,000
1003,69;   29,583; 8484,833;-6513,000
1004,25;  -11,417; 8299,833;-6507,000
1004,80;   33,583; 8322,833;-6266,000
1005,35;  -23,417; 8313,833;-6361,000
1005,91;   78,583; 8515,833;-6558,000
1006,46;   16,583; 8426,833;-6084,000
1007,01;   53,583; 8227,833;-5479,000
1007,56;   94,583; 8599,833;-6440,000
1008,12;   45,583; 8342,833;-6178,000
1008,67;   44,583; 7867,833;-6312,000
1009,22;   51,583; 7509,833;-6481,000
1009,78;   22,583; 7205,833;-6163,000
1010,33;   54,583; 6649,833;-6443,000
1010,88;   94,583; 6413,833;-5618,000
1011,43;   73,583; 5995,833;-6433,000
1011,99;   25,583; 5972,833;-6198,000
1012,54;   56,583; 6320,833;-6387,000
1013,09;  102,583; 6048,833;-6299,000
1013,64;   26,583; 5802,833;-6362,000
1014,19;   10,583; 5823,833;-6442,000
1014,75;  100,583; 5928,833;-6408,000
1015,30;   65,583; 6394,833;-6425,000
1015,85;   92,583; 6370,833;-6367,000
1016,40;   68,583; 6247,833;-5436,000
1016,96;  110,583; 6235,833;-6268,000
1017,51;   51,583; 6150,833;-6351,000
1018,06;  108,583; 6095,833;-6310,000
1018,61;   55,583; 5695,833;-6665,000
1019,16;   63,583; 5609,833;-6697,000
1019,71;  118,583; 5663,833;-6373,000
1020,27;  127,583; 5567,833;-6353,000
1020,82;  107,583; 5375,833;-3700,000
1021,37;  119,583; 5405,833;-4798,000
1021,92;  121,583; 5984,833;-6454,000
1022,47;  128,583; 5965,833;-6548,000
1023,02;  107,583; 5463,833;-6512,000
1023,58;  129,583; 5045,833;-6573,000
1024,13;  137,583; 4730,833;-6258,000
1024,68;  116,583; 4434,833;-6298,000
1025,23;  193,583; 4324,833;-5525,000
1025,78;  169,583; 4613,833;-6475,000
1026,33;  164,583; 4932,833;-5510,000
1026,88;  248,583; 4843,833;-6236,000
1027,43;  197,583; 5167,833;-6276,000
1027,99;  256,583; 5134,833;-6002,000
1028,54;  222,583; 4732,833;-6395,000
1029,09;  301,583; 4106,833;-2478,000
1029,64;  381,583; 3919,833;-6303,000
1030,19;  446,583; 4147,833;-3821,000
1030,74;  491,583; 4243,833;-5134,000
1031,29;  578,583; 4284,833;-4765,000
1031,84;  676,583; 4491,833;-6300,000
1032,39;  726,583; 4563,833;-5403,000
1032,94;  794,583; 4617,833;-4326,000
1033,49;  999,583; 4361,833;-5476,000
1034,04; 1052,583; 4236,833;-6312,000
1034,59; 1245,583; 4205,833;-6507,000
1035,14; 1218,583; 4117,833;-6145,000
1035,69; 1402,583; 4318,833;-6224,000
1036,24; 1307,583; 4104,833;-4477,000
1036,80; 1501,583; 3986,833;-5453,000
1037,35; 1706,583; 4138,833;-6347,000
1037,90; 1838,583; 4172,833;-6274,000
1038,45; 1974,583; 4201,833;-6419,000
1039,00; 2103,583; 4340,833;-5490,000
1039,55; 2182,583; 4229,833;-6284,000
1040,10; 2302,583; 3977,833;-5615,000
1040,65; 2408,583; 3916,833;-5576,000
1041,20; 2546,583; 3850,833;-6325,000
1041,75; 2687,583; 4030,833;-4522,000
1042,30; 2822,583; 4164,833;-3585,000
1042,84; 3096,583; 4338,833;-4439,000
1043,39; 3185,583; 4248,833;-6313,000
1043,94; 3240,583; 4175,833;-5342,000
1044,49; 3447,583; 3887,833;-6246,000
1045,04; 3438,583; 3710,833;-5800,000
1045,59; 3829,583; 3809,833;-6299,000
1046,14; 4308,583; 3732,833;-6392,000
1046,69; 4833,583; 3591,833;-6294,000
1047,24; 5491,583; 3623,833;-5510,000
1047,79; 6296,583; 3737,833;-6139,000
1048,34; 6900,583; 4002,833;-5961,000
1048,89; 7481,583; 3948,833;-6259,000
1049,44; 8314,583; 3935,833;-5172,000
1049,99; 9531,583; 3855,833;-4844,000
1050,54;11129,583; 3876,833;-6249,000
1051,08;13283,583; 3961,833;-6178,000
1051,63;17934,584; 4050,833;-5285,000
1052,18;27750,584; 5051,833;-6127,000
1052,73;46309,582; 7151,833;-6173,000
1053,28;65154,582;10516,833;-6386,000
1053,83;65154,582;15224,833;-6214,000
1054,38;65154,582;19203,834;-6254,000
1054,93;65154,582;21243,834;-6285,000
1055,47;65154,582;23825,834;-5328,000
1056,02;65154,582;26212,834;-5832,000
1056,57;65154,582;27830,834;-6198,000
1057,12;65154,582;30497,834;-6378,000
1057,67;65154,582;33805,832;-6078,000
1058,22;65154,582;36084,832;-6313,000
1058,76;65154,582;38542,832;-6093,000
1059,31;65154,582;44129,832;-3514,000
1059,86;65154,582;48778,832;-6204,000
1060,41;65154,582;49718,832;-6152,000
1060,96;65154,582;51396,832;-6226,000
1061,51;65154,582;53649,832;-5344,000
1062,05;65154,582;54082,832;-6122,000
1062,60;65154,582;50555,832;-6061,000
1063,15;65154,582;45221,832;-6149,000
1063,70;65154,582;41550,832;-6250,000
1064,24;65154,582;43676,832;-6169,000
1064,79;65154,582;45461,832;-6144,000
1065,34;65154,582;43989,832;-6064,000
1065,89;65154,582;41776,832;-6202,000
1066,44;65154,582;37631,832;-6120,000
1066,98;65154,582;32612,834;-6224,000
1067,53;65154,582;30790,834;-5953,000
1068,08;65154,582;30368,834;-4845,000
1068,63;65154,582;27618,834;-6096,000
1069,17;65154,582;24647,834;-5893,000
1069,72;65154,582;22350,834;-5857,000
1070,27;65154,582;20529,834;-6040,000
1070,81;65154,582;20388,834;-5996,000
1071,36;65154,582;20367,834;-3883,000
1071,91;65154,582;18745,834;  966,000
1072,46;65154,582;16791,834;-5058,000
1073,00;65154,582;14646,833;-5239,000
1073,55;65154,582;11404,833;-5935,000
1074,10;60868,582; 7803,833;-5981,000
1074,64;40484,582; 5240,833;-5860,000
1075,19;25249,584; 3535,833;-4958,000
1075,74;17228,584; 2551,833;-6091,000
1076,28;12981,583; 2312,833;-6075,000
1076,83;10573,583; 1951,833;-5286,000
1077,38; 8967,583; 1820,833;-5653,000
1077,92; 7560,583; 1783,833;-6332,000
1078,47; 6553,583; 1629,833;-5507,000
1079,02; 5596,583; 1578,833;-5959,000
1079,56; 4824,583; 1557,833;-5328,000
1080,11; 4315,583; 1304,833;-6094,000
1080,65; 3841,583; 1241,833;-5039,000
1081,20; 3444,583; 1186,833;-6151,000
1081,75; 3129,583; 1125,833;-6039,000
1082,29; 2819,583; 1128,833; -139,000
1082,84; 2495,583; 1184,833;-2678,000
1083,39; 2198,583; 1294,833;-5061,000
1083,93; 2177,583; 1335,833;-5025,000
1084,48; 1964,583; 1196,833;-5961,000
1085,02; 1797,583; 1082,833;-5783,000
1085,57; 1731,583; 1074,833;-5994,000
1086,11; 1470,583; 1079,833;-5968,000
1086,66; 1408,583;  925,833;-5584,000
1087,21; 1359,583; 1060,833;-5802,000
1087,75; 1202,583;  939,833;-6125,000
1088,30; 1099,583;  815,833;-5040,000
1088,84; 1090,583;  783,833;-5963,000
1089,39;  965,583;  656,833;-5965,000
1089,93;  895,583;  664,833;-6100,000
1090,48;  786,583;  649,833;-4394,000
1091,02;  785,583;  733,833;-5181,000
1091,57;  670,583;  629,833;-5479,000
1092,11;  624,583;  642,833;-4094,000
1092,66;  599,583;  624,833;-6031,000
1093,20;  554,583;  580,833;-5180,000
1093,75;  496,583;  566,833;-4998,000
1094,29;  444,583;  486,833;-4979,000
1094,84;  477,583;  525,833;-5890,000
1095,38;  397,583;  528,833;-5097,000
1095,93;  344,583;  584,833;-5981,000
1096,47;  285,583;  615,833;-5612,000
1097,02;  281,583;  587,833;-4985,000
1097,56;  316,583;  614,833;-5772,000
1098,11;  260,583;  552,833;-5774,000
1098,65;  279,583;  508,833;-5992,000
1099,20;  274,583;  577,833;-5935,000
1099,74;  230,583;  487,833;-6002,000
1100,29;  241,583;  513,833;-4879,000
1100,83;  175,583;  496,833;-5934,000

