
Integration time [ms]:   1,000
Averaging Nr. [scans]: 1
Smoothing Nr. [pixels]: 0
Data measured with spectrometer [name]: 1703254U1
Wave   ;Sample   ;Dark     ;Reference;Scope
[nm]   ;[counts] ;[counts] ;[counts] 

 190,08;  -49,087; -370,119;11982,743
 190,69;  -29,021; -359,404;11603,049
 191,29;  -30,673; -311,651;11479,965
 191,90;  -41,179; -365,508;11440,717
 192,50;  -39,290; -379,511;10355,099
 193,10;  -16,862; -446,299;11244,381
 193,71;  -37,991; -367,888; 9821,736
 194,31;  -31,972; -399,273; 9436,327
 194,91;  -31,972; -382,273; 9291,327
 195,52;  -39,408; -338,386;10555,949
 196,12;  -13,321; -397,056; 8671,847
 196,72;  -34,686; -386,394; 8220,904
 197,32;  -37,991; -375,888; 8251,736
 197,93;  -19,577; -360,420; 8700,957
 198,53;  -33,978; -383,145; 7601,797
 199,13;  -41,533; -397,132; 8091,270
 199,74;  -25,243; -366,410; 7263,813
 200,34;  -21,230; -388,667; 7832,874
 200,94;  -18,515; -436,547; 6941,297
 201,55;  -29,021; -406,404; 7119,049
 202,15;  -32,444; -375,773; 6404,732
 202,75;  -65,023; -373,217; 6097,647
 203,36;  -23,119; -338,664; 6822,492
 203,96;  -78,479; -357,943; 6332,678
 204,56;  -26,896; -355,657;10275,729
 205,16;  -35,041; -363,018; 5478,458
 205,77;  -48,969; -360,244; 4767,892
 206,37;  -35,985; -409,017; 5556,267
 206,97;  -39,998; -363,760; 5129,205
 207,58;  -21,702; -364,166; 5927,278
 208,18;  -43,421; -337,129; 5129,889
 208,78;  -40,588; -404,134; 5295,461
 209,38;  -22,410; -469,415; 4958,385
 209,99;  -22,292; -356,540; 3837,534
 210,59;  -24,063; -361,662; 3890,301
 211,19;  -23,237; -364,538; 3938,343
 211,79;  -15,328; -366,927; 4499,316
 212,40;  -45,782; -373,625; 3368,911
 213,00;  -36,103; -388,891; 3903,118
 213,60;  -41,769; -386,882; 2992,972
 214,20;  -57,468; -401,230; 3081,175
 214,81;  -49,559; -422,618; 2884,148
 215,41;  -57,704; -376,979; 3235,877
 216,01;  -79,305; -373,067; 3109,636
 216,61;  -31,853; -367,399; 2814,476
 217,22;  -74,348; -381,326; 2358,888
 217,82;  -90,519; -325,173; 2262,495
 218,42;  -68,328; -383,711; 2389,480
 219,02;  -73,403; -288,327; 3432,079
 219,63;  -55,343; -357,483; 2044,854
 220,23;  -59,003; -366,602; 2425,239
 220,83;  -56,996; -395,730; 1901,770
 221,43;  -77,299; -393,195; 1850,167
 222,03;  -80,368; -348,940; 2326,296
 222,64;  -61,127; -380,348; 1769,560
 223,24;  -65,259; -298,966; 1625,350
 223,84;  -81,902; -376,313; 2637,361
 224,44;  -77,771; -316,695; 2381,571
 225,05;  -73,757; -313,952; 1440,632
 225,65;  -80,250; -301,065; 1227,445
 226,25;  -68,091; -364,961; 1139,777
 226,85;  -83,791; -294,309;  995,979
 227,45;  -71,161; -335,706; 1083,907
 228,06;  -69,154; -365,834; 1945,438
 228,66;  -68,564; -349,460; 4049,182
 229,26;  -75,784; -313,438; 1131,510
 229,86;  -64,904; -396,342; 1760,797
 230,46;  -78,243; -358,194;  891,976
 231,06;  -78,007; -320,444;  757,273
 231,67;  -56,052; -346,732; 1228,961
 232,27;  -95,595; -343,789;  778,094
 232,87;  -84,263; -308,808;  526,384
 233,47;  -99,018; -321,158;  525,777
 234,07;  -53,455; -268,486; 9912,235
 234,67; -110,468; -291,013;  672,338
 235,28;  -99,018; -319,158;   65,777
 235,88; -114,363; -316,882;  285,426
 236,48;  -76,708; -350,821;  165,911
 237,08;  -92,880; -267,669;  448,518
 237,68; -116,724; -369,378; -267,552
 238,28; -104,094; -304,774; -106,624
 238,89; -114,481; -212,756; -205,723
 239,49; -104,802; -282,023; 1280,483
 240,09; -127,819; -284,608; -190,544
 240,69; -119,557; -251,373; -319,124
 241,29; -105,156; -289,647;  651,036
 241,89; -105,628; -330,147; -260,559
 242,49;  -72,160; -248,490; -358,930
 243,10; -120,383; -201,496; 3664,834
 243,70; -124,160; -284,490;  239,070
 244,30;  -98,550; -275,501; -708,594
 244,90; -132,928; -188,582; -568,598
 245,50; -119,944; -177,355; 3274,777
 246,10; -111,766; -307,636; -831,300
 246,70;  -99,966; -300,999;   17,620
 247,30; -103,933; -251,641;  326,273
 247,91; -125,672; -208,218; 5781,292
 248,51;  -88,007; -270,228; -806,563
 249,11;  -68,996; -239,514;  417,933
 249,71; -100,301; -303,008; -667,235
 250,31;  -83,937; -265,483; -567,693
 250,91;  -63,494; -238,500;   75,216
 251,51; -101,895; -199,225; -822,945
 252,11;  -64,024; -239,813;  367,410
 252,71; -114,626; -269,117;-1080,994
 253,31; -123,721; -222,348; 3228,013
 253,91; -108,761; -236,578; -676,170
 254,52;  -96,499; -237,342;-1063,750
 255,12;  -96,937; -293,483;-1104,693
 255,72;  -35,334; -206,366;  557,112
 256,32;  -94,677; -242,061; -966,674
 256,92;  -86,011; -190,070;-1147,529
 257,52;  -21,131; -173,974; -883,243
 258,12; -119,568; -201,087;  -91,621
 258,72;  -85,913; -210,810;-1232,972
 259,32;  -31,276; -211,335;-1169,514
 259,92;  -42,109; -199,330;-1343,086
 260,52;  -26,076; -192,973;-1077,433
 261,12;  -94,621; -202,059; -662,865
 261,72;  -82,879; -238,452;-1312,319
 262,32;  -45,541; -215,600;-1561,498
 262,92; -111,989; -238,426;  405,627
 263,53;  -88,476; -189,698;-1277,594
 264,13;  -93,850; -262,937; -268,632
 264,73;  -57,116; -217,202;-1694,617
 265,33;  -70,663; -188,317;-1708,613
 265,93;  -59,218; -147,304;-1345,140
 266,53;  -66,176; -161,046;-1544,392
 267,13; -105,723; -139,161; -857,388
 267,73;  -53,612; -185,158;  270,230
 268,33;  -87,160; -166,274;-1788,766
 268,93;  -80,810; -213,708;-1702,449
 269,53;  -81,530; -204,670; -644,839
 270,13;  -51,467; -201,797;-1810,499
 270,73;  -74,605; -245,287;-1891,239
 271,33;  -64,808; -200,678;-1778,884
 271,93;  -36,238; -242,919;-1867,732
 272,53;  -34,797; -121,748;    8,776
 273,13;  -24,752; -146,677;-1117,075
 273,73;  -35,964; -119,753;-1955,652
 274,33;  -29,044; -148,428;-2041,182
 274,93;  -84,839; -188,007;-1843,972
 275,53;  -99,797;  -68,748;-1881,224
 276,13;  -95,391; -121,965;-2261,935
 276,73;  -86,761; -118,361;-1570,007
 277,33;  -64,868; -179,522;-1926,659
 277,93;  -23,864; -213,680;-1864,693
 278,53;  -25,980; -194,526;-2112,278
 279,13;  -57,311; -125,506;-2152,568
 279,73;  -52,033; -140,498;-1388,522
 280,33;  -61,075; -154,756;-2179,270
 280,93;   -5,394; -105,994;-2049,499
 281,53;  -80,652; -147,387;-2252,953
 282,13;  -68,817; -127,363;-2193,816
 282,73;  -96,734; -156,875; -385,885
 283,33;  -59,623; -137,872;-2307,266
 283,92;    1,691;  -74,477;-2028,003
 284,52;  -44,941;  -94,109;-2365,496
 285,12;  -34,924; -138,524;-1425,469
 285,72;  -32,514; -126,898;-1041,213
 286,32;   -4,859;  -55,622;-1313,564
 286,92;  -43,812; -163,521;-2376,850
 287,52;    1,243;  -89,519;-2170,041
 288,12;  -26,298;  -97,763;-2542,507
 288,72;  -36,654; -106,417;-1625,518
 289,32;   -8,086;  -54,470; 1692,233
 289,92;  -10,049; -106,270;-2344,148
 290,52;  -47,451;  -91,809;-2485,710
 291,12;    6,551;  -57,996;-1570,308
 291,72;    8,691;  -74,477;-1590,003
 292,32;   39,168;  -83,135;-2372,442
 292,92;   53,593;   -2,737;-2481,560
 293,51;   29,615;  -37,093;-2532,404
 294,11;   34,669;  -42,121;-1681,160
 294,71;   50,301;   -7,488;-2695,667
 295,31;   29,370;  -24,743;-1755,797
 295,91;  120,675;   46,751;-2713,629
 296,51;   91,851;   62,656;-1776,106
 297,11;  125,500;   35,061;-2900,988
 297,71;   59,488;    4,131;-2726,648
 298,31;  144,951;   38,730;-2329,148
 298,91;  161,842;   74,756;-2483,202
 299,50;  169,698;   41,395;-2689,473
 300,10;  219,947;  145,887;-2706,114
 300,70;  223,858;   95,528;-2492,576
 301,30;  273,259;   89,253;-2855,415
 301,90;  332,092;   96,248;-2004,843
 302,50;  422,295;  163,640;-2515,198
 303,10;  547,321;  124,126;-2530,076
 303,70;  583,963;  208,660;-3000,488
 304,29;  783,005;  189,918;-2658,740
 304,89; 1246,270;  266,183;-1090,755
 305,49; 1719,117;  163,922;-2773,122
 306,09; 1951,544;  214,133;-2874,839
 306,69; 1922,174;  262,736;-2915,911
 307,29; 2794,167;  312,865;-2008,442
 307,89; 4853,143;  303,408;-3029,000
 308,48; 6267,455;  341,774;-2453,301
 309,08; 6772,633;  369,492;-2743,377
 309,68; 5440,052;  377,019;-3094,026
 310,28; 3421,486;  371,102;-2576,213
 310,88; 2124,811;  321,211;-2936,453
 311,48; 1654,911;  447,500;-2875,331
 312,07; 1248,751;  408,367;-2963,228
 312,67; 1181,833;  497,855;-2128,297
 313,27; 1100,130;  494,448;-1105,224
 313,87;  907,417;  583,357;-2164,083
 314,47;  856,824;  516,954;-3030,392
 315,06;  866,143;  620,191; 2713,837
 315,66;  737,994;  579,988;-3245,400
 316,26;  775,268;  632,938;-1844,483
 316,86;  725,326;  777,969;-3140,110
 317,46;  822,691;  720,307;-2115,167
 318,06;  856,386;  739,813; -825,335
 318,65;  840,996;  781,801;-2807,999
 319,25;  776,884;  821,798;-3195,617
 319,85;  812,668;  932,663;-2908,323
 320,45;  771,855;  986,283;-3213,304
 321,05;  836,466;  901,271;-2761,968
 321,64;  713,564;  889,531;-3219,411
 322,24;  780,650; 1056,861;-3265,513
 322,84;  814,955; 1080,356;-3261,345
 323,44;  804,234; 1133,364;-3219,300
 324,03;  887,004; 1194,486;-3072,067
 324,63;  908,835; 1250,452;-2310,059
 325,23;  886,528; 1241,928;-3097,792
 325,83;  881,296; 1367,021;-2876,123
 326,42;  999,870; 1442,622;-3285,005
 327,02; 1005,420; 1476,551;-3076,607
 327,62; 1047,687; 1439,629;-2505,221
 328,22;  984,193; 1553,486;-3234,973
 328,82; 1007,041; 1577,037;-2229,938
 329,41; 1021,099; 1658,852;-3016,728
 330,01; 1142,591; 1652,750;-2961,704
 330,61; 1200,065; 1806,062;-2928,707
 331,20; 1123,274; 1778,325;-2868,531
 331,80; 1173,866; 1762,512;-2794,386
 332,40; 1268,051; 1752,102;-2896,932
 333,00; 1298,345; 1933,667;-2790,423
 333,59; 1320,503; 1748,771;-2855,091
 334,19; 1367,612; 1920,745;-1771,037
 334,79; 1287,563; 1712,615;-2861,316
 335,39; 1305,165; 1729,919;-2978,912
 335,98; 1299,960; 1726,714;-3126,958
 336,58; 1210,132; 1659,777;-3191,401
 337,18; 1165,187; 1720,779;-2958,592
 337,77; 1188,192; 1782,837;-2098,463
 338,37; 1133,444; 1806,359;-2021,540
 338,97; 1096,279; 1907,384;-2912,402
 339,57; 1186,573; 1862,948;-3044,894
 340,16; 1156,488; 1836,431;-2881,390
 340,76; 1173,310; 1962,712;-3053,314
 341,36; 1208,626; 1861,920;-3195,650
 341,95; 1215,644; 1934,506;-3027,623
 342,55; 1261,893; 1918,998;  703,736
 343,15; 1235,833; 2048,155;-3094,039
 343,74; 1242,971; 1924,644;-2382,298
 344,34; 1212,270; 1860,267;-3015,661
 344,94; 1292,479; 2068,530;-3069,485
 345,53; 1315,853; 2110,769;-2860,447
 346,13; 1303,374; 2174,398;-1283,573
 346,73; 1372,530; 1966,473;-2254,805
 347,32; 1357,138; 2268,649;-3080,871
 347,92; 1441,468; 2312,600;-2277,145
 348,52; 1408,256; 2270,523;-1878,722
 349,11; 1401,203; 2336,551;  975,034
 349,71; 1431,472; 2330,658;-3240,016
 350,31; 1576,984; 2441,387;-2672,237
 350,90; 1635,042; 2483,418;-2326,863
 351,50; 1696,287; 2390,852;-2105,634
 352,10; 1883,608; 2471,119;-3114,840
 352,69; 2176,492; 2532,273;-3182,424
 353,29; 2329,784; 2563,024;-3191,317
 353,89; 2294,368; 2645,527;-3255,104
 354,48; 2609,608; 2693,119;-3208,840
 355,08; 2965,281; 2871,980;-1117,164
 355,67; 3492,397; 2850,042;-2951,417
 356,27; 4195,942; 2839,128;-3232,985
 356,87; 5502,994; 3010,288;-3383,142
 357,46; 8070,488; 3049,431;-2351,390
 358,06;11839,104; 3306,291;-3073,523
 358,66;12998,588; 3337,504;-3109,432
 359,25;11470,633; 3260,792;-2344,119
 359,85;11126,751; 3365,667;-3215,970
 360,44;10443,450; 3389,015;-3292,172
 361,04; 8908,833; 3567,155;-2367,039
 361,64; 7069,833; 3696,155;-2309,039
 362,23; 5482,034; 3772,517;-2932,958
 362,83; 4367,804; 3755,639;-2990,726
 363,42; 3742,853; 3938,769;-2836,447
 364,02; 3295,118; 3910,034;-2973,462
 364,62; 2990,374; 3816,398;-2486,573
 365,21; 2584,183; 3857,937;-1741,558
 365,81; 2586,524; 3935,818;-2792,173
 366,40; 2523,065; 3970,062;-2080,707
 367,00; 2477,147; 4021,550;-2952,776
 367,59; 2324,969; 4071,831;-2979,699
 368,19; 2399,141; 4221,678;-3237,306
 368,79; 2311,588; 4198,720;-3125,268
 369,38; 2328,392; 4107,200;-2250,383
 369,98; 2461,294; 4101,940;-2935,940
 370,57; 2534,484; 4188,588;-3331,356
 371,17; 2712,971; 4164,860;-3326,135
 371,76; 2699,381; 4277,486;-3442,879
 372,36; 2714,818; 4057,598;-3195,501
 372,95; 2464,889; 4115,372;  667,934
 373,55; 2385,299; 4105,998;-3393,811
 374,14; 2279,346; 4300,099;-3405,097
 374,74; 2195,328; 4256,514;-3224,124
 375,34; 2135,631; 4286,979;-3189,521
 375,93; 1961,159; 4295,479;-2706,116
 376,53; 1951,372; 4344,585;-3575,974
 377,12; 2016,862; 4405,670;-1465,352
 377,72; 1898,922; 4480,730;-3410,414
 378,31; 1881,896; 4511,027;-2274,699
 378,91; 1817,432; 4291,429;-3262,199
 379,50; 1872,432; 4588,213;-3331,363
 380,10; 1919,877; 4327,226;-3398,890
 380,69; 2004,192; 4094,621;-2343,626
 381,29; 1977,684; 4586,735;-2550,439
 381,88; 2112,463; 4518,758;-1605,111
 382,48; 2221,405; 4519,727;-3286,485
 383,07; 2158,982; 4495,358;-3457,802
 383,67; 2160,463; 4635,758;-1847,111
 384,26; 2078,143; 4667,491;-2467,905
 384,86; 2070,176; 4921,849;-3182,252
 385,45; 1975,693; 4932,636;-3325,344
 386,05; 2022,746; 5073,608;-3419,100
 386,64; 2043,873; 4911,384;-3524,855
 387,24; 2099,178; 5016,878;-2585,688
 387,83; 2104,866; 4993,512;-2489,386
 388,42; 2225,592; 5182,346;-2109,466
 389,02; 2228,129; 5423,748;-3235,966
 389,61; 2412,174; 5688,036;-3413,653
 390,21; 2481,178; 5729,878;-3463,688
 390,80; 2612,152; 5816,392;-3208,810
 391,40; 2792,902; 6137,899;-2293,168
 391,99; 3228,940; 5981,099;-3195,550
 392,59; 4269,769; 6435,252;-2416,943
 393,18; 7042,375; 6683,398;-2491,573
 393,77;15836,337; 6883,198;-3238,192
 394,37;22883,416; 7145,657;-2198,825
 394,96;20282,541; 7098,403;-2296,146
 395,56;24306,484; 7264,588;-2834,356
 396,15;29724,799; 6867,797;-3125,692
 396,75;22802,111; 7343,163;-2889,993
 397,34;13123,294; 7669,940;-2620,940
 397,93; 8705,003; 7720,188;-3358,047
 398,53; 6500,103; 7595,262;-2525,088
 399,12; 5064,395; 8192,013;-2154,981
 399,72; 3989,608; 8013,119;-2274,840
 400,31; 3444,470; 8034,629;-3169,581
 400,91; 3302,339; 8446,012;-2959,791
 401,50; 2989,337; 8820,198;-2330,192
 402,09; 2869,330; 8550,327;-2894,722
 402,69; 2844,947; 8691,187;-3072,856
 403,28; 2763,639; 9052,663;-2983,588
 403,88; 2814,481; 9162,560; 1927,079
 404,47; 2646,969; 9689,831;  884,300
 405,06; 2618,390; 9684,171;  -68,947
 405,66; 2534,704; 9753,565;-2875,684
 406,25; 2543,588;10085,720;-3119,268
 406,84; 2590,613;10446,177;-2892,711
 407,44; 2581,916;10847,858;-2219,944
 408,03; 2510,341;10422,257;-2906,063
 408,63; 2559,844;10373,085;-3011,379
 409,22; 2665,317;10191,584;-1945,783
 409,81; 2606,577;10681,007;-1849,765
 410,41; 2733,622;11553,078;-2857,615
 411,00; 2800,555;11336,362;-1814,921
 411,59; 2833,070;11251,120;-2826,578
 412,19; 2759,110;11468,350;-2245,394
 412,78; 2841,283;11399,226;-2830,436
 413,37; 2761,584;12151,878;-2704,234
 413,97; 2793,272;12410,512;-2618,933
 414,56; 2718,050;12071,506;-2503,169
 415,15; 2865,613;12410,394;-2121,547
 415,75; 2891,210;12408,639;-2698,272
 416,34; 2847,230;12590,254;-1893,681
 416,93; 2922,969;12922,047;-2777,536
 417,53; 2924,740;12696,169;-1423,303
 418,12; 2741,816;12570,785;-2217,903
 418,71; 2778,001;12907,592;-2673,285
 419,31; 2651,159;13054,695;-1884,952
 419,90; 2651,235;13470,313;-2786,552
 420,49; 2507,733;13619,298;-1733,834
 421,08; 2491,733;14201,298;-1674,834
 421,68; 2492,560;14723,421;-1908,792
 422,27; 2822,431;14035,832;-2004,437
 422,86; 2696,860;13874,073; -437,590
 423,46; 2367,030;14080,107;-2575,598
 424,05; 2238,170;14376,626;-2928,293
 424,64; 2390,146;13888,953;-2640,014
 425,24; 2500,696;14092,098;-2903,453
 425,83; 2366,137;13992,269;-2680,945
 426,42; 2201,170;12987,626;-2760,293
 427,01; 2367,495;13424,734;-2674,533
 427,61; 2301,823;14347,873;-2609,209
 428,20; 2268,533;14036,151;-1764,751
 428,79; 2309,542;14414,052;-2859,656
 429,38; 2249,462;14092,377;-1781,186
 429,98; 2148,012;14922,521; -994,625
 430,57; 2166,823;15058,873;-2193,209
 431,16; 2115,852;14580,389;-2784,522
 431,75; 2118,048;14357,909; -561,407
 432,35; 2138,714;13435,899;-1951,262
 432,94; 2062,703;14429,186;-2324,759
 433,53; 2202,406;14560,375;-1152,995
 434,12; 2132,139;14431,298;-2267,381
 434,72; 2183,309;14188,331;-1413,389
 435,31; 2242,676;14167,699; 7395,119
 435,90; 2184,607;14308,954; 8338,249
 436,49; 2167,892;13427,834; -683,175
 437,08; 2337,496;13895,951; -675,370
 437,68; 2409,669;14442,827;-2987,412
 438,27; 2489,485;14610,237;-2610,866
 438,86; 2400,836;14612,832;-1147,984
 439,45; 2289,810;15313,346;-1937,106
 440,05; 2449,242;15955,616;-2982,694
 440,64; 2531,674;15054,886;-1902,282
 441,23; 2449,529;14152,525;-1415,553
 441,82; 2521,816;13700,218;-2631,576
 442,41; 2399,877;14351,277;-3014,637
 443,00; 2540,010;13625,925;-2724,863
 443,60; 2652,507;14373,881;-3136,710
 444,19; 2831,086;15026,541;-1440,462
 444,78; 2967,939;14960,151;-3012,298
 445,37; 3099,545;15728,297;-2522,928
 445,96; 3340,875;15331,249;-3116,202
 446,56; 3596,864;15596,535;-1144,698
 447,15; 3554,358;16225,678; -884,947
 447,74; 3743,093;17097,412;-2709,931
 448,33; 3754,449;16443,066;-1985,920
 448,92; 3929,040;15422,440;-2964,176
 449,51; 3964,741;15095,817;-2848,813
 450,10; 4228,839;15133,078;-3063,256
 450,70; 4636,512;14904,939;-1957,581
 451,29; 5176,387;15329,193;-1112,260
 451,88; 5440,135;15513,671;-2929,183
 452,47; 5797,060;16565,055;-2795,584
 453,06; 6036,044;16495,498;-2401,047
 453,65; 5555,690;16071,874;-2873,493
 454,24; 4848,225;17329,246;-2173,558
 454,84; 4387,944;17793,209;-1379,168
 455,43; 3865,933;18732,496;-2219,665
 456,02; 3437,432;18879,480;-2927,947
 456,61; 3232,652;17317,459;-2925,275
 457,20; 3086,828;16921,363;-2786,753
 457,79; 2875,677;17588,131;-2922,554
 458,38; 2728,781;18338,264;-2132,467
 458,97; 2631,483;18039,641;-2515,104
 459,56; 2484,320;18190,479;-2760,565
 460,16; 2354,615;17832,258;-2082,894
 460,75; 2260,657;18157,518;-2072,146
 461,34; 2158,135;18077,887;-2962,020
 461,93; 2268,514;18381,186;-2200,853
 462,52; 2307,227;19333,275;-2744,993
 463,11; 2320,098;20546,688;-1989,639
 463,70; 2360,539;19458,643;-2869,295
 464,29; 2489,412;19945,082;-3150,376
 464,88; 2701,757;20795,807;-2743,024
 465,47; 3071,561;19885,285;-2748,139
 466,06; 3673,989;20915,713;-3191,692
 466,65; 3838,550;21667,572;-3018,635
 467,24; 3474,205;22030,848;-2539,986
 467,84; 2959,791;22443,164;-2020,371
 468,43; 2676,298;22325,051;-2238,559
 469,02; 2571,013;23517,170;-2702,135
 469,61; 2498,750;24168,936;-2593,555
 470,20; 2469,744;23781,063;-2841,085
 470,79; 2250,024;22760,100;-3232,475
 471,38; 2170,225;25266,463;-2192,395
 471,97; 2102,657;26009,732; -666,983
 472,56; 2094,486;25472,887;-3035,376
 473,15; 2069,087;25296,975;-2825,135
 473,74; 2019,372;26395,854;-3106,559
 474,33; 1971,149;25866,848;-2957,796
 474,92; 1936,677;27630,348;-3146,391
 475,51; 1900,033;29609,002;-2873,380
 476,10; 1867,532;29847,986;-3011,662
 476,69; 1817,354;26101,268;-2855,586
 477,28; 1812,419;25846,955;-2956,845
 477,87; 1736,748;27035,121; -173,956
 478,46; 1746,833;28695,639;-3029,460
 479,05; 1691,969;30507,100;-2134,284
 479,64; 1715,437;31679,756;-2718,655
 480,23; 1733,728;29541,508;-2845,548
 480,82; 1611,866;28549,996;-2736,807
 481,41; 1621,840;29371,510;-1873,929
 482,00; 1621,430;29284,885;-1364,185
 482,59; 1594,922;29593,998;-2298,998
 483,18; 1621,519;31702,244;-2376,723
 483,77; 2068,305;31703,139;-2193,865
 484,36; 2640,033;32475,002;-1701,380
 484,95; 2549,793;32990,410; -788,643
 485,54; 2437,092;35331,031;-1371,006
 486,13; 2596,811;35762,996; -945,616
 486,72; 2560,250;34334,137;  148,326
 487,31; 2381,967;31046,285;-1109,686
 487,89; 2349,610;32608,633; -193,697
 488,48; 2301,141;33798,164;-1523,728
 489,07; 2272,323;32913,941;-1248,674
 489,66; 2116,056;33511,645;-1505,224
 490,25; 2093,412;31095,299; -660,212
 490,84; 1957,624;34127,375;-1683,635
 491,43; 1875,276;34965,621; -701,552
 492,02; 1854,279;36094,652;-1864,987
 492,61; 1793,987;35362,902;-1043,094
 493,20; 1733,406;33776,426;-2019,743
 493,79; 1687,628;32749,434; 4824,494
 494,38; 1648,481;33706,043;-1938,342
 494,97; 1690,101;32583,934; -629,911
 495,55; 1497,802;34690,309;-2325,548
 496,14; 1505,508;35087,531;-2403,220
 496,73; 1514,789;35451,566;-1952,609
 497,32; 1443,956;34211,570;-2587,182
 497,91; 1438,602;35005,949;-1921,629
 498,50; 1536,254;34165,195;-2912,544
 499,09; 1507,956;34554,570;-3088,182
 499,68; 1507,372;32403,070;-2405,396
 500,27; 1593,069;33321,605;-2490,999
 500,85; 1496,700;32655,207;-2604,071
 501,44; 1491,860;32478,342;-2576,175
 502,03; 1372,408;33194,457;-3368,178
 502,62; 1335,317;31275,068;-3438,205
 503,21; 1406,283;29432,711;-3532,858
 503,80; 1355,375;32028,100;-2976,831
 504,39; 1286,043;32451,119;-3458,121
 504,97; 1322,771;31774,982;-3577,636
 505,56; 1325,568;31537,590;-2979,281
 506,15; 1264,693;32302,336;-3991,602
 506,74; 1232,515;32557,617;-2945,526
 507,33; 1302,800;32185,498;-3165,949
 507,92; 1485,945;33952,859;-3871,678
 508,51; 1468,493;35926,973;-3735,682
 509,09; 1495,960;34536,629;-3921,053
 509,68; 1485,190;34318,508;-3748,286
 510,27; 1580,255;33667,410;-3799,381
 510,86; 1653,649;32572,264;-4081,751
 511,45; 1515,246;33677,512;-3843,476
 512,03; 1770,889;34524,855;-3829,488
 512,62; 1681,103;36240,961;-3780,346
 513,21; 1542,012;33870,789;-3186,209
 513,80; 1619,428;34644,289;-3501,423
 514,39; 1608,655;32752,137;-3905,221
 514,97; 1455,733;35347,781;-4095,255
 515,56; 1424,638;34167,551;-4198,248
 516,15; 1542,555;35428,063;-3955,179
 516,74; 1523,486;32584,318;-4420,049
 517,33; 1440,854;33459,688;-3549,542
 517,91; 1509,756;33935,426;-4188,099
 518,50; 1386,642;32563,393;-3264,282
 519,09; 1419,557;33942,875;-3157,778
 519,68; 1329,025;35231,531;-4286,148
 520,26; 1493,471;38679,547;-4232,675
 520,85; 1445,019;39452,660;-4352,679
 521,44; 1216,057;40826,078;-4358,897
 522,03; 1159,248;39485,539;-4271,912
 522,61; 1101,057;36773,078;-4364,897
 523,20; 1096,446;33924,090;-4337,233
 523,79; 1128,974;32040,590;-4337,828
 524,38; 1076,549;32850,191;-4344,709
 524,96; 1022,771;35883,199;-4321,473
 525,55; 1022,535;36021,449;-4542,771
 526,14; 1023,135;34018,723;-4434,931
 526,73;  973,945;32852,074;-4389,515
 527,31;  981,653;32903,324;-4488,622
 527,90; 1032,535;33630,449;-4564,771
 528,49;  971,618;34155,938;-2529,839
 529,08;  937,377;34601,344;-3467,103
 529,66;  972,424;34848,445;-3911,389
 530,25;  914,460;35279,832;-4414,172
 530,84;  931,489;35334,348;-4583,485
 531,42;  972,059;38583,105;-4365,332
 532,01;  950,649;37528,480;-4291,588
 532,60;  875,616;34512,125;-4473,241
 533,18;  950,391;35538,086;-4078,042
 533,77;  939,233;34969,984;-4236,374
 534,36;  963,204;34459,469;-4374,061
 534,95;  931,482;35483,477;-4088,015
 535,53;  931,502;34236,090; -974,424
 536,12;  870,954;36469,977;-2657,420
 536,71;  966,829;36511,230;-3869,099
 537,29;  883,032;36073,621;-3618,454
 537,88;  972,057;33908,078;-3454,897
 538,47;  932,629;32497,867;-2840,180
 539,05;  974,108;36837,238;-2139,054
 539,64;  913,743;40414,898;-1785,997
 540,22;  916,422;37414,633; -764,790
 540,81;  998,527;37501,766; 1008,297
 541,40;  939,311;39018,629; 3425,591
 541,98; 1005,941;38188,230; 4858,519
 542,57;  971,954;39368,977; 4597,580
 543,16;  915,754;38645,613; 4952,500
 543,74;  967,593;35774,480; 4083,603
 544,33;  993,242;36297,883; 3620,721
 544,92;  970,353;37217,887; 3973,339
 545,50;  973,872;37338,488;11456,648
 546,09; 1019,564;40064,965;11359,916
 546,67; 1028,190;41948,727; 2857,878
 547,26;  964,558;40050,094; -202,615
 547,85;  994,827;39208,414; -567,501
 548,43; 1010,143;38452,625; -849,836
 549,02;  938,386;39427,246;-1040,008
 549,60;  992,317;40570,500; -984,878
 550,19;  958,678;41166,996;-2192,901
 550,78;  922,963;42660,875;-2328,325
 551,36;  969,451;45349,148;-2432,104
 551,95;  970,406;45443,859; -585,416
 552,53;  989,943;43280,262; -296,916
 553,12;  975,070;41420,035;-3431,672
 553,70; 1008,876;43188,547;-2878,222
 554,29;  984,124;44058,008;-2869,428
 554,88;  975,647;41831,668;-4247,989
 555,46; 1043,792;43723,027;-3881,718
 556,05; 1015,524;45007,734;-4207,268
 556,63; 1118,110;45206,266;-3396,489
 557,22; 1133,170;43875,109;-3394,714
 557,80; 1100,415;41749,762;-3568,321
 558,39; 1223,498;44188,250;-4145,390
 558,97; 1181,297;47993,887;-3699,470
 559,56; 1281,061;49889,137;-4544,768
 560,15; 1231,464;50117,891;-3611,042
 560,73; 1110,674;49814,152;-4287,867
 561,32; 1203,698;47024,609;-3741,309
 561,90; 1101,133;46041,910;-4382,333
 562,49; 1203,324;48487,371;-3786,348
 563,07; 1104,769;48074,387;-4783,875
 563,66; 1118,005;50064,133;-4352,577
 564,24; 1155,284;49228,145;-4763,531
 564,83; 1263,536;51344,664;-4603,607
 565,41; 1317,380;53840,375;-4329,539
 566,00; 1331,008;52202,164;-2755,012
 566,58; 1577,435;56465,375;-3725,729
 567,17; 1754,540;56909,508;-4280,642
 567,75; 2014,740;52392,871;-4653,562
 568,34; 2336,750;55893,770;-3216,466
 568,92; 2832,473;55738,793;-3987,947
 569,51; 2769,576;54852,895; 2680,576
 570,09; 2485,992;58247,391;-4676,638
 570,68; 2187,669;53188,313;-4788,833
 571,26; 2134,331;50733,242;-3886,817
 571,85; 2239,636;57347,738;-4822,649
 572,43; 1896,547;57011,379;-4704,111
 573,01; 1504,491;52662,375;-4873,920
 573,60; 1348,235;53819,012;-3785,810
 574,18; 1296,943;55122,262;-4514,917
 574,77; 1123,444;53284,277;-4737,634
 575,35; 1114,235;56113,012;-4452,810
 575,94; 1095,694;57300,770;-4076,275
 576,52;  975,166;54049,270;-2249,680
 577,11;  917,112;51620,297;-3244,924
 577,69;  948,155;48685,555;-3183,176
 578,27;  950,678;51008,996;-3447,901
 578,86;  961,821;55198,543;-2994,031
 579,44;  953,956;60080,004;-2805,855
 580,03;  946,117;60164,137;-2493,958
 580,61;  969,277;60267,270;-3206,062
 581,19;  966,146;56429,652;-2538,271
 581,78;  934,142;55361,813;-2364,238
 582,36;  890,847;57656,031;-2911,909
 582,95;  910,231;56180,172;-1497,776
 583,53;  878,598;59586,539;-2319,268
 584,11;  933,186;61608,883;-2241,088
 584,70;  912,369;61691,660;-1948,035
 585,28;  924,271;62070,398;-1853,592
 585,87;  893,745;60436,930;-2889,432
 586,45;  874,821;63023,543;-2375,031
 587,03;  843,273;64945,430;-1150,027
 587,62;  947,700;61494,641;-1834,745
 588,20; 1360,778;62236,285;-1020,779
 588,78; 1806,144;58157,840;-3411,673
 589,37; 1722,166;57765,270;-3360,680
 589,95; 1164,805;62238,773;-3385,657
 590,54;  891,654;63633,539;-3461,459
 591,12;  905,280;62116,301;-3508,497
 591,70;  965,362;59586,789;-3331,565
 592,29;  941,863;62881,805;-2923,283
 592,87;  983,380;63542,375;-2394,538
 593,45;  927,807;63404,801; 1487,908
 594,04;  908,843;62800,188;-3676,875
 594,62;  911,133;59709,910;-3708,333
 595,20;  945,698;62066,828;-4371,146
 595,79;  929,723;62681,285;-4165,588
 596,37;  891,155;61108,555;-3657,176
 596,95;  879,063;56922,164;-4321,203
 597,53;  839,749;58806,770;-4226,466
 598,12;  818,522;61848,922;-3959,669
 598,70;  859,431;64932,531;-3776,695
 599,28;  888,380;64911,375;-3404,538
 599,87;  883,028;64929,777;-3061,420
 600,45;  855,001;64938,293;-3907,543
 601,03;  852,139;63145,781;-4100,802
 601,62;  874,843;61727,188;-4468,875
 602,20;  857,716;59786,414;-4541,119
 602,78;  846,240;64399,070;-4770,680
 603,36;  873,335;64783,301;-3166,688
 603,95;  870,444;58863,277;-4492,634
 604,53;  947,611;62401,281;-4574,207
 605,11;  904,832;59505,258;-2755,535
 605,69;  848,785;62362,156;-3365,249
 606,28;  834,863;62594,805;-4223,283
 606,86;  899,050;61629,422;-3946,264
 607,44;  839,876;60431,547;-3906,222
 608,02;  816,919;58047,805;-4037,474
 608,61;  842,647;60099,668;-2866,989
 609,19;  872,939;58582,418;-2582,882
 609,77;  840,994;57398,422; -710,073
 610,35;  824,306;55748,785; 5794,625
 610,94;  851,634;56509,926;14509,949
 611,52;  890,647;55803,668;12610,011
 612,10;  775,747;53026,957; 8432,133
 612,68;  727,413;56637,949; 2694,278
 613,26;  808,099;57037,551; 2032,015
 613,85;  784,689;61759,926; -599,241
 614,43;  791,355;62306,918;-1030,096
 615,01;  704,233;62272,199;-1215,211
 615,59;  744,282;64874,328; -972,932
 616,17;  757,034;59402,648;-2561,890
 616,76;  879,297;62178,887;-2993,470
 617,34;  903,455;62666,988;-2389,138
 617,92;  933,749;58547,770;-3399,466
 618,50;  937,146;61202,652;-2562,271
 619,08;  972,903;57928,031;-2514,100
 619,67; 1022,008;55968,164;-3196,012
 620,25; 1037,700;54290,641;-2743,745
 620,83; 1026,001;50498,293;-3495,543
 621,41; 1130,696;52314,797;-2800,711
 621,99; 1132,758;54560,672;-2529,371
 622,57; 1320,172;55529,141;-3707,149
 623,15; 1483,769;56213,387;-3783,875
 623,74; 1522,970;58266,746;-3892,794
 624,32; 1620,248;59330,754;-2827,749
 624,90; 1714,798;58625,898;-2311,188
 625,48; 1713,293;57897,043;-3132,436
 626,06; 1704,992;56898,391;-4006,638
 626,64; 1507,956;57787,004;-4162,855
 627,22; 1465,513;58993,020;-3409,764
 627,81; 1323,393;58046,117;-4334,478
 628,39; 1296,340;57121,145;-4560,722
 628,97; 1322,057;56597,293;-4437,733
 629,55; 1250,026;55377,750;-4219,985
 630,13; 1192,277;55669,270;-2959,062
 630,71; 1115,520;54162,891;-2747,233
 631,29; 1072,444;53129,277;-3824,634
 631,87; 1038,484;52776,504;-4223,451
 632,45;  996,034;52786,648;-4716,890
 633,03;  957,262;54183,500;-4191,688
 633,62;  952,611;55423,281;-4714,207
 634,20;  886,286;54882,172;-4089,966
 634,78;  878,789;56497,000;-4430,283
 635,36;  828,923;56701,648;-4449,508
 635,94;  879,714;55183,383;-5398,684
 636,52;  850,812;51027,645;-5422,126
 637,10;  769,063;52116,164;-5488,203
 637,68;  779,264;50694,527;-4702,123
 638,26;  728,081;47618,750;-5536,176
 638,84;  709,910;48688,902;-5421,569
 639,42;  677,063;49235,164;-3756,203
 640,00;  697,337;51366,148;-5405,726
 640,58;  712,098;54579,402;-4806,027
 641,16;  686,859;55521,656;-5571,328
 641,74;  689,620;53214,906;-5433,630
 642,32;  636,381;50106,160;-5620,931
 642,90;  600,142;50434,414;-5856,232
 643,48;  636,903;49231,668;-5786,534
 644,06;  624,664;49280,922;-5796,835
 644,64;  585,425;49595,176;-5842,137
 645,22;  575,186;50513,430;-5562,438
 645,80;  574,947;50547,684;-4957,740
 646,39;  554,708;48107,938;-5515,041
 646,97;  586,469;49773,191;-5850,342
 647,54;  547,230;52328,441;-5717,644
 648,12;  565,991;54879,695;-5865,945
 648,70;  555,752;58954,949;-5885,247
 649,28;  585,513;56421,203;-6090,548
 649,86;  547,274;51091,457;-5609,850
 650,44;  533,035;48619,711;-5452,151
 651,02;  502,796;49970,965;-5474,452
 651,60;  513,557;51793,219;-5803,753
 652,18;  588,318;51320,473;-4735,055
 652,76;  487,079;53277,723;-5934,356
 653,34;  553,840;54817,977;-5939,658
 653,92;  556,601;57729,230;-5784,959
 654,50;  593,362;59042,484;-5818,261
 655,08;  575,122;58048,738;-5841,562
 655,66;  559,883;55058,992;-5115,863
 656,24;  609,645;56743,246;-5200,165
 656,82;  640,406;58989,500;-4979,466
 657,40;  583,167;58967,754;-5667,768
 657,98;  587,927;60169,008;-5486,069
 658,56;  595,688;61114,258;-5717,371
 659,14;  606,449;61380,512;-5913,672
 659,72;  584,210;63381,766;-5916,973
 660,29;  534,971;62437,020;-5907,275
 660,87;  595,732;59738,273;-5212,576
 661,45;  533,493;58590,527;-5664,877
 662,03;  598,254;57513,781;-4971,179
 662,61;  497,015;54945,035;-5638,480
 663,19;  488,776;54618,289;-5657,782
 663,77;  504,537;53917,543;-5939,083
 664,35;  483,298;56689,793;-5887,384
 664,93;  458,059;62595,047;-4922,686
 665,51;  504,820;61993,301;-6033,987
 666,08;  526,581;57747,555;-5652,289
 666,66;  456,342;51859,809;-4400,590
 667,24;  452,103;49420,063;-5952,892
 667,82;  522,864;50250,316;-5849,193
 668,40;  516,625;50723,570;-5932,494
 668,98;  611,386;51952,824;-5097,796
 669,56;  662,147;57957,078;-6096,097
 670,13;  699,908;61797,328;-6222,398
 670,71;  650,669;59698,582;-5900,700
 671,29;  491,430;57209,836;-6139,001
 671,87;  479,191;56814,090;-6051,303
 672,45;  417,952;51822,344;-6050,604
 673,03;  506,713;52592,598;-4769,906
 673,60;  456,474;58431,852;-3503,207
 674,18;  536,235;63679,105;-5938,508
 674,76;  473,996;61159,359;-6226,810
 675,34;  471,757;56361,613;-5251,111
 675,92;  409,518;55284,863;-6338,413
 676,50;  482,279;55051,117;-6085,714
 677,07;  436,040;56952,371;-6095,016
 677,65;  414,801;56680,625;-6163,317
 678,23;  497,562;55997,879;-5057,618
 678,81;  476,323;58016,133;-5299,919
 679,38;  463,084;56669,387;-5969,221
 679,96;  475,845;53267,641;-5846,522
 680,54;  474,606;55171,895;-5308,824
 681,12;  458,367;52485,148;-6126,125
 681,70;  547,128;54786,398;-4413,427
 682,27;  510,889;54740,652;-5851,728
 682,85;  510,650;58265,906;-5991,029
 683,43;  562,411;64943,160;-6140,331
 684,01;  588,172;64943,414;-5172,632
 684,58;  625,933;64307,668;-5138,934
 685,16;  617,694;64236,922;-4494,235
 685,74;  521,455;62790,176;-3853,536
 686,32;  599,216;59009,430;-6012,838
 686,89;  585,977;59552,684;-6015,139
 687,47;  544,738;59534,934;-6076,441
 688,05;  564,499;56416,188;-6019,742
 688,63;  518,260;59626,441;-6102,043
 689,20;  481,021;62884,695;-5971,345
 689,78;  460,782;58427,949;-5530,646
 690,36;  493,543;54291,203;-5381,948
 690,93;  475,304;54968,457;-6355,249
 691,51;  562,065;61453,711;-6326,550
 692,09;  515,826;64946,965;-6223,852
 692,67;  547,587;64947,219;-6047,153
 693,24;  477,348;60968,469;-5803,455
 693,82;  502,109;59538,723;-6235,756
 694,40;  573,870;58049,977;-3570,058
 694,97;  508,631;57456,230;-6046,359
 695,55;  484,392;59820,484;-5464,660
 696,13;  589,153;61729,738;-4454,962
 696,70;  546,914;58594,992;-6029,263
 697,28;  548,675;59108,246;-6266,564
 697,86;  536,436;60837,500;-6030,866
 698,43;  574,197;58827,754;-6198,167
 699,01;  625,958;55595,004;-6051,469
 699,59;  636,719;55751,258;-6402,770
 700,16;  687,480;54174,512;-5257,072
 700,74;  701,241;57040,766;-5497,373
 701,32;  786,002;56440,020;-6233,674
 701,89;  911,763;55792,273;-6049,976
 702,47; 1131,524;60296,527;-6466,277
 703,05; 1426,285;64951,781;-6309,579
 703,62; 1647,046;64952,035;-6227,880
 704,20; 1683,807;64952,285;-5306,182
 704,77; 1612,568;64952,539;-6118,483
 705,35; 1438,329;64213,793;-6006,784
 705,93; 1261,090;64327,047;-4922,085
 706,50; 1085,851;63796,301;-5267,387
 707,08;  829,612;60606,555;-5284,688
 707,65;  724,373;60046,809;-5620,990
 708,23;  655,134;64881,063;-5431,292
 708,81;  555,895;64954,316;-5019,593
 709,38;  544,656;64954,570;-5001,894
 709,96;  542,417;64954,820;-6025,195
 710,53;  487,178;64955,074;-6007,497
 711,11;  506,939;61503,328;-5752,798
 711,69;  472,700;61913,582;-3821,100
 712,26;  467,461;59012,836;-4642,401
 712,84;  416,222;63346,090;-5947,703
 713,41;  413,983;64411,344;-6153,004
 713,99;  391,744;64924,598;-6068,305
 714,56;  370,505;62057,852;-6326,607
 715,14;  396,266;60312,105;-6198,908
 715,71;  408,027;60246,355;-6210,209
 716,29;  364,788;62893,609;-6648,511
 716,86;  387,549;63573,863;-6510,813
 717,44;  387,310;63263,117;-6424,114
 718,02;  324,071;62110,371;-6462,415
 718,59;  321,832;61013,625;-5121,716
 719,17;  353,593;63488,879;-5649,018
 719,74;  355,354;62907,133;-5756,319
 720,32;  303,115;63502,387;-6451,621
 720,89;  336,876;64959,641;-6422,922
 721,47;  323,637;64959,891;-6388,224
 722,04;  351,398;64960,145;-5502,525
 722,62;  378,159;64252,398;-3979,826
 723,19;  341,920;60250,652;-4938,128
 723,77;  322,681;57638,906;-5673,429
 724,34;  378,442;60150,160;-5576,730
 724,92;  378,203;63789,414;-6558,032
 725,49;  334,964;64961,668;-5666,333
 726,07;  338,725;64961,922;-6491,635
 726,64;  347,486;64627,176;-6587,936
 727,21;  343,247;60249,426;-5627,238
 727,79;  331,008;63706,680;-6444,539
 728,36;  384,769;64962,934;-6722,840
 728,94;  364,530;64963,188;-6535,142
 729,51;  307,291;64963,441;-6365,443
 730,09;  339,052;64963,695;-5545,745
 730,66;  362,813;64963,949;-6358,046
 731,24;  355,574;64964,203;-6577,348
 731,81;  339,335;64964,457;-5151,649
 732,38;  346,096;64964,711;-6492,950
 732,96;  359,857;64964,961;-6263,251
 733,53;  357,618;60347,215;-6389,553
 734,11;  378,379;61575,469;-6617,854
 734,68;  382,140;64965,723;-6211,156
 735,26;  382,901;64965,977;-6389,458
 735,83;  293,662;64966,230;-6498,759
 736,40;  356,423;62243,484;-6516,060
 736,98;  365,184;61999,738;-6374,361
 737,55;  324,945;59236,992;-5827,663
 738,13;  302,706;57707,246;-5702,964
 738,70;  322,467;60991,496;-5529,266
 739,27;  269,228;62504,750;-6452,567
 739,85;  363,989;62745,004;-6283,869
 740,42;  343,750;64968,258;-6464,170
 740,99;  316,511;64968,512;-5618,471
 741,57;  336,272;64968,766;-4867,773
 742,14;  313,033;64969,020;-5349,074
 742,72;  302,794;64969,273;-4751,375
 743,29;  334,555;64969,527;-6563,677
 743,86;  346,316;64969,781;-6538,979
 744,44;  382,077;64970,031;-6113,280
 745,01;  380,838;64970,285;-5760,581
 745,58;  419,599;64970,539;-6259,882
 746,16;  389,360;64970,793;-6188,184
 746,73;  445,121;64971,047;-6479,485
 747,30;  494,882;61139,301;-6536,787
 747,88;  505,643;59621,555;-5621,088
 748,45;  475,404;64971,809;-5668,390
 749,02;  460,165;64972,063;-6384,691
 749,60;  405,926;62401,313;-6212,992
 750,17;  398,687;61766,566;-5269,294
 750,74;  365,448;62801,820;-6479,595
 751,31;  368,209;63306,074;-6347,896
 751,89;  360,970;64232,328;-6546,198
 752,46;  391,731;64973,582;-6282,500
 753,03;  403,492;64973,836;-6160,801
 753,61;  317,253;63755,090;-4858,102
 754,18;  320,014;64573,344;-6434,404
 754,75;  306,775;63888,598;-5191,705
 755,32;  279,536;60715,848;-6332,006
 755,90;  303,297;64975,102;-6493,308
 756,47;  354,058;64975,355;-4809,609
 757,04;  275,819;64975,609;-6457,911
 757,61;  320,579;64975,863;-5553,212
 758,19;  329,340;64976,117;-5253,514
 758,76;  299,102;64976,371;-6603,815
 759,33;  307,862;64976,625;-6664,116
 759,90;  278,623;64976,879;-5714,417
 760,48;  253,384;64977,133;-6778,719
 761,05;  311,145;64977,383;-6083,021
 761,62;  319,906;62082,637;-4888,322
 762,19;  298,667;58992,891;-6144,624
 762,77;  309,428;61730,145;-5963,925
 763,34;  307,189;64978,398;-6610,226
 763,91;  313,950;64978,652;-5818,527
 764,48;  343,711;64978,906;-6756,829
 765,05;  281,472;64979,160;-6543,130
 765,63;  372,233;63215,414;-6417,432
 766,20;  466,994;59753,668;-6004,733
 766,77;  376,755;57105,918;-5921,035
 767,34;  311,516;58807,172;-6640,336
 767,91;  270,277;59176,426;-6689,637
 768,49;  291,038;61368,680;-6772,939
 769,06;  306,799;64980,934;-5832,240
 769,63;  317,560;62272,188;-6636,542
 770,20;  316,321;59567,441;-5868,843
 770,77;  286,082;57921,695;-5645,145
 771,34;  269,843;60065,949;-6615,446
 771,91;  237,604;60549,203;-6102,747
 772,49;  299,365;58558,453;-6369,048
 773,06;  260,126;57687,707;-6203,350
 773,63;  220,887;60204,961;-6639,651
 774,20;  302,648;58197,215;-5918,953
 774,77;  250,409;56475,469;-6631,254
 775,34;  285,170;56707,723;-6214,556
 775,91;  379,931;57056,977;-6417,857
 776,49;  443,692;58787,230;-6590,158
 777,06;  462,453;60761,484;-6015,460
 777,63;  402,214;64224,738;-6367,761
 778,20;  359,975;62572,988;-6250,063
 778,77;  350,736;63316,242;-5763,364
 779,34;  250,497;64985,496;-6585,666
 779,91;  278,258;64985,750;-6534,967
 780,48;  262,019;59144,004;-5853,268
 781,05;  246,780;50716,258;-6586,570
 781,62;  261,541;52124,512;-6604,871
 782,20;  277,302;58813,766;-6500,172
 782,77;  311,063;64987,020;-6529,474
 783,34;  272,824;64052,273;-6522,775
 783,91;  283,585;61362,523;-6509,077
 784,48;  294,346;60480,777;-2126,378
 785,05;  250,107;59144,031;-6540,680
 785,62;  282,868;58221,285;-6452,981
 786,19;  307,629;58149,539;-5100,282
 786,76;  283,390;55130,793;-6677,583
 787,33;  220,151;56202,047;-6515,885
 787,90;  211,912;59491,301;-6591,187
 788,47;  204,673;60148,555;-5075,488
 789,04;  296,434;58988,809;-5763,790
 789,61;  244,195;58863,059;-5066,091
 790,18;  228,956;55747,313;-6561,392
 790,75;  254,717;50841,566;-6671,693
 791,32;  296,478;52056,820;-6577,995
 791,89;  220,239;55205,074;-6068,296
 792,46;  254,000;60806,328;-5763,598
 793,03;  192,761;62404,582;-6702,899
 793,60;  241,522;55699,836;-6440,201
 794,17;  224,283;52257,090;-5569,502
 794,74;  260,044;47273,344;-5886,803
 795,31;  258,805;50096,594;-6099,105
 795,88;  231,566;52579,848;-5572,406
 796,45;  182,327;53365,102;-6529,708
 797,02;  187,088;56004,355;-5046,009
 797,59;  164,849;57922,609;-6675,311
 798,16;  202,610;54563,863;-5861,612
 798,73;  164,371;53534,117;-6761,913
 799,30;  148,132;55088,371;-6611,214
 799,87;  163,893;55650,625;-6713,516
 800,44;  146,654;55353,875;-6729,817
 801,01;  127,415;56836,129;-6807,119
 801,58;  168,176;58477,383;-6537,420
 802,15;  199,937;52086,637;-6658,722
 802,72;  197,698;48849,891;-6694,023
 803,28;  175,459;52000,145;-6076,324
 803,85;  165,220;57179,398;-6728,626
 804,42;  239,981;55235,652;-5999,927
 804,99;  131,742;53752,906;-6539,229
 805,56;  134,503;52472,160;-6770,530
 806,13;  149,264;53387,410;-6075,832
 806,70;  168,025;52719,664;-6748,133
 807,27;  166,786;54477,918;-6672,434
 807,84;  128,547;52786,172;-6693,736
 808,41;  126,308;49728,426;-6022,037
 808,98;  161,069;50479,680;-5986,338
 809,54;  140,830;52469,934;-4958,640
 810,11;  163,591;48281,188;-6782,941
 810,68;  144,352;43021,441;-6680,243
 811,25;  135,113;41394,695;-6760,544
 811,82;  176,874;40374,945;-6886,846
 812,39;  158,635;37710,199;-3331,147
 812,96;  179,396;38779,453;-6767,448
 813,52;  160,157;41291,707;-6937,750
 814,09;   96,918;44522,961;-6766,051
 814,66;  149,679;50325,215;-6827,353
 815,23;  142,440;51240,469;-6669,654
 815,80;  139,201;50439,723;-5853,956
 816,37;  160,962;50917,977;-6801,257
 816,93;  155,723;49487,230;-6731,558
 817,50;  149,484;46790,480;-6102,859
 818,07;  204,245;46034,734;-6960,161
 818,64;  208,006;46919,988;-6856,462
 819,21;  178,767;46261,242;-6053,764
 819,77;  232,528;42742,496;-6571,065
 820,34;  173,289;42053,750;-6677,367
 820,91;  218,050;43276,004;-6469,668
 821,48;  227,811;43873,258;-6689,969
 822,05;  225,572;45571,512;-5875,271
 822,61;  226,333;44296,766;-5631,572
 823,18;  184,094;41860,016;-6620,874
 823,75;  152,855;42585,270;-6957,175
 824,32;  177,616;45286,523;-6923,477
 824,88;  188,377;45073,777;-6882,778
 825,45;  160,138;44018,031;-6899,079
 826,02;  150,899;43798,285;-6643,380
 826,59;  185,660;43974,539;-6639,682
 827,15;  147,421;46077,793;-6906,983
 827,72;  129,182;49519,047;-6723,285
 828,29;  118,943;51523,301;-6895,586
 828,86;  141,704;48827,551;-6791,888
 829,42;  171,465;40797,805;-6812,189
 829,99;  108,226;36802,059;-6647,490
 830,56;  168,987;36252,313;-6869,792
 831,13;  131,748;37220,566;-6060,093
 831,69;  154,509;38022,820;-6506,395
 832,26;  109,270;38832,074;-5062,696
 832,83;   74,031;40408,328;-5452,998
 833,39;  163,792;40187,582;-6904,299
 833,96;  131,553;39167,836;-6687,600
 834,53;  128,314;40039,086;-6928,902
 835,10;   82,075;39930,340;-6529,203
 835,66;  101,836;38972,594;-6920,504
 836,23;  122,597;39801,848;-6803,806
 836,80;  102,358;39428,102;-6790,107
 837,36;  123,119;37086,355;-6810,409
 837,93;  121,880;34475,609;-6902,710
 838,50;  155,641;35084,863;-6789,012
 839,06;  131,402;37684,117;-6288,313
 839,63;  117,163;37191,371;-6895,614
 840,19;   91,924;35132,621;-6607,916
 840,76;   98,685;35364,875;-6404,217
 841,33;   73,446;35892,129;-6509,519
 841,89;  145,207;36779,383;-6949,820
 842,46;   81,968;37103,637;-6751,122
 843,03;  135,729;35389,891;-6089,423
 843,59;   56,490;34224,145;-6403,724
 844,16;  104,251;34994,398;-6181,025
 844,73;  172,012;34249,652;-6067,327
 845,29;  103,773;32937,902;-5695,628
 845,86;  144,534;35699,156;-6800,930
 846,42;   55,295;36940,410;-7004,231
 846,99;   93,056;36477,664;-6967,533
 847,56;   44,817;36265,918;-5840,834
 848,12;   56,578;36240,172;-6745,135
 848,69;   82,339;35710,426;-6715,437
 849,25;   80,100;34401,680;-6845,738
 849,82;   90,861;34081,934;-3247,040
 850,38;   80,622;35064,188;-6840,341
 850,95;   70,383;32489,439;-6324,643
 851,52;   55,144;32520,693;-6565,944
 852,08;   91,905;32548,947;-6691,245
 852,65;   44,666;30323,199;-7005,546
 853,21;   67,427;27698,453;-6958,848
 853,78;   36,188;27362,707;-6363,149
 854,34;   44,949;28860,961;-6871,451
 854,91;   42,710;29081,215;-5086,752
 855,47;   67,471;29942,467;-5108,054
 856,04;  110,232;32027,721;-6746,355
 856,60;   24,993;33961,973;-6104,656
 857,17;   86,754;34979,227;-6840,958
 857,73;   45,514;33553,480;-6811,259
 858,30;   52,275;32532,734;-6985,561
 858,86;   89,036;31110,988;-5926,862
 859,43;   54,797;31430,242;-6226,164
 859,99;   49,558;32011,496;-6852,465
 860,56;   38,319;33126,750;-6903,766
 861,12;   42,080;35190,004;-6737,068
 861,69;   63,841;33669,258;-5924,369
 862,25;   92,602;34731,508;-6821,670
 862,82;   68,363;34419,762;-5972,972
 863,38;  108,124;31196,018;-6843,273
 863,95;   63,885;29305,270;-6239,575
 864,51;  118,646;30403,523;-5287,876
 865,08;   85,407;29284,777;-6090,178
 865,64;   33,168;26795,031;-7018,479
 866,21;   66,929;26131,285;-6745,780
 866,77;   88,690;26051,537;-5552,082
 867,34;  117,451;25734,791;-6672,383
 867,90;  101,212;24632,045;-6303,685
 868,46;  102,973;23835,299;-6041,986
 869,03;   39,734;24389,551;-6929,288
 869,59;   72,495;26353,805;-6884,589
 870,16;   56,256;27647,059;-6052,890
 870,72;   76,017;30060,313;-6657,191
 871,28;   40,778;32915,566;-5992,493
 871,85;   85,539;33142,820;-6907,794
 872,41;   25,300;31569,072;-6004,096
 872,98;   33,061;32738,326;-6050,397
 873,54;   62,822;33876,578;-5920,699
 874,10;  107,583;32768,832;-5876,000
 874,67;   61,583;32987,832;-6904,000
 875,23;   45,583;31068,834;-7032,000
 875,80;   59,583;28009,834;-6641,000
 876,36;   26,583;25058,834;-6642,000
 876,92;   47,583;22832,834;-6189,000
 877,49;   68,583;23923,834;-6517,000
 878,05;  100,583;24896,834;-6797,000
 878,61;   83,583;26938,834;-6812,000
 879,18;   42,583;27553,834;-6252,000
 879,74;   57,583;28076,834;-6720,000
 880,30;   83,583;28679,834;-5926,000
 880,87;   59,583;28852,834;-6326,000
 881,43;   65,583;29533,834;-6871,000
 881,99;   46,583;27306,834;-6879,000
 882,56;   20,583;27610,834;-6661,000
 883,12;   65,583;29049,834;-5740,000
 883,68;   27,583;29120,834;-6518,000
 884,25;   60,583;28300,834;-6949,000
 884,81;   60,583;26343,834;-6701,000
 885,37;   45,583;24221,834;-6786,000
 885,94;    4,583;22940,834;-6851,000
 886,50;   25,583;23098,834;-6886,000
 887,06;   55,583;24358,834;-6796,000
 887,62;   33,583;25019,834;-6866,000
 888,19;   38,583;25774,834;-5986,000
 888,75;   37,583;26542,834;-6821,000
 889,31;   64,583;29043,834;-6778,000
 889,87;   41,583;30537,834;-6723,000
 890,44;   80,583;30349,834;-6696,000
 891,00;   18,583;28757,834;-6786,000
 891,56;   56,583;26457,834;-6998,000
 892,12;  119,583;24463,834;-6754,000
 892,69;   46,583;25310,834;-6373,000
 893,25;   35,583;28798,834;-6877,000
 893,81;   82,583;31774,834;-6696,000
 894,37;  139,583;31330,834;-6342,000
 894,94;   25,583;28713,834;-6772,000
 895,50;   26,583;26035,834; -212,000
 896,06;   39,583;24749,834;-6810,000
 896,62;   66,583;23405,834;-6707,000
 897,18;   35,583;24661,834;-6518,000
 897,75;   56,583;27406,834;-6895,000
 898,31;   82,583;27887,834;-6849,000
 898,87;   23,583;26274,834;-6860,000
 899,43;   28,583;25164,834;-6469,000
 899,99;   75,583;26592,834;-6866,000
 900,56;   57,583;25515,834;-6791,000
 901,12;   48,583;24875,834;-6890,000
 901,68;   71,583;27903,834;-6267,000
 902,24;   37,583;31800,834;-5930,000
 902,80;   -8,417;32652,834;-6794,000
 903,36;   96,583;31893,834;-6691,000
 903,93;   87,583;32139,834;-6646,000
 904,49;  161,583;32761,834;-6913,000
 905,05;  230,583;30952,834;-6732,000
 905,61;  657,583;28208,834;-6832,000
 906,17; 1127,583;28086,834;-6901,000
 906,73; 1723,583;25975,834;-5380,000
 907,29; 2280,583;24960,834;-6910,000
 907,86; 2774,583;25118,834;-6827,000
 908,42; 2886,583;28092,834;-6795,000
 908,98; 2365,583;31123,834;-5908,000
 909,54; 1315,583;38813,832;-6885,000
 910,10;  505,583;48220,832;-6634,000
 910,66;  110,583;57581,832;-6781,000
 911,22;   42,583;65027,832;-6761,000
 911,78;   38,583;62593,832;-6841,000
 912,34;    7,583;53256,832;-6080,000
 912,90;   80,583;44610,832;-5232,000
 913,46;   58,583;37052,832;-6876,000
 914,03;   42,583;30620,834;-5746,000
 914,59;    2,583;27452,834;-6682,000
 915,15;   25,583;24908,834;-6891,000
 915,71;   37,583;24217,834;-6863,000
 916,27;   24,583;23800,834;-6723,000
 916,83;   64,583;23006,834;-5824,000
 917,39;   28,583;21742,834;-3512,000
 917,95;   16,583;20224,834;-6009,000
 918,51;   48,583;19972,834;-6583,000
 919,07;   43,583;21780,834;-6791,000
 919,63;  -48,417;23295,834;-6661,000
 920,19;  -40,417;23935,834;-6865,000
 920,75;   51,583;23112,834;-6640,000
 921,31;  -24,417;21484,834;-4837,000
 921,87;   11,583;20216,834;-6845,000
 922,43;   21,583;18019,834;-5626,000
 922,99;   57,583;17321,834;-6706,000
 923,55;   -8,417;18674,834;-6655,000
 924,11;   33,583;19094,834;-6976,000
 924,67;   23,583;19310,834;-6962,000
 925,23;   32,583;19485,834;-6778,000
 925,79;   22,583;20122,834;-6710,000
 926,35;   47,583;20219,834;-6573,000
 926,91;   44,583;19401,834;-6909,000
 927,47;    1,583;19367,834;-6660,000
 928,03;   89,583;20294,834;-6786,000
 928,59;   76,583;20503,834;-6678,000
 929,15;   91,583;20781,834;-6792,000
 929,71;   51,583;22016,834;-6840,000
 930,27;   86,583;23587,834;-6537,000
 930,82;   70,583;25573,834;-6728,000
 931,38;  -10,417;24317,834;-5852,000
 931,94;    1,583;22672,834;-6843,000
 932,50;   49,583;21252,834;-6481,000
 933,06;   38,583;20895,834;-6768,000
 933,62;   34,583;21092,834;-6443,000
 934,18;   26,583;20632,834;-6727,000
 934,74;   12,583;21320,834;-6709,000
 935,30;   80,583;22030,834;-6484,000
 935,86;    6,583;21213,834;-6505,000
 936,42;   30,583;20702,834;-6873,000
 936,97;   56,583;21656,834;-6563,000
 937,53;   21,583;20552,834;-6826,000
 938,09;   33,583;21087,834;  123,000
 938,65;   62,583;21186,834;-6268,000
 939,21;   26,583;20179,834;-6708,000
 939,77;   25,583;18946,834;-6213,000
 940,33;   16,583;18602,834;-6748,000
 940,88;   26,583;19429,834;-5908,000
 941,44;   28,583;21301,834;-6983,000
 942,00;   16,583;23225,834;-6697,000
 942,56;   16,583;24231,834;-6604,000
 943,12;   27,583;23427,834;-5907,000
 943,68;   28,583;22950,834;-5679,000
 944,23;   -6,417;23124,834;-6749,000
 944,79;  -14,417;22674,834;-6102,000
 945,35;  -14,417;20741,834;-6599,000
 945,91;   61,583;19519,834;-6767,000
 946,47;   21,583;19827,834;-3353,000
 947,03;    8,583;19896,834;-6850,000
 947,58;    0,583;19661,834;-6840,000
 948,14;   18,583;20790,834;-5897,000
 948,70;    0,583;19573,834;-5855,000
 949,26;    6,583;18881,834;-6616,000
 949,81;  -14,417;18342,834;-6644,000
 950,37;  -42,417;18686,834;-6695,000
 950,93;   28,583;17993,834;-6224,000
 951,49;  -34,417;17568,834;-6057,000
 952,05;   22,583;17926,834;-6571,000
 952,60;  -27,417;17299,834;-6951,000
 953,16;   10,583;16933,834;-5783,000
 953,72;  -44,417;15628,833;-5813,000
 954,27;  -37,417;15524,833;-6566,000
 954,83;   -7,417;15317,833;-6703,000
 955,39;  -26,417;14917,833;-6691,000
 955,95;  -25,417;14456,833;-6849,000
 956,50;  -56,417;14272,833;-6698,000
 957,06;  -15,417;14126,833;-5922,000
 957,62;  -32,417;13780,833;-6559,000
 958,18;  -17,417;13872,833;-6741,000
 958,73;   -9,417;13326,833;-6820,000
 959,29;   -8,417;13518,833;-6106,000
 959,85;  -44,417;14785,833;-6864,000
 960,40;   21,583;16746,834;-4263,000
 960,96;   14,583;16386,834;-6738,000
 961,52;  -23,417;14755,833;-6643,000
 962,07;   -2,417;13711,833;-6742,000
 962,63;  -40,417;13208,833;-6723,000
 963,19;  -71,417;13435,833;-5779,000
 963,74;   26,583;13877,833;-6582,000
 964,30;  -46,417;14475,833;-6595,000
 964,86;   -9,417;14281,833;-6484,000
 965,41;    9,583;14290,833;-6705,000
 965,97;  -32,417;14185,833;-6569,000
 966,53;  -31,417;14792,833;-6750,000
 967,08;   32,583;15311,833;-6611,000
 967,64;   12,583;15082,833;-6705,000
 968,19;  -21,417;14471,833;-6684,000
 968,75;   13,583;14662,833;-6566,000
 969,31;   11,583;14880,833;-5626,000
 969,86;  -52,417;14995,833;-6505,000
 970,42;    3,583;13195,833;-6620,000
 970,97;   32,583;11567,833;-6437,000
 971,53;  -25,417;11625,833;-6490,000
 972,09;  -40,417;12998,833;-6646,000
 972,64;  -50,417;13523,833;-5812,000
 973,20;  -12,417;13815,833;-6599,000
 973,75;  -38,417;14605,833;-5760,000
 974,31;    2,583;14826,833;-6578,000
 974,87;   -4,417;14921,833;-6674,000
 975,42;  -13,417;14507,833;-6727,000
 975,98;    1,583;13201,833;-6651,000
 976,53;   -3,417;12100,833;-6555,000
 977,09;  -31,417;11353,833;-4624,000
 977,64;    1,583;11164,833;-6532,000
 978,20;   16,583;10649,833;-6585,000
 978,75;  -27,417;10482,833;-6429,000
 979,31;  -40,417;10950,833;-6513,000
 979,86;   17,583;12220,833;-6739,000
 980,42;  -27,417;12828,833;-5813,000
 980,97;  -28,417;13290,833;-6642,000
 981,53;   45,583;14285,833;-6636,000
 982,08;  -12,417;13803,833;-5046,000
 982,64;  -11,417;12278,833;-6237,000
 983,19;  -22,417;11308,833;-6760,000
 983,75;   11,583;10993,833;-6576,000
 984,30;  -17,417;10430,833;-5581,000
 984,86;  -44,417; 9867,833;-5898,000
 985,41;  -12,417; 9457,833;-6634,000
 985,97;  -11,417; 9632,833;-4797,000
 986,52;  -46,417; 9894,833;-5853,000
 987,08;  -13,417; 9953,833;-6174,000
 987,63;  -30,417;10165,833;-5608,000
 988,19;  -26,417;11252,833;-6266,000
 988,74;  -34,417;11710,833;-5682,000
 989,30;  -19,417;11529,833;-6568,000
 989,85;  -25,417;11470,833; -276,000
 990,40;  -37,417;11314,833;-6617,000
 990,96;   14,583;11060,833;-6482,000
 991,51;    0,583;11149,833;-6578,000
 992,07;  -28,417;10742,833;-6605,000
 992,62;  -13,417;10285,833;-6519,000
 993,18;  -29,417;10035,833;-6504,000
 993,73;  -25,417; 9986,833;-6440,000
 994,28;  -46,417; 9800,833;-6464,000
 994,84;  -34,417; 9019,833;-6240,000
 995,39;    2,583; 8474,833;-2971,000
 995,94;   14,583; 7953,833;-5673,000
 996,50;  -19,417; 7647,833;-6543,000
 997,05;    4,583; 7872,833;-3481,000
 997,61;   -5,417; 8363,833;-6489,000
 998,16;  -71,417; 8581,833;-6555,000
 998,71;  -35,417; 8850,833;-6340,000
 999,27;  -60,417; 9115,833;-5223,000
 999,82;  -24,417; 8706,833;-4778,000
1000,37;  -33,417; 8661,833;-6520,000
1000,93;    1,583; 8920,833;-6107,000
1001,48;  -36,417; 8799,833;-6543,000
1002,03;  -34,417; 8477,833;-6469,000
1002,59;  -38,417; 8715,833;-5972,000
1003,14;  -59,417; 8758,833;-6113,000
1003,69;  -15,417; 8484,833;-6513,000
1004,25;  -36,417; 8299,833;-6507,000
1004,80;   -9,417; 8322,833;-6266,000
1005,35;  -15,417; 8313,833;-6361,000
1005,91;   -8,417; 8515,833;-6558,000
1006,46;  -62,417; 8426,833;-6084,000
1007,01;   13,583; 8227,833;-5479,000
1007,56;  -13,417; 8599,833;-6440,000
1008,12;  -42,417; 8342,833;-6178,000
1008,67;    7,583; 7867,833;-6312,000
1009,22;    0,583; 7509,833;-6481,000
1009,78;   10,583; 7205,833;-6163,000
1010,33;  -29,417; 6649,833;-6443,000
1010,88;  -29,417; 6413,833;-5618,000
1011,43;    7,583; 5995,833;-6433,000
1011,99;  -10,417; 5972,833;-6198,000
1012,54;  -23,417; 6320,833;-6387,000
1013,09;   -3,417; 6048,833;-6299,000
1013,64;   -5,417; 5802,833;-6362,000
1014,19;  -22,417; 5823,833;-6442,000
1014,75;  -17,417; 5928,833;-6408,000
1015,30;    5,583; 6394,833;-6425,000
1015,85;   23,583; 6370,833;-6367,000
1016,40;  -11,417; 6247,833;-5436,000
1016,96;   32,583; 6235,833;-6268,000
1017,51;  -29,417; 6150,833;-6351,000
1018,06;  -21,417; 6095,833;-6310,000
1018,61;  -54,417; 5695,833;-6665,000
1019,16;  -48,417; 5609,833;-6697,000
1019,71;   35,583; 5663,833;-6373,000
1020,27;  -17,417; 5567,833;-6353,000
1020,82;  -15,417; 5375,833;-3700,000
1021,37;  -11,417; 5405,833;-4798,000
1021,92;  -30,417; 5984,833;-6454,000
1022,47;  -32,417; 5965,833;-6548,000
1023,02;  -23,417; 5463,833;-6512,000
1023,58;  -24,417; 5045,833;-6573,000
1024,13;    5,583; 4730,833;-6258,000
1024,68;  -43,417; 4434,833;-6298,000
1025,23;  -18,417; 4324,833;-5525,000
1025,78;  -30,417; 4613,833;-6475,000
1026,33;  -20,417; 4932,833;-5510,000
1026,88;  -27,417; 4843,833;-6236,000
1027,43;  -38,417; 5167,833;-6276,000
1027,99;    0,583; 5134,833;-6002,000
1028,54;  -35,417; 4732,833;-6395,000
1029,09;  -12,417; 4106,833;-2478,000
1029,64;   -4,417; 3919,833;-6303,000
1030,19;    8,583; 4147,833;-3821,000
1030,74;   23,583; 4243,833;-5134,000
1031,29;    7,583; 4284,833;-4765,000
1031,84;   43,583; 4491,833;-6300,000
1032,39;   65,583; 4563,833;-5403,000
1032,94;   49,583; 4617,833;-4326,000
1033,49;   93,583; 4361,833;-5476,000
1034,04;   93,583; 4236,833;-6312,000
1034,59;  117,583; 4205,833;-6507,000
1035,14;   90,583; 4117,833;-6145,000
1035,69;   72,583; 4318,833;-6224,000
1036,24;  100,583; 4104,833;-4477,000
1036,80;  122,583; 3986,833;-5453,000
1037,35;  128,583; 4138,833;-6347,000
1037,90;  114,583; 4172,833;-6274,000
1038,45;  153,583; 4201,833;-6419,000
1039,00;  147,583; 4340,833;-5490,000
1039,55;  118,583; 4229,833;-6284,000
1040,10;  209,583; 3977,833;-5615,000
1040,65;  238,583; 3916,833;-5576,000
1041,20;  236,583; 3850,833;-6325,000
1041,75;  245,583; 4030,833;-4522,000
1042,30;  294,583; 4164,833;-3585,000
1042,84;  286,583; 4338,833;-4439,000
1043,39;  318,583; 4248,833;-6313,000
1043,94;  341,583; 4175,833;-5342,000
1044,49;  388,583; 3887,833;-6246,000
1045,04;  408,583; 3710,833;-5800,000
1045,59;  452,583; 3809,833;-6299,000
1046,14;  454,583; 3732,833;-6392,000
1046,69;  610,583; 3591,833;-6294,000
1047,24;  685,583; 3623,833;-5510,000
1047,79;  755,583; 3737,833;-6139,000
1048,34;  871,583; 4002,833;-5961,000
1048,89;  978,583; 3948,833;-6259,000
1049,44; 1182,583; 3935,833;-5172,000
1049,99; 1380,583; 3855,833;-4844,000
1050,54; 1557,583; 3876,833;-6249,000
1051,08; 1901,583; 3961,833;-6178,000
1051,63; 2418,583; 4050,833;-5285,000
1052,18; 3482,583; 5051,833;-6127,000
1052,73; 5347,583; 7151,833;-6173,000
1053,28; 7380,583;10516,833;-6386,000
1053,83; 9698,583;15224,833;-6214,000
1054,38;11842,583;19203,834;-6254,000
1054,93;12840,583;21243,834;-6285,000
1055,47;13953,583;23825,834;-5328,000
1056,02;14813,583;26212,834;-5832,000
1056,57;17436,584;27830,834;-6198,000
1057,12;19388,584;30497,834;-6378,000
1057,67;20079,584;33805,832;-6078,000
1058,22;21192,584;36084,832;-6313,000
1058,76;22020,584;38542,832;-6093,000
1059,31;23719,584;44129,832;-3514,000
1059,86;25883,584;48778,832;-6204,000
1060,41;28699,584;49718,832;-6152,000
1060,96;32085,584;51396,832;-6226,000
1061,51;32911,582;53649,832;-5344,000
1062,05;32105,584;54082,832;-6122,000
1062,60;32413,584;50555,832;-6061,000
1063,15;34917,582;45221,832;-6149,000
1063,70;37896,582;41550,832;-6250,000
1064,24;38601,582;43676,832;-6169,000
1064,79;38432,582;45461,832;-6144,000
1065,34;39348,582;43989,832;-6064,000
1065,89;40314,582;41776,832;-6202,000
1066,44;39727,582;37631,832;-6120,000
1066,98;41466,582;32612,834;-6224,000
1067,53;43401,582;30790,834;-5953,000
1068,08;43333,582;30368,834;-4845,000
1068,63;39614,582;27618,834;-6096,000
1069,17;36599,582;24647,834;-5893,000
1069,72;32600,584;22350,834;-5857,000
1070,27;28198,584;20529,834;-6040,000
1070,81;27054,584;20388,834;-5996,000
1071,36;25202,584;20367,834;-3883,000
1071,91;22341,584;18745,834;  966,000
1072,46;19957,584;16791,834;-5058,000
1073,00;17876,584;14646,833;-5239,000
1073,55;15086,583;11404,833;-5935,000
1074,10;10756,583; 7803,833;-5981,000
1074,64; 7222,583; 5240,833;-5860,000
1075,19; 4768,583; 3535,833;-4958,000
1075,74; 3451,583; 2551,833;-6091,000
1076,28; 2690,583; 2312,833;-6075,000
1076,83; 2063,583; 1951,833;-5286,000
1077,38; 1862,583; 1820,833;-5653,000
1077,92; 1533,583; 1783,833;-6332,000
1078,47; 1329,583; 1629,833;-5507,000
1079,02; 1076,583; 1578,833;-5959,000
1079,56;  941,583; 1557,833;-5328,000
1080,11;  768,583; 1304,833;-6094,000
1080,65;  794,583; 1241,833;-5039,000
1081,20;  616,583; 1186,833;-6151,000
1081,75;  651,583; 1125,833;-6039,000
1082,29;  570,583; 1128,833; -139,000
1082,84;  467,583; 1184,833;-2678,000
1083,39;  408,583; 1294,833;-5061,000
1083,93;  365,583; 1335,833;-5025,000
1084,48;  341,583; 1196,833;-5961,000
1085,02;  276,583; 1082,833;-5783,000
1085,57;  241,583; 1074,833;-5994,000
1086,11;  235,583; 1079,833;-5968,000
1086,66;  196,583;  925,833;-5584,000
1087,21;  228,583; 1060,833;-5802,000
1087,75;  153,583;  939,833;-6125,000
1088,30;  134,583;  815,833;-5040,000
1088,84;  141,583;  783,833;-5963,000
1089,39;   91,583;  656,833;-5965,000
1089,93;   97,583;  664,833;-6100,000
1090,48;   48,583;  649,833;-4394,000
1091,02;  108,583;  733,833;-5181,000
1091,57;   70,583;  629,833;-5479,000
1092,11;   75,583;  642,833;-4094,000
1092,66;   44,583;  624,833;-6031,000
1093,20;   11,583;  580,833;-5180,000
1093,75;   45,583;  566,833;-4998,000
1094,29;   50,583;  486,833;-4979,000
1094,84;   61,583;  525,833;-5890,000
1095,38;   17,583;  528,833;-5097,000
1095,93;   17,583;  584,833;-5981,000
1096,47;    0,583;  615,833;-5612,000
1097,02;   38,583;  587,833;-4985,000
1097,56;    6,583;  614,833;-5772,000
1098,11;   32,583;  552,833;-5774,000
1098,65;   18,583;  508,833;-5992,000
1099,20;   35,583;  577,833;-5935,000
1099,74;    0,583;  487,833;-6002,000
1100,29;   -7,417;  513,833;-4879,000
1100,83;   -8,417;  496,833;-5934,000

