
Integration time [ms]:   1,000
Averaging Nr. [scans]: 1
Smoothing Nr. [pixels]: 0
Data measured with spectrometer [name]: 1703254U1
Wave   ;Sample   ;Dark     ;Reference;Scope
[nm]   ;[counts] ;[counts] ;[counts] 

 190,08;  -76,372; -370,119;11982,743
 190,69;  -57,383; -359,404;11603,049
 191,29;  -58,947; -311,651;11479,965
 191,90;  -68,888; -365,508;11440,717
 192,50;  -67,101; -379,511;10355,099
 193,10;  -45,878; -446,299;11244,381
 193,71;  -65,872; -367,888; 9821,736
 194,31;  -60,176; -399,273; 9436,327
 194,91;  -60,176; -382,273; 9291,327
 195,52;  -67,213; -338,386;10555,949
 196,12;  -42,527; -397,056; 8671,847
 196,72;  -62,745; -386,394; 8220,904
 197,32;  -65,872; -375,888; 8251,736
 197,93;  -48,447; -360,420; 8700,957
 198,53;  -62,075; -383,145; 7601,797
 199,13;  -69,223; -397,132; 8091,270
 199,74;  -53,809; -366,410; 7263,813
 200,34;  -50,011; -388,667; 7832,874
 200,94;  -47,442; -436,547; 6941,297
 201,55;  -57,383; -406,404; 7119,049
 202,15;  -60,623; -375,773; 6404,732
 202,75;  -91,451; -373,217; 6097,647
 203,36;  -51,798; -338,664; 6822,492
 203,96; -104,185; -357,943; 6332,678
 204,56;  -55,373; -355,657;10275,729
 205,16;  -63,080; -363,018; 5478,458
 205,77;  -76,260; -360,244; 4767,892
 206,37;  -63,974; -409,017; 5556,267
 206,97;  -67,771; -363,760; 5129,205
 207,58;  -50,458; -364,166; 5927,278
 208,18;  -71,011; -337,129; 5129,889
 208,78;  -68,330; -404,134; 5295,461
 209,38;  -51,128; -469,415; 4958,385
 209,99;  -51,016; -356,540; 3837,534
 210,59;  -52,692; -361,662; 3890,301
 211,19;  -51,910; -364,538; 3938,343
 211,79;  -44,426; -366,927; 4499,316
 212,40;  -73,245; -373,625; 3368,911
 213,00;  -64,085; -388,891; 3903,118
 213,60;  -69,447; -386,882; 2992,972
 214,20;  -84,303; -401,230; 3081,175
 214,81;  -76,819; -422,618; 2884,148
 215,41;  -84,526; -376,979; 3235,877
 216,01; -104,967; -373,067; 3109,636
 216,61;  -60,064; -367,399; 2814,476
 217,22; -100,276; -381,326; 2358,888
 217,82; -115,578; -325,173; 2262,495
 218,42;  -94,579; -383,711; 2389,480
 219,02;  -99,382; -288,327; 3432,079
 219,63;  -82,292; -357,483; 2044,854
 220,23;  -85,755; -366,602; 2425,239
 220,83;  -83,856; -395,730; 1901,770
 221,43; -103,068; -393,195; 1850,167
 222,03; -105,972; -348,940; 2326,296
 222,64;  -87,765; -380,348; 1769,560
 223,24;  -91,675; -298,966; 1625,350
 223,84; -107,424; -376,313; 2637,361
 224,44; -103,515; -316,695; 2381,571
 225,05;  -99,717; -313,952; 1440,632
 225,65; -105,861; -301,065; 1227,445
 226,25;  -94,356; -364,961; 1139,777
 226,85; -109,212; -294,309;  995,979
 227,45;  -97,260; -335,706; 1083,907
 228,06;  -95,361; -365,834; 1945,438
 228,66;  -94,802; -349,460; 4049,182
 229,26;  -89,313; -313,438; 1131,510
 229,86;  -91,340; -396,342; 1760,797
 230,46; -103,962; -358,194;  891,976
 231,06; -103,738; -320,444;  757,273
 231,67;  -80,962; -346,732; 1228,961
 232,27; -120,381; -343,789;  778,094
 232,87; -109,658; -308,808;  526,384
 233,47; -123,621; -321,158;  525,777
 234,07;  -71,505; -268,486; 9912,235
 234,67; -134,455; -291,013;  672,338
 235,28; -123,621; -319,158;   65,777
 235,88; -138,141; -316,882;  285,426
 236,48; -102,510; -350,821;  165,911
 237,08; -103,812; -267,669;  448,518
 237,68; -140,375; -369,378; -267,552
 238,28; -119,424; -304,774; -106,624
 238,89; -138,253; -212,756; -205,723
 239,49; -121,094; -282,023; 1280,483
 240,09; -145,875; -284,608; -190,544
 240,69; -143,056; -251,373; -319,124
 241,29; -115,429; -289,647;  651,036
 241,89; -129,876; -330,147; -260,559
 242,49; -135,412; -248,490; -358,930
 243,10; -143,838; -201,496; 3664,834
 243,70; -136,412; -284,490;  239,070
 244,30; -141,157; -275,501; -708,594
 244,90; -127,173; -188,582; -568,598
 245,50; -132,886; -177,355; 3274,777
 246,10; -135,684; -307,636; -831,300
 246,70; -142,498; -300,999;   17,620
 247,30; -133,003; -251,641;  326,273
 247,91; -159,253; -208,218; 5781,292
 248,51; -151,891; -270,228; -806,563
 249,11;  -83,009; -239,514;  417,933
 249,71; -122,136; -303,008; -667,235
 250,31; -150,987; -265,483; -567,693
 250,91; -104,051; -238,500;   75,216
 251,51; -104,678; -199,225; -822,945
 252,11; -118,672; -239,813;  367,410
 252,71; -130,960; -269,117;-1080,994
 253,31; -109,460; -222,348; 3228,013
 253,91;  -90,853; -236,578; -676,170
 254,52; -135,034; -237,342;-1063,750
 255,12; -112,987; -293,483;-1104,693
 255,72;  -17,631; -206,366;  557,112
 256,32; -104,236; -242,061; -966,674
 256,92;  -83,874; -190,070;-1147,529
 257,52;  -31,902; -173,974; -883,243
 258,12; -117,939; -201,087;  -91,621
 258,72;  -77,459; -210,810;-1232,972
 259,32;  -53,609; -211,335;-1169,514
 259,92;  -72,290; -199,330;-1343,086
 260,52;  -34,795; -192,973;-1077,433
 261,12;  -90,130; -202,059; -662,865
 261,72;  -61,965; -238,452;-1312,319
 262,32;  -58,343; -215,600;-1561,498
 262,92;  -89,262; -238,426;  405,627
 263,53;  -51,422; -189,698;-1277,594
 264,13; -110,454; -262,937; -268,632
 264,73;  -57,188; -217,202;-1694,617
 265,33;  -77,438; -188,317;-1708,613
 265,93;  -66,587; -147,304;-1345,140
 266,53;  -66,278; -161,046;-1544,392
 267,13; -115,528; -139,161; -857,388
 267,73;  -71,315; -185,158;  270,230
 268,33;  -75,565; -166,274;-1788,766
 268,93;  -58,061; -213,708;-1702,449
 269,53;  -50,613; -204,670; -644,839
 270,13;  -87,608; -201,797;-1810,499
 270,73; -116,416; -245,287;-1891,239
 271,33;  -50,145; -200,678;-1778,884
 271,93; -115,284; -242,919;-1867,732
 272,53;  -30,416; -121,748;    8,776
 273,13;  -30,039; -146,677;-1117,075
 273,73; -103,735; -119,753;-1955,652
 274,33;  -48,369; -148,428;-2041,182
 274,93;  -99,724; -188,007;-1843,972
 275,53;  -87,416;  -68,748;-1881,224
 276,13;  -87,958; -121,965;-2261,935
 276,73;  -84,006; -118,361;-1570,007
 277,33;  -58,235; -179,522;-1926,659
 277,93;  -39,252; -213,680;-1864,693
 278,53;  -36,448; -194,526;-2112,278
 279,13;  -84,171; -125,506;-2152,568
 279,73;  -76,639; -140,498;-1388,522
 280,33;  -66,948; -154,756;-2179,270
 280,93;  -25,873; -105,994;-2049,499
 281,53;  -57,709; -147,387;-2252,953
 282,13;  -30,112; -127,363;-2193,816
 282,73; -109,410; -156,875; -385,885
 283,33;  -60,198; -137,872;-2307,266
 283,92;  -17,256;  -74,477;-2028,003
 284,52;  -40,123;  -94,109;-2365,496
 285,12;  -56,342; -138,524;-1425,469
 285,72;  -21,900; -126,898;-1041,213
 286,32;   11,579;  -55,622;-1313,564
 286,92;  -26,129; -163,521;-2376,850
 287,52;   14,977;  -89,519;-2170,041
 288,12;   12,627;  -97,763;-2542,507
 288,72;   38,376; -106,417;-1625,518
 289,32;  -10,830;  -54,470; 1692,233
 289,92;  -29,352; -106,270;-2344,148
 290,52;  -56,048;  -91,809;-2485,710
 291,12;   11,020;  -57,996;-1570,308
 291,72;    5,744;  -74,477;-1590,003
 292,32;  111,174;  -83,135;-2372,442
 292,92;  147,329;   -2,737;-2481,560
 293,51;  118,941;  -37,093;-2532,404
 294,11;  231,132;  -42,121;-1681,160
 294,71;  244,999;   -7,488;-2695,667
 295,31;  233,903;  -24,743;-1755,797
 295,91;  331,031;   46,751;-2713,629
 296,51;  401,165;   62,656;-1776,106
 297,11;  413,745;   35,061;-2900,988
 297,71;  479,015;    4,131;-2726,648
 298,31;  658,648;   38,730;-2329,148
 298,91;  555,350;   74,756;-2483,202
 299,50;  578,643;   41,395;-2689,473
 300,10;  825,664;  145,887;-2706,114
 300,70;  606,063;   95,528;-2492,576
 301,30;  742,691;   89,253;-2855,415
 301,90;  882,371;   96,248;-2004,843
 302,50;  809,100;  163,640;-2515,198
 303,10;  657,696;  124,126;-2530,076
 303,70;  720,377;  208,660;-3000,488
 304,29;  712,686;  189,918;-2658,740
 304,89;  665,420;  266,183;-1090,755
 305,49;  843,899;  163,922;-2773,122
 306,09;  871,122;  214,133;-2874,839
 306,69;  854,073;  262,736;-2915,911
 307,29;  890,174;  312,865;-2008,442
 307,89;  823,494;  303,408;-3029,000
 308,48;  752,521;  341,774;-2453,301
 309,08;  870,722;  369,492;-2743,377
 309,68; 1086,978;  377,019;-3094,026
 310,28;  959,100;  371,102;-2576,213
 310,88;  730,924;  321,211;-2936,453
 311,48;  793,254;  447,500;-2875,331
 312,07;  845,834;  408,367;-2963,228
 312,67;  898,536;  497,855;-2128,297
 313,27;  903,849;  494,448;-1105,224
 313,87;  957,196;  583,357;-2164,083
 314,47; 1086,722;  516,954;-3030,392
 315,06; 1489,647;  620,191; 2713,837
 315,66; 1586,956;  579,988;-3245,400
 316,26; 1508,658;  632,938;-1844,483
 316,86; 1607,679;  777,969;-3140,110
 317,46; 1890,897;  720,307;-2115,167
 318,06; 1917,769;  739,813; -825,335
 318,65; 2127,024;  781,801;-2807,999
 319,25; 2557,812;  821,798;-3195,617
 319,85; 2515,285;  932,663;-2908,323
 320,45; 3028,301;  986,283;-3213,304
 321,05; 4059,556;  901,271;-2761,968
 321,64; 4318,971;  889,531;-3219,411
 322,24; 4354,656; 1056,861;-3265,513
 322,84; 3699,784; 1080,356;-3261,345
 323,44; 2710,316; 1133,364;-3219,300
 324,03; 2503,991; 1194,486;-3072,067
 324,63; 2335,757; 1250,452;-2310,059
 325,23; 2211,714; 1241,928;-3097,792
 325,83; 2152,474; 1367,021;-2876,123
 326,42; 2073,319; 1442,622;-3285,005
 327,02; 2044,637; 1476,551;-3076,607
 327,62; 2038,440; 1439,629;-2505,221
 328,22; 2420,381; 1553,486;-3234,973
 328,82; 2437,927; 1577,037;-2229,938
 329,41; 2023,102; 1658,852;-3016,728
 330,01; 2467,398; 1652,750;-2961,704
 330,61; 2779,913; 1806,062;-2928,707
 331,20; 2064,541; 1778,325;-2868,531
 331,80; 1946,167; 1762,512;-2794,386
 332,40; 1947,268; 1752,102;-2896,932
 333,00; 1938,666; 1933,667;-2790,423
 333,59; 1933,171; 1748,771;-2855,091
 334,19; 1941,468; 1920,745;-1771,037
 334,79; 1811,260; 1712,615;-2861,316
 335,39; 1876,549; 1729,919;-2978,912
 335,98; 1898,752; 1726,714;-3126,958
 336,58; 2033,902; 1659,777;-3191,401
 337,18; 2118,008; 1720,779;-2958,592
 337,77; 1968,839; 1782,837;-2098,463
 338,37; 2004,775; 1806,359;-2021,540
 338,97; 2196,372; 1907,384;-2912,402
 339,57; 2510,770; 1862,948;-3044,894
 340,16; 3051,152; 1836,431;-2881,390
 340,76; 3224,950; 1962,712;-3053,314
 341,36; 2867,960; 1861,920;-3195,650
 341,95; 3342,742; 1934,506;-3027,623
 342,55; 3486,763; 1918,998;  703,736
 343,15; 3261,673; 2048,155;-3094,039
 343,74; 3996,481; 1924,644;-2382,298
 344,34; 3997,710; 1860,267;-3015,661
 344,94; 3067,338; 2068,530;-3069,485
 345,53; 2697,370; 2110,769;-2860,447
 346,13; 2893,024; 2174,398;-1283,573
 346,73; 3134,614; 1966,473;-2254,805
 347,32; 3354,801; 2268,649;-3080,871
 347,92; 3130,608; 2312,600;-2277,145
 348,52; 3139,912; 2270,523;-1878,722
 349,11; 3423,721; 2336,551;  975,034
 349,71; 2998,439; 2330,658;-3240,016
 350,31; 2692,279; 2441,387;-2672,237
 350,90; 2895,301; 2483,418;-2326,863
 351,50; 3229,491; 2390,852;-2105,634
 352,10; 4020,332; 2471,119;-3114,840
 352,69; 4754,136; 2532,273;-3182,424
 353,29; 4876,465; 2563,024;-3191,317
 353,89; 4979,125; 2645,527;-3255,104
 354,48; 4830,332; 2693,119;-3208,840
 355,08; 5431,592; 2871,980;-1117,164
 355,67; 6330,636; 2850,042;-2951,417
 356,27; 7735,970; 2839,128;-3232,985
 356,87; 8495,094; 3010,288;-3383,142
 357,46; 8909,152; 3049,431;-2351,390
 358,06;10088,307; 3306,291;-3073,523
 358,66; 8315,636; 3337,504;-3109,432
 359,25; 5452,859; 3260,792;-2344,119
 359,85; 5997,971; 3365,667;-3215,970
 360,44; 7932,827; 3389,015;-3292,172
 361,04; 7977,673; 3567,155;-2367,039
 361,64; 7979,673; 3696,155;-2309,039
 362,23; 7347,486; 3772,517;-2932,958
 362,83; 6897,162; 3755,639;-2990,726
 363,42; 6752,370; 3938,769;-2836,447
 364,02; 6347,104; 3910,034;-2973,462
 364,62; 6804,024; 3816,398;-2486,573
 365,21; 5293,024; 3857,937;-1741,558
 365,81; 3963,562; 3935,818;-2792,173
 366,40; 3955,913; 3970,062;-2080,707
 367,00; 4238,615; 4021,550;-2952,776
 367,59; 4968,413; 4071,831;-2979,699
 368,19; 5728,716; 4221,678;-3237,306
 368,79; 5380,482; 4198,720;-3125,268
 369,38; 4814,652; 4107,200;-2250,383
 369,98; 5212,237; 4101,940;-2935,940
 370,57; 6010,168; 4188,588;-3331,356
 371,17; 5695,329; 4164,860;-3326,135
 371,76; 6417,770; 4277,486;-3442,879
 372,36; 7102,807; 4057,598;-3195,501
 372,95; 8927,627; 4115,372;  667,934
 373,55;10070,068; 4105,998;-3393,811
 374,14; 9728,360; 4300,099;-3405,097
 374,74; 9651,579; 4256,514;-3224,124
 375,34; 8435,791; 4286,979;-3189,521
 375,93; 8256,345; 4295,479;-2706,116
 376,53; 7410,956; 4344,585;-3575,974
 377,12; 4989,184; 4405,670;-1465,352
 377,72; 3935,121; 4480,730;-3410,414
 378,31; 4141,678; 4511,027;-2274,699
 378,91; 4656,046; 4291,429;-3262,199
 379,50; 5326,198; 4588,213;-3331,363
 380,10; 5285,050; 4327,226;-3398,890
 380,69; 5382,992; 4094,621;-2343,626
 381,29; 7333,135; 4586,735;-2550,439
 381,88; 9593,625; 4518,758;-1605,111
 382,48; 9488,603; 4519,727;-3286,485
 383,07; 7952,364; 4495,358;-3457,802
 383,67; 7702,625; 4635,758;-1847,111
 384,26; 6917,784; 4667,491;-2467,905
 384,86; 5464,278; 4921,849;-3182,252
 385,45; 5512,949; 4932,636;-3325,344
 386,05; 5271,140; 5073,608;-3419,100
 386,64; 4531,066; 4911,384;-3524,855
 387,24; 4749,194; 5016,878;-2585,688
 387,83; 5011,167; 4993,512;-2489,386
 388,42; 5273,619; 5182,346;-2109,466
 389,02; 5060,986; 5423,748;-3235,966
 389,61; 4663,210; 5688,036;-3413,653
 390,21; 4420,194; 5729,878;-3463,688
 390,80; 3520,598; 5816,392;-3208,810
 391,40; 3688,577; 6137,899;-2293,168
 391,99; 4303,055; 5981,099;-3195,550
 392,59; 4632,752; 6435,252;-2416,943
 393,18; 4227,024; 6683,398;-2491,573
 393,77; 3317,546; 6883,198;-3238,192
 394,37; 3552,333; 7145,657;-2198,825
 394,96; 3979,343; 7098,403;-2296,146
 395,56; 3819,169; 7264,588;-2834,356
 396,15; 4549,179; 6867,797;-3125,692
 396,75; 5091,205; 7343,163;-2889,993
 397,34; 3876,237; 7669,940;-2620,940
 397,93; 3136,908; 7720,188;-3358,047
 398,53; 2998,391; 7595,262;-2525,088
 399,12; 3282,720; 8192,013;-2154,981
 399,72; 3874,332; 8013,119;-2274,840
 400,31; 4098,523; 8034,629;-3169,581
 400,91; 3682,614; 8446,012;-2959,791
 401,50; 3154,546; 8820,198;-2330,192
 402,09; 3027,647; 8550,327;-2894,722
 402,69; 3253,801; 8691,187;-3072,856
 403,28; 3319,758; 9052,663;-2983,588
 403,88; 5806,253; 9162,560; 1927,079
 404,47; 7107,413; 9689,831;  884,300
 405,06; 4692,737; 9684,171;  -68,947
 405,66; 5428,679; 9753,565;-2875,684
 406,25; 7466,482;10085,720;-3119,268
 406,84; 7297,163;10446,177;-2892,711
 407,44; 5473,222;10847,858;-2219,944
 408,03; 3597,377;10422,257;-2906,063
 408,63; 3200,403;10373,085;-3011,379
 409,22; 3217,849;10191,584;-1945,783
 409,81; 3345,600;10681,007;-1849,765
 410,41; 3525,977;11553,078;-2857,615
 411,00; 3855,988;11336,362;-1814,921
 411,59; 4257,744;11251,120;-2826,578
 412,19; 4340,137;11468,350;-2245,394
 412,78; 5074,355;11399,226;-2830,436
 413,37; 5398,499;12151,878;-2704,234
 413,97; 5642,473;12410,512;-2618,933
 414,56; 5385,047;12071,506;-2503,169
 415,15; 4779,010;12410,394;-2121,547
 415,75; 4443,467;12408,639;-2698,272
 416,34; 3820,164;12590,254;-1893,681
 416,93; 4045,260;12922,047;-2777,536
 417,53; 4655,936;12696,169;-1423,303
 418,12; 5313,739;12570,785;-2217,903
 418,71; 5615,687;12907,592;-2673,285
 419,31; 6326,192;13054,695;-1884,952
 419,90; 6793,995;13470,313;-2786,552
 420,49; 4886,037;13619,298;-1733,834
 421,08; 4029,037;14201,298;-1674,834
 421,68; 4577,819;14723,421;-1908,792
 422,27; 5549,825;14035,832;-2004,437
 422,86; 5899,963;13874,073; -437,590
 423,46; 5455,198;14080,107;-2575,598
 424,05; 4936,921;14376,626;-2928,293
 424,64; 5619,394;13888,953;-2640,014
 425,24; 5852,559;14092,098;-2903,453
 425,83; 5769,427;13992,269;-2680,945
 426,42; 6461,921;12987,626;-2760,293
 427,01; 6586,746;13424,734;-2674,533
 427,61; 4745,485;14347,873;-2609,209
 428,20; 3538,071;14036,151;-1764,751
 428,79; 3684,885;14414,052;-2859,656
 429,38; 4420,251;14092,377;-1781,186
 429,98; 5173,417;14922,521; -994,625
 430,57; 5943,485;15058,873;-2193,209
 431,16; 4886,996;14580,389;-2784,522
 431,75; 4645,826;14357,909; -561,407
 432,35; 6091,188;13435,899;-1951,262
 432,94; 4763,306;14429,186;-2324,759
 433,53; 3381,145;14560,375;-1152,995
 434,12; 3175,343;14431,298;-2267,381
 434,72; 3133,577;14188,331;-1413,389
 435,31; 3017,710;14167,699; 7395,119
 435,90; 2758,806;14308,954; 8338,249
 436,49; 2794,237;13427,834; -683,175
 437,08; 2934,593;13895,951; -675,370
 437,68; 5006,811;14442,827;-2987,412
 438,27; 6225,710;14610,237;-2610,866
 438,86; 3808,130;14612,832;-1147,984
 439,45; 2875,535;15313,346;-1937,106
 440,05; 4460,588;15955,616;-2982,694
 440,64; 4589,642;15054,886;-1902,282
 441,23; 3542,935;14152,525;-1415,553
 441,82; 2849,434;13700,218;-2631,576
 442,41; 2318,371;14351,277;-3014,637
 443,00; 2230,196;13625,925;-2724,863
 443,60; 2324,323;14373,881;-3136,710
 444,19; 2344,999;15026,541;-1440,462
 444,78; 2179,376;14960,151;-3012,298
 445,37; 2206,648;15728,297;-2522,928
 445,96; 2433,455;15331,249;-3116,202
 446,56; 2338,573;15596,535;-1144,698
 447,15; 2304,632;16225,678; -884,947
 447,74; 2191,898;17097,412;-2709,931
 448,33; 2051,148;16443,066;-1985,920
 448,92; 1987,707;15422,440;-2964,176
 449,51; 1939,478;15095,817;-2848,813
 450,10; 1689,893;15133,078;-3063,256
 450,70; 1680,153;14904,939;-1957,581
 451,29; 1638,143;15329,193;-1112,260
 451,88; 1808,206;15513,671;-2929,183
 452,47; 2239,403;16565,055;-2795,584
 453,06; 2011,537;16495,498;-2401,047
 453,65; 1649,202;16071,874;-2873,493
 454,24; 1670,654;17329,246;-2173,558
 454,84; 1740,207;17793,209;-1379,168
 455,43; 1702,325;18732,496;-2219,665
 456,02; 1557,367;18879,480;-2927,947
 456,61; 1560,877;17317,459;-2925,275
 457,20; 1594,011;16921,363;-2786,753
 457,79; 1602,405;17588,131;-2922,554
 458,38; 1653,719;18338,264;-2132,467
 458,97; 1576,490;18039,641;-2515,104
 459,56; 1678,154;18190,479;-2760,565
 460,16; 1654,399;17832,258;-2082,894
 460,75; 1732,708;18157,518;-2072,146
 461,34; 1617,054;18077,887;-2962,020
 461,93; 1538,916;18381,186;-2200,853
 462,52; 1671,570;19333,275;-2744,993
 463,11; 1774,576;20546,688;-1989,639
 463,70; 1848,596;19458,643;-2869,295
 464,29; 1959,517;19945,082;-3150,376
 464,88; 1884,038;20795,807;-2743,024
 465,47; 1736,208;19885,285;-2748,139
 466,06; 1753,278;20915,713;-3191,692
 466,65; 1938,326;21667,572;-3018,635
 467,24; 2035,805;22030,848;-2539,986
 467,84; 1869,533;22443,164;-2020,371
 468,43; 1839,389;22325,051;-2238,559
 469,02; 1846,958;23517,170;-2702,135
 469,61; 1857,140;24168,936;-2593,555
 470,20; 1919,241;23781,063;-2841,085
 470,79; 1839,688;22760,100;-3232,475
 471,38; 1660,502;25266,463;-2192,395
 471,97; 1695,555;26009,732; -666,983
 472,56; 1695,252;25472,887;-3035,376
 473,15; 1801,693;25296,975;-2825,135
 473,74; 1828,124;26395,854;-3106,559
 474,33; 1834,699;25866,848;-2957,796
 474,92; 1755,252;27630,348;-3146,391
 475,51; 1676,502;29609,002;-2873,380
 476,10; 1685,545;29847,986;-3011,662
 476,69; 1725,343;26101,268;-2855,586
 477,28; 1749,416;25846,955;-2956,845
 477,87; 1593,071;27035,121; -173,956
 478,46; 1655,689;28695,639;-3029,460
 479,05; 1690,582;30507,100;-2134,284
 479,64; 1611,045;31679,756;-2718,655
 480,23; 1675,375;29541,508;-2845,548
 480,82; 1576,183;28549,996;-2736,807
 481,41; 1592,588;29371,510;-1873,929
 482,00; 1578,146;29284,885;-1364,185
 482,59; 1595,289;29593,998;-2298,998
 483,18; 1721,747;31702,244;-2376,723
 483,77; 1681,135;31703,139;-2193,865
 484,36; 1715,502;32475,002;-1701,380
 484,95; 1707,295;32990,410; -788,643
 485,54; 2036,524;35331,031;-1371,006
 486,13; 2269,077;35762,996; -945,616
 486,72; 2869,029;34334,137;  148,326
 487,31; 2955,513;31046,285;-1109,686
 487,89; 2390,263;32608,633; -193,697
 488,48; 3199,732;33798,164;-1523,728
 489,07; 3808,764;32913,941;-1248,674
 489,66; 2667,114;33511,645;-1505,224
 490,25; 2181,365;31095,299; -660,212
 490,84; 2280,061;34127,375;-1683,635
 491,43; 3746,625;34965,621; -701,552
 492,02; 4698,540;36094,652;-1864,987
 492,61; 3030,210;35362,902;-1043,094
 493,20; 2268,466;33776,426;-2019,743
 493,79; 2226,892;32749,434; 4824,494
 494,38; 2173,269;33706,043;-1938,342
 494,97; 3293,338;32583,934; -629,911
 495,55; 4812,110;34690,309;-2325,548
 496,14; 3792,865;35087,531;-2403,220
 496,73; 2405,312;35451,566;-1952,609
 497,32; 2307,631;34211,570;-2587,182
 497,91; 2533,296;35005,949;-1921,629
 498,50; 2676,860;34165,195;-2912,544
 499,09; 2363,631;34554,570;-3088,182
 499,68; 2581,971;32403,070;-2405,396
 500,27; 3242,759;33321,605;-2490,999
 500,85; 3159,711;32655,207;-2604,071
 501,44; 2864,132;32478,342;-2576,175
 502,03; 2677,381;33194,457;-3368,178
 502,62; 2251,865;31275,068;-3438,205
 503,21; 2158,371;29432,711;-3532,858
 503,80; 2182,887;32028,100;-2976,831
 504,39; 2161,164;32451,119;-3458,121
 504,97; 2041,531;31774,982;-3577,636
 505,56; 2031,802;31537,590;-2979,281
 506,15; 2045,812;32302,336;-3991,602
 506,74; 2234,611;32557,617;-2945,526
 507,33; 2105,042;32185,498;-3165,949
 507,92; 2193,749;33952,859;-3871,678
 508,51; 1984,999;35926,973;-3735,682
 509,09; 2093,462;34536,629;-3921,053
 509,68; 2076,786;34318,508;-3748,286
 510,27; 2086,707;33667,410;-3799,381
 510,86; 2104,436;32572,264;-4081,751
 511,45; 2005,893;33677,512;-3843,476
 512,03; 2322,642;34524,855;-3829,488
 512,62; 2472,254;36240,961;-3780,346
 513,21; 2879,585;33870,789;-3186,209
 513,80; 3057,925;34644,289;-3501,423
 514,39; 2828,334;32752,137;-3905,221
 514,97; 2477,053;35347,781;-4095,255
 515,56; 2600,553;34167,551;-4198,248
 516,15; 3494,851;35428,063;-3955,179
 516,74; 3795,947;32584,318;-4420,049
 517,33; 2880,080;33459,688;-3549,542
 517,91; 2563,665;33935,426;-4188,099
 518,50; 2894,537;32563,393;-3264,282
 519,09; 3276,919;33942,875;-3157,778
 519,68; 2939,383;35231,531;-4286,148
 520,26; 2582,234;38679,547;-4232,675
 520,85; 2584,484;39452,660;-4352,679
 521,44; 2613,809;40826,078;-4358,897
 522,03; 3025,808;39485,539;-4271,912
 522,61; 3634,809;36773,078;-4364,897
 523,20; 3739,554;33924,090;-4337,233
 523,79; 2803,107;32040,590;-4337,828
 524,38; 2417,952;32850,191;-4344,709
 524,96; 2290,378;35883,199;-4321,473
 525,55; 2327,155;36021,449;-4542,771
 526,14; 2904,527;34018,723;-4434,931
 526,73; 3637,596;32852,074;-4389,515
 527,31; 2857,266;32903,324;-4488,622
 527,90; 2419,155;33630,449;-4564,771
 528,49; 2288,856;34155,938;-2529,839
 529,08; 1943,650;34601,344;-3467,103
 529,66; 1900,942;34848,445;-3911,389
 530,25; 1880,352;35279,832;-4414,172
 530,84; 1848,862;35334,348;-4583,485
 531,42; 2042,724;38583,105;-4365,332
 532,01; 2554,283;37528,480;-4291,588
 532,60; 2786,788;34512,125;-4473,241
 533,18; 2119,448;35538,086;-4078,042
 533,77; 1857,942;34969,984;-4236,374
 534,36; 1838,432;34459,469;-4374,061
 534,95; 1724,964;35483,477;-4088,015
 535,53; 1815,660;34236,090; -974,424
 536,12; 2257,410;36469,977;-2657,420
 536,71; 2746,400;36511,230;-3869,099
 537,29; 2385,129;36073,621;-3618,454
 537,88; 2227,809;33908,078;-3454,897
 538,47; 2227,586;32497,867;-2840,180
 539,05; 2266,932;36837,238;-2139,054
 539,64; 2530,714;40414,898;-1785,997
 540,22; 2737,874;37414,633; -764,790
 540,81; 2665,188;37501,766; 1008,297
 541,40; 2169,661;39018,629; 3425,591
 541,98; 2115,613;38188,230; 4858,519
 542,57; 2209,410;39368,977; 4597,580
 543,16; 1989,597;38645,613; 4952,500
 543,74; 1720,176;35774,480; 4083,603
 544,33; 1868,757;36297,883; 3620,721
 544,92; 1973,969;37217,887; 3973,339
 545,50; 1894,708;37338,488;11456,648
 546,09; 1657,666;40064,965;11359,916
 546,67; 1610,634;41948,727; 2857,878
 547,26; 1564,767;40050,094; -202,615
 547,85; 1460,332;39208,414; -567,501
 548,43; 1452,342;38452,625; -849,836
 549,02; 1399,464;39427,246;-1040,008
 549,60; 1450,560;40570,500; -984,878
 550,19; 1463,794;41166,996;-2192,901
 550,78; 1361,225;42660,875;-2328,325
 551,36; 1303,385;45349,148;-2432,104
 551,95; 1291,161;45443,859; -585,416
 552,53; 1219,528;43280,262; -296,916
 553,12; 1232,454;41420,035;-3431,672
 553,70; 1223,539;43188,547;-2878,222
 554,29; 1302,645;44058,008;-2869,428
 554,88; 1264,215;41831,668;-4247,989
 555,46; 1340,922;43723,027;-3881,718
 556,05; 1311,272;45007,734;-4207,268
 556,63; 1569,847;45206,266;-3396,489
 557,22; 1657,937;43875,109;-3394,714
 557,80; 1515,975;41749,762;-3568,321
 558,39; 1665,677;44188,250;-4145,390
 558,97; 1481,863;47993,887;-3699,470
 559,56; 1273,640;49889,137;-4544,768
 560,15; 1262,182;50117,891;-3611,042
 560,73; 1420,810;49814,152;-4287,867
 561,32; 1852,490;47024,609;-3741,309
 561,90; 1610,459;46041,910;-4382,333
 562,49; 1333,459;48487,371;-3786,348
 563,07; 1188,310;48074,387;-4783,875
 563,66; 1149,533;50064,133;-4352,577
 564,24; 1173,065;49228,145;-4763,531
 564,83; 1095,002;51344,664;-4603,607
 565,41; 1332,565;53840,375;-4329,539
 566,00; 1299,449;52202,164;-2755,012
 566,58; 1233,672;56465,375;-3725,729
 567,17; 1173,985;56909,508;-4280,642
 567,75; 1079,799;52392,871;-4653,562
 568,34; 1080,613;55893,770;-3216,466
 568,92; 1087,997;55738,793;-3987,947
 569,51; 1060,395;54852,895; 2680,576
 570,09; 1117,736;58247,391;-4676,638
 570,68; 1126,827;53188,313;-4788,833
 571,26; 1181,358;50733,242;-3886,817
 571,85; 1132,485;57347,738;-4822,649
 572,43; 1035,884;57011,379;-4704,111
 573,01;  996,778;52662,375;-4873,920
 573,60; 1053,858;53819,012;-3785,810
 574,18; 1026,528;55122,262;-4514,917
 574,77; 1078,486;53284,277;-4737,634
 575,35; 1125,858;56113,012;-4452,810
 575,94; 1120,507;57300,770;-4076,275
 576,52; 1130,954;54049,270;-2249,680
 577,11; 1005,763;51620,297;-3244,924
 577,69; 1013,071;48685,555;-3183,176
 578,27; 1140,794;51008,996;-3447,901
 578,86; 1033,433;55198,543;-2994,031
 579,44; 1048,326;60080,004;-2805,855
 580,03; 1134,746;60164,137;-2493,958
 580,61; 1128,167;60267,270;-3206,062
 581,19; 1114,257;56429,652;-2538,271
 581,78; 1055,274;55361,813;-2364,238
 582,36;  981,028;57656,031;-2911,909
 582,95; 1057,874;56180,172;-1497,776
 583,53; 1057,007;59586,539;-2319,268
 584,11; 1068,650;61608,883;-2241,088
 584,70; 1105,683;61691,660;-1948,035
 585,28; 1265,268;62070,398;-1853,592
 585,87; 1122,630;60436,930;-2889,432
 586,45; 1090,433;63023,543;-2375,031
 587,03; 1137,183;64945,430;-1150,027
 587,62; 1138,406;61494,641;-1834,745
 588,20; 1172,124;62236,285;-1020,779
 588,78; 1104,189;58157,840;-3411,673
 589,37; 1249,954;57765,270;-3360,680
 589,95; 1185,720;62238,773;-3385,657
 590,54; 1178,114;63633,539;-3461,459
 591,12; 1298,082;62116,301;-3508,497
 591,70; 1235,784;59586,789;-3331,565
 592,29; 1214,741;62881,805;-2923,283
 592,87; 1261,565;63542,375;-2394,538
 593,45; 1109,635;63404,801; 1487,908
 594,04; 1070,045;62800,188;-3676,875
 594,62; 1127,459;59709,910;-3708,333
 595,20; 1003,338;62066,828;-4371,146
 595,79; 1070,018;62681,285;-4165,588
 596,37; 1089,071;61108,555;-3657,176
 596,95; 1084,555;56922,164;-4321,203
 597,53; 1146,613;58806,770;-4226,466
 598,12; 1091,204;61848,922;-3959,669
 598,70; 1130,688;64932,531;-3776,695
 599,28; 1074,565;64911,375;-3404,538
 599,87; 1168,145;64929,777;-3061,420
 600,45; 1127,550;64938,293;-3907,543
 601,03; 1189,358;63145,781;-4100,802
 601,62; 1178,045;61727,188;-4468,875
 602,20; 1178,119;59786,414;-4541,119
 602,78; 1130,689;64399,070;-4770,680
 603,36; 1097,188;64783,301;-3166,688
 603,95; 1063,486;58863,277;-4492,634
 604,53;  973,805;62401,281;-4574,207
 605,11; 1035,315;59505,258;-2755,535
 605,69; 1005,023;62362,156;-3365,249
 606,28;  981,742;62594,805;-4223,283
 606,86;  998,757;61629,422;-3946,264
 607,44;  924,539;60431,547;-3906,222
 608,02;  809,848;58047,805;-4037,474
 608,61;  876,215;60099,668;-2866,989
 609,19;  899,545;58582,418;-2582,882
 609,77;  923,651;57398,422; -710,073
 610,35;  854,677;55748,785; 5794,625
 610,94;  842,417;56509,926;14509,949
 611,52;  802,215;55803,668;12610,011
 612,10;  822,545;53026,957; 8432,133
 612,68;  680,907;56637,949; 2694,278
 613,26;  876,965;57037,551; 2032,015
 613,85;  892,523;61759,926; -599,241
 614,43;  717,885;62306,918;-1030,096
 615,01;  666,790;62272,199;-1215,211
 615,59;  704,997;64874,328; -972,932
 616,17;  761,044;59402,648;-2561,890
 616,76;  806,863;62178,887;-2993,470
 617,34;  826,368;62666,988;-2389,138
 617,92;  750,613;58547,770;-3399,466
 618,50;  817,257;61202,652;-2562,271
 619,08;  790,135;57928,031;-2514,100
 619,67;  783,449;55968,164;-3196,012
 620,25;  768,406;54290,641;-2743,745
 620,83;  671,550;50498,293;-3495,543
 621,41;  678,422;52314,797;-2800,711
 621,99;  668,428;54560,672;-2529,371
 622,57;  792,853;55529,141;-3707,149
 623,15;  817,310;56213,387;-3783,875
 623,74;  771,124;58266,746;-3892,794
 624,32;  775,656;59330,754;-2827,749
 624,90;  764,821;58625,898;-2311,188
 625,48;  710,880;57897,043;-3132,436
 626,06;  666,736;56898,391;-4006,638
 626,64;  646,326;57787,004;-4162,855
 627,22;  568,390;58993,020;-3409,764
 627,81;  558,363;58046,117;-4334,478
 628,39;  525,172;57121,145;-4560,722
 628,97;  625,656;56597,293;-4437,733
 629,55;  613,230;55377,750;-4219,985
 630,13;  628,167;55669,270;-2959,062
 630,71;  611,289;54162,891;-2747,233
 631,29;  649,486;53129,277;-3824,634
 631,87;  633,879;52776,504;-4223,451
 632,45;  585,044;52786,648;-4716,890
 633,03;  636,453;54183,500;-4191,688
 633,62;  645,805;55423,281;-4714,207
 634,20;  553,981;54882,172;-4089,966
 634,78;  563,007;56497,000;-4430,283
 635,36;  621,831;56701,648;-4449,508
 635,94;  593,203;55183,383;-5398,684
 636,52;  597,619;51027,645;-5422,126
 637,10;  559,555;52116,164;-5488,203
 637,68;  524,369;50694,527;-4702,123
 638,26;  528,336;47618,750;-5536,176
 638,84;  611,034;48688,902;-5421,569
 639,42;  607,555;49235,164;-3756,203
 640,00;  688,169;51366,148;-5405,726
 640,58;  742,943;54579,402;-4806,027
 641,16;  669,717;55521,656;-5571,328
 641,74;  678,490;53214,906;-5433,630
 642,32;  587,264;50106,160;-5620,931
 642,90;  576,038;50434,414;-5856,232
 643,48;  530,812;49231,668;-5786,534
 644,06;  544,586;49280,922;-5796,835
 644,64;  556,360;49595,176;-5842,137
 645,22;  489,134;50513,430;-5562,438
 645,80;  470,907;50547,684;-4957,740
 646,39;  508,681;48107,938;-5515,041
 646,97;  501,455;49773,191;-5850,342
 647,54;  529,229;52328,441;-5717,644
 648,12;  499,003;54879,695;-5865,945
 648,70;  591,776;58954,949;-5885,247
 649,28;  604,550;56421,203;-6090,548
 649,86;  517,324;51091,457;-5609,850
 650,44;  451,098;48619,711;-5452,151
 651,02;  529,872;49970,965;-5474,452
 651,60;  501,646;51793,219;-5803,753
 652,18;  494,419;51320,473;-4735,055
 652,76;  494,193;53277,723;-5934,356
 653,34;  540,967;54817,977;-5939,658
 653,92;  566,741;57729,230;-5784,959
 654,50;  624,515;59042,484;-5818,261
 655,08;  680,289;58048,738;-5841,562
 655,66;  640,063;55058,992;-5115,863
 656,24;  619,836;56743,246;-5200,165
 656,82;  664,610;58989,500;-4979,466
 657,40;  619,384;58967,754;-5667,768
 657,98;  587,158;60169,008;-5486,069
 658,56;  554,932;61114,258;-5717,371
 659,14;  552,706;61380,512;-5913,672
 659,72;  554,479;63381,766;-5916,973
 660,29;  504,253;62437,020;-5907,275
 660,87;  524,027;59738,273;-5212,576
 661,45;  521,801;58590,527;-5664,877
 662,03;  452,575;57513,781;-4971,179
 662,61;  421,348;54945,035;-5638,480
 663,19;  476,122;54618,289;-5657,782
 663,77;  425,896;53917,543;-5939,083
 664,35;  448,670;56689,793;-5887,384
 664,93;  379,444;62595,047;-4922,686
 665,51;  414,218;61993,301;-6033,987
 666,08;  430,991;57747,555;-5652,289
 666,66;  427,765;51859,809;-4400,590
 667,24;  501,539;49420,063;-5952,892
 667,82;  406,313;50250,316;-5849,193
 668,40;  452,087;50723,570;-5932,494
 668,98;  437,861;51952,824;-5097,796
 669,56;  420,634;57957,078;-6096,097
 670,13;  489,408;61797,328;-6222,398
 670,71;  473,182;59698,582;-5900,700
 671,29;  459,956;57209,836;-6139,001
 671,87;  414,730;56814,090;-6051,303
 672,45;  336,504;51822,344;-6050,604
 673,03;  434,277;52592,598;-4769,906
 673,60;  392,051;58431,852;-3503,207
 674,18;  459,825;63679,105;-5938,508
 674,76;  394,599;61159,359;-6226,810
 675,34;  461,373;56361,613;-5251,111
 675,92;  376,147;55284,863;-6338,413
 676,50;  384,920;55051,117;-6085,714
 677,07;  350,694;56952,371;-6095,016
 677,65;  398,468;56680,625;-6163,317
 678,23;  379,242;55997,879;-5057,618
 678,81;  455,016;58016,133;-5299,919
 679,38;  450,790;56669,387;-5969,221
 679,96;  389,563;53267,641;-5846,522
 680,54;  401,337;55171,895;-5308,824
 681,12;  340,111;52485,148;-6126,125
 681,70;  411,885;54786,398;-4413,427
 682,27;  419,659;54740,652;-5851,728
 682,85;  342,433;58265,906;-5991,029
 683,43;  372,206;64943,160;-6140,331
 684,01;  383,980;64943,414;-5172,632
 684,58;  401,754;64307,668;-5138,934
 685,16;  367,528;64236,922;-4494,235
 685,74;  416,302;62790,176;-3853,536
 686,32;  401,076;59009,430;-6012,838
 686,89;  410,849;59552,684;-6015,139
 687,47;  379,623;59534,934;-6076,441
 688,05;  404,397;56416,188;-6019,742
 688,63;  371,171;59626,441;-6102,043
 689,20;  354,945;62884,695;-5971,345
 689,78;  375,719;58427,949;-5530,646
 690,36;  306,492;54291,203;-5381,948
 690,93;  348,266;54968,457;-6355,249
 691,51;  402,040;61453,711;-6326,550
 692,09;  417,814;64946,965;-6223,852
 692,67;  325,588;64947,219;-6047,153
 693,24;  353,362;60968,469;-5803,455
 693,82;  330,135;59538,723;-6235,756
 694,40;  418,909;58049,977;-3570,058
 694,97;  370,683;57456,230;-6046,359
 695,55;  320,457;59820,484;-5464,660
 696,13;  330,231;61729,738;-4454,962
 696,70;  354,005;58594,992;-6029,263
 697,28;  334,778;59108,246;-6266,564
 697,86;  302,552;60837,500;-6030,866
 698,43;  343,326;58827,754;-6198,167
 699,01;  370,100;55595,004;-6051,469
 699,59;  345,874;55751,258;-6402,770
 700,16;  313,648;54174,512;-5257,072
 700,74;  329,421;57040,766;-5497,373
 701,32;  318,195;56440,020;-6233,674
 701,89;  316,969;55792,273;-6049,976
 702,47;  340,743;60296,527;-6466,277
 703,05;  368,517;64951,781;-6309,579
 703,62;  330,291;64952,035;-6227,880
 704,20;  319,064;64952,285;-5306,182
 704,77;  299,838;64952,539;-6118,483
 705,35;  261,612;64213,793;-6006,784
 705,93;  247,386;64327,047;-4922,085
 706,50;  346,160;63796,301;-5267,387
 707,08;  264,934;60606,555;-5284,688
 707,65;  284,707;60046,809;-5620,990
 708,23;  313,481;64881,063;-5431,292
 708,81;  282,255;64954,316;-5019,593
 709,38;  258,029;64954,570;-5001,894
 709,96;  278,803;64954,820;-6025,195
 710,53;  308,577;64955,074;-6007,497
 711,11;  279,350;61503,328;-5752,798
 711,69;  289,124;61913,582;-3821,100
 712,26;  308,898;59012,836;-4642,401
 712,84;  281,672;63346,090;-5947,703
 713,41;  368,446;64411,344;-6153,004
 713,99;  277,220;64924,598;-6068,305
 714,56;  327,993;62057,852;-6326,607
 715,14;  295,767;60312,105;-6198,908
 715,71;  252,541;60246,355;-6210,209
 716,29;  317,315;62893,609;-6648,511
 716,86;  298,089;63573,863;-6510,813
 717,44;  282,863;63263,117;-6424,114
 718,02;  306,636;62110,371;-6462,415
 718,59;  349,410;61013,625;-5121,716
 719,17;  305,184;63488,879;-5649,018
 719,74;  281,958;62907,133;-5756,319
 720,32;  295,732;63502,387;-6451,621
 720,89;  341,506;64959,641;-6422,922
 721,47;  303,279;64959,891;-6388,224
 722,04;  283,053;64960,145;-5502,525
 722,62;  266,827;64252,398;-3979,826
 723,19;  255,601;60250,652;-4938,128
 723,77;  238,375;57638,906;-5673,429
 724,34;  245,149;60150,160;-5576,730
 724,92;  214,922;63789,414;-6558,032
 725,49;  258,696;64961,668;-5666,333
 726,07;  263,470;64961,922;-6491,635
 726,64;  280,244;64627,176;-6587,936
 727,21;  204,018;60249,426;-5627,238
 727,79;  190,792;63706,680;-6444,539
 728,36;  298,565;64962,934;-6722,840
 728,94;  324,339;64963,188;-6535,142
 729,51;  249,113;64963,441;-6365,443
 730,09;  290,887;64963,695;-5545,745
 730,66;  291,661;64963,949;-6358,046
 731,24;  261,435;64964,203;-6577,348
 731,81;  256,208;64964,457;-5151,649
 732,38;  268,982;64964,711;-6492,950
 732,96;  213,756;64964,961;-6263,251
 733,53;  303,530;60347,215;-6389,553
 734,11;  238,304;61575,469;-6617,854
 734,68;  272,078;64965,723;-6211,156
 735,26;  273,851;64965,977;-6389,458
 735,83;  224,625;64966,230;-6498,759
 736,40;  295,399;62243,484;-6516,060
 736,98;  310,173;61999,738;-6374,361
 737,55;  270,947;59236,992;-5827,663
 738,13;  283,721;57707,246;-5702,964
 738,70;  307,494;60991,496;-5529,266
 739,27;  268,268;62504,750;-6452,567
 739,85;  272,042;62745,004;-6283,869
 740,42;  265,816;64968,258;-6464,170
 740,99;  274,590;64968,512;-5618,471
 741,57;  332,364;64968,766;-4867,773
 742,14;  332,137;64969,020;-5349,074
 742,72;  241,911;64969,273;-4751,375
 743,29;  264,685;64969,527;-6563,677
 743,86;  307,459;64969,781;-6538,979
 744,44;  438,233;64970,031;-6113,280
 745,01;  354,007;64970,285;-5760,581
 745,58;  312,780;64970,539;-6259,882
 746,16;  279,554;64970,793;-6188,184
 746,73;  341,328;64971,047;-6479,485
 747,30;  328,102;61139,301;-6536,787
 747,88;  319,876;59621,555;-5621,088
 748,45;  285,650;64971,809;-5668,390
 749,02;  394,423;64972,063;-6384,691
 749,60;  359,197;62401,313;-6212,992
 750,17;  402,971;61766,566;-5269,294
 750,74;  414,745;62801,820;-6479,595
 751,31;  455,519;63306,074;-6347,896
 751,89;  363,293;64232,328;-6546,198
 752,46;  328,066;64973,582;-6282,500
 753,03;  329,840;64973,836;-6160,801
 753,61;  295,614;63755,090;-4858,102
 754,18;  281,388;64573,344;-6434,404
 754,75;  303,162;63888,598;-5191,705
 755,32;  259,936;60715,848;-6332,006
 755,90;  258,709;64975,102;-6493,308
 756,47;  255,483;64975,355;-4809,609
 757,04;  306,257;64975,609;-6457,911
 757,61;  273,031;64975,863;-5553,212
 758,19;  328,805;64976,117;-5253,514
 758,76;  316,579;64976,371;-6603,815
 759,33;  274,352;64976,625;-6664,116
 759,90;  290,126;64976,879;-5714,417
 760,48;  202,900;64977,133;-6778,719
 761,05;  230,674;64977,383;-6083,021
 761,62;  278,448;62082,637;-4888,322
 762,19;  245,222;58992,891;-6144,624
 762,77;  242,995;61730,145;-5963,925
 763,34;  233,769;64978,398;-6610,226
 763,91;  227,543;64978,652;-5818,527
 764,48;  219,317;64978,906;-6756,829
 765,05;  234,091;64979,160;-6543,130
 765,63;  278,865;63215,414;-6417,432
 766,20;  284,638;59753,668;-6004,733
 766,77;  229,412;57105,918;-5921,035
 767,34;  213,186;58807,172;-6640,336
 767,91;  189,960;59176,426;-6689,637
 768,49;  240,734;61368,680;-6772,939
 769,06;  189,508;64980,934;-5832,240
 769,63;  189,281;62272,188;-6636,542
 770,20;  215,055;59567,441;-5868,843
 770,77;  195,829;57921,695;-5645,145
 771,34;  186,603;60065,949;-6615,446
 771,91;  203,377;60549,203;-6102,747
 772,49;  203,151;58558,453;-6369,048
 773,06;  139,924;57687,707;-6203,350
 773,63;  229,698;60204,961;-6639,651
 774,20;  213,472;58197,215;-5918,953
 774,77;  273,246;56475,469;-6631,254
 775,34;  191,020;56707,723;-6214,556
 775,91;  243,794;57056,977;-6417,857
 776,49;  274,567;58787,230;-6590,158
 777,06;  372,341;60761,484;-6015,460
 777,63;  342,115;64224,738;-6367,761
 778,20;  270,889;62572,988;-6250,063
 778,77;  240,663;63316,242;-5763,364
 779,34;  186,437;64985,496;-6585,666
 779,91;  179,210;64985,750;-6534,967
 780,48;  223,984;59144,004;-5853,268
 781,05;  165,758;50716,258;-6586,570
 781,62;  186,532;52124,512;-6604,871
 782,20;  185,306;58813,766;-6500,172
 782,77;  220,080;64987,020;-6529,474
 783,34;  217,853;64052,273;-6522,775
 783,91;  178,627;61362,523;-6509,077
 784,48;  199,401;60480,777;-2126,378
 785,05;  160,175;59144,031;-6540,680
 785,62;  165,949;58221,285;-6452,981
 786,19;  182,723;58149,539;-5100,282
 786,76;  198,496;55130,793;-6677,583
 787,33;  125,270;56202,047;-6515,885
 787,90;  149,044;59491,301;-6591,187
 788,47;  179,818;60148,555;-5075,488
 789,04;  196,592;58988,809;-5763,790
 789,61;  116,366;58863,059;-5066,091
 790,18;  165,139;55747,313;-6561,392
 790,75;  152,913;50841,566;-6671,693
 791,32;  176,687;52056,820;-6577,995
 791,89;  140,461;55205,074;-6068,296
 792,46;  150,235;60806,328;-5763,598
 793,03;  213,009;62404,582;-6702,899
 793,60;  216,782;55699,836;-6440,201
 794,17;  232,556;52257,090;-5569,502
 794,74;  282,330;47273,344;-5886,803
 795,31;  183,104;50096,594;-6099,105
 795,88;  155,878;52579,848;-5572,406
 796,45;  137,652;53365,102;-6529,708
 797,02;  107,425;56004,355;-5046,009
 797,59;   88,199;57922,609;-6675,311
 798,16;  150,973;54563,863;-5861,612
 798,73;  134,747;53534,117;-6761,913
 799,30;  117,521;55088,371;-6611,214
 799,87;  130,295;55650,625;-6713,516
 800,44;  115,068;55353,875;-6729,817
 801,01;  131,842;56836,129;-6807,119
 801,58;  185,616;58477,383;-6537,420
 802,15;  125,390;52086,637;-6658,722
 802,72;  159,164;48849,891;-6694,023
 803,28;  133,938;52000,145;-6076,324
 803,85;  165,711;57179,398;-6728,626
 804,42;  248,485;55235,652;-5999,927
 804,99;  102,259;53752,906;-6539,229
 805,56;  123,033;52472,160;-6770,530
 806,13;   94,807;53387,410;-6075,832
 806,70;  128,581;52719,664;-6748,133
 807,27;  141,354;54477,918;-6672,434
 807,84;  110,128;52786,172;-6693,736
 808,41;  134,902;49728,426;-6022,037
 808,98;  134,676;50479,680;-5986,338
 809,54;  137,450;52469,934;-4958,640
 810,11;  107,224;48281,188;-6782,941
 810,68;  103,997;43021,441;-6680,243
 811,25;   97,771;41394,695;-6760,544
 811,82;  123,545;40374,945;-6886,846
 812,39;   93,319;37710,199;-3331,147
 812,96;  102,093;38779,453;-6767,448
 813,52;  141,867;41291,707;-6937,750
 814,09;   64,640;44522,961;-6766,051
 814,66;  101,414;50325,215;-6827,353
 815,23;   92,188;51240,469;-6669,654
 815,80;  108,962;50439,723;-5853,956
 816,37;  136,736;50917,977;-6801,257
 816,93;  117,510;49487,230;-6731,558
 817,50;  142,283;46790,480;-6102,859
 818,07;  121,057;46034,734;-6960,161
 818,64;  121,831;46919,988;-6856,462
 819,21;  133,605;46261,242;-6053,764
 819,77;  159,379;42742,496;-6571,065
 820,34;  130,153;42053,750;-6677,367
 820,91;  158,926;43276,004;-6469,668
 821,48;  203,700;43873,258;-6689,969
 822,05;  257,474;45571,512;-5875,271
 822,61;  210,248;44296,766;-5631,572
 823,18;  147,022;41860,016;-6620,874
 823,75;  107,796;42585,270;-6957,175
 824,32;   91,569;45286,523;-6923,477
 824,88;  150,343;45073,777;-6882,778
 825,45;   73,117;44018,031;-6899,079
 826,02;  118,891;43798,285;-6643,380
 826,59;  103,665;43974,539;-6639,682
 827,15;   79,439;46077,793;-6906,983
 827,72;  108,212;49519,047;-6723,285
 828,29;   75,986;51523,301;-6895,586
 828,86;   74,760;48827,551;-6791,888
 829,42;  100,534;40797,805;-6812,189
 829,99;  120,308;36802,059;-6647,490
 830,56;   61,082;36252,313;-6869,792
 831,13;   94,855;37220,566;-6060,093
 831,69;   85,629;38022,820;-6506,395
 832,26;  112,403;38832,074;-5062,696
 832,83;   92,177;40408,328;-5452,998
 833,39;   94,951;40187,582;-6904,299
 833,96;  143,725;39167,836;-6687,600
 834,53;   80,498;40039,086;-6928,902
 835,10;   52,272;39930,340;-6529,203
 835,66;   76,046;38972,594;-6920,504
 836,23;   78,820;39801,848;-6803,806
 836,80;   49,594;39428,102;-6790,107
 837,36;   87,368;37086,355;-6810,409
 837,93;   85,141;34475,609;-6902,710
 838,50;  122,915;35084,863;-6789,012
 839,06;   72,689;37684,117;-6288,313
 839,63;   59,463;37191,371;-6895,614
 840,19;   48,237;35132,621;-6607,916
 840,76;   47,011;35364,875;-6404,217
 841,33;   49,784;35892,129;-6509,519
 841,89;   88,558;36779,383;-6949,820
 842,46;   32,332;37103,637;-6751,122
 843,03;   68,106;35389,891;-6089,423
 843,59;   23,880;34224,145;-6403,724
 844,16;   78,654;34994,398;-6181,025
 844,73;  120,427;34249,652;-6067,327
 845,29;   70,201;32937,902;-5695,628
 845,86;   61,975;35699,156;-6800,930
 846,42;   55,749;36940,410;-7004,231
 846,99;   78,523;36477,664;-6967,533
 847,56;   25,297;36265,918;-5840,834
 848,12;  -25,930;36240,172;-6745,135
 848,69;   45,844;35710,426;-6715,437
 849,25;   84,618;34401,680;-6845,738
 849,82;   70,392;34081,934;-3247,040
 850,38;   63,166;35064,188;-6840,341
 850,95;   71,940;32489,439;-6324,643
 851,52;   51,713;32520,693;-6565,944
 852,08;   32,487;32548,947;-6691,245
 852,65;   27,261;30323,199;-7005,546
 853,21;  -11,965;27698,453;-6958,848
 853,78;   13,809;27362,707;-6363,149
 854,34;   45,583;28860,961;-6871,451
 854,91;   22,356;29081,215;-5086,752
 855,47;   39,130;29942,467;-5108,054
 856,04;   43,904;32027,721;-6746,355
 856,60;   -7,322;33961,973;-6104,656
 857,17;    6,452;34979,227;-6840,958
 857,73;   60,226;33553,480;-6811,259
 858,30;   46,999;32532,734;-6985,561
 858,86;   46,773;31110,988;-5926,862
 859,43;   35,547;31430,242;-6226,164
 859,99;  -25,679;32011,496;-6852,465
 860,56;   13,095;33126,750;-6903,766
 861,12;  -30,131;35190,004;-6737,068
 861,69;   21,642;33669,258;-5924,369
 862,25;   44,416;34731,508;-6821,670
 862,82;   39,190;34419,762;-5972,972
 863,38;   24,964;31196,018;-6843,273
 863,95;   26,738;29305,270;-6239,575
 864,51;   30,512;30403,523;-5287,876
 865,08;   48,285;29284,777;-6090,178
 865,64;   21,059;26795,031;-7018,479
 866,21;   17,833;26131,285;-6745,780
 866,77;   38,607;26051,537;-5552,082
 867,34;   36,381;25734,791;-6672,383
 867,90;   85,155;24632,045;-6303,685
 868,46;   99,928;23835,299;-6041,986
 869,03;   61,702;24389,551;-6929,288
 869,59;   26,476;26353,805;-6884,589
 870,16;   63,250;27647,059;-6052,890
 870,72;   19,024;30060,313;-6657,191
 871,28;   40,798;32915,566;-5992,493
 871,85;   69,571;33142,820;-6907,794
 872,41;   -2,655;31569,072;-6004,096
 872,98;   -7,881;32738,326;-6050,397
 873,54;    5,893;33876,578;-5920,699
 874,10;   32,667;32768,832;-5876,000
 874,67;    0,667;32987,832;-6904,000
 875,23;   14,667;31068,834;-7032,000
 875,80;    4,667;28009,834;-6641,000
 876,36;    1,667;25058,834;-6642,000
 876,92;   16,667;22832,834;-6189,000
 877,49;   12,667;23923,834;-6517,000
 878,05;   -4,333;24896,834;-6797,000
 878,61;    8,667;26938,834;-6812,000
 879,18;   15,667;27553,834;-6252,000
 879,74;   16,667;28076,834;-6720,000
 880,30;   16,667;28679,834;-5926,000
 880,87;  -29,333;28852,834;-6326,000
 881,43;   18,667;29533,834;-6871,000
 881,99;   42,667;27306,834;-6879,000
 882,56;   -3,333;27610,834;-6661,000
 883,12;   22,667;29049,834;-5740,000
 883,68;   -0,333;29120,834;-6518,000
 884,25;   29,667;28300,834;-6949,000
 884,81;  -14,333;26343,834;-6701,000
 885,37;    8,667;24221,834;-6786,000
 885,94;   -2,333;22940,834;-6851,000
 886,50;    8,667;23098,834;-6886,000
 887,06;   -4,333;24358,834;-6796,000
 887,62;   -0,333;25019,834;-6866,000
 888,19;   12,667;25774,834;-5986,000
 888,75;   37,667;26542,834;-6821,000
 889,31;   14,667;29043,834;-6778,000
 889,87;  -11,333;30537,834;-6723,000
 890,44;   22,667;30349,834;-6696,000
 891,00;   48,667;28757,834;-6786,000
 891,56;   15,667;26457,834;-6998,000
 892,12;   47,667;24463,834;-6754,000
 892,69;   24,667;25310,834;-6373,000
 893,25;   73,667;28798,834;-6877,000
 893,81;   50,667;31774,834;-6696,000
 894,37;   10,667;31330,834;-6342,000
 894,94;   46,667;28713,834;-6772,000
 895,50;    0,667;26035,834; -212,000
 896,06;   53,667;24749,834;-6810,000
 896,62;   85,667;23405,834;-6707,000
 897,18;   83,667;24661,834;-6518,000
 897,75;   87,667;27406,834;-6895,000
 898,31;  108,667;27887,834;-6849,000
 898,87;   65,667;26274,834;-6860,000
 899,43;   63,667;25164,834;-6469,000
 899,99;   62,667;26592,834;-6866,000
 900,56;   60,667;25515,834;-6791,000
 901,12;   98,667;24875,834;-6890,000
 901,68;   85,667;27903,834;-6267,000
 902,24;   96,667;31800,834;-5930,000
 902,80;   95,667;32652,834;-6794,000
 903,36;   90,667;31893,834;-6691,000
 903,93;  223,667;32139,834;-6646,000
 904,49;  597,667;32761,834;-6913,000
 905,05; 1500,667;30952,834;-6732,000
 905,61; 3806,667;28208,834;-6832,000
 906,17; 7025,667;28086,834;-6901,000
 906,73;10666,667;25975,834;-5380,000
 907,29;14675,667;24960,834;-6910,000
 907,86;17374,666;25118,834;-6827,000
 908,42;18307,666;28092,834;-6795,000
 908,98;15547,667;31123,834;-5908,000
 909,54; 8927,667;38813,832;-6885,000
 910,10; 3126,667;48220,832;-6634,000
 910,66;  665,667;57581,832;-6781,000
 911,22;  282,667;65027,832;-6761,000
 911,78;  176,667;62593,832;-6841,000
 912,34;   82,667;53256,832;-6080,000
 912,90;   93,667;44610,832;-5232,000
 913,46;  117,667;37052,832;-6876,000
 914,03;   19,667;30620,834;-5746,000
 914,59;   64,667;27452,834;-6682,000
 915,15;   49,667;24908,834;-6891,000
 915,71;    3,667;24217,834;-6863,000
 916,27;   35,667;23800,834;-6723,000
 916,83;   42,667;23006,834;-5824,000
 917,39;   26,667;21742,834;-3512,000
 917,95;   33,667;20224,834;-6009,000
 918,51;    8,667;19972,834;-6583,000
 919,07;   22,667;21780,834;-6791,000
 919,63;  -34,333;23295,834;-6661,000
 920,19;  -56,333;23935,834;-6865,000
 920,75;    1,667;23112,834;-6640,000
 921,31;  -31,333;21484,834;-4837,000
 921,87;   13,667;20216,834;-6845,000
 922,43;   -6,333;18019,834;-5626,000
 922,99;   -5,333;17321,834;-6706,000
 923,55;   41,667;18674,834;-6655,000
 924,11;   22,667;19094,834;-6976,000
 924,67;  -24,333;19310,834;-6962,000
 925,23;   19,667;19485,834;-6778,000
 925,79;  -42,333;20122,834;-6710,000
 926,35;    1,667;20219,834;-6573,000
 926,91;   -2,333;19401,834;-6909,000
 927,47;   24,667;19367,834;-6660,000
 928,03;   56,667;20294,834;-6786,000
 928,59;   23,667;20503,834;-6678,000
 929,15;   35,667;20781,834;-6792,000
 929,71;   25,667;22016,834;-6840,000
 930,27;   18,667;23587,834;-6537,000
 930,82;   10,667;25573,834;-6728,000
 931,38;  -23,333;24317,834;-5852,000
 931,94;  -35,333;22672,834;-6843,000
 932,50;   23,667;21252,834;-6481,000
 933,06;    7,667;20895,834;-6768,000
 933,62;   13,667;21092,834;-6443,000
 934,18;   46,667;20632,834;-6727,000
 934,74;  -23,333;21320,834;-6709,000
 935,30;   22,667;22030,834;-6484,000
 935,86;   -7,333;21213,834;-6505,000
 936,42;   11,667;20702,834;-6873,000
 936,97;   17,667;21656,834;-6563,000
 937,53;    2,667;20552,834;-6826,000
 938,09;   51,667;21087,834;  123,000
 938,65;   -9,333;21186,834;-6268,000
 939,21;   -5,333;20179,834;-6708,000
 939,77;    9,667;18946,834;-6213,000
 940,33;    1,667;18602,834;-6748,000
 940,88;   10,667;19429,834;-5908,000
 941,44;   27,667;21301,834;-6983,000
 942,00;  -10,333;23225,834;-6697,000
 942,56;  -10,333;24231,834;-6604,000
 943,12;    5,667;23427,834;-5907,000
 943,68;   13,667;22950,834;-5679,000
 944,23;  -37,333;23124,834;-6749,000
 944,79;  -34,333;22674,834;-6102,000
 945,35;  -20,333;20741,834;-6599,000
 945,91;   -6,333;19519,834;-6767,000
 946,47;    1,667;19827,834;-3353,000
 947,03;   -4,333;19896,834;-6850,000
 947,58;  -12,333;19661,834;-6840,000
 948,14;   22,667;20790,834;-5897,000
 948,70;  -12,333;19573,834;-5855,000
 949,26;   23,667;18881,834;-6616,000
 949,81;   -5,333;18342,834;-6644,000
 950,37;  -11,333;18686,834;-6695,000
 950,93;  -12,333;17993,834;-6224,000
 951,49;  -27,333;17568,834;-6057,000
 952,05;   -9,333;17926,834;-6571,000
 952,60;  -28,333;17299,834;-6951,000
 953,16;   -3,333;16933,834;-5783,000
 953,72;  -41,333;15628,833;-5813,000
 954,27;  -51,333;15524,833;-6566,000
 954,83;  -40,333;15317,833;-6703,000
 955,39;  -21,333;14917,833;-6691,000
 955,95;  -35,333;14456,833;-6849,000
 956,50;   -4,333;14272,833;-6698,000
 957,06;  -51,333;14126,833;-5922,000
 957,62;  -29,333;13780,833;-6559,000
 958,18;  -44,333;13872,833;-6741,000
 958,73;  -51,333;13326,833;-6820,000
 959,29;   12,667;13518,833;-6106,000
 959,85;  -65,333;14785,833;-6864,000
 960,40;  -16,333;16746,834;-4263,000
 960,96;   -7,333;16386,834;-6738,000
 961,52;  -11,333;14755,833;-6643,000
 962,07;  -27,333;13711,833;-6742,000
 962,63;  -76,333;13208,833;-6723,000
 963,19;  -31,333;13435,833;-5779,000
 963,74;   10,667;13877,833;-6582,000
 964,30;   -1,333;14475,833;-6595,000
 964,86;   -7,333;14281,833;-6484,000
 965,41;  -11,333;14290,833;-6705,000
 965,97;  -23,333;14185,833;-6569,000
 966,53;  -12,333;14792,833;-6750,000
 967,08;    7,667;15311,833;-6611,000
 967,64;    8,667;15082,833;-6705,000
 968,19;  -19,333;14471,833;-6684,000
 968,75;   -3,333;14662,833;-6566,000
 969,31;  -13,333;14880,833;-5626,000
 969,86;   -9,333;14995,833;-6505,000
 970,42;  -11,333;13195,833;-6620,000
 970,97;  -11,333;11567,833;-6437,000
 971,53;   -5,333;11625,833;-6490,000
 972,09;  -42,333;12998,833;-6646,000
 972,64;  -12,333;13523,833;-5812,000
 973,20;  -39,333;13815,833;-6599,000
 973,75;  -13,333;14605,833;-5760,000
 974,31;   -4,333;14826,833;-6578,000
 974,87;   -0,333;14921,833;-6674,000
 975,42;  -35,333;14507,833;-6727,000
 975,98;  -29,333;13201,833;-6651,000
 976,53;    5,667;12100,833;-6555,000
 977,09;  -63,333;11353,833;-4624,000
 977,64;   -9,333;11164,833;-6532,000
 978,20;   10,667;10649,833;-6585,000
 978,75;  -24,333;10482,833;-6429,000
 979,31;  -12,333;10950,833;-6513,000
 979,86;    4,667;12220,833;-6739,000
 980,42;  -48,333;12828,833;-5813,000
 980,97;  -20,333;13290,833;-6642,000
 981,53;    6,667;14285,833;-6636,000
 982,08;    2,667;13803,833;-5046,000
 982,64;  -23,333;12278,833;-6237,000
 983,19;  -29,333;11308,833;-6760,000
 983,75;   -3,333;10993,833;-6576,000
 984,30;  -26,333;10430,833;-5581,000
 984,86;  -52,333; 9867,833;-5898,000
 985,41;  -29,333; 9457,833;-6634,000
 985,97;   -8,333; 9632,833;-4797,000
 986,52;   28,667; 9894,833;-5853,000
 987,08;  -16,333; 9953,833;-6174,000
 987,63;  -21,333;10165,833;-5608,000
 988,19;  -30,333;11252,833;-6266,000
 988,74;  -33,333;11710,833;-5682,000
 989,30;   -7,333;11529,833;-6568,000
 989,85;  -31,333;11470,833; -276,000
 990,40;  -36,333;11314,833;-6617,000
 990,96;    3,667;11060,833;-6482,000
 991,51;    5,667;11149,833;-6578,000
 992,07;  -45,333;10742,833;-6605,000
 992,62;  -27,333;10285,833;-6519,000
 993,18;  -39,333;10035,833;-6504,000
 993,73;   -9,333; 9986,833;-6440,000
 994,28;  -54,333; 9800,833;-6464,000
 994,84;   -8,333; 9019,833;-6240,000
 995,39;    0,667; 8474,833;-2971,000
 995,94;    2,667; 7953,833;-5673,000
 996,50;  -38,333; 7647,833;-6543,000
 997,05;  -22,333; 7872,833;-3481,000
 997,61;  -25,333; 8363,833;-6489,000
 998,16;   -9,333; 8581,833;-6555,000
 998,71;  -16,333; 8850,833;-6340,000
 999,27;  -50,333; 9115,833;-5223,000
 999,82;  -10,333; 8706,833;-4778,000
1000,37;  -14,333; 8661,833;-6520,000
1000,93;  -42,333; 8920,833;-6107,000
1001,48;  -37,333; 8799,833;-6543,000
1002,03;  -82,333; 8477,833;-6469,000
1002,59;  -30,333; 8715,833;-5972,000
1003,14;  -20,333; 8758,833;-6113,000
1003,69;  -38,333; 8484,833;-6513,000
1004,25;  -50,333; 8299,833;-6507,000
1004,80;   -8,333; 8322,833;-6266,000
1005,35;  -26,333; 8313,833;-6361,000
1005,91;  -11,333; 8515,833;-6558,000
1006,46;  -46,333; 8426,833;-6084,000
1007,01;   -4,333; 8227,833;-5479,000
1007,56;   26,667; 8599,833;-6440,000
1008,12;  -40,333; 8342,833;-6178,000
1008,67;    6,667; 7867,833;-6312,000
1009,22;  -70,333; 7509,833;-6481,000
1009,78;  -59,333; 7205,833;-6163,000
1010,33;   -8,333; 6649,833;-6443,000
1010,88;  -41,333; 6413,833;-5618,000
1011,43;  -32,333; 5995,833;-6433,000
1011,99;   -4,333; 5972,833;-6198,000
1012,54;   -5,333; 6320,833;-6387,000
1013,09;   36,667; 6048,833;-6299,000
1013,64;   -8,333; 5802,833;-6362,000
1014,19;  -27,333; 5823,833;-6442,000
1014,75;  -23,333; 5928,833;-6408,000
1015,30;  -22,333; 6394,833;-6425,000
1015,85;  -15,333; 6370,833;-6367,000
1016,40;  -35,333; 6247,833;-5436,000
1016,96;   40,667; 6235,833;-6268,000
1017,51;  -11,333; 6150,833;-6351,000
1018,06;   -2,333; 6095,833;-6310,000
1018,61;  -29,333; 5695,833;-6665,000
1019,16;  -33,333; 5609,833;-6697,000
1019,71;   14,667; 5663,833;-6373,000
1020,27;  -21,333; 5567,833;-6353,000
1020,82;    5,667; 5375,833;-3700,000
1021,37;   -0,333; 5405,833;-4798,000
1021,92;  -40,333; 5984,833;-6454,000
1022,47;  -18,333; 5965,833;-6548,000
1023,02;  -12,333; 5463,833;-6512,000
1023,58;   -8,333; 5045,833;-6573,000
1024,13;  -15,333; 4730,833;-6258,000
1024,68;  -19,333; 4434,833;-6298,000
1025,23;   -4,333; 4324,833;-5525,000
1025,78;  -15,333; 4613,833;-6475,000
1026,33;   14,667; 4932,833;-5510,000
1026,88;   44,667; 4843,833;-6236,000
1027,43;   26,667; 5167,833;-6276,000
1027,99;   32,667; 5134,833;-6002,000
1028,54;   24,667; 4732,833;-6395,000
1029,09;   65,667; 4106,833;-2478,000
1029,64;   60,667; 3919,833;-6303,000
1030,19;   81,667; 4147,833;-3821,000
1030,74;  118,667; 4243,833;-5134,000
1031,29;  174,667; 4284,833;-4765,000
1031,84;  123,667; 4491,833;-6300,000
1032,39;  176,667; 4563,833;-5403,000
1032,94;  211,667; 4617,833;-4326,000
1033,49;  269,667; 4361,833;-5476,000
1034,04;  317,667; 4236,833;-6312,000
1034,59;  380,667; 4205,833;-6507,000
1035,14;  380,667; 4117,833;-6145,000
1035,69;  412,667; 4318,833;-6224,000
1036,24;  397,667; 4104,833;-4477,000
1036,80;  407,667; 3986,833;-5453,000
1037,35;  432,667; 4138,833;-6347,000
1037,90;  464,667; 4172,833;-6274,000
1038,45;  454,667; 4201,833;-6419,000
1039,00;  503,667; 4340,833;-5490,000
1039,55;  578,667; 4229,833;-6284,000
1040,10;  626,667; 3977,833;-5615,000
1040,65;  620,667; 3916,833;-5576,000
1041,20;  695,667; 3850,833;-6325,000
1041,75;  716,667; 4030,833;-4522,000
1042,30;  729,667; 4164,833;-3585,000
1042,84;  839,667; 4338,833;-4439,000
1043,39;  894,667; 4248,833;-6313,000
1043,94;  958,667; 4175,833;-5342,000
1044,49; 1054,667; 3887,833;-6246,000
1045,04; 1117,667; 3710,833;-5800,000
1045,59; 1226,667; 3809,833;-6299,000
1046,14; 1341,667; 3732,833;-6392,000
1046,69; 1539,667; 3591,833;-6294,000
1047,24; 1705,667; 3623,833;-5510,000
1047,79; 1897,667; 3737,833;-6139,000
1048,34; 2061,667; 4002,833;-5961,000
1048,89; 2367,667; 3948,833;-6259,000
1049,44; 2704,667; 3935,833;-5172,000
1049,99; 3233,667; 3855,833;-4844,000
1050,54; 3841,667; 3876,833;-6249,000
1051,08; 4939,667; 3961,833;-6178,000
1051,63; 6398,667; 4050,833;-5285,000
1052,18; 9500,667; 5051,833;-6127,000
1052,73;15071,667; 7151,833;-6173,000
1053,28;23893,666;10516,833;-6386,000
1053,83;33918,668;15224,833;-6214,000
1054,38;44657,668;19203,834;-6254,000
1054,93;47968,668;21243,834;-6285,000
1055,47;47666,668;23825,834;-5328,000
1056,02;48603,668;26212,834;-5832,000
1056,57;50021,668;27830,834;-6198,000
1057,12;52667,668;30497,834;-6378,000
1057,67;56844,668;33805,832;-6078,000
1058,22;62351,668;36084,832;-6313,000
1058,76;65152,668;38542,832;-6093,000
1059,31;65152,668;44129,832;-3514,000
1059,86;65152,668;48778,832;-6204,000
1060,41;65152,668;49718,832;-6152,000
1060,96;65152,668;51396,832;-6226,000
1061,51;65152,668;53649,832;-5344,000
1062,05;65152,668;54082,832;-6122,000
1062,60;65152,668;50555,832;-6061,000
1063,15;65152,668;45221,832;-6149,000
1063,70;65152,668;41550,832;-6250,000
1064,24;65152,668;43676,832;-6169,000
1064,79;65152,668;45461,832;-6144,000
1065,34;65152,668;43989,832;-6064,000
1065,89;65152,668;41776,832;-6202,000
1066,44;65152,668;37631,832;-6120,000
1066,98;65152,668;32612,834;-6224,000
1067,53;65152,668;30790,834;-5953,000
1068,08;63550,668;30368,834;-4845,000
1068,63;59601,668;27618,834;-6096,000
1069,17;57765,668;24647,834;-5893,000
1069,72;51759,668;22350,834;-5857,000
1070,27;47154,668;20529,834;-6040,000
1070,81;44613,668;20388,834;-5996,000
1071,36;39271,668;20367,834;-3883,000
1071,91;34723,668;18745,834;  966,000
1072,46;29224,666;16791,834;-5058,000
1073,00;24113,666;14646,833;-5239,000
1073,55;19965,666;11404,833;-5935,000
1074,10;15014,667; 7803,833;-5981,000
1074,64;11404,667; 5240,833;-5860,000
1075,19; 8946,667; 3535,833;-4958,000
1075,74; 7327,667; 2551,833;-6091,000
1076,28; 6187,667; 2312,833;-6075,000
1076,83; 5623,667; 1951,833;-5286,000
1077,38; 4904,667; 1820,833;-5653,000
1077,92; 4183,667; 1783,833;-6332,000
1078,47; 3766,667; 1629,833;-5507,000
1079,02; 3278,667; 1578,833;-5959,000
1079,56; 3138,667; 1557,833;-5328,000
1080,11; 2796,667; 1304,833;-6094,000
1080,65; 2444,667; 1241,833;-5039,000
1081,20; 2065,667; 1186,833;-6151,000
1081,75; 1885,667; 1125,833;-6039,000
1082,29; 1579,667; 1128,833; -139,000
1082,84; 1428,667; 1184,833;-2678,000
1083,39; 1304,667; 1294,833;-5061,000
1083,93; 1165,667; 1335,833;-5025,000
1084,48; 1045,667; 1196,833;-5961,000
1085,02;  966,667; 1082,833;-5783,000
1085,57;  854,667; 1074,833;-5994,000
1086,11;  714,667; 1079,833;-5968,000
1086,66;  757,667;  925,833;-5584,000
1087,21;  715,667; 1060,833;-5802,000
1087,75;  673,667;  939,833;-6125,000
1088,30;  571,667;  815,833;-5040,000
1088,84;  521,667;  783,833;-5963,000
1089,39;  455,667;  656,833;-5965,000
1089,93;  360,667;  664,833;-6100,000
1090,48;  309,667;  649,833;-4394,000
1091,02;  306,667;  733,833;-5181,000
1091,57;  261,667;  629,833;-5479,000
1092,11;  250,667;  642,833;-4094,000
1092,66;  190,667;  624,833;-6031,000
1093,20;  111,667;  580,833;-5180,000
1093,75;  149,667;  566,833;-4998,000
1094,29;  131,667;  486,833;-4979,000
1094,84;  141,667;  525,833;-5890,000
1095,38;  129,667;  528,833;-5097,000
1095,93;  122,667;  584,833;-5981,000
1096,47;   97,667;  615,833;-5612,000
1097,02;   82,667;  587,833;-4985,000
1097,56;   63,667;  614,833;-5772,000
1098,11;   99,667;  552,833;-5774,000
1098,65;   91,667;  508,833;-5992,000
1099,20;   65,667;  577,833;-5935,000
1099,74;    3,667;  487,833;-6002,000
1100,29;   38,667;  513,833;-4879,000
1100,83;   -5,333;  496,833;-5934,000

