
Integration time [ms]:   1,000
Averaging Nr. [scans]: 1
Smoothing Nr. [pixels]: 0
Data measured with spectrometer [name]: 1703254U1
Wave   ;Sample   ;Dark     ;Reference;Scope
[nm]   ;[counts] ;[counts] ;[counts] 

 190,08;  -94,943; -370,119;11982,743
 190,69;  -76,946; -359,404;11603,049
 191,29;  -78,428; -311,651;11479,965
 191,90;  -87,850; -365,508;11440,717
 192,50;  -86,156; -379,511;10355,099
 193,10;  -66,042; -446,299;11244,381
 193,71;  -84,992; -367,888; 9821,736
 194,31;  -79,593; -399,273; 9436,327
 194,91;  -79,593; -382,273; 9291,327
 195,52;  -86,262; -338,386;10555,949
 196,12;  -62,867; -397,056; 8671,847
 196,72;  -82,028; -386,394; 8220,904
 197,32;  -78,992; -375,888; 8251,736
 197,93;  -51,477; -360,420; 8700,957
 198,53;  -81,392; -383,145; 7601,797
 199,13;  -88,168; -397,132; 8091,270
 199,74;  -73,559; -366,410; 7263,813
 200,34;  -40,959; -388,667; 7832,874
 200,94;  -67,525; -436,547; 6941,297
 201,55;  -76,946; -406,404; 7119,049
 202,15;  -26,016; -375,773; 6404,732
 202,75;  -53,234; -373,217; 6097,647
 203,36;   62,347; -338,664; 6822,492
 203,96;  -79,302; -357,943; 6332,678
 204,56;  -16,041; -355,657;10275,729
 205,16;    6,655; -363,018; 5478,458
 205,77;   -2,837; -360,244; 4767,892
 206,37;  -58,192; -409,017; 5556,267
 206,97;  -65,791; -363,760; 5129,205
 207,58;    6,617; -364,166; 5927,278
 208,18;  -31,861; -337,129; 5129,889
 208,78;    0,679; -404,134; 5295,461
 209,38;  -33,018; -469,415; 4958,385
 209,99;    3,088; -356,540; 3837,534
 210,59;  -10,500; -361,662; 3890,301
 211,19;   -8,759; -364,538; 3938,343
 211,79;  -14,666; -366,927; 4499,316
 212,40;  -38,979; -373,625; 3368,911
 213,00;  -20,298; -388,891; 3903,118
 213,60;  -59,379; -386,882; 2992,972
 214,20;  -27,459; -401,230; 3081,175
 214,81;  -70,366; -422,618; 2884,148
 215,41;  -50,671; -376,979; 3235,877
 216,01;  -51,043; -373,067; 3109,636
 216,61;   10,513; -367,399; 2814,476
 217,22;  -66,597; -381,326; 2358,888
 217,82;  -72,100; -325,173; 2262,495
 218,42;  -28,198; -383,711; 2389,480
 219,02;  -47,750; -288,327; 3432,079
 219,63;  -39,554; -357,483; 2044,854
 220,23;   15,165; -366,602; 2425,239
 220,83;  -36,036; -395,730; 1901,770
 221,43;  -72,244; -393,195; 1850,167
 222,03;  -52,996; -348,940; 2326,296
 222,64;  -45,741; -380,348; 1769,560
 223,24;  -18,446; -298,966; 1625,350
 223,84;  -51,372; -376,313; 2637,361
 224,44;  -38,667; -316,695; 2381,571
 225,05;  -18,068; -313,952; 1440,632
 225,65;  -66,890; -301,065; 1227,445
 226,25;  -60,987; -364,961; 1139,777
 226,85;  -62,066; -294,309;  995,979
 227,45;  -49,739; -335,706; 1083,907
 228,06;  -23,939; -365,834; 1945,438
 228,66;  -26,410; -349,460; 4049,182
 229,26;  -25,267; -313,438; 1131,510
 229,86;  -25,128; -396,342; 1760,797
 230,46;  -69,091; -358,194;  891,976
 231,06;  -56,879; -320,444;  757,273
 231,67;  -40,189; -346,732; 1228,961
 232,27; -103,652; -343,789;  778,094
 232,87;  -12,490; -308,808;  526,384
 233,47; -131,722; -321,158;  525,777
 234,07;  -42,860; -268,486; 9912,235
 234,67; -111,991; -291,013;  672,338
 235,28; -105,722; -319,158;   65,777
 235,88; -128,485; -316,882;  285,426
 236,48;  -39,715; -350,821;  165,911
 237,08;  -58,218; -267,669;  448,518
 237,68; -142,602; -369,378; -267,552
 238,28;  -65,275; -304,774; -106,624
 238,89;  -99,590; -212,756; -205,723
 239,49;  -74,910; -282,023; 1280,483
 240,09; -109,553; -284,608; -190,544
 240,69; -116,142; -251,373; -319,124
 241,29; -112,227; -289,647;  651,036
 241,89; -104,651; -330,147; -260,559
 242,49;  -57,271; -248,490; -358,930
 243,10;  -88,884; -201,496; 3664,834
 243,70; -105,271; -284,490;  239,070
 244,30;  -76,343; -275,501; -708,594
 244,90;  -53,103; -188,582; -568,598
 245,50; -101,458; -177,355; 3274,777
 246,10; -106,156; -307,636; -831,300
 246,70; -107,613; -300,999;   17,620
 247,30;  -78,615; -251,641;  326,273
 247,91; -110,492; -208,218; 5781,292
 248,51;  -83,411; -270,228; -806,563
 249,11;  -63,568; -239,514;  417,933
 249,71;  -67,532; -303,008; -667,235
 250,31;  -16,659; -265,483; -567,693
 250,91;  -34,190; -238,500;   75,216
 251,51;  -46,105; -199,225; -822,945
 252,11;  -52,054; -239,813;  367,410
 252,71;  -48,895; -269,117;-1080,994
 253,31;  -18,846; -222,348; 3228,013
 253,91;  -22,644; -236,578; -676,170
 254,52;  -90,234; -237,342;-1063,750
 255,12;  -63,659; -293,483;-1104,693
 255,72;   38,470; -206,366;  557,112
 256,32;  -78,536; -242,061; -966,674
 256,92;  -54,455; -190,070;-1147,529
 257,52;   -4,317; -173,974; -883,243
 258,12;  -81,986; -201,087;  -91,621
 258,72;  -42,748; -210,810;-1232,972
 259,32;   16,379; -211,335;-1169,514
 259,92;    2,838; -199,330;-1343,086
 260,52;   27,836; -192,973;-1077,433
 261,12;  -26,383; -202,059; -662,865
 261,72;  -41,750; -238,452;-1312,319
 262,32;   17,213; -215,600;-1561,498
 262,92;  -70,300; -238,426;  405,627
 263,53;  -17,079; -189,698;-1277,594
 264,13;  -99,795; -262,937; -268,632
 264,73;  -11,961; -217,202;-1694,617
 265,33;   -3,937; -188,317;-1708,613
 265,93;  -17,712; -147,304;-1345,140
 266,53;  -31,158; -161,046;-1544,392
 267,13;  -42,134; -139,161; -857,388
 267,73;   -1,828; -185,158;  270,230
 268,33;  -84,803; -166,274;-1788,766
 268,93;  -38,997; -213,708;-1702,449
 269,53;  -63,476; -204,670; -644,839
 270,13;    0,477; -201,797;-1810,499
 270,73;  -54,028; -245,287;-1891,239
 271,33;  -54,241; -200,678;-1778,884
 271,93;  -27,111; -242,919;-1867,732
 272,53;   -3,930; -121,748;    8,776
 273,13;   15,912; -146,677;-1117,075
 273,73;   -0,389; -119,753;-1955,652
 274,33;   -6,453; -148,428;-2041,182
 274,93;  -14,484; -188,007;-1843,972
 275,53;  -15,930;  -68,748;-1881,224
 276,13;  -89,503; -121,965;-2261,935
 276,73;  -81,176; -118,361;-1570,007
 277,33;  -40,438; -179,522;-1926,659
 277,93;   26,605; -213,680;-1864,693
 278,53;  -29,745; -194,526;-2112,278
 279,13;  -45,907; -125,506;-2152,568
 279,73;  -45,142; -140,498;-1388,522
 280,33;  -33,696; -154,756;-2179,270
 280,93;   26,741; -105,994;-2049,499
 281,53;  -22,626; -147,387;-2252,953
 282,13;   25,671; -127,363;-2193,816
 282,73;  -30,977; -156,875; -385,885
 283,33;  -15,671; -137,872;-2307,266
 283,92;   23,849;  -74,477;-2028,003
 284,52;   21,765;  -94,109;-2365,496
 285,12;   19,409; -138,524;-1425,469
 285,72;   22,879; -126,898;-1041,213
 286,32;   24,117;  -55,622;-1313,564
 286,92;   51,715; -163,521;-2376,850
 287,52;   63,868;  -89,519;-2170,041
 288,12;   76,692;  -97,763;-2542,507
 288,72;   43,619; -106,417;-1625,518
 289,32;   74,461;  -54,470; 1692,233
 289,92;   11,503; -106,270;-2344,148
 290,52;   49,300;  -91,809;-2485,710
 291,12;   79,588;  -57,996;-1570,308
 291,72;   81,849;  -74,477;-1590,003
 292,32;  163,316;  -83,135;-2372,442
 292,92;  164,142;   -2,737;-2481,560
 293,51;  122,296;  -37,093;-2532,404
 294,11;  249,694;  -42,121;-1681,160
 294,71;  331,777;   -7,488;-2695,667
 295,31;  262,529;  -24,743;-1755,797
 295,91;  373,493;   46,751;-2713,629
 296,51;  423,508;   62,656;-1776,106
 297,11;  416,947;   35,061;-2900,988
 297,71;  570,635;    4,131;-2726,648
 298,31;  818,503;   38,730;-2329,148
 298,91;  606,953;   74,756;-2483,202
 299,50;  646,648;   41,395;-2689,473
 300,10;  860,459;  145,887;-2706,114
 300,70;  665,308;   95,528;-2492,576
 301,30;  763,223;   89,253;-2855,415
 301,90;  922,764;   96,248;-2004,843
 302,50;  796,977;  163,640;-2515,198
 303,10;  645,176;  124,126;-2530,076
 303,70;  704,814;  208,660;-3000,488
 304,29;  734,368;  189,918;-2658,740
 304,89;  751,534;  266,183;-1090,755
 305,49;  918,674;  163,922;-2773,122
 306,09;  935,788;  214,133;-2874,839
 306,69;  863,115;  262,736;-2915,911
 307,29;  952,316;  312,865;-2008,442
 307,89;  886,873;  303,408;-3029,000
 308,48;  791,637;  341,774;-2453,301
 309,08;  898,940;  369,492;-2743,377
 309,68; 1128,966;  377,019;-3094,026
 310,28; 1005,879;  371,102;-2576,213
 310,88;  789,242;  321,211;-2936,453
 311,48;  808,705;  447,500;-2875,331
 312,07;  926,045;  408,367;-2963,228
 312,67;  988,397;  497,855;-2128,297
 313,27;  976,806;  494,448;-1105,224
 313,87; 1040,127;  583,357;-2164,083
 314,47; 1248,842;  516,954;-3030,392
 315,06; 1558,405;  620,191; 2713,837
 315,66; 1570,057;  579,988;-3245,400
 316,26; 1662,311;  632,938;-1844,483
 316,86; 1636,220;  777,969;-3140,110
 317,46; 1988,381;  720,307;-2115,167
 318,06; 2045,417;  739,813; -825,335
 318,65; 2291,345;  781,801;-2807,999
 319,25; 2780,039;  821,798;-3195,617
 319,85; 2660,226;  932,663;-2908,323
 320,45; 3165,084;  986,283;-3213,304
 321,05; 4163,012;  901,271;-2761,968
 321,64; 4353,719;  889,531;-3219,411
 322,24; 4553,115; 1056,861;-3265,513
 322,84; 3865,079; 1080,356;-3261,345
 323,44; 2841,844; 1133,364;-3219,300
 324,03; 2663,432; 1194,486;-3072,067
 324,63; 2749,217; 1250,452;-2310,059
 325,23; 2555,497; 1241,928;-3097,792
 325,83; 2397,329; 1367,021;-2876,123
 326,42; 2437,503; 1442,622;-3285,005
 327,02; 2524,767; 1476,551;-3076,607
 327,62; 2479,221; 1439,629;-2505,221
 328,22; 2929,643; 1553,486;-3234,973
 328,82; 2851,071; 1577,037;-2229,938
 329,41; 2542,512; 1658,852;-3016,728
 330,01; 3086,866; 1652,750;-2961,704
 330,61; 3262,578; 1806,062;-2928,707
 331,20; 2769,591; 1778,325;-2868,531
 331,80; 2676,408; 1762,512;-2794,386
 332,40; 2750,510; 1752,102;-2896,932
 333,00; 2721,163; 1933,667;-2790,423
 333,59; 2774,067; 1748,771;-2855,091
 334,19; 2774,617; 1920,745;-1771,037
 334,79; 2780,264; 1712,615;-2861,316
 335,39; 2782,104; 1729,919;-2978,912
 335,98; 2823,603; 1726,714;-3126,958
 336,58; 2931,574; 1659,777;-3191,401
 337,18; 2922,727; 1720,779;-2958,592
 337,77; 2837,239; 1782,837;-2098,463
 338,37; 2892,806; 1806,359;-2021,540
 338,97; 2925,102; 1907,384;-2912,402
 339,57; 3148,755; 1862,948;-3044,894
 340,16; 3713,647; 1836,431;-2881,390
 340,76; 3806,345; 1962,712;-3053,314
 341,36; 3499,152; 1861,920;-3195,650
 341,95; 3930,795; 1934,506;-3027,623
 342,55; 4112,606; 1918,998;  703,736
 343,15; 3982,410; 2048,155;-3094,039
 343,74; 4735,915; 1924,644;-2382,298
 344,34; 4627,079; 1860,267;-3015,661
 344,94; 3611,092; 2068,530;-3069,485
 345,53; 3397,809; 2110,769;-2860,447
 346,13; 3522,585; 2174,398;-1283,573
 346,73; 3792,733; 1966,473;-2254,805
 347,32; 4011,374; 2268,649;-3080,871
 347,92; 3680,781; 2312,600;-2277,145
 348,52; 3615,479; 2270,523;-1878,722
 349,11; 3895,082; 2336,551;  975,034
 349,71; 3486,292; 2330,658;-3240,016
 350,31; 3135,514; 2441,387;-2672,237
 350,90; 3291,423; 2483,418;-2326,863
 351,50; 3703,722; 2390,852;-2105,634
 352,10; 4544,042; 2471,119;-3114,840
 352,69; 5055,691; 2532,273;-3182,424
 353,29; 5228,056; 2563,024;-3191,317
 353,89; 5480,786; 2645,527;-3255,104
 354,48; 5059,042; 2693,119;-3208,840
 355,08; 5930,922; 2871,980;-1117,164
 355,67; 6641,740; 2850,042;-2951,417
 356,27; 8026,960; 2839,128;-3232,985
 356,87; 9056,069; 3010,288;-3383,142
 357,46; 9070,647; 3049,431;-2351,390
 358,06;10507,375; 3306,291;-3073,523
 358,66; 8751,643; 3337,504;-3109,432
 359,25; 5688,952; 3260,792;-2344,119
 359,85; 6394,058; 3365,667;-3215,970
 360,44; 8256,138; 3389,015;-3292,172
 361,04; 8059,410; 3567,155;-2367,039
 361,64; 8291,409; 3696,155;-2309,039
 362,23; 7720,867; 3772,517;-2932,958
 362,83; 7184,455; 3755,639;-2990,726
 363,42; 6927,809; 3938,769;-2836,447
 364,02; 6573,975; 3910,034;-2973,462
 364,62; 7175,585; 3816,398;-2486,573
 365,21; 5666,684; 3857,937;-1741,558
 365,81; 4038,402; 3935,818;-2792,173
 366,40; 3980,578; 3970,062;-2080,707
 367,00; 4343,929; 4021,550;-2952,776
 367,59; 5017,626; 4071,831;-2979,699
 368,19; 5880,129; 4221,678;-3237,306
 368,79; 5521,110; 4198,720;-3125,268
 369,38; 4949,696; 4107,200;-2250,383
 369,98; 5306,990; 4101,940;-2935,940
 370,57; 6097,604; 4188,588;-3331,356
 371,17; 5902,382; 4164,860;-3326,135
 371,76; 6539,853; 4277,486;-3442,879
 372,36; 7315,522; 4057,598;-3195,501
 372,95; 9109,030; 4115,372;  667,934
 373,55;10289,501; 4105,998;-3393,811
 374,14; 9980,099; 4300,099;-3405,097
 374,74;10002,456; 4256,514;-3224,124
 375,34; 8803,664; 4286,979;-3189,521
 375,93; 8592,240; 4295,479;-2706,116
 376,53; 7676,297; 4344,585;-3575,974
 377,12; 5058,364; 4405,670;-1465,352
 377,72; 3813,029; 4480,730;-3410,414
 378,31; 4190,362; 4511,027;-2274,699
 378,91; 4665,495; 4291,429;-3262,199
 379,50; 5372,026; 4588,213;-3331,363
 380,10; 5345,251; 4327,226;-3398,890
 380,69; 5467,771; 4094,621;-2343,626
 381,29; 7548,593; 4586,735;-2550,439
 381,88;10000,737; 4518,758;-1605,111
 382,48; 9788,828; 4519,727;-3286,485
 383,07; 8193,758; 4495,358;-3457,802
 383,67; 8002,737; 4635,758;-1847,111
 384,26; 7073,417; 4667,491;-2467,905
 384,86; 5528,416; 4921,849;-3182,252
 385,45; 5537,149; 4932,636;-3325,344
 386,05; 5457,546; 5073,608;-3419,100
 386,64; 4555,208; 4911,384;-3524,855
 387,24; 4933,172; 5016,878;-2585,688
 387,83; 5079,408; 4993,512;-2489,386
 388,42; 5350,686; 5182,346;-2109,466
 389,02; 5059,818; 5423,748;-3235,966
 389,61; 4731,128; 5688,036;-3413,653
 390,21; 4542,172; 5729,878;-3463,688
 390,80; 3661,973; 5816,392;-3208,810
 391,40; 3687,162; 6137,899;-2293,168
 391,99; 4321,204; 5981,099;-3195,550
 392,59; 4603,701; 6435,252;-2416,943
 393,18; 3955,585; 6683,398;-2491,573
 393,77; 3149,543; 6883,198;-3238,192
 394,37; 3399,139; 7145,657;-2198,825
 394,96; 3985,045; 7098,403;-2296,146
 395,56; 3868,604; 7264,588;-2834,356
 396,15; 4395,411; 6867,797;-3125,692
 396,75; 4918,175; 7343,163;-2889,993
 397,34; 3817,990; 7669,940;-2620,940
 397,93; 3128,625; 7720,188;-3358,047
 398,53; 2993,620; 7595,262;-2525,088
 399,12; 3140,984; 8192,013;-2154,981
 399,72; 3886,041; 8013,119;-2274,840
 400,31; 4081,537; 8034,629;-3169,581
 400,91; 3632,831; 8446,012;-2959,791
 401,50; 3025,543; 8820,198;-2330,192
 402,09; 3075,744; 8550,327;-2894,722
 402,69; 3131,472; 8691,187;-3072,856
 403,28; 3327,752; 9052,663;-2983,588
 403,88; 5864,848; 9162,560; 1927,079
 404,47; 7355,626; 9689,831;  884,300
 405,06; 4743,940; 9684,171;  -68,947
 405,66; 5551,460; 9753,565;-2875,684
 406,25; 7754,110;10085,720;-3119,268
 406,84; 8004,553;10446,177;-2892,711
 407,44; 6332,229;10847,858;-2219,944
 408,03; 4059,055;10422,257;-2906,063
 408,63; 3550,721;10373,085;-3011,379
 409,22; 3352,145;10191,584;-1945,783
 409,81; 3393,267;10681,007;-1849,765
 410,41; 3690,109;11553,078;-2857,615
 411,00; 3835,112;11336,362;-1814,921
 411,59; 4515,089;11251,120;-2826,578
 412,19; 4599,887;11468,350;-2245,394
 412,78; 5020,146;11399,226;-2830,436
 413,37; 5349,066;12151,878;-2704,234
 413,97; 5691,303;12410,512;-2618,933
 414,56; 5386,690;12071,506;-2503,169
 415,15; 4797,021;12410,394;-2121,547
 415,75; 4294,350;12408,639;-2698,272
 416,34; 3624,749;12590,254;-1893,681
 416,93; 4018,094;12922,047;-2777,536
 417,53; 4485,682;12696,169;-1423,303
 418,12; 5332,234;12570,785;-2217,903
 418,71; 5712,805;12907,592;-2673,285
 419,31; 6239,708;13054,695;-1884,952
 419,90; 6710,261;13470,313;-2786,552
 420,49; 4796,883;13619,298;-1733,834
 421,08; 3801,883;14201,298;-1674,834
 421,68; 4385,624;14723,421;-1908,792
 422,27; 5172,674;14035,832;-2004,437
 422,86; 5518,544;13874,073; -437,590
 423,46; 5362,759;14080,107;-2575,598
 424,05; 4723,020;14376,626;-2928,293
 424,64; 5474,109;13888,953;-2640,014
 425,24; 5626,841;14092,098;-2903,453
 425,83; 5415,021;13992,269;-2680,945
 426,42; 6315,020;12987,626;-2760,293
 427,01; 6452,383;13424,734;-2674,533
 427,61; 4652,502;14347,873;-2609,209
 428,20; 3515,893;14036,151;-1764,751
 428,79; 3546,448;14414,052;-2859,656
 429,38; 4215,385;14092,377;-1781,186
 429,98; 5126,116;14922,521; -994,625
 430,57; 6223,502;15058,873;-2193,209
 431,16; 4986,457;14580,389;-2784,522
 431,75; 4645,870;14357,909; -561,407
 432,35; 6048,952;13435,899;-1951,262
 432,94; 4690,108;14429,186;-2324,759
 433,53; 3322,232;14560,375;-1152,995
 434,12; 3182,778;14431,298;-2267,381
 434,72; 3209,993;14188,331;-1413,389
 435,31; 3000,910;14167,699; 7395,119
 435,90; 2810,157;14308,954; 8338,249
 436,49; 2840,722;13427,834; -683,175
 437,08; 2916,851;13895,951; -675,370
 437,68; 4935,110;14442,827;-2987,412
 438,27; 6302,007;14610,237;-2610,866
 438,86; 3687,569;14612,832;-1147,984
 439,45; 2893,371;15313,346;-1937,106
 440,05; 4468,996;15955,616;-2982,694
 440,64; 4563,622;15054,886;-1902,282
 441,23; 3637,317;14152,525;-1415,553
 441,82; 2988,170;13700,218;-2631,576
 442,41; 2318,835;14351,277;-3014,637
 443,00; 2098,296;13625,925;-2724,863
 443,60; 2210,162;14373,881;-3136,710
 444,19; 2373,848;15026,541;-1440,462
 444,78; 2192,788;14960,151;-3012,298
 445,37; 2212,672;15728,297;-2522,928
 445,96; 2373,079;15331,249;-3116,202
 446,56; 2457,236;15596,535;-1144,698
 447,15; 2202,814;16225,678; -884,947
 447,74; 2183,648;17097,412;-2709,931
 448,33; 1984,721;16443,066;-1985,920
 448,92; 1926,251;15422,440;-2964,176
 449,51; 1861,086;15095,817;-2848,813
 450,10; 1576,793;15133,078;-3063,256
 450,70; 1610,674;14904,939;-1957,581
 451,29; 1592,769;15329,193;-1112,260
 451,88; 1734,202;15513,671;-2929,183
 452,47; 2119,650;16565,055;-2795,584
 453,06; 1978,762;16495,498;-2401,047
 453,65; 1579,445;16071,874;-2873,493
 454,24; 1640,821;17329,246;-2173,558
 454,84; 1703,300;17793,209;-1379,168
 455,43; 1633,456;18732,496;-2219,665
 456,02; 1599,078;18879,480;-2927,947
 456,61; 1434,935;17317,459;-2925,275
 457,20; 1578,950;16921,363;-2786,753
 457,79; 1653,845;17588,131;-2922,554
 458,38; 1664,352;18338,264;-2132,467
 458,97; 1690,188;18039,641;-2515,104
 459,56; 1795,772;18190,479;-2760,565
 460,16; 1741,893;17832,258;-2082,894
 460,75; 1725,447;18157,518;-2072,146
 461,34; 1564,670;18077,887;-2962,020
 461,93; 1533,898;18381,186;-2200,853
 462,52; 1696,577;19333,275;-2744,993
 463,11; 1776,628;20546,688;-1989,639
 463,70; 2042,341;19458,643;-2869,295
 464,29; 2200,147;19945,082;-3150,376
 464,88; 2160,909;20795,807;-2743,024
 465,47; 1900,495;19885,285;-2748,139
 466,06; 1856,077;20915,713;-3191,692
 466,65; 1871,652;21667,572;-3018,635
 467,24; 2083,890;22030,848;-2539,986
 467,84; 1854,907;22443,164;-2020,371
 468,43; 1913,085;22325,051;-2238,559
 469,02; 1889,520;23517,170;-2702,135
 469,61; 2013,110;24168,936;-2593,555
 470,20; 2044,310;23781,063;-2841,085
 470,79; 1954,831;22760,100;-3232,475
 471,38; 1715,289;25266,463;-2192,395
 471,97; 1639,914;26009,732; -666,983
 472,56; 1727,411;25472,887;-3035,376
 473,15; 1738,784;25296,975;-2825,135
 473,74; 1765,349;26395,854;-3106,559
 474,33; 1769,737;25866,848;-2957,796
 474,92; 1665,313;27630,348;-3146,391
 475,51; 1681,387;29609,002;-2873,380
 476,10; 1607,009;29847,986;-3011,662
 476,69; 1654,706;26101,268;-2855,586
 477,28; 1700,947;25846,955;-2956,845
 477,87; 1544,822;27035,121; -173,956
 478,46; 1658,929;28695,639;-3029,460
 479,05; 1670,678;30507,100;-2134,284
 479,64; 1572,058;31679,756;-2718,655
 480,23; 1542,423;29541,508;-2845,548
 480,82; 1586,927;28549,996;-2736,807
 481,41; 1478,729;29371,510;-1873,929
 482,00; 1603,258;29284,885;-1364,185
 482,59; 1556,081;29593,998;-2298,998
 483,18; 1571,410;31702,244;-2376,723
 483,77; 1605,353;31703,139;-2193,865
 484,36; 1616,387;32475,002;-1701,380
 484,95; 1691,131;32990,410; -788,643
 485,54; 2000,296;35331,031;-1371,006
 486,13; 2189,774;35762,996; -945,616
 486,72; 2881,200;34334,137;  148,326
 487,31; 2777,390;31046,285;-1109,686
 487,89; 2284,317;32608,633; -193,697
 488,48; 3078,649;33798,164;-1523,728
 489,07; 3587,464;32913,941;-1248,674
 489,66; 2626,542;33511,645;-1505,224
 490,25; 2155,615;31095,299; -660,212
 490,84; 2292,916;34127,375;-1683,635
 491,43; 3729,398;34965,621; -701,552
 492,02; 4400,154;36094,652;-1864,987
 492,61; 2912,789;35362,902;-1043,094
 493,20; 2222,815;33776,426;-2019,743
 493,79; 2231,428;32749,434; 4824,494
 494,38; 2170,367;33706,043;-1938,342
 494,97; 3233,851;32583,934; -629,911
 495,55; 4700,687;34690,309;-2325,548
 496,14; 3674,566;35087,531;-2403,220
 496,73; 2303,087;35451,566;-1952,609
 497,32; 2102,547;34211,570;-2587,182
 497,91; 2405,229;35005,949;-1921,629
 498,50; 2506,711;34165,195;-2912,544
 499,09; 2270,547;34554,570;-3088,182
 499,68; 2459,817;32403,070;-2405,396
 500,27; 2972,609;33321,605;-2490,999
 500,85; 3129,936;32655,207;-2604,071
 501,44; 2819,596;32478,342;-2576,175
 502,03; 2508,571;33194,457;-3368,178
 502,62; 2223,664;31275,068;-3438,205
 503,21; 2008,666;29432,711;-3532,858
 503,80; 2106,573;32028,100;-2976,831
 504,39; 2077,410;32451,119;-3458,121
 504,97; 2065,444;31774,982;-3577,636
 505,56; 1922,231;31537,590;-2979,281
 506,15; 1951,136;32302,336;-3991,602
 506,74; 2124,834;32557,617;-2945,526
 507,33; 2021,399;32185,498;-3165,949
 507,92; 2067,703;33952,859;-3871,678
 508,51; 1996,679;35926,973;-3735,682
 509,09; 1869,059;34536,629;-3921,053
 509,68; 2058,471;34318,508;-3748,286
 510,27; 2046,179;33667,410;-3799,381
 510,86; 1994,295;32572,264;-4081,751
 511,45; 2000,624;33677,512;-3843,476
 512,03; 2142,550;34524,855;-3829,488
 512,62; 2435,607;36240,961;-3780,346
 513,21; 2684,168;33870,789;-3186,209
 513,80; 2950,438;34644,289;-3501,423
 514,39; 2770,094;32752,137;-3905,221
 514,97; 2484,402;35347,781;-4095,255
 515,56; 2596,451;34167,551;-4198,248
 516,15; 3282,100;35428,063;-3955,179
 516,74; 3630,347;32584,318;-4420,049
 517,33; 2729,264;33459,688;-3549,542
 517,91; 2394,557;33935,426;-4188,099
 518,50; 2650,495;32563,393;-3264,282
 519,09; 3043,387;33942,875;-3157,778
 519,68; 2770,767;35231,531;-4286,148
 520,26; 2496,992;38679,547;-4232,675
 520,85; 2381,968;39452,660;-4352,679
 521,44; 2494,478;40826,078;-4358,897
 522,03; 2976,380;39485,539;-4271,912
 522,61; 3600,478;36773,078;-4364,897
 523,20; 3408,549;33924,090;-4337,233
 523,79; 2656,126;32040,590;-4337,828
 524,38; 2305,300;32850,191;-4344,709
 524,96; 2178,912;35883,199;-4321,473
 525,55; 2168,701;36021,449;-4542,771
 526,14; 2806,785;34018,723;-4434,931
 526,73; 3435,171;32852,074;-4389,515
 527,31; 2802,806;32903,324;-4488,622
 527,90; 2278,701;33630,449;-4564,771
 528,49; 2140,052;34155,938;-2529,839
 529,08; 1792,797;34601,344;-3467,103
 529,66; 1789,394;34848,445;-3911,389
 530,25; 1680,149;35279,832;-4414,172
 530,84; 1724,103;35334,348;-4583,485
 531,42; 1799,233;38583,105;-4365,332
 532,01; 2376,763;37528,480;-4291,588
 532,60; 2731,764;34512,125;-4473,241
 533,18; 1958,396;35538,086;-4078,042
 533,77; 1751,492;34969,984;-4236,374
 534,36; 1725,538;34459,469;-4374,061
 534,95; 1688,303;35483,477;-4088,015
 535,53; 1853,702;34236,090; -974,424
 536,12; 2228,727;36469,977;-2657,420
 536,71; 2536,821;36511,230;-3869,099
 537,29; 2425,035;36073,621;-3618,454
 537,88; 2090,478;33908,078;-3454,897
 538,47; 2000,364;32497,867;-2840,180
 539,05; 2116,587;36837,238;-2139,054
 539,64; 2476,426;40414,898;-1785,997
 540,22; 2670,106;37414,633; -764,790
 540,81; 2457,613;37501,766; 1008,297
 541,40; 2175,800;39018,629; 3425,591
 541,98; 2034,128;38188,230; 4858,519
 542,57; 2073,727;39368,977; 4597,580
 543,16; 1923,269;38645,613; 4952,500
 543,74; 1717,610;35774,480; 4083,603
 544,33; 1782,048;36297,883; 3620,721
 544,92; 1834,354;37217,887; 3973,339
 545,50; 1699,375;37338,488;11456,648
 546,09; 1567,655;40064,965;11359,916
 546,67; 1528,939;41948,727; 2857,878
 547,26; 1490,855;40050,094; -202,615
 547,85; 1425,533;39208,414; -567,501
 548,43; 1395,341;38452,625; -849,836
 549,02; 1359,352;39427,246;-1040,008
 549,60; 1361,600;40570,500; -984,878
 550,19; 1396,717;41166,996;-2192,901
 550,78; 1313,282;42660,875;-2328,325
 551,36; 1290,061;45349,148;-2432,104
 551,95; 1208,751;45443,859; -585,416
 552,53; 1172,883;43280,262; -296,916
 553,12; 1222,545;41420,035;-3431,672
 553,70; 1262,887;43188,547;-2878,222
 554,29; 1201,942;44058,008;-2869,428
 554,88; 1124,475;41831,668;-4247,989
 555,46; 1168,779;43723,027;-3881,718
 556,05; 1238,857;45007,734;-4207,268
 556,63; 1465,343;45206,266;-3396,489
 557,22; 1517,540;43875,109;-3394,714
 557,80; 1430,307;41749,762;-3568,321
 558,39; 1534,659;44188,250;-4145,390
 558,97; 1416,201;47993,887;-3699,470
 559,56; 1190,989;49889,137;-4544,768
 560,15; 1198,660;50117,891;-3611,042
 560,73; 1334,673;49814,152;-4287,867
 561,32; 1758,116;47024,609;-3741,309
 561,90; 1544,498;46041,910;-4382,333
 562,49; 1202,400;48487,371;-3786,348
 563,07; 1114,624;48074,387;-4783,875
 563,66; 1137,836;50064,133;-4352,577
 564,24; 1166,602;49228,145;-4763,531
 564,83; 1165,169;51344,664;-4603,607
 565,41; 1249,553;53840,375;-4329,539
 566,00; 1275,592;52202,164;-2755,012
 566,58; 1177,706;56465,375;-3725,729
 567,17; 1140,212;56909,508;-4280,642
 567,75; 1019,670;52392,871;-4653,562
 568,34; 1048,225;55893,770;-3216,466
 568,92;  998,216;55738,793;-3987,947
 569,51; 1010,966;54852,895; 2680,576
 570,09; 1161,237;58247,391;-4676,638
 570,68; 1074,630;53188,313;-4788,833
 571,26; 1035,199;50733,242;-3886,817
 571,85; 1002,163;57347,738;-4822,649
 572,43; 1019,012;57011,379;-4704,111
 573,01;  939,859;52662,375;-4873,920
 573,60;  949,248;53819,012;-3785,810
 574,18;  971,883;55122,262;-4514,917
 574,77;  990,261;53284,277;-4737,634
 575,35; 1032,248;56113,012;-4452,810
 575,94; 1009,072;57300,770;-4076,275
 576,52; 1034,496;54049,270;-2249,680
 577,11;  965,099;51620,297;-3244,924
 577,69; 1005,652;48685,555;-3183,176
 578,27; 1015,717;51008,996;-3447,901
 578,86; 1048,734;55198,543;-2994,031
 579,44;  969,483;60080,004;-2805,855
 580,03; 1046,142;60164,137;-2493,958
 580,61; 1009,802;60267,270;-3206,062
 581,19; 1022,097;56429,652;-2538,271
 581,78; 1044,053;55361,813;-2364,238
 582,36;  947,932;57656,031;-2911,909
 582,95; 1053,204;56180,172;-1497,776
 583,53; 1011,121;59586,539;-2319,268
 584,11; 1032,895;61608,883;-2241,088
 584,70; 1047,709;61691,660;-1948,035
 585,28; 1085,002;62070,398;-1853,592
 585,87; 1037,182;60436,930;-2889,432
 586,45; 1004,734;63023,543;-2375,031
 587,03;  930,758;64945,430;-1150,027
 587,62; 1104,872;61494,641;-1834,745
 588,20; 1132,180;62236,285;-1020,779
 588,78; 1193,809;58157,840;-3411,673
 589,37; 1238,496;57765,270;-3360,680
 589,95; 1170,379;62238,773;-3385,657
 590,54; 1124,274;63633,539;-3461,459
 591,12; 1207,558;62116,301;-3508,497
 591,70; 1208,910;59586,789;-3331,565
 592,29; 1150,287;62881,805;-2923,283
 592,87; 1147,553;63542,375;-2394,538
 593,45; 1046,134;63404,801; 1487,908
 594,04; 1007,889;62800,188;-3676,875
 594,62; 1038,498;59709,910;-3708,333
 595,20; 1120,584;62066,828;-4371,146
 595,79; 1074,027;62681,285;-4165,588
 596,37; 1126,652;61108,555;-3657,176
 596,95; 1003,745;56922,164;-4321,203
 597,53; 1012,225;58806,770;-4226,466
 598,12; 1064,569;61848,922;-3959,669
 598,70; 1062,662;64932,531;-3776,695
 599,28; 1034,553;64911,375;-3404,538
 599,87; 1073,991;64929,777;-3061,420
 600,45; 1077,792;64938,293;-3907,543
 601,03; 1038,297;63145,781;-4100,802
 601,62; 1132,889;61727,188;-4468,875
 602,20; 1153,227;59786,414;-4541,119
 602,78; 1011,760;64399,070;-4770,680
 603,36; 1040,711;64783,301;-3166,688
 603,95; 1048,261;58863,277;-4492,634
 604,53;  898,721;62401,281;-4574,207
 605,11; 1042,577;59505,258;-2755,535
 605,69;  999,980;62362,156;-3365,249
 606,28;  952,288;62594,805;-4223,283
 606,86;  970,146;61629,422;-3946,264
 607,44;  829,887;60431,547;-3906,222
 608,02;  863,441;58047,805;-4037,474
 608,61;  854,475;60099,668;-2866,989
 609,19;  770,840;58582,418;-2582,882
 609,77;  947,993;57398,422; -710,073
 610,35;  839,756;55748,785; 5794,625
 610,94;  791,875;56509,926;14509,949
 611,52;  814,475;55803,668;12610,011
 612,10;  761,938;53026,957; 8432,133
 612,68;  702,019;56637,949; 2694,278
 613,26;  880,499;57037,551; 2032,015
 613,85;  850,029;61759,926; -599,241
 614,43;  765,110;62306,918;-1030,096
 615,01;  641,960;62272,199;-1215,211
 615,59;  688,314;64874,328; -972,932
 616,17;  720,791;59402,648;-2561,890
 616,76;  765,201;62178,887;-2993,470
 617,34;  823,105;62666,988;-2389,138
 617,92;  760,225;58547,770;-3399,466
 618,50;  728,097;61202,652;-2562,271
 619,08;  810,085;57928,031;-2514,100
 619,67;  727,592;55968,164;-3196,012
 620,25;  758,872;54290,641;-2743,745
 620,83;  745,792;50498,293;-3495,543
 621,41;  764,828;52314,797;-2800,711
 621,99;  683,781;54560,672;-2529,371
 622,57;  832,295;55529,141;-3707,149
 623,15;  844,624;56213,387;-3783,875
 623,74;  745,082;58266,746;-3892,794
 624,32;  793,848;59330,754;-2827,749
 624,90;  808,579;58625,898;-2311,188
 625,48;  739,157;57897,043;-3132,436
 626,06;  732,237;56898,391;-4006,638
 626,64;  601,483;57787,004;-4162,855
 627,22;  600,014;58993,020;-3409,764
 627,81;  585,152;58046,117;-4334,478
 628,39;  588,755;57121,145;-4560,722
 628,97;  633,945;56597,293;-4437,733
 629,55;  694,235;55377,750;-4219,985
 630,13;  640,802;55669,270;-2959,062
 630,71;  667,813;54162,891;-2747,233
 631,29;  610,261;53129,277;-3824,634
 631,87;  614,059;52776,504;-4223,451
 632,45;  609,791;52786,648;-4716,890
 633,03;  560,447;54183,500;-4191,688
 633,62;  586,721;55423,281;-4714,207
 634,20;  565,358;54882,172;-4089,966
 634,78;  599,023;56497,000;-4430,283
 635,36;  620,484;56701,648;-4449,508
 635,94;  679,471;55183,383;-5398,684
 636,52;  678,178;51027,645;-5422,126
 637,10;  635,745;52116,164;-5488,203
 637,68;  577,203;50694,527;-4702,123
 638,26;  581,388;47618,750;-5536,176
 638,84;  620,885;48688,902;-5421,569
 639,42;  584,745;49235,164;-3756,203
 640,00;  698,752;51366,148;-5405,726
 640,58;  721,538;54579,402;-4806,027
 641,16;  724,323;55521,656;-5571,328
 641,74;  703,109;53214,906;-5433,630
 642,32;  619,895;50106,160;-5620,931
 642,90;  571,680;50434,414;-5856,232
 643,48;  616,466;49231,668;-5786,534
 644,06;  570,252;49280,922;-5796,835
 644,64;  597,037;49595,176;-5842,137
 645,22;  465,823;50513,430;-5562,438
 645,80;  547,609;50547,684;-4957,740
 646,39;  513,394;48107,938;-5515,041
 646,97;  520,180;49773,191;-5850,342
 647,54;  517,966;52328,441;-5717,644
 648,12;  485,751;54879,695;-5865,945
 648,70;  536,537;58954,949;-5885,247
 649,28;  633,323;56421,203;-6090,548
 649,86;  579,108;51091,457;-5609,850
 650,44;  501,894;48619,711;-5452,151
 651,02;  563,680;49970,965;-5474,452
 651,60;  510,465;51793,219;-5803,753
 652,18;  527,251;51320,473;-4735,055
 652,76;  488,036;53277,723;-5934,356
 653,34;  520,822;54817,977;-5939,658
 653,92;  557,608;57729,230;-5784,959
 654,50;  635,393;59042,484;-5818,261
 655,08;  695,179;58048,738;-5841,562
 655,66;  667,965;55058,992;-5115,863
 656,24;  677,750;56743,246;-5200,165
 656,82;  728,536;58989,500;-4979,466
 657,40;  681,322;58967,754;-5667,768
 657,98;  641,107;60169,008;-5486,069
 658,56;  620,893;61114,258;-5717,371
 659,14;  601,679;61380,512;-5913,672
 659,72;  549,464;63381,766;-5916,973
 660,29;  493,250;62437,020;-5907,275
 660,87;  563,036;59738,273;-5212,576
 661,45;  492,821;58590,527;-5664,877
 662,03;  517,607;57513,781;-4971,179
 662,61;  411,393;54945,035;-5638,480
 663,19;  443,178;54618,289;-5657,782
 663,77;  473,964;53917,543;-5939,083
 664,35;  416,749;56689,793;-5887,384
 664,93;  430,535;62595,047;-4922,686
 665,51;  449,321;61993,301;-6033,987
 666,08;  405,106;57747,555;-5652,289
 666,66;  438,892;51859,809;-4400,590
 667,24;  471,678;49420,063;-5952,892
 667,82;  454,463;50250,316;-5849,193
 668,40;  460,249;50723,570;-5932,494
 668,98;  448,035;51952,824;-5097,796
 669,56;  464,820;57957,078;-6096,097
 670,13;  512,606;61797,328;-6222,398
 670,71;  514,392;59698,582;-5900,700
 671,29;  473,177;57209,836;-6139,001
 671,87;  474,963;56814,090;-6051,303
 672,45;  398,749;51822,344;-6050,604
 673,03;  502,534;52592,598;-4769,906
 673,60;  459,320;58431,852;-3503,207
 674,18;  397,106;63679,105;-5938,508
 674,76;  451,891;61159,359;-6226,810
 675,34;  459,677;56361,613;-5251,111
 675,92;  393,462;55284,863;-6338,413
 676,50;  445,248;55051,117;-6085,714
 677,07;  410,034;56952,371;-6095,016
 677,65;  419,819;56680,625;-6163,317
 678,23;  395,605;55997,879;-5057,618
 678,81;  476,391;58016,133;-5299,919
 679,38;  436,176;56669,387;-5969,221
 679,96;  439,962;53267,641;-5846,522
 680,54;  420,748;55171,895;-5308,824
 681,12;  396,533;52485,148;-6126,125
 681,70;  383,319;54786,398;-4413,427
 682,27;  415,105;54740,652;-5851,728
 682,85;  360,890;58265,906;-5991,029
 683,43;  386,676;64943,160;-6140,331
 684,01;  430,462;64943,414;-5172,632
 684,58;  416,247;64307,668;-5138,934
 685,16;  454,033;64236,922;-4494,235
 685,74;  446,819;62790,176;-3853,536
 686,32;  403,604;59009,430;-6012,838
 686,89;  445,390;59552,684;-6015,139
 687,47;  302,176;59534,934;-6076,441
 688,05;  436,961;56416,188;-6019,742
 688,63;  380,747;59626,441;-6102,043
 689,20;  385,532;62884,695;-5971,345
 689,78;  424,318;58427,949;-5530,646
 690,36;  396,104;54291,203;-5381,948
 690,93;  367,889;54968,457;-6355,249
 691,51;  421,675;61453,711;-6326,550
 692,09;  439,461;64946,965;-6223,852
 692,67;  387,246;64947,219;-6047,153
 693,24;  393,032;60968,469;-5803,455
 693,82;  388,818;59538,723;-6235,756
 694,40;  473,603;58049,977;-3570,058
 694,97;  356,389;57456,230;-6046,359
 695,55;  418,175;59820,484;-5464,660
 696,13;  400,960;61729,738;-4454,962
 696,70;  356,746;58594,992;-6029,263
 697,28;  372,532;59108,246;-6266,564
 697,86;  356,317;60837,500;-6030,866
 698,43;  399,103;58827,754;-6198,167
 699,01;  355,889;55595,004;-6051,469
 699,59;  379,674;55751,258;-6402,770
 700,16;  387,460;54174,512;-5257,072
 700,74;  393,245;57040,766;-5497,373
 701,32;  351,031;56440,020;-6233,674
 701,89;  310,817;55792,273;-6049,976
 702,47;  378,602;60296,527;-6466,277
 703,05;  366,388;64951,781;-6309,579
 703,62;  329,174;64952,035;-6227,880
 704,20;  351,959;64952,285;-5306,182
 704,77;  317,745;64952,539;-6118,483
 705,35;  337,531;64213,793;-6006,784
 705,93;  293,316;64327,047;-4922,085
 706,50;  339,102;63796,301;-5267,387
 707,08;  301,888;60606,555;-5284,688
 707,65;  300,673;60046,809;-5620,990
 708,23;  370,459;64881,063;-5431,292
 708,81;  296,245;64954,316;-5019,593
 709,38;  347,030;64954,570;-5001,894
 709,96;  364,816;64954,820;-6025,195
 710,53;  331,602;64955,074;-6007,497
 711,11;  330,387;61503,328;-5752,798
 711,69;  323,173;61913,582;-3821,100
 712,26;  346,958;59012,836;-4642,401
 712,84;  305,744;63346,090;-5947,703
 713,41;  352,530;64411,344;-6153,004
 713,99;  286,315;64924,598;-6068,305
 714,56;  354,101;62057,852;-6326,607
 715,14;  355,887;60312,105;-6198,908
 715,71;  353,672;60246,355;-6210,209
 716,29;  392,458;62893,609;-6648,511
 716,86;  343,244;63573,863;-6510,813
 717,44;  341,029;63263,117;-6424,114
 718,02;  407,815;62110,371;-6462,415
 718,59;  362,601;61013,625;-5121,716
 719,17;  366,386;63488,879;-5649,018
 719,74;  369,172;62907,133;-5756,319
 720,32;  323,958;63502,387;-6451,621
 720,89;  363,743;64959,641;-6422,922
 721,47;  296,529;64959,891;-6388,224
 722,04;  334,315;64960,145;-5502,525
 722,62;  306,100;64252,398;-3979,826
 723,19;  326,886;60250,652;-4938,128
 723,77;  310,672;57638,906;-5673,429
 724,34;  327,457;60150,160;-5576,730
 724,92;  306,243;63789,414;-6558,032
 725,49;  306,028;64961,668;-5666,333
 726,07;  319,814;64961,922;-6491,635
 726,64;  333,600;64627,176;-6587,936
 727,21;  348,385;60249,426;-5627,238
 727,79;  289,171;63706,680;-6444,539
 728,36;  348,957;64962,934;-6722,840
 728,94;  407,742;64963,188;-6535,142
 729,51;  328,528;64963,441;-6365,443
 730,09;  340,314;64963,695;-5545,745
 730,66;  372,099;64963,949;-6358,046
 731,24;  363,885;64964,203;-6577,348
 731,81;  433,671;64964,457;-5151,649
 732,38;  357,456;64964,711;-6492,950
 732,96;  373,242;64964,961;-6263,251
 733,53;  449,028;60347,215;-6389,553
 734,11;  378,813;61575,469;-6617,854
 734,68;  445,599;64965,723;-6211,156
 735,26;  505,385;64965,977;-6389,458
 735,83;  483,170;64966,230;-6498,759
 736,40;  528,956;62243,484;-6516,060
 736,98;  523,741;61999,738;-6374,361
 737,55;  525,527;59236,992;-5827,663
 738,13;  513,313;57707,246;-5702,964
 738,70;  500,098;60991,496;-5529,266
 739,27;  520,884;62504,750;-6452,567
 739,85;  587,670;62745,004;-6283,869
 740,42;  582,455;64968,258;-6464,170
 740,99;  620,241;64968,512;-5618,471
 741,57;  636,027;64968,766;-4867,773
 742,14;  635,812;64969,020;-5349,074
 742,72;  659,598;64969,273;-4751,375
 743,29;  646,384;64969,527;-6563,677
 743,86;  703,169;64969,781;-6538,979
 744,44;  712,955;64970,031;-6113,280
 745,01;  648,741;64970,285;-5760,581
 745,58;  656,526;64970,539;-6259,882
 746,16;  634,312;64970,793;-6188,184
 746,73;  672,098;64971,047;-6479,485
 747,30;  658,883;61139,301;-6536,787
 747,88;  658,669;59621,555;-5621,088
 748,45;  718,455;64971,809;-5668,390
 749,02;  801,240;64972,063;-6384,691
 749,60;  826,026;62401,313;-6212,992
 750,17;  801,811;61766,566;-5269,294
 750,74;  943,597;62801,820;-6479,595
 751,31;  989,383;63306,074;-6347,896
 751,89;  948,168;64232,328;-6546,198
 752,46;  942,954;64973,582;-6282,500
 753,03;  892,740;64973,836;-6160,801
 753,61;  867,525;63755,090;-4858,102
 754,18;  822,311;64573,344;-6434,404
 754,75;  781,097;63888,598;-5191,705
 755,32;  786,882;60715,848;-6332,006
 755,90;  749,668;64975,102;-6493,308
 756,47;  682,454;64975,355;-4809,609
 757,04;  660,239;64975,609;-6457,911
 757,61;  631,025;64975,863;-5553,212
 758,19;  643,811;64976,117;-5253,514
 758,76;  595,596;64976,371;-6603,815
 759,33;  545,382;64976,625;-6664,116
 759,90;  492,168;64976,879;-5714,417
 760,48;  457,953;64977,133;-6778,719
 761,05;  447,739;64977,383;-6083,021
 761,62;  473,524;62082,637;-4888,322
 762,19;  392,310;58992,891;-6144,624
 762,77;  400,096;61730,145;-5963,925
 763,34;  378,881;64978,398;-6610,226
 763,91;  343,667;64978,652;-5818,527
 764,48;  352,453;64978,906;-6756,829
 765,05;  339,238;64979,160;-6543,130
 765,63;  339,024;63215,414;-6417,432
 766,20;  390,810;59753,668;-6004,733
 766,77;  314,595;57105,918;-5921,035
 767,34;  309,381;58807,172;-6640,336
 767,91;  298,167;59176,426;-6689,637
 768,49;  321,952;61368,680;-6772,939
 769,06;  259,738;64980,934;-5832,240
 769,63;  315,524;62272,188;-6636,542
 770,20;  287,309;59567,441;-5868,843
 770,77;  259,095;57921,695;-5645,145
 771,34;  220,881;60065,949;-6615,446
 771,91;  333,666;60549,203;-6102,747
 772,49;  301,452;58558,453;-6369,048
 773,06;  223,237;57687,707;-6203,350
 773,63;  251,023;60204,961;-6639,651
 774,20;  309,809;58197,215;-5918,953
 774,77;  312,594;56475,469;-6631,254
 775,34;  334,380;56707,723;-6214,556
 775,91;  417,166;57056,977;-6417,857
 776,49;  606,951;58787,230;-6590,158
 777,06;  723,737;60761,484;-6015,460
 777,63;  681,523;64224,738;-6367,761
 778,20;  466,308;62572,988;-6250,063
 778,77;  375,094;63316,242;-5763,364
 779,34;  301,880;64985,496;-6585,666
 779,91;  276,665;64985,750;-6534,967
 780,48;  253,451;59144,004;-5853,268
 781,05;  253,237;50716,258;-6586,570
 781,62;  286,022;52124,512;-6604,871
 782,20;  250,808;58813,766;-6500,172
 782,77;  234,594;64987,020;-6529,474
 783,34;  272,379;64052,273;-6522,775
 783,91;  254,165;61362,523;-6509,077
 784,48;  250,951;60480,777;-2126,378
 785,05;  234,736;59144,031;-6540,680
 785,62;  230,522;58221,285;-6452,981
 786,19;  237,307;58149,539;-5100,282
 786,76;  186,093;55130,793;-6677,583
 787,33;  192,879;56202,047;-6515,885
 787,90;  202,664;59491,301;-6591,187
 788,47;  226,450;60148,555;-5075,488
 789,04;  255,236;58988,809;-5763,790
 789,61;  224,021;58863,059;-5066,091
 790,18;  206,807;55747,313;-6561,392
 790,75;  213,593;50841,566;-6671,693
 791,32;  225,378;52056,820;-6577,995
 791,89;  200,164;55205,074;-6068,296
 792,46;  255,950;60806,328;-5763,598
 793,03;  233,735;62404,582;-6702,899
 793,60;  276,521;55699,836;-6440,201
 794,17;  326,307;52257,090;-5569,502
 794,74;  350,092;47273,344;-5886,803
 795,31;  281,878;50096,594;-6099,105
 795,88;  268,664;52579,848;-5572,406
 796,45;  191,449;53365,102;-6529,708
 797,02;  180,235;56004,355;-5046,009
 797,59;  174,020;57922,609;-6675,311
 798,16;  143,806;54563,863;-5861,612
 798,73;  175,592;53534,117;-6761,913
 799,30;  210,377;55088,371;-6611,214
 799,87;  219,163;55650,625;-6713,516
 800,44;  187,949;55353,875;-6729,817
 801,01;  144,734;56836,129;-6807,119
 801,58;  192,520;58477,383;-6537,420
 802,15;  195,306;52086,637;-6658,722
 802,72;  218,091;48849,891;-6694,023
 803,28;  181,877;52000,145;-6076,324
 803,85;  198,663;57179,398;-6728,626
 804,42;  254,448;55235,652;-5999,927
 804,99;  171,234;53752,906;-6539,229
 805,56;  169,020;52472,160;-6770,530
 806,13;  142,805;53387,410;-6075,832
 806,70;  200,591;52719,664;-6748,133
 807,27;  182,377;54477,918;-6672,434
 807,84;  141,162;52786,172;-6693,736
 808,41;  165,948;49728,426;-6022,037
 808,98;  176,733;50479,680;-5986,338
 809,54;  137,519;52469,934;-4958,640
 810,11;  168,305;48281,188;-6782,941
 810,68;  139,090;43021,441;-6680,243
 811,25;  157,876;41394,695;-6760,544
 811,82;  160,662;40374,945;-6886,846
 812,39;  125,447;37710,199;-3331,147
 812,96;  192,233;38779,453;-6767,448
 813,52;  196,019;41291,707;-6937,750
 814,09;  122,804;44522,961;-6766,051
 814,66;  144,590;50325,215;-6827,353
 815,23;  166,376;51240,469;-6669,654
 815,80;  138,161;50439,723;-5853,956
 816,37;  115,947;50917,977;-6801,257
 816,93;  170,733;49487,230;-6731,558
 817,50;  141,518;46790,480;-6102,859
 818,07;  166,304;46034,734;-6960,161
 818,64;  200,090;46919,988;-6856,462
 819,21;  204,875;46261,242;-6053,764
 819,77;  204,661;42742,496;-6571,065
 820,34;  163,447;42053,750;-6677,367
 820,91;  236,232;43276,004;-6469,668
 821,48;  259,018;43873,258;-6689,969
 822,05;  314,803;45571,512;-5875,271
 822,61;  238,589;44296,766;-5631,572
 823,18;  224,375;41860,016;-6620,874
 823,75;  212,160;42585,270;-6957,175
 824,32;  137,946;45286,523;-6923,477
 824,88;  173,732;45073,777;-6882,778
 825,45;  127,517;44018,031;-6899,079
 826,02;  172,303;43798,285;-6643,380
 826,59;  182,089;43974,539;-6639,682
 827,15;  106,874;46077,793;-6906,983
 827,72;  140,660;49519,047;-6723,285
 828,29;  143,446;51523,301;-6895,586
 828,86;  131,231;48827,551;-6791,888
 829,42;  148,017;40797,805;-6812,189
 829,99;  126,803;36802,059;-6647,490
 830,56;  145,588;36252,313;-6869,792
 831,13;  160,374;37220,566;-6060,093
 831,69;  190,160;38022,820;-6506,395
 832,26;  162,945;38832,074;-5062,696
 832,83;  117,731;40408,328;-5452,998
 833,39;  121,516;40187,582;-6904,299
 833,96;  168,302;39167,836;-6687,600
 834,53;  101,088;40039,086;-6928,902
 835,10;  111,873;39930,340;-6529,203
 835,66;  114,659;38972,594;-6920,504
 836,23;  142,445;39801,848;-6803,806
 836,80;  108,230;39428,102;-6790,107
 837,36;  138,016;37086,355;-6810,409
 837,93;  103,802;34475,609;-6902,710
 838,50;  164,587;35084,863;-6789,012
 839,06;  130,373;37684,117;-6288,313
 839,63;   87,159;37191,371;-6895,614
 840,19;   87,944;35132,621;-6607,916
 840,76;   80,730;35364,875;-6404,217
 841,33;  105,516;35892,129;-6509,519
 841,89;  102,301;36779,383;-6949,820
 842,46;   78,087;37103,637;-6751,122
 843,03;  156,873;35389,891;-6089,423
 843,59;  120,658;34224,145;-6403,724
 844,16;  137,444;34994,398;-6181,025
 844,73;  179,229;34249,652;-6067,327
 845,29;  199,015;32937,902;-5695,628
 845,86;  128,801;35699,156;-6800,930
 846,42;  114,586;36940,410;-7004,231
 846,99;  160,372;36477,664;-6967,533
 847,56;   83,158;36265,918;-5840,834
 848,12;   64,943;36240,172;-6745,135
 848,69;  129,729;35710,426;-6715,437
 849,25;   78,515;34401,680;-6845,738
 849,82;  107,300;34081,934;-3247,040
 850,38;  113,086;35064,188;-6840,341
 850,95;   99,872;32489,439;-6324,643
 851,52;   91,657;32520,693;-6565,944
 852,08;   74,443;32548,947;-6691,245
 852,65;   50,229;30323,199;-7005,546
 853,21;   59,014;27698,453;-6958,848
 853,78;   72,800;27362,707;-6363,149
 854,34;   86,586;28860,961;-6871,451
 854,91;   95,371;29081,215;-5086,752
 855,47;  121,157;29942,467;-5108,054
 856,04;  131,943;32027,721;-6746,355
 856,60;   88,728;33961,973;-6104,656
 857,17;   93,514;34979,227;-6840,958
 857,73;   97,299;33553,480;-6811,259
 858,30;   32,085;32532,734;-6985,561
 858,86;   71,871;31110,988;-5926,862
 859,43;   77,656;31430,242;-6226,164
 859,99;   78,442;32011,496;-6852,465
 860,56;   70,228;33126,750;-6903,766
 861,12;   93,013;35190,004;-6737,068
 861,69;   46,799;33669,258;-5924,369
 862,25;   87,585;34731,508;-6821,670
 862,82;  110,370;34419,762;-5972,972
 863,38;  100,156;31196,018;-6843,273
 863,95;   82,942;29305,270;-6239,575
 864,51;  123,727;30403,523;-5287,876
 865,08;  122,513;29284,777;-6090,178
 865,64;  109,299;26795,031;-7018,479
 866,21;   84,084;26131,285;-6745,780
 866,77;   93,870;26051,537;-5552,082
 867,34;  167,656;25734,791;-6672,383
 867,90;  147,441;24632,045;-6303,685
 868,46;  190,227;23835,299;-6041,986
 869,03;  146,012;24389,551;-6929,288
 869,59;  100,798;26353,805;-6884,589
 870,16;   77,584;27647,059;-6052,890
 870,72;   79,369;30060,313;-6657,191
 871,28;  116,155;32915,566;-5992,493
 871,85;   97,941;33142,820;-6907,794
 872,41;   73,726;31569,072;-6004,096
 872,98;   29,512;32738,326;-6050,397
 873,54;   58,298;33876,578;-5920,699
 874,10;   77,083;32768,832;-5876,000
 874,67;   40,083;32987,832;-6904,000
 875,23;   40,083;31068,834;-7032,000
 875,80;   60,083;28009,834;-6641,000
 876,36;   26,083;25058,834;-6642,000
 876,92;   52,083;22832,834;-6189,000
 877,49;   69,083;23923,834;-6517,000
 878,05;  107,083;24896,834;-6797,000
 878,61;   55,083;26938,834;-6812,000
 879,18;   78,083;27553,834;-6252,000
 879,74;   45,083;28076,834;-6720,000
 880,30;   -9,917;28679,834;-5926,000
 880,87;   21,083;28852,834;-6326,000
 881,43;   79,083;29533,834;-6871,000
 881,99;   96,083;27306,834;-6879,000
 882,56;   62,083;27610,834;-6661,000
 883,12;   44,083;29049,834;-5740,000
 883,68;   14,083;29120,834;-6518,000
 884,25;   55,083;28300,834;-6949,000
 884,81;   41,083;26343,834;-6701,000
 885,37;   48,083;24221,834;-6786,000
 885,94;   33,083;22940,834;-6851,000
 886,50;  118,083;23098,834;-6886,000
 887,06;   51,083;24358,834;-6796,000
 887,62;   76,083;25019,834;-6866,000
 888,19;   59,083;25774,834;-5986,000
 888,75;   36,083;26542,834;-6821,000
 889,31;   70,083;29043,834;-6778,000
 889,87;   51,083;30537,834;-6723,000
 890,44;   95,083;30349,834;-6696,000
 891,00;   53,083;28757,834;-6786,000
 891,56;   53,083;26457,834;-6998,000
 892,12;   72,083;24463,834;-6754,000
 892,69;   75,083;25310,834;-6373,000
 893,25;   81,083;28798,834;-6877,000
 893,81;   60,083;31774,834;-6696,000
 894,37;  128,083;31330,834;-6342,000
 894,94;   73,083;28713,834;-6772,000
 895,50;   81,083;26035,834; -212,000
 896,06;  100,083;24749,834;-6810,000
 896,62;  123,083;23405,834;-6707,000
 897,18;  103,083;24661,834;-6518,000
 897,75;  132,083;27406,834;-6895,000
 898,31;  120,083;27887,834;-6849,000
 898,87;  117,083;26274,834;-6860,000
 899,43;  133,083;25164,834;-6469,000
 899,99;  107,083;26592,834;-6866,000
 900,56;  135,083;25515,834;-6791,000
 901,12;  113,083;24875,834;-6890,000
 901,68;  192,083;27903,834;-6267,000
 902,24;  146,083;31800,834;-5930,000
 902,80;  157,083;32652,834;-6794,000
 903,36;  237,083;31893,834;-6691,000
 903,93;  284,083;32139,834;-6646,000
 904,49;  613,083;32761,834;-6913,000
 905,05; 1660,083;30952,834;-6732,000
 905,61; 3850,083;28208,834;-6832,000
 906,17; 7430,083;28086,834;-6901,000
 906,73;11717,083;25975,834;-5380,000
 907,29;15854,083;24960,834;-6910,000
 907,86;19303,084;25118,834;-6827,000
 908,42;20366,084;28092,834;-6795,000
 908,98;17576,084;31123,834;-5908,000
 909,54;10272,083;38813,832;-6885,000
 910,10; 3630,083;48220,832;-6634,000
 910,66;  837,083;57581,832;-6781,000
 911,22;  348,083;65027,832;-6761,000
 911,78;  179,083;62593,832;-6841,000
 912,34;  169,083;53256,832;-6080,000
 912,90;  160,083;44610,832;-5232,000
 913,46;  142,083;37052,832;-6876,000
 914,03;   89,083;30620,834;-5746,000
 914,59;  135,083;27452,834;-6682,000
 915,15;   94,083;24908,834;-6891,000
 915,71;  115,083;24217,834;-6863,000
 916,27;   64,083;23800,834;-6723,000
 916,83;   94,083;23006,834;-5824,000
 917,39;   91,083;21742,834;-3512,000
 917,95;   80,083;20224,834;-6009,000
 918,51;  113,083;19972,834;-6583,000
 919,07;   95,083;21780,834;-6791,000
 919,63;   -5,917;23295,834;-6661,000
 920,19;   31,083;23935,834;-6865,000
 920,75;   93,083;23112,834;-6640,000
 921,31;   56,083;21484,834;-4837,000
 921,87;   69,083;20216,834;-6845,000
 922,43;   42,083;18019,834;-5626,000
 922,99;  115,083;17321,834;-6706,000
 923,55;   94,083;18674,834;-6655,000
 924,11;   79,083;19094,834;-6976,000
 924,67;   58,083;19310,834;-6962,000
 925,23;   62,083;19485,834;-6778,000
 925,79;   87,083;20122,834;-6710,000
 926,35;  130,083;20219,834;-6573,000
 926,91;   57,083;19401,834;-6909,000
 927,47;  102,083;19367,834;-6660,000
 928,03;   76,083;20294,834;-6786,000
 928,59;   81,083;20503,834;-6678,000
 929,15;  106,083;20781,834;-6792,000
 929,71;   90,083;22016,834;-6840,000
 930,27;  122,083;23587,834;-6537,000
 930,82;   81,083;25573,834;-6728,000
 931,38;   -1,917;24317,834;-5852,000
 931,94;   68,083;22672,834;-6843,000
 932,50;   56,083;21252,834;-6481,000
 933,06;  100,083;20895,834;-6768,000
 933,62;   72,083;21092,834;-6443,000
 934,18;   76,083;20632,834;-6727,000
 934,74;   49,083;21320,834;-6709,000
 935,30;   89,083;22030,834;-6484,000
 935,86;   69,083;21213,834;-6505,000
 936,42;   91,083;20702,834;-6873,000
 936,97;   67,083;21656,834;-6563,000
 937,53;   62,083;20552,834;-6826,000
 938,09;   74,083;21087,834;  123,000
 938,65;   46,083;21186,834;-6268,000
 939,21;   65,083;20179,834;-6708,000
 939,77;   27,083;18946,834;-6213,000
 940,33;   84,083;18602,834;-6748,000
 940,88;   62,083;19429,834;-5908,000
 941,44;   66,083;21301,834;-6983,000
 942,00;   52,083;23225,834;-6697,000
 942,56;   61,083;24231,834;-6604,000
 943,12;   73,083;23427,834;-5907,000
 943,68;   86,083;22950,834;-5679,000
 944,23;   36,083;23124,834;-6749,000
 944,79;   59,083;22674,834;-6102,000
 945,35;   44,083;20741,834;-6599,000
 945,91;  118,083;19519,834;-6767,000
 946,47;   38,083;19827,834;-3353,000
 947,03;   75,083;19896,834;-6850,000
 947,58;   43,083;19661,834;-6840,000
 948,14;   23,083;20790,834;-5897,000
 948,70;   40,083;19573,834;-5855,000
 949,26;  100,083;18881,834;-6616,000
 949,81;   49,083;18342,834;-6644,000
 950,37;   63,083;18686,834;-6695,000
 950,93;   91,083;17993,834;-6224,000
 951,49;   33,083;17568,834;-6057,000
 952,05;   83,083;17926,834;-6571,000
 952,60;   20,083;17299,834;-6951,000
 953,16;   37,083;16933,834;-5783,000
 953,72;   47,083;15628,833;-5813,000
 954,27;   42,083;15524,833;-6566,000
 954,83;   21,083;15317,833;-6703,000
 955,39;   53,083;14917,833;-6691,000
 955,95;   24,083;14456,833;-6849,000
 956,50;   35,083;14272,833;-6698,000
 957,06;   16,083;14126,833;-5922,000
 957,62;   44,083;13780,833;-6559,000
 958,18;   52,083;13872,833;-6741,000
 958,73;   39,083;13326,833;-6820,000
 959,29;   41,083;13518,833;-6106,000
 959,85;    7,083;14785,833;-6864,000
 960,40;   59,083;16746,834;-4263,000
 960,96;   73,083;16386,834;-6738,000
 961,52;   77,083;14755,833;-6643,000
 962,07;   88,083;13711,833;-6742,000
 962,63;   21,083;13208,833;-6723,000
 963,19;   37,083;13435,833;-5779,000
 963,74;   98,083;13877,833;-6582,000
 964,30;   18,083;14475,833;-6595,000
 964,86;   89,083;14281,833;-6484,000
 965,41;   78,083;14290,833;-6705,000
 965,97;   54,083;14185,833;-6569,000
 966,53;   52,083;14792,833;-6750,000
 967,08;   94,083;15311,833;-6611,000
 967,64;   64,083;15082,833;-6705,000
 968,19;   72,083;14471,833;-6684,000
 968,75;   72,083;14662,833;-6566,000
 969,31;   91,083;14880,833;-5626,000
 969,86;   62,083;14995,833;-6505,000
 970,42;   85,083;13195,833;-6620,000
 970,97;   45,083;11567,833;-6437,000
 971,53;   91,083;11625,833;-6490,000
 972,09;   45,083;12998,833;-6646,000
 972,64;   98,083;13523,833;-5812,000
 973,20;  114,083;13815,833;-6599,000
 973,75;   88,083;14605,833;-5760,000
 974,31;  109,083;14826,833;-6578,000
 974,87;   74,083;14921,833;-6674,000
 975,42;   74,083;14507,833;-6727,000
 975,98;   68,083;13201,833;-6651,000
 976,53;   93,083;12100,833;-6555,000
 977,09;  110,083;11353,833;-4624,000
 977,64;   86,083;11164,833;-6532,000
 978,20;  122,083;10649,833;-6585,000
 978,75;  107,083;10482,833;-6429,000
 979,31;   74,083;10950,833;-6513,000
 979,86;  128,083;12220,833;-6739,000
 980,42;   46,083;12828,833;-5813,000
 980,97;   48,083;13290,833;-6642,000
 981,53;  105,083;14285,833;-6636,000
 982,08;   76,083;13803,833;-5046,000
 982,64;   75,083;12278,833;-6237,000
 983,19;   88,083;11308,833;-6760,000
 983,75;  123,083;10993,833;-6576,000
 984,30;   74,083;10430,833;-5581,000
 984,86;  101,083; 9867,833;-5898,000
 985,41;   95,083; 9457,833;-6634,000
 985,97;  103,083; 9632,833;-4797,000
 986,52;  125,083; 9894,833;-5853,000
 987,08;  130,083; 9953,833;-6174,000
 987,63;   72,083;10165,833;-5608,000
 988,19;  115,083;11252,833;-6266,000
 988,74;   93,083;11710,833;-5682,000
 989,30;   90,083;11529,833;-6568,000
 989,85;  112,083;11470,833; -276,000
 990,40;  113,083;11314,833;-6617,000
 990,96;  123,083;11060,833;-6482,000
 991,51;   94,083;11149,833;-6578,000
 992,07;   68,083;10742,833;-6605,000
 992,62;   71,083;10285,833;-6519,000
 993,18;   88,083;10035,833;-6504,000
 993,73;  143,083; 9986,833;-6440,000
 994,28;  116,083; 9800,833;-6464,000
 994,84;   53,083; 9019,833;-6240,000
 995,39;  111,083; 8474,833;-2971,000
 995,94;  169,083; 7953,833;-5673,000
 996,50;  111,083; 7647,833;-6543,000
 997,05;   83,083; 7872,833;-3481,000
 997,61;  110,083; 8363,833;-6489,000
 998,16;   99,083; 8581,833;-6555,000
 998,71;   90,083; 8850,833;-6340,000
 999,27;   55,083; 9115,833;-5223,000
 999,82;  101,083; 8706,833;-4778,000
1000,37;   76,083; 8661,833;-6520,000
1000,93;  145,083; 8920,833;-6107,000
1001,48;  128,083; 8799,833;-6543,000
1002,03;   97,083; 8477,833;-6469,000
1002,59;  142,083; 8715,833;-5972,000
1003,14;  139,083; 8758,833;-6113,000
1003,69;  100,083; 8484,833;-6513,000
1004,25;   71,083; 8299,833;-6507,000
1004,80;  130,083; 8322,833;-6266,000
1005,35;  132,083; 8313,833;-6361,000
1005,91;  109,083; 8515,833;-6558,000
1006,46;   81,083; 8426,833;-6084,000
1007,01;  131,083; 8227,833;-5479,000
1007,56;  126,083; 8599,833;-6440,000
1008,12;   71,083; 8342,833;-6178,000
1008,67;  148,083; 7867,833;-6312,000
1009,22;  126,083; 7509,833;-6481,000
1009,78;  113,083; 7205,833;-6163,000
1010,33;  130,083; 6649,833;-6443,000
1010,88;   99,083; 6413,833;-5618,000
1011,43;  143,083; 5995,833;-6433,000
1011,99;  156,083; 5972,833;-6198,000
1012,54;  140,083; 6320,833;-6387,000
1013,09;  164,083; 6048,833;-6299,000
1013,64;  119,083; 5802,833;-6362,000
1014,19;   83,083; 5823,833;-6442,000
1014,75;  185,083; 5928,833;-6408,000
1015,30;  201,083; 6394,833;-6425,000
1015,85;  199,083; 6370,833;-6367,000
1016,40;  147,083; 6247,833;-5436,000
1016,96;  243,083; 6235,833;-6268,000
1017,51;  202,083; 6150,833;-6351,000
1018,06;  184,083; 6095,833;-6310,000
1018,61;  197,083; 5695,833;-6665,000
1019,16;  161,083; 5609,833;-6697,000
1019,71;  321,083; 5663,833;-6373,000
1020,27;  264,083; 5567,833;-6353,000
1020,82;  249,083; 5375,833;-3700,000
1021,37;  258,083; 5405,833;-4798,000
1021,92;  268,083; 5984,833;-6454,000
1022,47;  240,083; 5965,833;-6548,000
1023,02;  231,083; 5463,833;-6512,000
1023,58;  324,083; 5045,833;-6573,000
1024,13;  316,083; 4730,833;-6258,000
1024,68;  305,083; 4434,833;-6298,000
1025,23;  393,083; 4324,833;-5525,000
1025,78;  345,083; 4613,833;-6475,000
1026,33;  401,083; 4932,833;-5510,000
1026,88;  459,083; 4843,833;-6236,000
1027,43;  440,083; 5167,833;-6276,000
1027,99;  450,083; 5134,833;-6002,000
1028,54;  504,083; 4732,833;-6395,000
1029,09;  532,083; 4106,833;-2478,000
1029,64;  623,083; 3919,833;-6303,000
1030,19;  633,083; 4147,833;-3821,000
1030,74;  656,083; 4243,833;-5134,000
1031,29;  765,083; 4284,833;-4765,000
1031,84;  807,083; 4491,833;-6300,000
1032,39;  867,083; 4563,833;-5403,000
1032,94;  942,083; 4617,833;-4326,000
1033,49; 1133,083; 4361,833;-5476,000
1034,04; 1158,083; 4236,833;-6312,000
1034,59; 1331,083; 4205,833;-6507,000
1035,14; 1283,083; 4117,833;-6145,000
1035,69; 1498,083; 4318,833;-6224,000
1036,24; 1614,083; 4104,833;-4477,000
1036,80; 1764,083; 3986,833;-5453,000
1037,35; 1879,083; 4138,833;-6347,000
1037,90; 2131,083; 4172,833;-6274,000
1038,45; 2126,083; 4201,833;-6419,000
1039,00; 2308,083; 4340,833;-5490,000
1039,55; 2427,083; 4229,833;-6284,000
1040,10; 2585,083; 3977,833;-5615,000
1040,65; 2869,083; 3916,833;-5576,000
1041,20; 2870,083; 3850,833;-6325,000
1041,75; 3291,083; 4030,833;-4522,000
1042,30; 3275,083; 4164,833;-3585,000
1042,84; 3730,083; 4338,833;-4439,000
1043,39; 4080,083; 4248,833;-6313,000
1043,94; 4488,083; 4175,833;-5342,000
1044,49; 5013,083; 3887,833;-6246,000
1045,04; 5325,083; 3710,833;-5800,000
1045,59; 5944,083; 3809,833;-6299,000
1046,14; 6527,083; 3732,833;-6392,000
1046,69; 7451,083; 3591,833;-6294,000
1047,24; 8436,083; 3623,833;-5510,000
1047,79; 9426,083; 3737,833;-6139,000
1048,34;10687,083; 4002,833;-5961,000
1048,89;12453,083; 3948,833;-6259,000
1049,44;14223,083; 3935,833;-5172,000
1049,99;17179,084; 3855,833;-4844,000
1050,54;20780,084; 3876,833;-6249,000
1051,08;27761,084; 3961,833;-6178,000
1051,63;39990,082; 4050,833;-5285,000
1052,18;59349,082; 5051,833;-6127,000
1052,73;65150,082; 7151,833;-6173,000
1053,28;65150,082;10516,833;-6386,000
1053,83;65150,082;15224,833;-6214,000
1054,38;65150,082;19203,834;-6254,000
1054,93;65150,082;21243,834;-6285,000
1055,47;65150,082;23825,834;-5328,000
1056,02;65150,082;26212,834;-5832,000
1056,57;65150,082;27830,834;-6198,000
1057,12;65150,082;30497,834;-6378,000
1057,67;65150,082;33805,832;-6078,000
1058,22;65150,082;36084,832;-6313,000
1058,76;65150,082;38542,832;-6093,000
1059,31;65150,082;44129,832;-3514,000
1059,86;65150,082;48778,832;-6204,000
1060,41;65150,082;49718,832;-6152,000
1060,96;65150,082;51396,832;-6226,000
1061,51;65150,082;53649,832;-5344,000
1062,05;65150,082;54082,832;-6122,000
1062,60;65150,082;50555,832;-6061,000
1063,15;65150,082;45221,832;-6149,000
1063,70;65150,082;41550,832;-6250,000
1064,24;65150,082;43676,832;-6169,000
1064,79;65150,082;45461,832;-6144,000
1065,34;65150,082;43989,832;-6064,000
1065,89;65150,082;41776,832;-6202,000
1066,44;65150,082;37631,832;-6120,000
1066,98;65150,082;32612,834;-6224,000
1067,53;65150,082;30790,834;-5953,000
1068,08;65150,082;30368,834;-4845,000
1068,63;65150,082;27618,834;-6096,000
1069,17;65150,082;24647,834;-5893,000
1069,72;65150,082;22350,834;-5857,000
1070,27;65150,082;20529,834;-6040,000
1070,81;65150,082;20388,834;-5996,000
1071,36;65150,082;20367,834;-3883,000
1071,91;65150,082;18745,834;  966,000
1072,46;65150,082;16791,834;-5058,000
1073,00;65150,082;14646,833;-5239,000
1073,55;65150,082;11404,833;-5935,000
1074,10;65150,082; 7803,833;-5981,000
1074,64;65150,082; 5240,833;-5860,000
1075,19;45321,082; 3535,833;-4958,000
1075,74;30431,084; 2551,833;-6091,000
1076,28;22854,084; 2312,833;-6075,000
1076,83;18182,084; 1951,833;-5286,000
1077,38;14846,083; 1820,833;-5653,000
1077,92;12342,083; 1783,833;-6332,000
1078,47;10515,083; 1629,833;-5507,000
1079,02; 8934,083; 1578,833;-5959,000
1079,56; 7746,083; 1557,833;-5328,000
1080,11; 6624,083; 1304,833;-6094,000
1080,65; 5788,083; 1241,833;-5039,000
1081,20; 4821,083; 1186,833;-6151,000
1081,75; 4160,083; 1125,833;-6039,000
1082,29; 3648,083; 1128,833; -139,000
1082,84; 3191,083; 1184,833;-2678,000
1083,39; 2981,083; 1294,833;-5061,000
1083,93; 2840,083; 1335,833;-5025,000
1084,48; 2655,083; 1196,833;-5961,000
1085,02; 2275,083; 1082,833;-5783,000
1085,57; 2129,083; 1074,833;-5994,000
1086,11; 2020,083; 1079,833;-5968,000
1086,66; 1907,083;  925,833;-5584,000
1087,21; 1845,083; 1060,833;-5802,000
1087,75; 1783,083;  939,833;-6125,000
1088,30; 1654,083;  815,833;-5040,000
1088,84; 1549,083;  783,833;-5963,000
1089,39; 1343,083;  656,833;-5965,000
1089,93; 1310,083;  664,833;-6100,000
1090,48; 1215,083;  649,833;-4394,000
1091,02; 1114,083;  733,833;-5181,000
1091,57; 1058,083;  629,833;-5479,000
1092,11;  997,083;  642,833;-4094,000
1092,66;  944,083;  624,833;-6031,000
1093,20;  853,083;  580,833;-5180,000
1093,75;  866,083;  566,833;-4998,000
1094,29;  794,083;  486,833;-4979,000
1094,84;  816,083;  525,833;-5890,000
1095,38;  715,083;  528,833;-5097,000
1095,93;  666,083;  584,833;-5981,000
1096,47;  666,083;  615,833;-5612,000
1097,02;  596,083;  587,833;-4985,000
1097,56;  583,083;  614,833;-5772,000
1098,11;  577,083;  552,833;-5774,000
1098,65;  502,083;  508,833;-5992,000
1099,20;  454,083;  577,833;-5935,000
1099,74;  429,083;  487,833;-6002,000
1100,29;  427,083;  513,833;-4879,000
1100,83;  378,083;  496,833;-5934,000

