
Integration time [ms]:   1,000
Averaging Nr. [scans]: 1
Smoothing Nr. [pixels]: 0
Data measured with spectrometer [name]: 1703254U1
Wave   ;Sample   ;Dark     ;Reference;Scope
[nm]   ;[counts] ;[counts] ;[counts] 

 190,08;  -70,037; -370,119;11982,743
 190,69;  -50,707; -359,404;11603,049
 191,29;  -52,299; -311,651;11479,965
 191,90;  -62,419; -365,508;11440,717
 192,50;  -60,599; -379,511;10355,099
 193,10;  -38,995; -446,299;11244,381
 193,71;  -59,349; -367,888; 9821,736
 194,31;  -53,549; -399,273; 9436,327
 194,91;  -53,549; -382,273; 9291,327
 195,52;  -60,713; -338,386;10555,949
 196,12;  -35,584; -397,056; 8671,847
 196,72;  -56,165; -386,394; 8220,904
 197,32;  -59,349; -375,888; 8251,736
 197,93;  -41,610; -360,420; 8700,957
 198,53;  -55,483; -383,145; 7601,797
 199,13;  -62,760; -397,132; 8091,270
 199,74;  -47,068; -366,410; 7263,813
 200,34;  -43,202; -388,667; 7832,874
 200,94;  -40,587; -436,547; 6941,297
 201,55;  -50,707; -406,404; 7119,049
 202,15;  -54,004; -375,773; 6404,732
 202,75;  -85,388; -373,217; 6097,647
 203,36;  -45,021; -338,664; 6822,492
 203,96;  -98,350; -357,943; 6332,678
 204,56;  -48,660; -355,657;10275,729
 205,16;  -56,506; -363,018; 5478,458
 205,77;  -69,923; -360,244; 4767,892
 206,37;  -57,416; -409,017; 5556,267
 206,97;  -61,282; -363,760; 5129,205
 207,58;  -43,657; -364,166; 5927,278
 208,18;  -64,579; -337,129; 5129,889
 208,78;  -61,850; -404,134; 5295,461
 209,38;  -44,339; -469,415; 4958,385
 209,99;  -44,225; -356,540; 3837,534
 210,59;  -45,931; -361,662; 3890,301
 211,19;  -45,135; -364,538; 3938,343
 211,79;  -37,517; -366,927; 4499,316
 212,40;  -66,853; -373,625; 3368,911
 213,00;  -57,529; -388,891; 3903,118
 213,60;  -62,987; -386,882; 2992,972
 214,20;  -78,110; -401,230; 3081,175
 214,81;  -70,492; -422,618; 2884,148
 215,41;  -78,338; -376,979; 3235,877
 216,01;  -99,146; -373,067; 3109,636
 216,61;  -53,436; -367,399; 2814,476
 217,22;  -94,370; -381,326; 2358,888
 217,82; -109,948; -325,173; 2262,495
 218,42;  -88,571; -383,711; 2389,480
 219,02;  -93,461; -288,327; 3432,079
 219,63;  -76,064; -357,483; 2044,854
 220,23;  -79,588; -366,602; 2425,239
 220,83;  -77,655; -395,730; 1901,770
 221,43;  -97,213; -393,195; 1850,167
 222,03; -100,169; -348,940; 2326,296
 222,64;  -81,635; -380,348; 1769,560
 223,24;  -85,615; -298,966; 1625,350
 223,84; -101,648; -376,313; 2637,361
 224,44;  -97,668; -316,695; 2381,571
 225,05;  -93,802; -313,952; 1440,632
 225,65; -100,056; -301,065; 1227,445
 226,25;  -88,344; -364,961; 1139,777
 226,85; -103,467; -294,309;  995,979
 227,45;  -91,300; -335,706; 1083,907
 228,06;  -89,367; -365,834; 1945,438
 228,66;  -88,799; -349,460; 4049,182
 229,26; -101,534; -313,438; 1131,510
 229,86;  -85,274; -396,342; 1760,797
 230,46;  -98,123; -358,194;  891,976
 231,06;  -97,895; -320,444;  757,273
 231,67;  -76,746; -346,732; 1228,961
 232,27; -114,838; -343,789;  778,094
 232,87; -103,922; -308,808;  526,384
 233,47; -118,135; -321,158;  525,777
 234,07;  -69,244; -268,486; 9912,235
 234,67; -129,165; -291,013;  672,338
 235,28; -118,135; -319,158;   65,777
 235,88; -132,917; -316,882;  285,426
 236,48;  -96,645; -350,821;  165,911
 237,08; -100,222; -267,669;  448,518
 237,68; -135,191; -369,378; -267,552
 238,28; -121,025; -304,774; -106,624
 238,89; -132,031; -212,756; -205,723
 239,49; -123,707; -282,023; 1280,483
 240,09; -105,880; -284,608; -190,544
 240,69; -137,920; -251,373; -319,124
 241,29; -117,048; -289,647;  651,036
 241,89; -124,503; -330,147; -260,559
 242,49;  -88,355; -248,490; -358,930
 243,10; -130,716; -201,496; 3664,834
 243,70; -134,355; -284,490;  239,070
 244,30; -124,987; -275,501; -708,594
 244,90; -132,434; -188,582; -568,598
 245,50; -144,926; -177,355; 3274,777
 246,10; -130,416; -307,636; -831,300
 246,70; -137,352; -300,999;   17,620
 247,30; -122,687; -251,641;  326,273
 247,91; -154,408; -208,218; 5781,292
 248,51; -111,950; -270,228; -806,563
 249,11; -120,710; -239,514;  417,933
 249,71; -128,894; -303,008; -667,235
 250,31;  -91,993; -265,483; -567,693
 250,91;  -84,897; -238,500;   75,216
 251,51;  -88,769; -199,225; -822,945
 252,11;  -73,123; -239,813;  367,410
 252,71;  -85,877; -269,117;-1080,994
 253,31; -106,565; -222,348; 3228,013
 253,91;  -97,163; -236,578; -676,170
 254,52; -126,204; -237,342;-1063,750
 255,12;  -98,993; -293,483;-1104,693
 255,72;  -32,559; -206,366;  557,112
 256,32; -140,715; -242,061; -966,674
 256,92; -116,257; -190,070;-1147,529
 257,52;  -12,997; -173,974; -883,243
 258,12; -111,160; -201,087;  -91,621
 258,72; -112,942; -210,810;-1232,972
 259,32;  -70,842; -211,335;-1169,514
 259,92;  -80,571; -199,330;-1343,086
 260,52;  -50,906; -192,973;-1077,433
 261,12;  -78,624; -202,059; -662,865
 261,72; -107,277; -238,452;-1312,319
 262,32;  -64,428; -215,600;-1561,498
 262,92; -105,831; -238,426;  405,627
 263,53;  -37,779; -189,698;-1277,594
 264,13; -128,919; -262,937; -268,632
 264,73;  -81,504; -217,202;-1694,617
 265,33;  -33,849; -188,317;-1708,613
 265,93;  -80,126; -147,304;-1345,140
 266,53;  -68,902; -161,046;-1544,392
 267,13;  -51,246; -139,161; -857,388
 267,73;  -75,065; -185,158;  270,230
 268,33;  -96,409; -166,274;-1788,766
 268,93;  -68,321; -213,708;-1702,449
 269,53; -103,243; -204,670; -644,839
 270,13;  -73,219; -201,797;-1810,499
 270,73;  -94,132; -245,287;-1891,239
 271,33;  -72,694; -200,678;-1778,884
 271,93;  -85,925; -242,919;-1867,732
 272,53;  -46,509; -121,748;    8,776
 273,13;  -12,604; -146,677;-1117,075
 273,73;  -82,780; -119,753;-1955,652
 274,33;  -72,922; -148,428;-2041,182
 274,93;  -88,733; -188,007;-1843,972
 275,53;  -75,509;  -68,748;-1881,224
 276,13;  -70,384; -121,965;-2261,935
 276,73; -111,218; -118,361;-1570,007
 277,33;  -56,092; -179,522;-1926,659
 277,93;  -38,785; -213,680;-1864,693
 278,53;  -36,272; -194,526;-2112,278
 279,13;  -79,188; -125,506;-2152,568
 279,73; -110,736; -140,498;-1388,522
 280,33;  -63,961; -154,756;-2179,270
 280,93;  -48,011; -105,994;-2049,499
 281,53;  -73,663; -147,387;-2252,953
 282,13;  -65,308; -127,363;-2193,816
 282,73;  -82,486; -156,875; -385,885
 283,33;  -79,305; -137,872;-2307,266
 283,92;  -20,562;  -74,477;-2028,003
 284,52;  -66,355;  -94,109;-2365,496
 285,12;  -33,182; -138,524;-1425,469
 285,72;  -27,750; -126,898;-1041,213
 286,32;  -66,532;  -55,622;-1313,564
 286,92;  -54,001; -163,521;-2376,850
 287,52;   -5,911;  -89,519;-2170,041
 288,12;   -3,322;  -97,763;-2542,507
 288,72;  -22,289; -106,417;-1625,518
 289,32;  -52,201;  -54,470; 1692,233
 289,92;  -69,229; -106,270;-2344,148
 290,52; -114,782;  -91,809;-2485,710
 291,12;  -47,101;  -57,996;-1570,308
 291,72;  -59,562;  -74,477;-1590,003
 292,32;  -35,800;  -83,135;-2372,442
 292,92;    9,123;   -2,737;-2481,560
 293,51;  -36,451;  -37,093;-2532,404
 294,11;   -3,987;  -42,121;-1681,160
 294,71;   14,806;   -7,488;-2695,667
 295,31;    5,762;  -24,743;-1755,797
 295,91;   89,946;   46,751;-2713,629
 296,51;   71,776;   62,656;-1776,106
 297,11;   27,061;   35,061;-2900,988
 297,71;   19,876;    4,131;-2726,648
 298,31;   94,771;   38,730;-2329,148
 298,91;   76,217;   74,756;-2483,202
 299,50;   46,371;   41,395;-2689,473
 300,10;  140,464;  145,887;-2706,114
 300,70;  132,709;   95,528;-2492,576
 301,30;  116,581;   89,253;-2855,415
 301,90;  105,310;   96,248;-2004,843
 302,50;   86,873;  163,640;-2515,198
 303,10;  185,605;  124,126;-2530,076
 303,70;  156,957;  208,660;-3000,488
 304,29;  115,181;  189,918;-2658,740
 304,89;   69,767;  266,183;-1090,755
 305,49;  158,362;  163,922;-2773,122
 306,09;  198,966;  214,133;-2874,839
 306,69;  248,133;  262,736;-2915,911
 307,29;  222,200;  312,865;-2008,442
 307,89;  219,094;  303,408;-3029,000
 308,48;  259,211;  341,774;-2453,301
 309,08;  376,721;  369,492;-2743,377
 309,68;  477,712;  377,019;-3094,026
 310,28;  565,250;  371,102;-2576,213
 310,88;  587,232;  321,211;-2936,453
 311,48;  566,173;  447,500;-2875,331
 312,07;  638,835;  408,367;-2963,228
 312,67;  745,658;  497,855;-2128,297
 313,27;  573,282;  494,448;-1105,224
 313,87;  665,293;  583,357;-2164,083
 314,47;  669,098;  516,954;-3030,392
 315,06;  660,148;  620,191; 2713,837
 315,66;  517,996;  579,988;-3245,400
 316,26;  651,195;  632,938;-1844,483
 316,86;  741,911;  777,969;-3140,110
 317,46;  778,493;  720,307;-2115,167
 318,06;  683,309;  739,813; -825,335
 318,65;  797,676;  781,801;-2807,999
 319,25;  823,496;  821,798;-3195,617
 319,85;  891,067;  932,663;-2908,323
 320,45;  940,137;  986,283;-3213,304
 321,05; 1060,505;  901,271;-2761,968
 321,64; 1028,820;  889,531;-3219,411
 322,24; 1409,949; 1056,861;-3265,513
 322,84; 1874,133; 1080,356;-3261,345
 323,44; 2820,584; 1133,364;-3219,300
 324,03; 7227,290; 1194,486;-3072,067
 324,63; 9223,393; 1250,452;-2310,059
 325,23; 5228,583; 1241,928;-3097,792
 325,83; 2351,662; 1367,021;-2876,123
 326,42; 3899,739; 1442,622;-3285,005
 327,02; 7242,764; 1476,551;-3076,607
 327,62; 6641,030; 1439,629;-2505,221
 328,22; 3789,150; 1553,486;-3234,973
 328,82; 3271,426; 1577,037;-2229,938
 329,41; 2724,197; 1658,852;-3016,728
 330,01; 3065,505; 1652,750;-2961,704
 330,61; 3536,641; 1806,062;-2928,707
 331,20; 2842,136; 1778,325;-2868,531
 331,80; 2289,385; 1762,512;-2794,386
 332,40; 1984,829; 1752,102;-2896,932
 333,00; 1916,828; 1933,667;-2790,423
 333,59; 1950,539; 1748,771;-2855,091
 334,19; 1983,094; 1920,745;-1771,037
 334,79; 1889,937; 1712,615;-2861,316
 335,39; 1809,690; 1729,919;-2978,912
 335,98; 1895,448; 1726,714;-3126,958
 336,58; 1716,971; 1659,777;-3191,401
 337,18; 1689,061; 1720,779;-2958,592
 337,77; 1758,313; 1782,837;-2098,463
 338,37; 1701,033; 1806,359;-2021,540
 338,97; 1583,388; 1907,384;-2912,402
 339,57; 1687,387; 1862,948;-3044,894
 340,16; 1715,938; 1836,431;-2881,390
 340,76; 1613,427; 1962,712;-3053,314
 341,36; 1619,851; 1861,920;-3195,650
 341,95; 1706,024; 1934,506;-3027,623
 342,55; 1483,117; 1918,998;  703,736
 343,15; 1403,720; 2048,155;-3094,039
 343,74; 1440,633; 1924,644;-2382,298
 344,34; 1617,884; 1860,267;-3015,661
 344,94; 1830,379; 2068,530;-3069,485
 345,53; 1720,519; 2110,769;-2860,447
 346,13; 1713,131; 2174,398;-1283,573
 346,73; 1767,217; 1966,473;-2254,805
 347,32; 1932,904; 2268,649;-3080,871
 347,92; 1946,194; 2312,600;-2277,145
 348,52; 1803,018; 2270,523;-1878,722
 349,11; 1588,553; 2336,551;  975,034
 349,71; 1587,446; 2330,658;-3240,016
 350,31; 1682,499; 2441,387;-2672,237
 350,90; 1884,215; 2483,418;-2326,863
 351,50; 2103,057; 2390,852;-2105,634
 352,10; 2282,732; 2471,119;-3114,840
 352,69; 2242,245; 2532,273;-3182,424
 353,29; 2083,563; 2563,024;-3191,317
 353,89; 1913,198; 2645,527;-3255,104
 354,48; 1740,732; 2693,119;-3208,840
 355,08; 1789,124; 2871,980;-1117,164
 355,67; 1664,557; 2850,042;-2951,417
 356,27; 1647,275; 2839,128;-3232,985
 356,87; 1653,058; 3010,288;-3383,142
 357,46; 1649,938; 3049,431;-2351,390
 358,06; 1684,239; 3306,291;-3073,523
 358,66; 1921,933; 3337,504;-3109,432
 359,25; 2429,784; 3260,792;-2344,119
 359,85; 2843,898; 3365,667;-3215,970
 360,44; 2537,021; 3389,015;-3292,172
 361,04; 2333,720; 3567,155;-2367,039
 361,64; 2423,720; 3696,155;-2309,039
 362,23; 2349,656; 3772,517;-2932,958
 362,83; 2138,362; 3755,639;-2990,726
 363,42; 2034,519; 3938,769;-2836,447
 364,02; 2006,105; 3910,034;-2973,462
 364,62; 2019,131; 3816,398;-2486,573
 365,21; 1995,754; 3857,937;-1741,558
 365,81; 2017,229; 3935,818;-2792,173
 366,40; 1896,641; 3970,062;-2080,707
 367,00; 1903,463; 4021,550;-2952,776
 367,59; 1960,952; 4071,831;-2979,699
 368,19; 2037,530; 4221,678;-3237,306
 368,79; 2074,879; 4198,720;-3125,268
 369,38; 1946,250; 4107,200;-2250,383
 369,98; 1995,935; 4101,940;-2935,940
 370,57; 1879,631; 4188,588;-3331,356
 371,17; 1920,578; 4164,860;-3326,135
 371,76; 1832,010; 4277,486;-3442,879
 372,36; 1885,173; 4057,598;-3195,501
 372,95; 1731,756; 4115,372;  667,934
 373,55; 1916,187; 4105,998;-3393,811
 374,14; 2027,719; 4300,099;-3405,097
 374,74; 2021,546; 4256,514;-3224,124
 375,34; 1980,103; 4286,979;-3189,521
 375,93; 1973,648; 4295,479;-2706,116
 376,53; 1953,451; 4344,585;-3575,974
 377,12; 2013,078; 4405,670;-1465,352
 377,72; 2011,421; 4480,730;-3410,414
 378,31; 2095,743; 4511,027;-2274,699
 378,91; 2035,848; 4291,429;-3262,199
 379,50; 2059,902; 4588,213;-3331,363
 380,10; 2034,625; 4327,226;-3398,890
 380,69; 2103,368; 4094,621;-2343,626
 381,29; 1980,622; 4586,735;-2550,439
 381,88; 1974,887; 4518,758;-1605,111
 382,48; 1851,170; 4519,727;-3286,485
 383,07; 1892,873; 4495,358;-3457,802
 383,67; 1744,887; 4635,758;-1847,111
 384,26; 1847,211; 4667,491;-2467,905
 384,86; 1832,876; 4921,849;-3182,252
 385,45; 1855,181; 4932,636;-3325,344
 386,05; 1835,645; 5073,608;-3419,100
 386,64; 1818,318; 4911,384;-3524,855
 387,24; 1805,502; 5016,878;-2585,688
 387,83; 1788,385; 4993,512;-2489,386
 388,42; 1759,240; 5182,346;-2109,466
 389,02; 1780,345; 5423,748;-3235,966
 389,61; 1766,195; 5688,036;-3413,653
 390,21; 1758,502; 5729,878;-3463,688
 390,80; 1668,770; 5816,392;-3208,810
 391,40; 1808,677; 6137,899;-2293,168
 391,99; 1782,648; 5981,099;-3195,550
 392,59; 1856,071; 6435,252;-2416,943
 393,18; 1765,131; 6683,398;-2491,573
 393,77; 1774,159; 6883,198;-3238,192
 394,37; 1773,356; 7145,657;-2198,825
 394,96; 1778,402; 7098,403;-2296,146
 395,56; 1677,631; 7264,588;-2834,356
 396,15; 1869,055; 6867,797;-3125,692
 396,75; 1837,172; 7343,163;-2889,993
 397,34; 1847,935; 7669,940;-2620,940
 397,93; 1873,617; 7720,188;-3358,047
 398,53; 1925,613; 7595,262;-2525,088
 399,12; 2124,930; 8192,013;-2154,981
 399,72; 2100,732; 8013,119;-2274,840
 400,31; 2067,820; 8034,629;-3169,581
 400,91; 2134,840; 8446,012;-2959,791
 401,50; 2215,159; 8820,198;-2330,192
 402,09; 2385,226; 8550,327;-2894,722
 402,69; 2354,527; 8691,187;-3072,856
 403,28; 2289,717; 9052,663;-2983,588
 403,88; 2364,005; 9162,560; 1927,079
 404,47; 2466,952; 9689,831;  884,300
 405,06; 2410,624; 9684,171;  -68,947
 405,66; 2726,366; 9753,565;-2875,684
 406,25; 2954,879;10085,720;-3119,268
 406,84; 2837,985;10446,177;-2892,711
 407,44; 2525,488;10847,858;-2219,944
 408,03; 2182,412;10422,257;-2906,063
 408,63; 2060,905;10373,085;-3011,379
 409,22; 2017,360;10191,584;-1945,783
 409,81; 2026,639;10681,007;-1849,765
 410,41; 2127,544;11553,078;-2857,615
 411,00; 2043,214;11336,362;-1814,921
 411,59; 2038,893;11251,120;-2826,578
 412,19; 2088,491;11468,350;-2245,394
 412,78; 1903,695;11399,226;-2830,436
 413,37; 1898,572;12151,878;-2704,234
 413,97; 1880,455;12410,512;-2618,933
 414,56; 1872,094;12071,506;-2503,169
 415,15; 1933,930;12410,394;-2121,547
 415,75; 1898,432;12408,639;-2698,272
 416,34; 1911,231;12590,254;-1893,681
 416,93; 1956,898;12922,047;-2777,536
 417,53; 2066,603;12696,169;-1423,303
 418,12; 2057,493;12570,785;-2217,903
 418,71; 2008,882;12907,592;-2673,285
 419,31; 2030,594;13054,695;-1884,952
 419,90; 2034,483;13470,313;-2786,552
 420,49; 1992,670;13619,298;-1733,834
 421,08; 2003,670;14201,298;-1674,834
 421,68; 1995,466;14723,421;-1908,792
 422,27; 2010,113;14035,832;-2004,437
 422,86; 2013,343;13874,073; -437,590
 423,46; 2061,240;14080,107;-2575,598
 424,05; 2197,779;14376,626;-2928,293
 424,64; 2292,728;13888,953;-2640,014
 425,24; 2410,698;14092,098;-2903,453
 425,83; 2260,114;13992,269;-2680,945
 426,42; 2299,779;12987,626;-2760,293
 427,01; 3353,762;13424,734;-2674,533
 427,61; 3642,371;14347,873;-2609,209
 428,20; 2513,679;14036,151;-1764,751
 428,79; 2108,239;14414,052;-2859,656
 429,38; 2173,097;14092,377;-1781,186
 429,98; 2067,067;14922,521; -994,625
 430,57; 2146,371;15058,873;-2193,209
 431,16; 2160,729;14580,389;-2784,522
 431,75; 2236,359;14357,909; -561,407
 432,35; 2375,817;13435,899;-1951,262
 432,94; 2346,577;14429,186;-2324,759
 433,53; 2347,007;14560,375;-1152,995
 434,12; 2545,740;14431,298;-2267,381
 434,72; 2522,637;14188,331;-1413,389
 435,31; 2609,845;14167,699; 7395,119
 435,90; 2595,888;14308,954; 8338,249
 436,49; 2429,273;13427,834; -683,175
 437,08; 2777,708;13895,951; -675,370
 437,68; 3018,912;14442,827;-2987,412
 438,27; 2625,468;14610,237;-2610,866
 438,86; 2278,183;14612,832;-1147,984
 439,45; 2168,451;15313,346;-1937,106
 440,05; 1981,307;15955,616;-2982,694
 440,64; 1983,164;15054,886;-1902,282
 441,23; 1960,318;14152,525;-1415,553
 441,82; 2004,384;13700,218;-2631,576
 442,41; 1697,726;14351,277;-3014,637
 443,00; 1621,332;13625,925;-2724,863
 443,60; 1694,893;14373,881;-3136,710
 444,19; 1633,222;15026,541;-1440,462
 444,78; 1627,750;14960,151;-3012,298
 445,37; 1563,810;15728,297;-2522,928
 445,96; 1631,100;15331,249;-3116,202
 446,56; 1558,860;15596,535;-1144,698
 447,15; 1485,740;16225,678; -884,947
 447,74; 1649,155;17097,412;-2709,931
 448,33; 1565,122;16443,066;-1985,920
 448,92; 1569,690;15422,440;-2964,176
 449,51; 1524,440;15095,817;-2848,813
 450,10; 1965,754;15133,078;-3063,256
 450,70; 2440,145;14904,939;-1957,581
 451,29; 2120,099;15329,193;-1112,260
 451,88; 1692,379;15513,671;-2929,183
 452,47; 1735,490;16565,055;-2795,584
 453,06; 1854,943;16495,498;-2401,047
 453,65; 2211,602;16071,874;-2873,493
 454,24; 1972,080;17329,246;-2173,558
 454,84; 1625,002;17793,209;-1379,168
 455,43; 1518,762;18732,496;-2219,665
 456,02; 1465,949;18879,480;-2927,947
 456,61; 1439,684;17317,459;-2925,275
 457,20; 1503,514;16921,363;-2786,753
 457,79; 1751,736;17588,131;-2922,554
 458,38; 2528,983;18338,264;-2132,467
 458,97; 2485,732;18039,641;-2515,104
 459,56; 1716,768;18190,479;-2760,565
 460,16; 1608,712;17832,258;-2082,894
 460,75; 1554,937;18157,518;-2072,146
 461,34; 1505,324;18077,887;-2962,020
 461,93; 1471,717;18381,186;-2200,853
 462,52; 1601,706;19333,275;-2744,993
 463,11; 1700,352;20546,688;-1989,639
 463,70; 1880,823;19458,643;-2869,295
 464,29; 2602,095;19945,082;-3150,376
 464,88; 4015,877;20795,807;-2743,024
 465,47; 3478,248;19885,285;-2748,139
 466,06; 2056,798;20915,713;-3191,692
 466,65; 1983,008;21667,572;-3018,635
 467,24; 2295,226;22030,848;-2539,986
 467,84; 2202,542;22443,164;-2020,371
 468,43; 1879,288;22325,051;-2238,559
 469,02; 1943,904;23517,170;-2702,135
 469,61; 2268,944;24168,936;-2593,555
 470,20; 2506,011;23781,063;-2841,085
 470,79; 2168,089;22760,100;-3232,475
 471,38; 1711,025;25266,463;-2192,395
 471,97; 1542,882;26009,732; -666,983
 472,56; 1487,304;25472,887;-3035,376
 473,15; 1438,113;25296,975;-2825,135
 473,74; 1480,497;26395,854;-3106,559
 474,33; 1426,136;25866,848;-2957,796
 474,92; 1557,681;27630,348;-3146,391
 475,51; 1609,648;29609,002;-2873,380
 476,10; 1604,835;29847,986;-3011,662
 476,69; 1827,324;26101,268;-2855,586
 477,28; 1800,028;25846,955;-2956,845
 477,87; 1688,264;27035,121; -173,956
 478,46; 1774,712;28695,639;-3029,460
 479,05; 2126,999;30507,100;-2134,284
 479,64; 2083,147;31679,756;-2718,655
 480,23; 1870,464;29541,508;-2845,548
 480,82; 1806,377;28549,996;-2736,807
 481,41; 1844,645;29371,510;-1873,929
 482,00; 1836,214;29284,885;-1364,185
 482,59; 1801,468;29593,998;-2298,998
 483,18; 1815,969;31702,244;-2376,723
 483,77; 1788,167;31703,139;-2193,865
 484,36; 1835,648;32475,002;-1701,380
 484,95; 1897,114;32990,410; -788,643
 485,54; 2031,365;35331,031;-1371,006
 486,13; 2242,287;35762,996; -945,616
 486,72; 2337,077;34334,137;  148,326
 487,31; 2105,318;31046,285;-1109,686
 487,89; 2063,351;32608,633; -193,697
 488,48; 2055,522;33798,164;-1523,728
 489,07; 2121,285;32913,941;-1248,674
 489,66; 2362,073;33511,645;-1505,224
 490,25; 2687,041;31095,299; -660,212
 490,84; 2997,217;34127,375;-1683,635
 491,43; 3522,809;34965,621; -701,552
 492,02; 3489,435;36094,652;-1864,987
 492,61; 3536,117;35362,902;-1043,094
 493,20; 3489,108;33776,426;-2019,743
 493,79; 3469,469;32749,434; 4824,494
 494,38; 3373,997;33706,043;-1938,342
 494,97; 3212,924;32583,934; -629,911
 495,55; 3076,673;34690,309;-2325,548
 496,14; 2819,729;35087,531;-2403,220
 496,73; 2626,807;35451,566;-1952,609
 497,32; 2462,078;34211,570;-2587,182
 497,91; 2445,737;35005,949;-1921,629
 498,50; 2549,329;34165,195;-2912,544
 499,09; 2569,078;34554,570;-3088,182
 499,68; 2570,443;32403,070;-2405,396
 500,27; 2631,885;33321,605;-2490,999
 500,85; 2740,052;32655,207;-2604,071
 501,44; 2778,390;32478,342;-2576,175
 502,03; 2624,734;33194,457;-3368,178
 502,62; 2474,352;31275,068;-3438,205
 503,21; 2520,687;29432,711;-3532,858
 503,80; 2383,069;32028,100;-2976,831
 504,39; 2284,153;32451,119;-3458,121
 504,97; 2344,634;31774,982;-3577,636
 505,56; 2531,072;31537,590;-2979,281
 506,15; 2573,119;32302,336;-3991,602
 506,74; 2786,608;32557,617;-2945,526
 507,33; 2865,992;32185,498;-3165,949
 507,92; 2808,838;33952,859;-3871,678
 508,51; 2383,183;35926,973;-3735,682
 509,09; 2491,331;34536,629;-3921,053
 509,68; 3456,625;34318,508;-3748,286
 510,27; 5304,274;33667,410;-3799,381
 510,86; 4306,214;32572,264;-4081,751
 511,45; 2378,715;33677,512;-3843,476
 512,03; 2345,748;34524,855;-3829,488
 512,62; 2348,550;36240,961;-3780,346
 513,21; 2356,114;33870,789;-3186,209
 513,80; 3174,479;34644,289;-3501,423
 514,39; 5410,146;32752,137;-3905,221
 514,97; 8262,662;35347,781;-4095,255
 515,56; 6069,974;34167,551;-4198,248
 516,15; 2798,151;35428,063;-3955,179
 516,74; 2254,195;32584,318;-4420,049
 517,33; 1988,402;33459,688;-3549,542
 517,91; 1996,088;33935,426;-4188,099
 518,50; 2021,281;32563,393;-3264,282
 519,09; 2314,832;33942,875;-3157,778
 519,68; 2781,980;35231,531;-4286,148
 520,26; 3693,703;38679,547;-4232,675
 520,85; 6720,047;39452,660;-4352,679
 521,44;12034,965;40826,078;-4358,897
 522,03; 9164,342;39485,539;-4271,912
 522,61; 3334,964;36773,078;-4364,897
 523,20; 2070,597;33924,090;-4337,233
 523,79; 1842,142;32040,590;-4337,828
 524,38; 1692,218;32850,191;-4344,709
 524,96; 1610,580;35883,199;-4321,473
 525,55; 1464,352;36021,449;-4542,771
 526,14; 1387,480;34018,723;-4434,931
 526,73; 1378,784;32852,074;-4389,515
 527,31; 1346,466;32903,324;-4488,622
 527,90; 1293,352;33630,449;-4564,771
 528,49; 1635,175;34155,938;-2529,839
 529,08; 2008,641;34601,344;-3467,103
 529,66; 1849,172;34848,445;-3911,389
 530,25; 1326,463;35279,832;-4414,172
 530,84; 1254,821;35334,348;-4583,485
 531,42; 1171,591;38583,105;-4365,332
 532,01; 1146,159;37528,480;-4291,588
 532,60; 1071,494;34512,125;-4473,241
 533,18;  923,507;35538,086;-4078,042
 533,77; 1010,795;34969,984;-4236,374
 534,36; 1070,436;34459,469;-4374,061
 534,95; 1148,888;35483,477;-4088,015
 535,53; 1239,687;34236,090; -974,424
 536,12; 1150,343;36469,977;-2657,420
 536,71; 1132,296;36511,230;-3869,099
 537,29; 1115,859;36073,621;-3618,454
 537,88; 1163,964;33908,078;-3454,897
 538,47; 1140,360;32497,867;-2840,180
 539,05; 1320,748;36837,238;-2139,054
 539,64; 1200,167;40414,898;-1785,997
 540,22; 1072,491;37414,633; -764,790
 540,81; 1150,739;37501,766; 1008,297
 541,40; 1097,310;39018,629; 3425,591
 541,98;  978,477;38188,230; 4858,519
 542,57; 1074,343;39368,977; 4597,580
 543,16; 1062,407;38645,613; 4952,500
 543,74; 1046,069;35774,480; 4083,603
 544,33; 1044,354;36297,883; 3620,721
 544,92;  960,535;37217,887; 3973,339
 545,50; 1082,521;37338,488;11456,648
 546,09; 1189,711;40064,965;11359,916
 546,67; 1082,570;41948,727; 2857,878
 547,26; 1066,778;40050,094; -202,615
 547,85; 1000,616;39208,414; -567,501
 548,43; 1008,039;38452,625; -849,836
 549,02;  957,200;39427,246;-1040,008
 549,60; 1033,243;40570,500; -984,878
 550,19;  969,517;41166,996;-2192,901
 550,78;  946,902;42660,875;-2328,325
 551,36;  944,849;45349,148;-2432,104
 551,95;  994,999;45443,859; -585,416
 552,53;  996,103;43280,262; -296,916
 553,12; 1160,776;41420,035;-3431,672
 553,70; 1115,773;43188,547;-2878,222
 554,29;  999,240;44058,008;-2869,428
 554,88;  926,478;41831,668;-4247,989
 555,46;  972,324;43723,027;-3881,718
 556,05;  963,112;45007,734;-4207,268
 556,63;  923,374;45206,266;-3396,489
 557,22;  991,771;43875,109;-3394,714
 557,80;  948,558;41749,762;-3568,321
 558,39;  932,380;44188,250;-4145,390
 558,97;  876,444;47993,887;-3699,470
 559,56;  903,217;49889,137;-4544,768
 560,15;  948,715;50117,891;-3611,042
 560,73;  940,211;49814,152;-4287,867
 561,32; 1053,317;47024,609;-3741,309
 561,90;  984,799;46041,910;-4382,333
 562,49; 1038,176;48487,371;-3786,348
 563,07; 1000,899;48074,387;-4783,875
 563,66; 1042,126;50064,133;-4352,577
 564,24; 1024,578;49228,145;-4763,531
 564,83; 1013,298;51344,664;-4603,607
 565,41; 1008,267;53840,375;-4329,539
 566,00;  984,753;52202,164;-2755,012
 566,58; 1081,357;56465,375;-3725,729
 567,17; 1076,605;56909,508;-4280,642
 567,75; 1084,541;52392,871;-4653,562
 568,34;  980,100;55893,770;-3216,466
 568,92;  993,274;55738,793;-3987,947
 569,51; 1393,896;54852,895; 2680,576
 570,09; 1388,260;58247,391;-4676,638
 570,68;  955,904;53188,313;-4788,833
 571,26;  841,109;50733,242;-3886,817
 571,85;  878,293;57347,738;-4822,649
 572,43;  923,538;57011,379;-4704,111
 573,01;  867,447;52662,375;-4873,920
 573,60;  805,421;53819,012;-3785,810
 574,18;  804,103;55122,262;-4514,917
 574,77;  812,916;53284,277;-4737,634
 575,35;  859,421;56113,012;-4452,810
 575,94;  815,010;57300,770;-4076,275
 576,52;  847,464;54049,270;-2249,680
 577,11; 1007,000;51620,297;-3244,924
 577,69; 2437,225;48685,555;-3183,176
 578,27; 2452,517;51008,996;-3447,901
 578,86; 1037,682;55198,543;-2994,031
 579,44;  857,969;60080,004;-2805,855
 580,03;  934,307;60164,137;-2493,958
 580,61;  889,645;60267,270;-3206,062
 581,19;  868,665;56429,652;-2538,271
 581,78;  792,359;55361,813;-2364,238
 582,36;  738,415;57656,031;-2911,909
 582,95;  879,114;56180,172;-1497,776
 583,53;  791,321;59586,539;-2319,268
 584,11;  915,264;61608,883;-2241,088
 584,70;  885,027;61691,660;-1948,035
 585,28;  943,712;62070,398;-1853,592
 585,87;  793,793;60436,930;-2889,432
 586,45;  792,683;63023,543;-2375,031
 587,03;  703,338;64945,430;-1150,027
 587,62;  756,943;61494,641;-1834,745
 588,20;  860,458;62236,285;-1020,779
 588,78;  886,985;58157,840;-3411,673
 589,37;  886,464;57765,270;-3360,680
 589,95;  808,190;62238,773;-3385,657
 590,54;  766,411;63633,539;-3461,459
 591,12;  793,271;62116,301;-3508,497
 591,70;  851,094;59586,789;-3331,565
 592,29;  787,907;62881,805;-2923,283
 592,87;  806,267;63542,375;-2394,538
 593,45;  804,816;63404,801; 1487,908
 594,04;  791,108;62800,188;-3676,875
 594,62;  901,799;59709,910;-3708,333
 595,20;  797,262;62066,828;-4371,146
 595,79;  807,368;62681,285;-4165,588
 596,37;  822,225;61108,555;-3657,176
 596,95;  775,843;56922,164;-4321,203
 597,53;  775,100;58806,770;-4226,466
 598,12;  789,432;61848,922;-3959,669
 598,70;  820,050;64932,531;-3776,695
 599,28;  804,267;64911,375;-3404,538
 599,87;  850,552;64929,777;-3061,420
 600,45;  848,820;64938,293;-3907,543
 601,03;  785,732;63145,781;-4100,802
 601,62;  807,108;61727,188;-4468,875
 602,20;  758,435;59786,414;-4541,119
 602,78;  734,673;64399,070;-4770,680
 603,36;  778,362;64783,301;-3166,688
 603,95;  808,916;58863,277;-4492,634
 604,53;  737,187;62401,281;-4574,207
 605,11;  758,922;59505,258;-2755,535
 605,69;  764,391;62362,156;-3365,249
 606,28;  781,907;62594,805;-4223,283
 606,86;  790,977;61629,422;-3946,264
 607,44;  752,773;60431,547;-3906,222
 608,02;  752,997;58047,805;-4037,474
 608,61;  818,478;60099,668;-2866,989
 609,19;  826,796;58582,418;-2582,882
 609,77;  810,887;57398,422; -710,073
 610,35;  818,003;55748,785; 5794,625
 610,94;  813,612;56509,926;14509,949
 611,52;  754,478;55803,668;12610,011
 612,10;  677,419;53026,957; 8432,133
 612,68;  606,877;56637,949; 2694,278
 613,26;  667,134;57037,551; 2032,015
 613,85;  661,703;61759,926; -599,241
 614,43;  699,161;62306,918;-1030,096
 615,01;  667,740;62272,199;-1215,211
 615,59;  698,897;64874,328; -972,932
 616,17;  709,485;59402,648;-2561,890
 616,76;  736,444;62178,887;-2993,470
 617,34;  800,156;62666,988;-2389,138
 617,92;  719,100;58547,770;-3399,466
 618,50;  767,665;61202,652;-2562,271
 619,08;  829,505;57928,031;-2514,100
 619,67;  810,753;55968,164;-3196,012
 620,25;  813,943;54290,641;-2743,745
 620,83;  810,820;50498,293;-3495,543
 621,41;  814,636;52314,797;-2800,711
 621,99;  785,659;54560,672;-2529,371
 622,57;  825,397;55529,141;-3707,149
 623,15;  760,899;56213,387;-3783,875
 623,74;  789,835;58266,746;-3892,794
 624,32;  789,287;59330,754;-2827,749
 624,90;  785,257;58625,898;-2311,188
 625,48;  772,137;57897,043;-3132,436
 626,06;  879,260;56898,391;-4006,638
 626,64;  816,969;57787,004;-4162,855
 627,22;  731,873;58993,020;-3409,764
 627,81;  768,133;58046,117;-4334,478
 628,39;  736,669;57121,145;-4560,722
 628,97;  746,910;56597,293;-4437,733
 629,55;  761,926;55377,750;-4219,985
 630,13;  763,645;55669,270;-2959,062
 630,71;  713,806;54162,891;-2747,233
 631,29;  748,916;53129,277;-3824,634
 631,87;  760,514;52776,504;-4223,451
 632,45;  726,485;52786,648;-4716,890
 633,03;  688,153;54183,500;-4191,688
 633,62;  690,187;55423,281;-4714,207
 634,20;  653,204;54882,172;-4089,966
 634,78;  663,698;56497,000;-4430,283
 635,36;  645,304;56701,648;-4449,508
 635,94;  668,809;55183,383;-5398,684
 636,52;  655,123;51027,645;-5422,126
 637,10;  576,843;52116,164;-5488,203
 637,68;  631,779;50694,527;-4702,123
 638,26;  610,016;47618,750;-5536,176
 638,84;  614,438;48688,902;-5421,569
 639,42;  547,843;49235,164;-3756,203
 640,00;  646,666;51366,148;-5405,726
 640,58;  662,435;54579,402;-4806,027
 641,16;  623,205;55521,656;-5571,328
 641,74;  638,975;53214,906;-5433,630
 642,32;  572,745;50106,160;-5620,931
 642,90;  594,515;50434,414;-5856,232
 643,48;  570,284;49231,668;-5786,534
 644,06;  624,054;49280,922;-5796,835
 644,64;  601,824;49595,176;-5842,137
 645,22;  512,594;50513,430;-5562,438
 645,80;  537,363;50547,684;-4957,740
 646,39;  537,133;48107,938;-5515,041
 646,97;  559,903;49773,191;-5850,342
 647,54;  544,673;52328,441;-5717,644
 648,12;  554,442;54879,695;-5865,945
 648,70;  494,212;58954,949;-5885,247
 649,28;  525,982;56421,203;-6090,548
 649,86;  529,752;51091,457;-5609,850
 650,44;  513,521;48619,711;-5452,151
 651,02;  558,291;49970,965;-5474,452
 651,60;  456,061;51793,219;-5803,753
 652,18;  499,831;51320,473;-4735,055
 652,76;  469,601;53277,723;-5934,356
 653,34;  457,370;54817,977;-5939,658
 653,92;  414,140;57729,230;-5784,959
 654,50;  532,910;59042,484;-5818,261
 655,08;  514,680;58048,738;-5841,562
 655,66;  545,449;55058,992;-5115,863
 656,24;  545,219;56743,246;-5200,165
 656,82;  540,989;58989,500;-4979,466
 657,40;  492,759;58967,754;-5667,768
 657,98;  467,528;60169,008;-5486,069
 658,56;  506,298;61114,258;-5717,371
 659,14;  488,068;61380,512;-5913,672
 659,72;  479,838;63381,766;-5916,973
 660,29;  407,608;62437,020;-5907,275
 660,87;  481,377;59738,273;-5212,576
 661,45;  456,147;58590,527;-5664,877
 662,03;  448,917;57513,781;-4971,179
 662,61;  494,687;54945,035;-5638,480
 663,19;  418,456;54618,289;-5657,782
 663,77;  387,226;53917,543;-5939,083
 664,35;  408,996;56689,793;-5887,384
 664,93;  404,766;62595,047;-4922,686
 665,51;  465,535;61993,301;-6033,987
 666,08;  463,305;57747,555;-5652,289
 666,66;  438,075;51859,809;-4400,590
 667,24;  428,845;49420,063;-5952,892
 667,82;  418,614;50250,316;-5849,193
 668,40;  392,384;50723,570;-5932,494
 668,98;  427,154;51952,824;-5097,796
 669,56;  404,924;57957,078;-6096,097
 670,13;  343,694;61797,328;-6222,398
 670,71;  398,463;59698,582;-5900,700
 671,29;  389,233;57209,836;-6139,001
 671,87;  403,003;56814,090;-6051,303
 672,45;  397,773;51822,344;-6050,604
 673,03;  528,542;52592,598;-4769,906
 673,60;  548,312;58431,852;-3503,207
 674,18;  667,082;63679,105;-5938,508
 674,76;  531,852;61159,359;-6226,810
 675,34;  503,621;56361,613;-5251,111
 675,92;  434,391;55284,863;-6338,413
 676,50;  424,161;55051,117;-6085,714
 677,07;  431,931;56952,371;-6095,016
 677,65;  419,701;56680,625;-6163,317
 678,23;  373,470;55997,879;-5057,618
 678,81;  393,240;58016,133;-5299,919
 679,38;  410,010;56669,387;-5969,221
 679,96;  395,780;53267,641;-5846,522
 680,54;  359,549;55171,895;-5308,824
 681,12;  372,319;52485,148;-6126,125
 681,70;  354,089;54786,398;-4413,427
 682,27;  405,859;54740,652;-5851,728
 682,85;  350,628;58265,906;-5991,029
 683,43;  330,398;64943,160;-6140,331
 684,01;  361,168;64943,414;-5172,632
 684,58;  321,938;64307,668;-5138,934
 685,16;  369,707;64236,922;-4494,235
 685,74;  361,477;62790,176;-3853,536
 686,32;  359,247;59009,430;-6012,838
 686,89;  383,017;59552,684;-6015,139
 687,47;  340,786;59534,934;-6076,441
 688,05;  420,556;56416,188;-6019,742
 688,63;  380,326;59626,441;-6102,043
 689,20;  361,096;62884,695;-5971,345
 689,78;  408,866;58427,949;-5530,646
 690,36;  397,635;54291,203;-5381,948
 690,93;  405,405;54968,457;-6355,249
 691,51;  429,175;61453,711;-6326,550
 692,09;  399,945;64946,965;-6223,852
 692,67;  367,714;64947,219;-6047,153
 693,24;  307,484;60968,469;-5803,455
 693,82;  285,254;59538,723;-6235,756
 694,40;  377,024;58049,977;-3570,058
 694,97;  300,793;57456,230;-6046,359
 695,55;  342,563;59820,484;-5464,660
 696,13;  372,333;61729,738;-4454,962
 696,70;  305,103;58594,992;-6029,263
 697,28;  296,873;59108,246;-6266,564
 697,86;  324,642;60837,500;-6030,866
 698,43;  319,412;58827,754;-6198,167
 699,01;  318,182;55595,004;-6051,469
 699,59;  345,952;55751,258;-6402,770
 700,16;  315,721;54174,512;-5257,072
 700,74;  329,491;57040,766;-5497,373
 701,32;  273,261;56440,020;-6233,674
 701,89;  272,031;55792,273;-6049,976
 702,47;  327,800;60296,527;-6466,277
 703,05;  296,570;64951,781;-6309,579
 703,62;  257,340;64952,035;-6227,880
 704,20;  293,110;64952,285;-5306,182
 704,77;  268,879;64952,539;-6118,483
 705,35;  220,649;64213,793;-6006,784
 705,93;  216,419;64327,047;-4922,085
 706,50;  307,189;63796,301;-5267,387
 707,08;  274,959;60606,555;-5284,688
 707,65;  230,728;60046,809;-5620,990
 708,23;  274,498;64881,063;-5431,292
 708,81;  268,268;64954,316;-5019,593
 709,38;  223,038;64954,570;-5001,894
 709,96;  304,807;64954,820;-6025,195
 710,53;  246,577;64955,074;-6007,497
 711,11;  286,347;61503,328;-5752,798
 711,69;  289,117;61913,582;-3821,100
 712,26;  332,886;59012,836;-4642,401
 712,84;  265,656;63346,090;-5947,703
 713,41;  274,426;64411,344;-6153,004
 713,99;  246,196;64924,598;-6068,305
 714,56;  262,966;62057,852;-6326,607
 715,14;  268,735;60312,105;-6198,908
 715,71;  297,505;60246,355;-6210,209
 716,29;  299,275;62893,609;-6648,511
 716,86;  239,045;63573,863;-6510,813
 717,44;  309,814;63263,117;-6424,114
 718,02;  312,584;62110,371;-6462,415
 718,59;  264,354;61013,625;-5121,716
 719,17;  249,124;63488,879;-5649,018
 719,74;  296,893;62907,133;-5756,319
 720,32;  256,663;63502,387;-6451,621
 720,89;  255,433;64959,641;-6422,922
 721,47;  277,203;64959,891;-6388,224
 722,04;  331,972;64960,145;-5502,525
 722,62;  273,742;64252,398;-3979,826
 723,19;  265,512;60250,652;-4938,128
 723,77;  262,282;57638,906;-5673,429
 724,34;  261,052;60150,160;-5576,730
 724,92;  266,821;63789,414;-6558,032
 725,49;  325,591;64961,668;-5666,333
 726,07;  335,361;64961,922;-6491,635
 726,64;  311,131;64627,176;-6587,936
 727,21;  302,900;60249,426;-5627,238
 727,79;  243,670;63706,680;-6444,539
 728,36;  308,440;64962,934;-6722,840
 728,94;  279,210;64963,188;-6535,142
 729,51;  260,979;64963,441;-6365,443
 730,09;  320,749;64963,695;-5545,745
 730,66;  257,519;64963,949;-6358,046
 731,24;  261,289;64964,203;-6577,348
 731,81;  239,059;64964,457;-5151,649
 732,38;  327,828;64964,711;-6492,950
 732,96;  255,598;64964,961;-6263,251
 733,53;  287,368;60347,215;-6389,553
 734,11;  305,138;61575,469;-6617,854
 734,68;  249,907;64965,723;-6211,156
 735,26;  312,677;64965,977;-6389,458
 735,83;  234,447;64966,230;-6498,759
 736,40;  266,217;62243,484;-6516,060
 736,98;  304,986;61999,738;-6374,361
 737,55;  282,756;59236,992;-5827,663
 738,13;  280,526;57707,246;-5702,964
 738,70;  317,296;60991,496;-5529,266
 739,27;  351,065;62504,750;-6452,567
 739,85;  329,835;62745,004;-6283,869
 740,42;  388,605;64968,258;-6464,170
 740,99;  309,375;64968,512;-5618,471
 741,57;  320,145;64968,766;-4867,773
 742,14;  320,914;64969,020;-5349,074
 742,72;  271,684;64969,273;-4751,375
 743,29;  315,454;64969,527;-6563,677
 743,86;  329,224;64969,781;-6538,979
 744,44;  370,993;64970,031;-6113,280
 745,01;  364,763;64970,285;-5760,581
 745,58;  308,533;64970,539;-6259,882
 746,16;  346,303;64970,793;-6188,184
 746,73;  387,072;64971,047;-6479,485
 747,30;  313,842;61139,301;-6536,787
 747,88;  334,612;59621,555;-5621,088
 748,45;  302,382;64971,809;-5668,390
 749,02;  325,151;64972,063;-6384,691
 749,60;  330,921;62401,313;-6212,992
 750,17;  330,691;61766,566;-5269,294
 750,74;  296,461;62801,820;-6479,595
 751,31;  280,231;63306,074;-6347,896
 751,89;  292,000;64232,328;-6546,198
 752,46;  332,770;64973,582;-6282,500
 753,03;  322,540;64973,836;-6160,801
 753,61;  291,310;63755,090;-4858,102
 754,18;  257,079;64573,344;-6434,404
 754,75;  264,849;63888,598;-5191,705
 755,32;  304,619;60715,848;-6332,006
 755,90;  293,389;64975,102;-6493,308
 756,47;  342,158;64975,355;-4809,609
 757,04;  368,928;64975,609;-6457,911
 757,61;  306,698;64975,863;-5553,212
 758,19;  332,468;64976,117;-5253,514
 758,76;  264,237;64976,371;-6603,815
 759,33;  265,007;64976,625;-6664,116
 759,90;  237,777;64976,879;-5714,417
 760,48;  258,547;64977,133;-6778,719
 761,05;  267,317;64977,383;-6083,021
 761,62;  263,086;62082,637;-4888,322
 762,19;  267,856;58992,891;-6144,624
 762,77;  247,626;61730,145;-5963,925
 763,34;  262,396;64978,398;-6610,226
 763,91;  284,165;64978,652;-5818,527
 764,48;  327,935;64978,906;-6756,829
 765,05;  300,705;64979,160;-6543,130
 765,63;  270,475;63215,414;-6417,432
 766,20;  241,244;59753,668;-6004,733
 766,77;  222,014;57105,918;-5921,035
 767,34;  239,784;58807,172;-6640,336
 767,91;  202,554;59176,426;-6689,637
 768,49;  223,324;61368,680;-6772,939
 769,06;  266,093;64980,934;-5832,240
 769,63;  250,863;62272,188;-6636,542
 770,20;  261,633;59567,441;-5868,843
 770,77;  236,403;57921,695;-5645,145
 771,34;  207,172;60065,949;-6615,446
 771,91;  229,942;60549,203;-6102,747
 772,49;  188,712;58558,453;-6369,048
 773,06;  205,482;57687,707;-6203,350
 773,63;  263,251;60204,961;-6639,651
 774,20;  276,021;58197,215;-5918,953
 774,77;  271,791;56475,469;-6631,254
 775,34;  266,561;56707,723;-6214,556
 775,91;  353,330;57056,977;-6417,857
 776,49;  512,100;58787,230;-6590,158
 777,06;  679,870;60761,484;-6015,460
 777,63;  619,640;64224,738;-6367,761
 778,20;  407,410;62572,988;-6250,063
 778,77;  314,179;63316,242;-5763,364
 779,34;  265,949;64985,496;-6585,666
 779,91;  297,719;64985,750;-6534,967
 780,48;  277,489;59144,004;-5853,268
 781,05;  293,258;50716,258;-6586,570
 781,62;  304,028;52124,512;-6604,871
 782,20;  383,798;58813,766;-6500,172
 782,77;  267,568;64987,020;-6529,474
 783,34;  301,337;64052,273;-6522,775
 783,91;  285,107;61362,523;-6509,077
 784,48;  218,877;60480,777;-2126,378
 785,05;  252,647;59144,031;-6540,680
 785,62;  208,417;58221,285;-6452,981
 786,19;  295,186;58149,539;-5100,282
 786,76;  240,956;55130,793;-6677,583
 787,33;  225,726;56202,047;-6515,885
 787,90;  264,496;59491,301;-6591,187
 788,47;  270,265;60148,555;-5075,488
 789,04;  281,035;58988,809;-5763,790
 789,61;  297,805;58863,059;-5066,091
 790,18;  290,575;55747,313;-6561,392
 790,75;  271,344;50841,566;-6671,693
 791,32;  280,114;52056,820;-6577,995
 791,89;  295,884;55205,074;-6068,296
 792,46;  579,654;60806,328;-5763,598
 793,03; 1134,423;62404,582;-6702,899
 793,60;  966,193;55699,836;-6440,201
 794,17;  504,963;52257,090;-5569,502
 794,74;  340,733;47273,344;-5886,803
 795,31;  292,503;50096,594;-6099,105
 795,88;  247,272;52579,848;-5572,406
 796,45;  223,042;53365,102;-6529,708
 797,02;  184,812;56004,355;-5046,009
 797,59;  168,582;57922,609;-6675,311
 798,16;  164,351;54563,863;-5861,612
 798,73;  147,121;53534,117;-6761,913
 799,30;   98,891;55088,371;-6611,214
 799,87;   97,661;55650,625;-6713,516
 800,44;  109,430;55353,875;-6729,817
 801,01;  101,200;56836,129;-6807,119
 801,58;  186,970;58477,383;-6537,420
 802,15;  204,740;52086,637;-6658,722
 802,72;  155,509;48849,891;-6694,023
 803,28;  135,279;52000,145;-6076,324
 803,85;  173,049;57179,398;-6728,626
 804,42;  199,819;55235,652;-5999,927
 804,99;  134,589;53752,906;-6539,229
 805,56;  138,358;52472,160;-6770,530
 806,13;  158,128;53387,410;-6075,832
 806,70;  182,898;52719,664;-6748,133
 807,27;  167,668;54477,918;-6672,434
 807,84;  199,437;52786,172;-6693,736
 808,41;  669,207;49728,426;-6022,037
 808,98; 1436,977;50479,680;-5986,338
 809,54; 1246,747;52469,934;-4958,640
 810,11;  489,516;48281,188;-6782,941
 810,68;  309,286;43021,441;-6680,243
 811,25;  174,056;41394,695;-6760,544
 811,82;  117,826;40374,945;-6886,846
 812,39;  140,596;37710,199;-3331,147
 812,96;  203,365;38779,453;-6767,448
 813,52;  183,135;41291,707;-6937,750
 814,09;  139,905;44522,961;-6766,051
 814,66;  129,675;50325,215;-6827,353
 815,23;  128,444;51240,469;-6669,654
 815,80;  114,214;50439,723;-5853,956
 816,37;  125,984;50917,977;-6801,257
 816,93;  103,754;49487,230;-6731,558
 817,50;  140,523;46790,480;-6102,859
 818,07;  178,293;46034,734;-6960,161
 818,64;  187,063;46919,988;-6856,462
 819,21;  154,833;46261,242;-6053,764
 819,77;  241,602;42742,496;-6571,065
 820,34;  145,372;42053,750;-6677,367
 820,91;  238,142;43276,004;-6469,668
 821,48;  288,912;43873,258;-6689,969
 822,05;  286,682;45571,512;-5875,271
 822,61;  189,451;44296,766;-5631,572
 823,18;  193,221;41860,016;-6620,874
 823,75;  149,991;42585,270;-6957,175
 824,32;  162,761;45286,523;-6923,477
 824,88;  161,530;45073,777;-6882,778
 825,45;  135,300;44018,031;-6899,079
 826,02;  147,070;43798,285;-6643,380
 826,59;  156,840;43974,539;-6639,682
 827,15;   97,609;46077,793;-6906,983
 827,72;   90,379;49519,047;-6723,285
 828,29;  111,149;51523,301;-6895,586
 828,86;   68,919;48827,551;-6791,888
 829,42;   71,688;40797,805;-6812,189
 829,99;   76,458;36802,059;-6647,490
 830,56;   70,228;36252,313;-6869,792
 831,13;   66,998;37220,566;-6060,093
 831,69;   69,768;38022,820;-6506,395
 832,26;   70,537;38832,074;-5062,696
 832,83;   51,307;40408,328;-5452,998
 833,39;  102,077;40187,582;-6904,299
 833,96;   69,847;39167,836;-6687,600
 834,53;   23,616;40039,086;-6928,902
 835,10;   49,386;39930,340;-6529,203
 835,66;   58,156;38972,594;-6920,504
 836,23;   92,926;39801,848;-6803,806
 836,80;   34,695;39428,102;-6790,107
 837,36;   79,465;37086,355;-6810,409
 837,93;   54,235;34475,609;-6902,710
 838,50;  107,005;35084,863;-6789,012
 839,06;   55,775;37684,117;-6288,313
 839,63;   10,544;37191,371;-6895,614
 840,19;   75,314;35132,621;-6607,916
 840,76;   70,084;35364,875;-6404,217
 841,33;   34,854;35892,129;-6509,519
 841,89;   68,623;36779,383;-6949,820
 842,46;   52,393;37103,637;-6751,122
 843,03;   96,163;35389,891;-6089,423
 843,59;    5,933;34224,145;-6403,724
 844,16;  111,702;34994,398;-6181,025
 844,73;  124,472;34249,652;-6067,327
 845,29;  102,242;32937,902;-5695,628
 845,86;   40,012;35699,156;-6800,930
 846,42;   36,781;36940,410;-7004,231
 846,99;   31,551;36477,664;-6967,533
 847,56;   20,321;36265,918;-5840,834
 848,12;   -2,909;36240,172;-6745,135
 848,69;   77,861;35710,426;-6715,437
 849,25;   49,630;34401,680;-6845,738
 849,82;   17,400;34081,934;-3247,040
 850,38;   61,170;35064,188;-6840,341
 850,95;   35,940;32489,439;-6324,643
 851,52;   29,709;32520,693;-6565,944
 852,08;   23,479;32548,947;-6691,245
 852,65;  -30,751;30323,199;-7005,546
 853,21;   -2,981;27698,453;-6958,848
 853,78;   20,788;27362,707;-6363,149
 854,34;   -4,442;28860,961;-6871,451
 854,91;   22,328;29081,215;-5086,752
 855,47;   31,098;29942,467;-5108,054
 856,04;  110,867;32027,721;-6746,355
 856,60;    4,637;33961,973;-6104,656
 857,17;   49,407;34979,227;-6840,958
 857,73;   13,177;33553,480;-6811,259
 858,30;    4,947;32532,734;-6985,561
 858,86;   -9,284;31110,988;-5926,862
 859,43;   33,486;31430,242;-6226,164
 859,99;   30,256;32011,496;-6852,465
 860,56;   24,026;33126,750;-6903,766
 861,12;  -12,205;35190,004;-6737,068
 861,69;  -23,435;33669,258;-5924,369
 862,25;   17,335;34731,508;-6821,670
 862,82;   38,105;34419,762;-5972,972
 863,38;   52,874;31196,018;-6843,273
 863,95;   62,644;29305,270;-6239,575
 864,51;   24,414;30403,523;-5287,876
 865,08;   63,184;29284,777;-6090,178
 865,64;   16,954;26795,031;-7018,479
 866,21;   66,723;26131,285;-6745,780
 866,77;   17,493;26051,537;-5552,082
 867,34;   66,263;25734,791;-6672,383
 867,90;  133,033;24632,045;-6303,685
 868,46;  119,802;23835,299;-6041,986
 869,03;   40,572;24389,551;-6929,288
 869,59;   34,342;26353,805;-6884,589
 870,16;   26,112;27647,059;-6052,890
 870,72;   43,881;30060,313;-6657,191
 871,28;   32,651;32915,566;-5992,493
 871,85;   89,421;33142,820;-6907,794
 872,41;    8,191;31569,072;-6004,096
 872,98;    7,960;32738,326;-6050,397
 873,54;    4,730;33876,578;-5920,699
 874,10;   62,500;32768,832;-5876,000
 874,67;   -8,500;32987,832;-6904,000
 875,23;   14,500;31068,834;-7032,000
 875,80;   30,500;28009,834;-6641,000
 876,36;  -16,500;25058,834;-6642,000
 876,92;   40,500;22832,834;-6189,000
 877,49;   -1,500;23923,834;-6517,000
 878,05;  -21,500;24896,834;-6797,000
 878,61;   26,500;26938,834;-6812,000
 879,18;  -15,500;27553,834;-6252,000
 879,74;  -12,500;28076,834;-6720,000
 880,30;    0,500;28679,834;-5926,000
 880,87;  -25,500;28852,834;-6326,000
 881,43;   40,500;29533,834;-6871,000
 881,99;  -12,500;27306,834;-6879,000
 882,56;  -51,500;27610,834;-6661,000
 883,12;  -10,500;29049,834;-5740,000
 883,68;    6,500;29120,834;-6518,000
 884,25;    5,500;28300,834;-6949,000
 884,81;  -35,500;26343,834;-6701,000
 885,37;   17,500;24221,834;-6786,000
 885,94;   -6,500;22940,834;-6851,000
 886,50;   32,500;23098,834;-6886,000
 887,06;  -54,500;24358,834;-6796,000
 887,62;   -0,500;25019,834;-6866,000
 888,19;  -66,500;25774,834;-5986,000
 888,75;  -10,500;26542,834;-6821,000
 889,31;   27,500;29043,834;-6778,000
 889,87;  -18,500;30537,834;-6723,000
 890,44;   44,500;30349,834;-6696,000
 891,00;   -8,500;28757,834;-6786,000
 891,56;  -32,500;26457,834;-6998,000
 892,12;   28,500;24463,834;-6754,000
 892,69;   -4,500;25310,834;-6373,000
 893,25;   11,500;28798,834;-6877,000
 893,81;   30,500;31774,834;-6696,000
 894,37;   34,500;31330,834;-6342,000
 894,94;   15,500;28713,834;-6772,000
 895,50;   12,500;26035,834; -212,000
 896,06;   32,500;24749,834;-6810,000
 896,62;   16,500;23405,834;-6707,000
 897,18;    4,500;24661,834;-6518,000
 897,75;   22,500;27406,834;-6895,000
 898,31;   29,500;27887,834;-6849,000
 898,87;   21,500;26274,834;-6860,000
 899,43;   53,500;25164,834;-6469,000
 899,99;   -8,500;26592,834;-6866,000
 900,56;   44,500;25515,834;-6791,000
 901,12;   17,500;24875,834;-6890,000
 901,68;   41,500;27903,834;-6267,000
 902,24;   53,500;31800,834;-5930,000
 902,80;   28,500;32652,834;-6794,000
 903,36;   53,500;31893,834;-6691,000
 903,93;   79,500;32139,834;-6646,000
 904,49;  121,500;32761,834;-6913,000
 905,05;  165,500;30952,834;-6732,000
 905,61;  405,500;28208,834;-6832,000
 906,17;  671,500;28086,834;-6901,000
 906,73; 1040,500;25975,834;-5380,000
 907,29; 1385,500;24960,834;-6910,000
 907,86; 1683,500;25118,834;-6827,000
 908,42; 1787,500;28092,834;-6795,000
 908,98; 1582,500;31123,834;-5908,000
 909,54;  885,500;38813,832;-6885,000
 910,10;  347,500;48220,832;-6634,000
 910,66;   92,500;57581,832;-6781,000
 911,22;   28,500;65027,832;-6761,000
 911,78;   -9,500;62593,832;-6841,000
 912,34;  -12,500;53256,832;-6080,000
 912,90;    4,500;44610,832;-5232,000
 913,46;  -34,500;37052,832;-6876,000
 914,03;  -12,500;30620,834;-5746,000
 914,59;    0,500;27452,834;-6682,000
 915,15;   36,500;24908,834;-6891,000
 915,71;    1,500;24217,834;-6863,000
 916,27;   -4,500;23800,834;-6723,000
 916,83;   16,500;23006,834;-5824,000
 917,39;    1,500;21742,834;-3512,000
 917,95;   19,500;20224,834;-6009,000
 918,51;   23,500;19972,834;-6583,000
 919,07;   16,500;21780,834;-6791,000
 919,63;  -38,500;23295,834;-6661,000
 920,19;  -38,500;23935,834;-6865,000
 920,75;   22,500;23112,834;-6640,000
 921,31;  -25,500;21484,834;-4837,000
 921,87;   -4,500;20216,834;-6845,000
 922,43;  -30,500;18019,834;-5626,000
 922,99;   27,500;17321,834;-6706,000
 923,55;   28,500;18674,834;-6655,000
 924,11;    0,500;19094,834;-6976,000
 924,67;   10,500;19310,834;-6962,000
 925,23;   -6,500;19485,834;-6778,000
 925,79;   38,500;20122,834;-6710,000
 926,35;   -6,500;20219,834;-6573,000
 926,91;  -14,500;19401,834;-6909,000
 927,47;  -11,500;19367,834;-6660,000
 928,03;   47,500;20294,834;-6786,000
 928,59;   18,500;20503,834;-6678,000
 929,15;   17,500;20781,834;-6792,000
 929,71;   29,500;22016,834;-6840,000
 930,27;   13,500;23587,834;-6537,000
 930,82;   26,500;25573,834;-6728,000
 931,38;  -23,500;24317,834;-5852,000
 931,94;    3,500;22672,834;-6843,000
 932,50;  -28,500;21252,834;-6481,000
 933,06;   11,500;20895,834;-6768,000
 933,62;    2,500;21092,834;-6443,000
 934,18;   11,500;20632,834;-6727,000
 934,74;   -1,500;21320,834;-6709,000
 935,30;   24,500;22030,834;-6484,000
 935,86;    6,500;21213,834;-6505,000
 936,42;    4,500;20702,834;-6873,000
 936,97;    8,500;21656,834;-6563,000
 937,53;   -3,500;20552,834;-6826,000
 938,09;   19,500;21087,834;  123,000
 938,65;   -1,500;21186,834;-6268,000
 939,21;    9,500;20179,834;-6708,000
 939,77;   27,500;18946,834;-6213,000
 940,33;   15,500;18602,834;-6748,000
 940,88;    6,500;19429,834;-5908,000
 941,44;   32,500;21301,834;-6983,000
 942,00;  -28,500;23225,834;-6697,000
 942,56;   22,500;24231,834;-6604,000
 943,12;   -5,500;23427,834;-5907,000
 943,68;    8,500;22950,834;-5679,000
 944,23;  -40,500;23124,834;-6749,000
 944,79;  -35,500;22674,834;-6102,000
 945,35;  -37,500;20741,834;-6599,000
 945,91;   16,500;19519,834;-6767,000
 946,47;  -18,500;19827,834;-3353,000
 947,03;    4,500;19896,834;-6850,000
 947,58;   -8,500;19661,834;-6840,000
 948,14;    0,500;20790,834;-5897,000
 948,70;    3,500;19573,834;-5855,000
 949,26;   13,500;18881,834;-6616,000
 949,81;   -4,500;18342,834;-6644,000
 950,37;  -25,500;18686,834;-6695,000
 950,93;    7,500;17993,834;-6224,000
 951,49;  -15,500;17568,834;-6057,000
 952,05;   17,500;17926,834;-6571,000
 952,60;  -19,500;17299,834;-6951,000
 953,16;  -17,500;16933,834;-5783,000
 953,72;  -65,500;15628,833;-5813,000
 954,27;   -2,500;15524,833;-6566,000
 954,83;  -10,500;15317,833;-6703,000
 955,39;   -8,500;14917,833;-6691,000
 955,95;  -13,500;14456,833;-6849,000
 956,50;   28,500;14272,833;-6698,000
 957,06;  -32,500;14126,833;-5922,000
 957,62;   -0,500;13780,833;-6559,000
 958,18;   -1,500;13872,833;-6741,000
 958,73;  -27,500;13326,833;-6820,000
 959,29;    3,500;13518,833;-6106,000
 959,85;  -41,500;14785,833;-6864,000
 960,40;   -7,500;16746,834;-4263,000
 960,96;   18,500;16386,834;-6738,000
 961,52;  -16,500;14755,833;-6643,000
 962,07;   10,500;13711,833;-6742,000
 962,63;  -23,500;13208,833;-6723,000
 963,19;  -64,500;13435,833;-5779,000
 963,74;   22,500;13877,833;-6582,000
 964,30;  -57,500;14475,833;-6595,000
 964,86;   -9,500;14281,833;-6484,000
 965,41;    7,500;14290,833;-6705,000
 965,97;  -69,500;14185,833;-6569,000
 966,53;  -39,500;14792,833;-6750,000
 967,08;  -21,500;15311,833;-6611,000
 967,64;   16,500;15082,833;-6705,000
 968,19;   -9,500;14471,833;-6684,000
 968,75;    0,500;14662,833;-6566,000
 969,31;  -14,500;14880,833;-5626,000
 969,86;  -23,500;14995,833;-6505,000
 970,42;  -20,500;13195,833;-6620,000
 970,97;  -29,500;11567,833;-6437,000
 971,53;   13,500;11625,833;-6490,000
 972,09;  -26,500;12998,833;-6646,000
 972,64;  -10,500;13523,833;-5812,000
 973,20;  -23,500;13815,833;-6599,000
 973,75;   -7,500;14605,833;-5760,000
 974,31;   15,500;14826,833;-6578,000
 974,87;  -20,500;14921,833;-6674,000
 975,42;  -30,500;14507,833;-6727,000
 975,98;  -38,500;13201,833;-6651,000
 976,53;  -44,500;12100,833;-6555,000
 977,09;  -23,500;11353,833;-4624,000
 977,64;   16,500;11164,833;-6532,000
 978,20;  -10,500;10649,833;-6585,000
 978,75;   -8,500;10482,833;-6429,000
 979,31;  -27,500;10950,833;-6513,000
 979,86;  -40,500;12220,833;-6739,000
 980,42;  -44,500;12828,833;-5813,000
 980,97;   -4,500;13290,833;-6642,000
 981,53;   28,500;14285,833;-6636,000
 982,08;   -4,500;13803,833;-5046,000
 982,64;   -1,500;12278,833;-6237,000
 983,19;  -17,500;11308,833;-6760,000
 983,75;   -7,500;10993,833;-6576,000
 984,30;  -20,500;10430,833;-5581,000
 984,86;  -29,500; 9867,833;-5898,000
 985,41;  -23,500; 9457,833;-6634,000
 985,97;  -47,500; 9632,833;-4797,000
 986,52;    3,500; 9894,833;-5853,000
 987,08;  -13,500; 9953,833;-6174,000
 987,63;  -23,500;10165,833;-5608,000
 988,19;   -0,500;11252,833;-6266,000
 988,74;  -30,500;11710,833;-5682,000
 989,30;  -55,500;11529,833;-6568,000
 989,85;   12,500;11470,833; -276,000
 990,40;   19,500;11314,833;-6617,000
 990,96;    2,500;11060,833;-6482,000
 991,51;   13,500;11149,833;-6578,000
 992,07;  -52,500;10742,833;-6605,000
 992,62;   -6,500;10285,833;-6519,000
 993,18;  -49,500;10035,833;-6504,000
 993,73;  -13,500; 9986,833;-6440,000
 994,28;  -10,500; 9800,833;-6464,000
 994,84;  -31,500; 9019,833;-6240,000
 995,39;  -12,500; 8474,833;-2971,000
 995,94;   14,500; 7953,833;-5673,000
 996,50;  -27,500; 7647,833;-6543,000
 997,05;  -46,500; 7872,833;-3481,000
 997,61;  -18,500; 8363,833;-6489,000
 998,16;  -49,500; 8581,833;-6555,000
 998,71;  -15,500; 8850,833;-6340,000
 999,27;  -40,500; 9115,833;-5223,000
 999,82;  -10,500; 8706,833;-4778,000
1000,37;  -30,500; 8661,833;-6520,000
1000,93;   -9,500; 8920,833;-6107,000
1001,48;  -38,500; 8799,833;-6543,000
1002,03;  -29,500; 8477,833;-6469,000
1002,59;   -4,500; 8715,833;-5972,000
1003,14;  -20,500; 8758,833;-6113,000
1003,69;   -7,500; 8484,833;-6513,000
1004,25;  -10,500; 8299,833;-6507,000
1004,80;  -21,500; 8322,833;-6266,000
1005,35;  -29,500; 8313,833;-6361,000
1005,91;   -7,500; 8515,833;-6558,000
1006,46;  -50,500; 8426,833;-6084,000
1007,01;  -52,500; 8227,833;-5479,000
1007,56;   -3,500; 8599,833;-6440,000
1008,12;  -57,500; 8342,833;-6178,000
1008,67;   37,500; 7867,833;-6312,000
1009,22;  -44,500; 7509,833;-6481,000
1009,78;   -9,500; 7205,833;-6163,000
1010,33;  -20,500; 6649,833;-6443,000
1010,88;    8,500; 6413,833;-5618,000
1011,43;  -36,500; 5995,833;-6433,000
1011,99;   -9,500; 5972,833;-6198,000
1012,54;  -47,500; 6320,833;-6387,000
1013,09;   12,500; 6048,833;-6299,000
1013,64;  -46,500; 5802,833;-6362,000
1014,19;   -5,500; 5823,833;-6442,000
1014,75;   20,500; 5928,833;-6408,000
1015,30;  -20,500; 6394,833;-6425,000
1015,85;   -4,500; 6370,833;-6367,000
1016,40;  -24,500; 6247,833;-5436,000
1016,96;   44,500; 6235,833;-6268,000
1017,51;  -28,500; 6150,833;-6351,000
1018,06;    0,500; 6095,833;-6310,000
1018,61;  -45,500; 5695,833;-6665,000
1019,16;  -31,500; 5609,833;-6697,000
1019,71;  -14,500; 5663,833;-6373,000
1020,27;  -17,500; 5567,833;-6353,000
1020,82;  -28,500; 5375,833;-3700,000
1021,37;  -33,500; 5405,833;-4798,000
1021,92;  -22,500; 5984,833;-6454,000
1022,47;  -40,500; 5965,833;-6548,000
1023,02;  -25,500; 5463,833;-6512,000
1023,58;   -7,500; 5045,833;-6573,000
1024,13;   24,500; 4730,833;-6258,000
1024,68;   -2,500; 4434,833;-6298,000
1025,23;   -5,500; 4324,833;-5525,000
1025,78;   -5,500; 4613,833;-6475,000
1026,33;  -12,500; 4932,833;-5510,000
1026,88;   57,500; 4843,833;-6236,000
1027,43;    3,500; 5167,833;-6276,000
1027,99;    0,500; 5134,833;-6002,000
1028,54;   10,500; 4732,833;-6395,000
1029,09;   -9,500; 4106,833;-2478,000
1029,64;   17,500; 3919,833;-6303,000
1030,19;   38,500; 4147,833;-3821,000
1030,74;   43,500; 4243,833;-5134,000
1031,29;   42,500; 4284,833;-4765,000
1031,84;    4,500; 4491,833;-6300,000
1032,39;   41,500; 4563,833;-5403,000
1032,94;   18,500; 4617,833;-4326,000
1033,49;   78,500; 4361,833;-5476,000
1034,04;  118,500; 4236,833;-6312,000
1034,59;  109,500; 4205,833;-6507,000
1035,14;   73,500; 4117,833;-6145,000
1035,69;  100,500; 4318,833;-6224,000
1036,24;  118,500; 4104,833;-4477,000
1036,80;  118,500; 3986,833;-5453,000
1037,35;  151,500; 4138,833;-6347,000
1037,90;  163,500; 4172,833;-6274,000
1038,45;  155,500; 4201,833;-6419,000
1039,00;  182,500; 4340,833;-5490,000
1039,55;  160,500; 4229,833;-6284,000
1040,10;  238,500; 3977,833;-5615,000
1040,65;  262,500; 3916,833;-5576,000
1041,20;  308,500; 3850,833;-6325,000
1041,75;  344,500; 4030,833;-4522,000
1042,30;  365,500; 4164,833;-3585,000
1042,84;  444,500; 4338,833;-4439,000
1043,39;  418,500; 4248,833;-6313,000
1043,94;  519,500; 4175,833;-5342,000
1044,49;  627,500; 3887,833;-6246,000
1045,04;  633,500; 3710,833;-5800,000
1045,59;  803,500; 3809,833;-6299,000
1046,14;  874,500; 3732,833;-6392,000
1046,69; 1014,500; 3591,833;-6294,000
1047,24; 1110,500; 3623,833;-5510,000
1047,79; 1319,500; 3737,833;-6139,000
1048,34; 1514,500; 4002,833;-5961,000
1048,89; 1786,500; 3948,833;-6259,000
1049,44; 1994,500; 3935,833;-5172,000
1049,99; 2384,500; 3855,833;-4844,000
1050,54; 2836,500; 3876,833;-6249,000
1051,08; 3508,500; 3961,833;-6178,000
1051,63; 4522,500; 4050,833;-5285,000
1052,18; 6236,500; 5051,833;-6127,000
1052,73; 9549,500; 7151,833;-6173,000
1053,28;14397,500;10516,833;-6386,000
1053,83;20995,500;15224,833;-6214,000
1054,38;26506,500;19203,834;-6254,000
1054,93;31245,500;21243,834;-6285,000
1055,47;34767,500;23825,834;-5328,000
1056,02;36747,500;26212,834;-5832,000
1056,57;39250,500;27830,834;-6198,000
1057,12;42042,500;30497,834;-6378,000
1057,67;45025,500;33805,832;-6078,000
1058,22;47408,500;36084,832;-6313,000
1058,76;49570,500;38542,832;-6093,000
1059,31;52680,500;44129,832;-3514,000
1059,86;56496,500;48778,832;-6204,000
1060,41;59193,500;49718,832;-6152,000
1060,96;61853,500;51396,832;-6226,000
1061,51;61200,500;53649,832;-5344,000
1062,05;59999,500;54082,832;-6122,000
1062,60;61583,500;50555,832;-6061,000
1063,15;64879,500;45221,832;-6149,000
1063,70;65153,500;41550,832;-6250,000
1064,24;65153,500;43676,832;-6169,000
1064,79;65153,500;45461,832;-6144,000
1065,34;61226,500;43989,832;-6064,000
1065,89;57510,500;41776,832;-6202,000
1066,44;56658,500;37631,832;-6120,000
1066,98;56945,500;32612,834;-6224,000
1067,53;59701,500;30790,834;-5953,000
1068,08;59180,500;30368,834;-4845,000
1068,63;57718,500;27618,834;-6096,000
1069,17;54020,500;24647,834;-5893,000
1069,72;50827,500;22350,834;-5857,000
1070,27;47723,500;20529,834;-6040,000
1070,81;42785,500;20388,834;-5996,000
1071,36;40796,500;20367,834;-3883,000
1071,91;35897,500;18745,834;  966,000
1072,46;32706,500;16791,834;-5058,000
1073,00;26948,500;14646,833;-5239,000
1073,55;20225,500;11404,833;-5935,000
1074,10;14191,500; 7803,833;-5981,000
1074,64; 9763,500; 5240,833;-5860,000
1075,19; 6922,500; 3535,833;-4958,000
1075,74; 5401,500; 2551,833;-6091,000
1076,28; 4487,500; 2312,833;-6075,000
1076,83; 3742,500; 1951,833;-5286,000
1077,38; 3172,500; 1820,833;-5653,000
1077,92; 2574,500; 1783,833;-6332,000
1078,47; 2167,500; 1629,833;-5507,000
1079,02; 1818,500; 1578,833;-5959,000
1079,56; 1582,500; 1557,833;-5328,000
1080,11; 1291,500; 1304,833;-6094,000
1080,65; 1062,500; 1241,833;-5039,000
1081,20;  944,500; 1186,833;-6151,000
1081,75;  858,500; 1125,833;-6039,000
1082,29;  680,500; 1128,833; -139,000
1082,84;  628,500; 1184,833;-2678,000
1083,39;  558,500; 1294,833;-5061,000
1083,93;  539,500; 1335,833;-5025,000
1084,48;  438,500; 1196,833;-5961,000
1085,02;  385,500; 1082,833;-5783,000
1085,57;  325,500; 1074,833;-5994,000
1086,11;  308,500; 1079,833;-5968,000
1086,66;  278,500;  925,833;-5584,000
1087,21;  326,500; 1060,833;-5802,000
1087,75;  235,500;  939,833;-6125,000
1088,30;  229,500;  815,833;-5040,000
1088,84;  197,500;  783,833;-5963,000
1089,39;  148,500;  656,833;-5965,000
1089,93;  152,500;  664,833;-6100,000
1090,48;  144,500;  649,833;-4394,000
1091,02;  151,500;  733,833;-5181,000
1091,57;  117,500;  629,833;-5479,000
1092,11;   89,500;  642,833;-4094,000
1092,66;  117,500;  624,833;-6031,000
1093,20;  111,500;  580,833;-5180,000
1093,75;   68,500;  566,833;-4998,000
1094,29;  115,500;  486,833;-4979,000
1094,84;  117,500;  525,833;-5890,000
1095,38;   41,500;  528,833;-5097,000
1095,93;   54,500;  584,833;-5981,000
1096,47;   47,500;  615,833;-5612,000
1097,02;   34,500;  587,833;-4985,000
1097,56;   59,500;  614,833;-5772,000
1098,11;   15,500;  552,833;-5774,000
1098,65;   38,500;  508,833;-5992,000
1099,20;    6,500;  577,833;-5935,000
1099,74;   26,500;  487,833;-6002,000
1100,29;   22,500;  513,833;-4879,000
1100,83;   10,500;  496,833;-5934,000

