
Integration time [ms]:   1,000
Averaging Nr. [scans]: 1
Smoothing Nr. [pixels]: 0
Data measured with spectrometer [name]: 1703254U1
Wave   ;Sample   ;Dark     ;Reference;Scope
[nm]   ;[counts] ;[counts] ;[counts] 

 190,08; -104,058; -370,119;11982,743
 190,69;  -86,249; -359,404;11603,049
 191,29;  -72,716; -311,651;11479,965
 191,90;  -97,039; -365,508;11440,717
 192,50;  -95,363; -379,511;10355,099
 193,10;  -73,459; -446,299;11244,381
 193,71;  -83,211; -367,888; 9821,736
 194,31;  -69,868; -399,273; 9436,327
 194,91;  -48,868; -382,273; 9291,327
 195,52;  -66,468; -338,386;10555,949
 196,12;  -29,317; -397,056; 8671,847
 196,72;  -82,277; -386,394; 8220,904
 197,32;  -87,211; -375,888; 8251,736
 197,93;   -7,869; -360,420; 8700,957
 198,53;  -60,649; -383,145; 7601,797
 199,13;  -86,353; -397,132; 8091,270
 199,74;  -66,897; -366,410; 7263,813
 200,34;  -12,335; -388,667; 7832,874
 200,94;  -61,926; -436,547; 6941,297
 201,55;  -13,249; -406,404; 7119,049
 202,15;   -2,287; -375,773; 6404,732
 202,75;   33,801; -373,217; 6097,647
 203,36;   55,989; -338,664; 6822,492
 203,96;  -49,142; -357,943; 6332,678
 204,56;   37,637; -355,657;10275,729
 205,16;   11,408; -363,018; 5478,458
 205,77;  -13,953; -360,244; 4767,892
 206,37;   13,570; -409,017; 5556,267
 206,97;  -35,991; -363,760; 5129,205
 207,58;   59,246; -364,166; 5927,278
 208,18;   -2,029; -337,129; 5129,889
 208,78;   20,485; -404,134; 5295,461
 209,38;   -5,383; -469,415; 4958,385
 209,99;   37,722; -356,540; 3837,534
 210,59;   27,151; -361,662; 3890,301
 211,19;    8,884; -364,538; 3938,343
 211,79;   29,903; -366,927; 4499,316
 212,40;   -6,124; -373,625; 3368,911
 213,00;   44,466; -388,891; 3903,118
 213,60;    4,437; -386,882; 2992,972
 214,20;   -0,495; -401,230; 3081,175
 214,81;  -26,477; -422,618; 2884,148
 215,41;  -20,705; -376,979; 3235,877
 216,01;  -38,875; -373,067; 3109,636
 216,61;   34,237; -367,399; 2814,476
 217,22;  -25,475; -381,326; 2358,888
 217,82;  -15,827; -325,173; 2262,495
 218,42;  -44,133; -383,711; 2389,480
 219,02;  -61,637; -288,327; 3432,079
 219,63;   -2,610; -357,483; 2044,854
 220,23;  -16,857; -366,602; 2425,239
 220,83;  -37,076; -395,730; 1901,770
 221,43;  -33,094; -393,195; 1850,167
 222,03;  -37,818; -348,940; 2326,296
 222,64;  -23,743; -380,348; 1769,560
 223,24;   21,591; -298,966; 1625,350
 223,84;   -6,180; -376,313; 2637,361
 224,44;  -27,513; -316,695; 2381,571
 225,05;  -48,951; -313,952; 1440,632
 225,65;  -22,713; -301,065; 1227,445
 226,25;   -0,923; -364,961; 1139,777
 226,85;   18,144; -294,309;  995,979
 227,45;  -64,647; -335,706; 1083,907
 228,06;   -9,866; -365,834; 1945,438
 228,66;  -31,342; -349,460; 4049,182
 229,26;   14,925; -313,438; 1131,510
 229,86;  -56,095; -396,342; 1760,797
 230,46;  -40,932; -358,194;  891,976
 231,06;  -59,723; -320,444;  757,273
 231,67;  -33,238; -346,732; 1228,961
 232,27;  -99,331; -343,789;  778,094
 232,87;  -22,275; -308,808;  526,384
 233,47;  -78,369; -321,158;  525,777
 234,07;  -50,933; -268,486; 9912,235
 234,67;  -66,530; -291,013;  672,338
 235,28;  -91,369; -319,158;   65,777
 235,88;  -59,987; -316,882;  285,426
 236,48;  -25,570; -350,821;  165,911
 237,08;  -12,922; -267,669;  448,518
 237,68; -126,082; -369,378; -267,552
 238,28;  -98,874; -304,774; -106,624
 238,89;  -81,092; -212,756; -205,723
 239,49;  -48,502; -282,023; 1280,483
 240,09;  -86,929; -284,608; -190,544
 240,69; -109,596; -251,373; -319,124
 241,29;  -50,816; -289,647;  651,036
 241,89;  -46,235; -330,147; -260,559
 242,49;  -82,682; -248,490; -358,930
 243,10;  -86,330; -201,496; 3664,834
 243,70;  -78,682; -284,490;  239,070
 244,30;  -67,816; -275,501; -708,594
 244,90;  -27,338; -188,582; -568,598
 245,50;  -63,815; -177,355; 3274,777
 246,10;  -71,683; -307,636; -831,300
 246,70; -110,073; -300,999;   17,620
 247,30;  -69,169; -251,641;  326,273
 247,91; -107,786; -208,218; 5781,292
 248,51;  -48,758; -270,228; -806,563
 249,11;  -42,111; -239,514;  417,933
 249,71;  -41,044; -303,008; -667,235
 250,31;  -30,034; -265,483; -567,693
 250,91;  -26,654; -238,500;   75,216
 251,51;  -76,434; -199,225; -822,945
 252,11;  -49,185; -239,813;  367,410
 252,71;  -85,320; -269,117;-1080,994
 253,31;  -29,167; -222,348; 3228,013
 253,91;  -86,852; -236,578; -676,170
 254,52;  -41,519; -237,342;-1063,750
 255,12;  -26,034; -293,483;-1104,693
 255,72;   12,051; -206,366;  557,112
 256,32; -109,652; -242,061; -966,674
 256,92;  -66,623; -190,070;-1147,529
 257,52;   15,357; -173,974; -883,243
 258,12;   -3,243; -201,087;  -91,621
 258,72;  -63,861; -210,810;-1232,972
 259,32;    8,129; -211,335;-1169,514
 259,92;  -17,386; -199,330;-1343,086
 260,52;   23,519; -192,973;-1077,433
 261,12;  -22,490; -202,059; -662,865
 261,72;  -62,957; -238,452;-1312,319
 262,32;   24,880; -215,600;-1561,498
 262,92;  -42,366; -238,426;  405,627
 263,53;   -9,262; -189,698;-1277,594
 264,13;  -73,918; -262,937; -268,632
 264,73;   -9,166; -217,202;-1694,617
 265,33;  -20,090; -188,317;-1708,613
 265,93;  -25,794; -147,304;-1345,140
 266,53;  -15,194; -161,046;-1544,392
 267,13;  -19,118; -139,161; -857,388
 267,73;   13,206; -185,158;  270,230
 268,33;  -12,717; -166,274;-1788,766
 268,93;  -29,233; -213,708;-1702,449
 269,53;  -35,508; -204,670; -644,839
 270,13;  -17,565; -201,797;-1810,499
 270,73;  -20,013; -245,287;-1891,239
 271,33;   -2,318; -200,678;-1778,884
 271,93;  -24,137; -242,919;-1867,732
 272,53;   20,293; -121,748;    8,776
 273,13;   38,844; -146,677;-1117,075
 273,73;  -65,193; -119,753;-1955,652
 274,33;   21,472; -148,428;-2041,182
 274,93;  -23,307; -188,007;-1843,972
 275,53;  -31,707;  -68,748;-1881,224
 276,13;  -93,096; -121,965;-2261,935
 276,73;  -29,887; -118,361;-1570,007
 277,33;  -22,346; -179,522;-1926,659
 277,93;   29,520; -213,680;-1864,693
 278,53;  -17,670; -194,526;-2112,278
 279,13;  -55,726; -125,506;-2152,568
 279,73;  -25,916; -140,498;-1388,522
 280,33;   -6,517; -154,756;-2179,270
 280,93;   47,989; -105,994;-2049,499
 281,53;  -22,479; -147,387;-2252,953
 282,13;   40,951; -127,363;-2193,816
 282,73;  -71,764; -156,875; -385,885
 283,33;    2,560; -137,872;-2307,266
 283,92;   20,189;  -74,477;-2028,003
 284,52;   22,065;  -94,109;-2365,496
 285,12;   14,492; -138,524;-1425,469
 285,72;   52,969; -126,898;-1041,213
 286,32;   53,350;  -55,622;-1313,564
 286,92;   39,816; -163,521;-2376,850
 287,52;  119,978;  -89,519;-2170,041
 288,12;  126,836;  -97,763;-2542,507
 288,72;   70,606; -106,417;-1625,518
 289,32;   86,837;  -54,470; 1692,233
 289,92;   47,607; -106,270;-2344,148
 290,52;  -16,124;  -91,809;-2485,710
 291,12;   94,827;  -57,996;-1570,308
 291,72;  113,189;  -74,477;-1590,003
 292,32;  163,474;  -83,135;-2372,442
 292,92;  204,427;   -2,737;-2481,560
 293,51;  173,685;  -37,093;-2532,404
 294,11;  312,931;  -42,121;-1681,160
 294,71;  363,055;   -7,488;-2695,667
 295,31;  332,779;  -24,743;-1755,797
 295,91;  453,712;   46,751;-2713,629
 296,51;  569,894;   62,656;-1776,106
 297,11;  462,495;   35,061;-2900,988
 297,71;  639,884;    4,131;-2726,648
 298,31;  841,607;   38,730;-2329,148
 298,91;  717,198;   74,756;-2483,202
 299,50;  737,970;   41,395;-2689,473
 300,10;  951,741;  145,887;-2706,114
 300,70;  839,675;   95,528;-2492,576
 301,30;  876,455;   89,253;-2855,415
 301,90; 1029,969;   96,248;-2004,843
 302,50;  965,275;  163,640;-2515,198
 303,10;  811,398;  124,126;-2530,076
 303,70;  812,218;  208,660;-3000,488
 304,29;  795,818;  189,918;-2658,740
 304,89;  807,066;  266,183;-1090,755
 305,49;  969,142;  163,922;-2773,122
 306,09; 1055,046;  214,133;-2874,839
 306,69; 1029,255;  262,736;-2915,911
 307,29; 1033,474;  312,865;-2008,442
 307,89; 1074,266;  303,408;-3029,000
 308,48;  870,980;  341,774;-2453,301
 309,08; 1052,112;  369,492;-2743,377
 309,68; 1160,284;  377,019;-3094,026
 310,28; 1102,969;  371,102;-2576,213
 310,88;  888,244;  321,211;-2936,453
 311,48;  963,922;  447,500;-2875,331
 312,07; 1011,217;  408,367;-2963,228
 312,67; 1068,502;  497,855;-2128,297
 313,27; 1070,739;  494,448;-1105,224
 313,87; 1200,245;  583,357;-2164,083
 314,47; 1290,806;  516,954;-3030,392
 315,06; 1752,301;  620,191; 2713,837
 315,66; 1804,207;  579,988;-3245,400
 316,26; 1775,186;  632,938;-1844,483
 316,86; 1882,264;  777,969;-3140,110
 317,46; 2149,224;  720,307;-2115,167
 318,06; 2260,291;  739,813; -825,335
 318,65; 2536,157;  781,801;-2807,999
 319,25; 2891,833;  821,798;-3195,617
 319,85; 2842,967;  932,663;-2908,323
 320,45; 3455,795;  986,283;-3213,304
 321,05; 4570,661;  901,271;-2761,968
 321,64; 4704,423;  889,531;-3219,411
 322,24; 4932,574; 1056,861;-3265,513
 322,84; 4162,508; 1080,356;-3261,345
 323,44; 3027,317; 1133,364;-3219,300
 324,03; 2892,889; 1194,486;-3072,067
 324,63; 2872,488; 1250,452;-2310,059
 325,23; 2762,639; 1241,928;-3097,792
 325,83; 2625,295; 1367,021;-2876,123
 326,42; 2659,342; 1442,622;-3285,005
 327,02; 2468,216; 1476,551;-3076,607
 327,62; 2595,415; 1439,629;-2505,221
 328,22; 3063,738; 1553,486;-3234,973
 328,82; 3082,764; 1577,037;-2229,938
 329,41; 2758,876; 1658,852;-3016,728
 330,01; 3243,673; 1652,750;-2961,704
 330,61; 3576,042; 1806,062;-2928,707
 331,20; 2906,129; 1778,325;-2868,531
 331,80; 2861,603; 1762,512;-2794,386
 332,40; 2969,516; 1752,102;-2896,932
 333,00; 2968,838; 1933,667;-2790,423
 333,59; 3059,628; 1748,771;-2855,091
 334,19; 3098,036; 1920,745;-1771,037
 334,79; 3059,655; 1712,615;-2861,316
 335,39; 2936,790; 1729,919;-2978,912
 335,98; 3037,535; 1726,714;-3126,958
 336,58; 3148,851; 1659,777;-3191,401
 337,18; 3193,013; 1720,779;-2958,592
 337,77; 3147,843; 1782,837;-2098,463
 338,37; 3023,530; 1806,359;-2021,540
 338,97; 3260,959; 1907,384;-2912,402
 339,57; 3332,281; 1862,948;-3044,894
 340,16; 3967,081; 1836,431;-2881,390
 340,76; 4035,948; 1962,712;-3053,314
 341,36; 3846,528; 1861,920;-3195,650
 341,95; 4279,955; 1934,506;-3027,623
 342,55; 4275,726; 1918,998;  703,736
 343,15; 4082,699; 2048,155;-3094,039
 343,74; 4809,146; 1924,644;-2382,298
 344,34; 4864,298; 1860,267;-3015,661
 344,94; 3876,384; 2068,530;-3069,485
 345,53; 3628,041; 2110,769;-2860,447
 346,13; 3814,841; 2174,398;-1283,573
 346,73; 4079,716; 1966,473;-2254,805
 347,32; 4232,632; 2268,649;-3080,871
 347,92; 3840,773; 2312,600;-2277,145
 348,52; 3820,737; 2270,523;-1878,722
 349,11; 4021,490; 2336,551;  975,034
 349,71; 3555,604; 2330,658;-3240,016
 350,31; 3340,708; 2441,387;-2672,237
 350,90; 3511,785; 2483,418;-2326,863
 351,50; 3902,726; 2390,852;-2105,634
 352,10; 4741,136; 2471,119;-3114,840
 352,69; 5478,946; 2532,273;-3182,424
 353,29; 5607,317; 2563,024;-3191,317
 353,89; 5825,061; 2645,527;-3255,104
 354,48; 5483,136; 2693,119;-3208,840
 355,08; 6272,945; 2871,980;-1117,164
 355,67; 6928,099; 2850,042;-2951,417
 356,27; 8554,107; 2839,128;-3232,985
 356,87; 9116,403; 3010,288;-3383,142
 357,46; 9425,080; 3049,431;-2351,390
 358,06;10892,728; 3306,291;-3073,523
 358,66; 8734,793; 3337,504;-3109,432
 359,25; 5944,309; 3260,792;-2344,119
 359,85; 6780,413; 3365,667;-3215,970
 360,44; 8507,346; 3389,015;-3292,172
 361,04; 8531,698; 3567,155;-2367,039
 361,64; 8387,698; 3696,155;-2309,039
 362,23; 7876,089; 3772,517;-2932,958
 362,83; 7537,660; 3755,639;-2990,726
 363,42; 7212,041; 3938,769;-2836,447
 364,02; 7024,289; 3910,034;-2973,462
 364,62; 7381,841; 3816,398;-2486,573
 365,21; 5813,147; 3857,937;-1741,558
 365,81; 4313,900; 3935,818;-2792,173
 366,40; 4267,042; 3970,062;-2080,707
 367,00; 4675,328; 4021,550;-2952,776
 367,59; 5497,195; 4071,831;-2979,699
 368,19; 6099,547; 4221,678;-3237,306
 368,79; 5763,758; 4198,720;-3125,268
 369,38; 5105,233; 4107,200;-2250,383
 369,98; 5741,471; 4101,940;-2935,940
 370,57; 6218,215; 4188,588;-3331,356
 371,17; 6005,111; 4164,860;-3326,135
 371,76; 6639,587; 4277,486;-3442,879
 372,36; 7489,187; 4057,598;-3195,501
 372,95; 9296,825; 4115,372;  667,934
 373,55;10310,302; 4105,998;-3393,811
 374,14;10089,768; 4300,099;-3405,097
 374,74; 9797,340; 4256,514;-3224,124
 375,34; 8672,358; 4286,979;-3189,521
 375,93; 8571,939; 4295,479;-2706,116
 376,53; 7656,891; 4344,585;-3575,974
 377,12; 5051,737; 4405,670;-1465,352
 377,72; 4068,730; 4480,730;-3410,414
 378,31; 4380,642; 4511,027;-2274,699
 378,91; 4834,918; 4291,429;-3262,199
 379,50; 5555,954; 4588,213;-3331,363
 380,10; 5512,249; 4327,226;-3398,890
 380,69; 5703,878; 4094,621;-2343,626
 381,29; 7859,640; 4586,735;-2550,439
 381,88; 9827,907; 4518,758;-1605,111
 382,48; 9578,830; 4519,727;-3286,485
 383,07; 8340,792; 4495,358;-3457,802
 383,67; 7944,907; 4635,758;-1847,111
 384,26; 7394,498; 4667,491;-2467,905
 384,86; 5751,401; 4921,849;-3182,252
 385,45; 5770,336; 4932,636;-3325,344
 386,05; 5442,583; 5073,608;-3419,100
 386,64; 4622,384; 4911,384;-3524,855
 387,24; 5147,317; 5016,878;-2585,688
 387,83; 5262,603; 4993,512;-2489,386
 388,42; 5574,659; 5182,346;-2109,466
 389,02; 5247,936; 5423,748;-3235,966
 389,61; 4893,451; 5688,036;-3413,653
 390,21; 4775,317; 5729,878;-3463,688
 390,80; 3708,194; 5816,392;-3208,810
 391,40; 3829,422; 6137,899;-2293,168
 391,99; 4553,192; 5981,099;-3195,550
 392,59; 4892,841; 6435,252;-2416,943
 393,18; 4402,841; 6683,398;-2491,573
 393,77; 3543,072; 6883,198;-3238,192
 394,37; 3764,442; 7145,657;-2198,825
 394,96; 4169,327; 7098,403;-2296,146
 395,56; 4099,215; 7264,588;-2834,356
 396,15; 4875,794; 6867,797;-3125,692
 396,75; 5349,508; 7343,163;-2889,993
 397,34; 4151,471; 7669,940;-2620,940
 397,93; 3369,100; 7720,188;-3358,047
 398,53; 3218,813; 7595,262;-2525,088
 399,12; 3433,184; 8192,013;-2154,981
 399,72; 4228,136; 8013,119;-2274,840
 400,31; 4410,688; 8034,629;-3169,581
 400,91; 3857,022; 8446,012;-2959,791
 401,50; 3273,072; 8820,198;-2330,192
 402,09; 3250,291; 8550,327;-2894,722
 402,69; 3368,938; 8691,187;-3072,856
 403,28; 3637,089; 9052,663;-2983,588
 403,88; 6167,300; 9162,560; 1927,079
 404,47; 7432,195; 9689,831;  884,300
 405,06; 4941,318; 9684,171;  -68,947
 405,66; 5820,947; 9753,565;-2875,684
 406,25; 7867,758;10085,720;-3119,268
 406,84; 7605,966;10446,177;-2892,711
 407,44; 5702,949;10847,858;-2219,944
 408,03; 3798,902;10422,257;-2906,063
 408,63; 3448,310;10373,085;-3011,379
 409,22; 3409,729;10191,584;-1945,783
 409,81; 3513,111;10681,007;-1849,765
 410,41; 3683,662;11553,078;-2857,615
 411,00; 4067,854;11336,362;-1814,921
 411,59; 4557,873;11251,120;-2826,578
 412,19; 4625,558;11468,350;-2245,394
 412,78; 5426,825;11399,226;-2830,436
 413,37; 5673,892;12151,878;-2704,234
 413,97; 6060,178;12410,512;-2618,933
 414,56; 5674,530;12071,506;-2503,169
 415,15; 5160,931;12410,394;-2121,547
 415,75; 4642,235;12408,639;-2698,272
 416,34; 4015,578;12590,254;-1893,681
 416,93; 4403,160;12922,047;-2777,536
 417,53; 5067,732;12696,169;-1423,303
 418,12; 5789,236;12570,785;-2217,903
 418,71; 5989,114;12907,592;-2673,285
 419,31; 6677,904;13054,695;-1884,952
 419,90; 6987,408;13470,313;-2786,552
 420,49; 5198,951;13619,298;-1733,834
 421,08; 4460,951;14201,298;-1674,834
 421,68; 4972,684;14723,421;-1908,792
 422,27; 5702,933;14035,832;-2004,437
 422,86; 6075,751;13874,073; -437,590
 423,46; 5708,153;14080,107;-2575,598
 424,05; 5341,515;14376,626;-2928,293
 424,64; 5964,342;13888,953;-2640,014
 425,24; 6010,181;14092,098;-2903,453
 425,83; 6054,611;13992,269;-2680,945
 426,42; 6638,515;12987,626;-2760,293
 427,01; 6872,791;13424,734;-2674,533
 427,61; 4844,982;14347,873;-2609,209
 428,20; 3844,526;14036,151;-1764,751
 428,79; 3889,222;14414,052;-2859,656
 429,38; 4605,887;14092,377;-1781,186
 429,98; 5498,726;14922,521; -994,625
 430,57; 6436,982;15058,873;-2193,209
 431,16; 5246,021;14580,389;-2784,522
 431,75; 4970,545;14357,909; -561,407
 432,35; 6326,573;13435,899;-1951,262
 432,94; 4923,927;14429,186;-2324,759
 433,53; 3599,725;14560,375;-1152,995
 434,12; 3379,526;14431,298;-2267,381
 434,72; 3289,927;14188,331;-1413,389
 435,31; 3354,803;14167,699; 7395,119
 435,90; 3058,080;14308,954; 8338,249
 436,49; 2948,670;13427,834; -683,175
 437,08; 3244,756;13895,951; -675,370
 437,68; 5258,022;14442,827;-2987,412
 438,27; 6538,109;14610,237;-2610,866
 438,86; 3886,508;14612,832;-1147,984
 439,45; 3050,385;15313,346;-1937,106
 440,05; 4726,119;15955,616;-2982,694
 440,64; 4776,853;15054,886;-1902,282
 441,23; 3716,625;14152,525;-1415,553
 441,82; 3182,166;13700,218;-2631,576
 442,41; 2445,158;14351,277;-3014,637
 443,00; 2404,740;13625,925;-2724,863
 443,60; 2367,367;14373,881;-3136,710
 444,19; 2551,244;15026,541;-1440,462
 444,78; 2363,101;14960,151;-3012,298
 445,37; 2343,102;15728,297;-2522,928
 445,96; 2569,243;15331,249;-3116,202
 446,56; 2560,597;15596,535;-1144,698
 447,15; 2456,273;16225,678; -884,947
 447,74; 2416,025;17097,412;-2709,931
 448,33; 2255,255;16443,066;-1985,920
 448,92; 2121,779;15422,440;-2964,176
 449,51; 2083,626;15095,817;-2848,813
 450,10; 1857,388;15133,078;-3063,256
 450,70; 1792,198;14904,939;-1957,581
 451,29; 1919,312;15329,193;-1112,260
 451,88; 1993,625;15513,671;-2929,183
 452,47; 2392,121;16565,055;-2795,584
 453,06; 2132,609;16495,498;-2401,047
 453,65; 1808,295;16071,874;-2873,493
 454,24; 1757,656;17329,246;-2173,558
 454,84; 1898,932;17793,209;-1379,168
 455,43; 1837,285;18732,496;-2219,665
 456,02; 1682,827;18879,480;-2927,947
 456,61; 1758,560;17317,459;-2925,275
 457,20; 1698,742;16921,363;-2786,753
 457,79; 1784,733;17588,131;-2922,554
 458,38; 1784,276;18338,264;-2132,467
 458,97; 1806,124;18039,641;-2515,104
 459,56; 1819,504;18190,479;-2760,565
 460,16; 1873,790;17832,258;-2082,894
 460,75; 1884,390;18157,518;-2072,146
 461,34; 1738,590;18077,887;-2962,020
 461,93; 1719,078;18381,186;-2200,853
 462,52; 1893,572;19333,275;-2744,993
 463,11; 1889,821;20546,688;-1989,639
 463,70; 2015,286;19458,643;-2869,295
 464,29; 2027,450;19945,082;-3150,376
 464,88; 1985,068;20795,807;-2743,024
 465,47; 1876,543;19885,285;-2748,139
 466,06; 1982,412;20915,713;-3191,692
 466,65; 2065,897;21667,572;-3018,635
 467,24; 2171,279;22030,848;-2539,986
 467,84; 2043,972;22443,164;-2020,371
 468,43; 1839,211;22325,051;-2238,559
 469,02; 1923,620;23517,170;-2702,135
 469,61; 2066,287;24168,936;-2593,555
 470,20; 2071,506;23781,063;-2841,085
 470,79; 2067,231;22760,100;-3232,475
 471,38; 1918,621;25266,463;-2192,395
 471,97; 1733,355;26009,732; -666,983
 472,56; 1884,004;25472,887;-3035,376
 473,15; 1956,174;25296,975;-2825,135
 473,74; 2023,765;26395,854;-3106,559
 474,33; 1905,117;25866,848;-2957,796
 474,92; 1859,698;27630,348;-3146,391
 475,51; 1810,927;29609,002;-2873,380
 476,10; 1867,470;29847,986;-3011,662
 476,69; 1878,337;26101,268;-2855,586
 477,28; 1926,231;25846,955;-2956,845
 477,87; 1807,337;27035,121; -173,956
 478,46; 1857,537;28695,639;-3029,460
 479,05; 1845,069;30507,100;-2134,284
 479,64; 1755,623;31679,756;-2718,655
 480,23; 1762,994;29541,508;-2845,548
 480,82; 1775,441;28549,996;-2736,807
 481,41; 1778,318;29371,510;-1873,929
 482,00; 1753,842;29284,885;-1364,185
 482,59; 1743,603;29593,998;-2298,998
 483,18; 1873,908;31702,244;-2376,723
 483,77; 1786,956;31703,139;-2193,865
 484,36; 1801,927;32475,002;-1701,380
 484,95; 1856,852;32990,410; -788,643
 485,54; 2194,004;35331,031;-1371,006
 486,13; 2515,280;35762,996; -945,616
 486,72; 3055,794;34334,137;  148,326
 487,31; 3120,119;31046,285;-1109,686
 487,89; 2530,889;32608,633; -193,697
 488,48; 3327,385;33798,164;-1523,728
 489,07; 3842,348;32913,941;-1248,674
 489,66; 2841,185;33511,645;-1505,224
 490,25; 2351,415;31095,299; -660,212
 490,84; 2492,451;34127,375;-1683,635
 491,43; 3927,918;34965,621; -701,552
 492,02; 4886,833;36094,652;-1864,987
 492,61; 3205,461;35362,902;-1043,094
 493,20; 2428,634;33776,426;-2019,743
 493,79; 2353,281;32749,434; 4824,494
 494,38; 2306,138;33706,043;-1938,342
 494,97; 3483,700;32583,934; -629,911
 495,55; 4959,548;34690,309;-2325,548
 496,14; 3873,261;35087,531;-2403,220
 496,73; 2555,987;35451,566;-1952,609
 497,32; 2428,472;34211,570;-2587,182
 497,91; 2760,158;35005,949;-1921,629
 498,50; 2818,625;34165,195;-2912,544
 499,09; 2526,472;34554,570;-3088,182
 499,68; 2802,729;32403,070;-2405,396
 500,27; 3391,712;33321,605;-2490,999
 500,85; 3408,920;32655,207;-2604,071
 501,44; 3055,625;32478,342;-2576,175
 502,03; 2866,549;33194,457;-3368,178
 502,62; 2501,568;31275,068;-3438,205
 503,21; 2307,663;29432,711;-3532,858
 503,80; 2315,645;32028,100;-2976,831
 504,39; 2331,588;32451,119;-3458,121
 504,97; 2322,559;31774,982;-3577,636
 505,56; 2129,254;31537,590;-2979,281
 506,15; 2232,140;32302,336;-3991,602
 506,74; 2398,007;32557,617;-2945,526
 507,33; 2424,598;32185,498;-3165,949
 507,92; 2307,826;33952,859;-3871,678
 508,51; 2157,750;35926,973;-3735,682
 509,09; 2346,303;34536,629;-3921,053
 509,68; 2301,731;34318,508;-3748,286
 510,27; 2299,590;33667,410;-3799,381
 510,86; 2276,589;32572,264;-4081,751
 511,45; 2299,894;33677,512;-3843,476
 512,03; 2604,664;34524,855;-3829,488
 512,62; 2741,616;36240,961;-3780,346
 513,21; 3037,599;33870,789;-3186,209
 513,80; 3241,856;34644,289;-3501,423
 514,39; 3019,370;32752,137;-3905,221
 514,97; 2719,789;35347,781;-4095,255
 515,56; 2767,942;34167,551;-4198,248
 516,15; 3563,657;35428,063;-3955,179
 516,74; 3959,933;32584,318;-4420,049
 517,33; 3065,809;33459,688;-3549,542
 517,91; 2597,047;33935,426;-4188,099
 518,50; 3010,808;32563,393;-3264,282
 519,09; 3464,607;33942,875;-3157,778
 519,68; 3121,161;35231,531;-4286,148
 520,26; 2769,457;38679,547;-4232,675
 520,85; 2699,380;39452,660;-4352,679
 521,44; 2947,115;40826,078;-4358,897
 522,03; 3214,809;39485,539;-4271,912
 522,61; 3996,115;36773,078;-4364,897
 523,20; 3829,248;33924,090;-4337,233
 523,79; 3041,829;32040,590;-4337,828
 524,38; 2679,876;32850,191;-4344,709
 524,96; 2474,524;35883,199;-4321,473
 525,55; 2469,314;36021,449;-4542,771
 526,14; 3195,534;34018,723;-4434,931
 526,73; 3760,791;32852,074;-4389,515
 527,31; 3080,419;32903,324;-4488,622
 527,90; 2713,314;33630,449;-4564,771
 528,49; 2426,600;34155,938;-2529,839
 529,08; 2167,525;34601,344;-3467,103
 529,66; 2161,991;34848,445;-3911,389
 530,25; 2067,810;35279,832;-4414,172
 530,84; 1855,849;35334,348;-4583,485
 531,42; 2111,030;38583,105;-4365,332
 532,01; 2678,554;37528,480;-4291,588
 532,60; 2904,649;34512,125;-4473,241
 533,18; 2179,086;35538,086;-4078,042
 533,77; 1974,297;34969,984;-4236,374
 534,36; 1860,258;34459,469;-4374,061
 534,95; 1943,068;35483,477;-4088,015
 535,53; 1976,410;34236,090; -974,424
 536,12; 2341,487;36469,977;-2657,420
 536,71; 2820,601;36511,230;-3869,099
 537,29; 2504,906;36073,621;-3618,454
 537,88; 2318,115;33908,078;-3454,897
 538,47; 2302,211;32497,867;-2840,180
 539,05; 2391,411;36837,238;-2139,054
 539,64; 2673,450;40414,898;-1785,997
 540,22; 2960,040;37414,633; -764,790
 540,81; 2628,583;37501,766; 1008,297
 541,40; 2305,716;39018,629; 3425,591
 541,98; 2263,925;38188,230; 4858,519
 542,57; 2388,487;39368,977; 4597,580
 543,16; 1995,097;38645,613; 4952,500
 543,74; 1829,392;35774,480; 4083,603
 544,33; 1983,993;36297,883; 3620,721
 544,92; 2035,317;37217,887; 3973,339
 545,50; 1981,202;37338,488;11456,648
 546,09; 1817,353;40064,965;11359,916
 546,67; 1694,696;41948,727; 2857,878
 547,26; 1729,572;40050,094; -202,615
 547,85; 1620,651;39208,414; -567,501
 548,43; 1580,230;38452,625; -849,836
 549,02; 1522,221;39427,246;-1040,008
 549,60; 1527,497;40570,500; -984,878
 550,19; 1562,592;41166,996;-2192,901
 550,78; 1513,183;42660,875;-2328,325
 551,36; 1401,079;45349,148;-2432,104
 551,95; 1370,563;45443,859; -585,416
 552,53; 1378,840;43280,262; -296,916
 553,12; 1447,641;41420,035;-3431,672
 553,70; 1348,032;43188,547;-2878,222
 554,29; 1397,888;44058,008;-2869,428
 554,88; 1359,603;41831,668;-4247,989
 555,46; 1341,831;43723,027;-3881,718
 556,05; 1455,668;45007,734;-4207,268
 556,63; 1724,326;45206,266;-3396,489
 557,22; 1811,354;43875,109;-3394,714
 557,80; 1692,259;41749,762;-3568,321
 558,39; 1789,545;44188,250;-4145,390
 558,97; 1645,155;47993,887;-3699,470
 559,56; 1418,945;49889,137;-4544,768
 560,15; 1458,641;50117,891;-3611,042
 560,73; 1532,727;49814,152;-4287,867
 561,32; 1929,935;47024,609;-3741,309
 561,90; 1729,584;46041,910;-4382,333
 562,49; 1464,278;48487,371;-3786,348
 563,07; 1326,574;48074,387;-4783,875
 563,66; 1333,783;50064,133;-4352,577
 564,24; 1322,593;49228,145;-4763,531
 564,83; 1266,279;51344,664;-4603,607
 565,41; 1430,440;53840,375;-4329,539
 566,00; 1434,698;52202,164;-2755,012
 566,58; 1273,602;56465,375;-3725,729
 567,17; 1291,145;56909,508;-4280,642
 567,75; 1210,535;52392,871;-4653,562
 568,34; 1249,231;55893,770;-3216,466
 568,92; 1192,337;55738,793;-3987,947
 569,51; 1191,964;54852,895; 2680,576
 570,09; 1315,222;58247,391;-4676,638
 570,68; 1266,861;53188,313;-4788,833
 571,26; 1244,059;50733,242;-3886,817
 571,85; 1207,992;57347,738;-4822,649
 572,43; 1123,926;57011,379;-4704,111
 573,01; 1069,764;52662,375;-4873,920
 573,60; 1147,212;53819,012;-3785,810
 574,18; 1120,840;55122,262;-4514,917
 574,77; 1148,298;53284,277;-4737,634
 575,35; 1219,212;56113,012;-4452,810
 575,94; 1188,069;57300,770;-4076,275
 576,52; 1216,488;54049,270;-2249,680
 577,11; 1166,241;51620,297;-3244,924
 577,69; 1173,842;48685,555;-3183,176
 578,27; 1153,592;51008,996;-3447,901
 578,86; 1166,870;55198,543;-2994,031
 579,44; 1169,402;60080,004;-2805,855
 580,03; 1229,107;60164,137;-2493,958
 580,61; 1190,812;60267,270;-3206,062
 581,19; 1240,146;56429,652;-2538,271
 581,78; 1244,280;55361,813;-2364,238
 582,36; 1130,993;57656,031;-2911,909
 582,95; 1165,346;56180,172;-1497,776
 583,53; 1216,222;59586,539;-2319,268
 584,11; 1193,831;61608,883;-2241,088
 584,70; 1280,793;61691,660;-1948,035
 585,28; 1287,031;62070,398;-1853,592
 585,87; 1215,365;60436,930;-2889,432
 586,45; 1213,870;63023,543;-2375,031
 587,03; 1131,947;64945,430;-1150,027
 587,62; 1315,850;61494,641;-1834,745
 588,20; 1294,270;62236,285;-1020,779
 588,78; 1325,195;58157,840;-3411,673
 589,37; 1363,488;57765,270;-3360,680
 589,95; 1337,393;62238,773;-3385,657
 590,54; 1372,384;63633,539;-3461,459
 591,12; 1328,727;62116,301;-3508,497
 591,70; 1285,013;59586,789;-3331,565
 592,29; 1287,470;62881,805;-2923,283
 592,87; 1353,440;63542,375;-2394,538
 593,45; 1238,308;63404,801; 1487,908
 594,04; 1185,128;62800,188;-3676,875
 594,62; 1202,584;59709,910;-3708,333
 595,20; 1123,900;62066,828;-4371,146
 595,79; 1305,108;62681,285;-4165,588
 596,37; 1244,842;61108,555;-3657,176
 596,95; 1250,860;56922,164;-4321,203
 597,53; 1224,231;58806,770;-4226,466
 598,12; 1208,718;61848,922;-3959,669
 598,70; 1206,736;64932,531;-3776,695
 599,28; 1167,440;64911,375;-3404,538
 599,87; 1250,041;64929,777;-3061,420
 600,45; 1287,918;64938,293;-3907,543
 601,03; 1268,365;63145,781;-4100,802
 601,62; 1296,128;61727,188;-4468,875
 602,20; 1308,327;59786,414;-4541,119
 602,78; 1248,042;64399,070;-4770,680
 603,36; 1224,889;64783,301;-3166,688
 603,95; 1137,298;58863,277;-4492,634
 604,53; 1092,784;62401,281;-4574,207
 605,11; 1190,516;59505,258;-2755,535
 605,69; 1198,051;62362,156;-3365,249
 606,28; 1153,470;62594,805;-4223,283
 606,86; 1107,299;61629,422;-3946,264
 607,44; 1033,032;60431,547;-3906,222
 608,02; 1039,632;58047,805;-4037,474
 608,61; 1033,603;60099,668;-2866,989
 609,19;  993,975;58582,418;-2582,882
 609,77; 1077,137;57398,422; -710,073
 610,35; 1069,851;55748,785; 5794,625
 610,94;  927,042;56509,926;14509,949
 611,52;  946,603;55803,668;12610,011
 612,10;  890,281;53026,957; 8432,133
 612,68;  819,309;56637,949; 2694,278
 613,26;  995,680;57037,551; 2032,015
 613,85;  980,204;61759,926; -599,241
 614,43;  911,232;62306,918;-1030,096
 615,01;  860,261;62272,199;-1215,211
 615,59;  827,643;64874,328; -972,932
 616,17;  898,822;59402,648;-2561,890
 616,76;  948,155;62178,887;-2993,470
 617,34;  913,944;62666,988;-2389,138
 617,92;  915,231;58547,770;-3399,466
 618,50;  958,146;61202,652;-2562,271
 619,08;  904,155;57928,031;-2514,100
 619,67;  857,698;55968,164;-3196,012
 620,25;  858,850;54290,641;-2743,745
 620,83;  825,918;50498,293;-3495,543
 621,41;  807,984;52314,797;-2800,711
 621,99;  764,927;54560,672;-2529,371
 622,57;  848,269;55529,141;-3707,149
 623,15;  906,574;56213,387;-3783,875
 623,74;  841,964;58266,746;-3892,794
 624,32;  813,774;59330,754;-2827,749
 624,90;  867,612;58625,898;-2311,188
 625,48;  830,289;57897,043;-3132,436
 626,06;  842,221;56898,391;-4006,638
 626,64;  648,402;57787,004;-4162,855
 627,22;  698,022;58993,020;-3409,764
 627,81;  649,002;58046,117;-4334,478
 628,39;  668,755;57121,145;-4560,722
 628,97;  717,080;56597,293;-4437,733
 629,55;  732,126;55377,750;-4219,985
 630,13;  781,812;55669,270;-2959,062
 630,71;  713,802;54162,891;-2747,233
 631,29;  712,298;53129,277;-3824,634
 631,87;  729,983;52776,504;-4223,451
 632,45;  675,822;52786,648;-4716,890
 633,03;  739,335;54183,500;-4191,688
 633,62;  683,784;55423,281;-4714,207
 634,20;  701,508;54882,172;-4089,966
 634,78;  718,916;56497,000;-4430,283
 635,36;  661,498;56701,648;-4449,508
 635,94;  679,412;55183,383;-5398,684
 636,52;  771,174;51027,645;-5422,126
 637,10;  718,860;52116,164;-5488,203
 637,68;  677,250;50694,527;-4702,123
 638,26;  628,288;47618,750;-5536,176
 638,84;  667,936;48688,902;-5421,569
 639,42;  661,860;49235,164;-3756,203
 640,00;  798,752;51366,148;-5405,726
 640,58;  868,540;54579,402;-4806,027
 641,16;  798,328;55521,656;-5571,328
 641,74;  745,116;53214,906;-5433,630
 642,32;  680,904;50106,160;-5620,931
 642,90;  703,692;50434,414;-5856,232
 643,48;  674,480;49231,668;-5786,534
 644,06;  643,268;49280,922;-5796,835
 644,64;  673,055;49595,176;-5842,137
 645,22;  598,843;50513,430;-5562,438
 645,80;  643,631;50547,684;-4957,740
 646,39;  603,419;48107,938;-5515,041
 646,97;  581,207;49773,191;-5850,342
 647,54;  559,995;52328,441;-5717,644
 648,12;  626,783;54879,695;-5865,945
 648,70;  693,571;58954,949;-5885,247
 649,28;  705,359;56421,203;-6090,548
 649,86;  714,146;51091,457;-5609,850
 650,44;  582,934;48619,711;-5452,151
 651,02;  618,722;49970,965;-5474,452
 651,60;  575,510;51793,219;-5803,753
 652,18;  599,298;51320,473;-4735,055
 652,76;  618,086;53277,723;-5934,356
 653,34;  629,874;54817,977;-5939,658
 653,92;  719,662;57729,230;-5784,959
 654,50;  804,450;59042,484;-5818,261
 655,08;  754,237;58048,738;-5841,562
 655,66;  695,025;55058,992;-5115,863
 656,24;  810,813;56743,246;-5200,165
 656,82;  845,601;58989,500;-4979,466
 657,40;  766,389;58967,754;-5667,768
 657,98;  671,177;60169,008;-5486,069
 658,56;  732,965;61114,258;-5717,371
 659,14;  694,753;61380,512;-5913,672
 659,72;  654,541;63381,766;-5916,973
 660,29;  618,329;62437,020;-5907,275
 660,87;  603,116;59738,273;-5212,576
 661,45;  573,904;58590,527;-5664,877
 662,03;  564,692;57513,781;-4971,179
 662,61;  542,480;54945,035;-5638,480
 663,19;  556,268;54618,289;-5657,782
 663,77;  512,056;53917,543;-5939,083
 664,35;  495,844;56689,793;-5887,384
 664,93;  482,632;62595,047;-4922,686
 665,51;  505,420;61993,301;-6033,987
 666,08;  526,207;57747,555;-5652,289
 666,66;  499,995;51859,809;-4400,590
 667,24;  583,783;49420,063;-5952,892
 667,82;  557,571;50250,316;-5849,193
 668,40;  508,359;50723,570;-5932,494
 668,98;  501,147;51952,824;-5097,796
 669,56;  483,935;57957,078;-6096,097
 670,13;  531,723;61797,328;-6222,398
 670,71;  540,511;59698,582;-5900,700
 671,29;  535,298;57209,836;-6139,001
 671,87;  496,086;56814,090;-6051,303
 672,45;  454,874;51822,344;-6050,604
 673,03;  540,662;52592,598;-4769,906
 673,60;  473,450;58431,852;-3503,207
 674,18;  550,238;63679,105;-5938,508
 674,76;  503,026;61159,359;-6226,810
 675,34;  509,814;56361,613;-5251,111
 675,92;  426,602;55284,863;-6338,413
 676,50;  489,389;55051,117;-6085,714
 677,07;  459,177;56952,371;-6095,016
 677,65;  487,965;56680,625;-6163,317
 678,23;  482,753;55997,879;-5057,618
 678,81;  491,541;58016,133;-5299,919
 679,38;  482,329;56669,387;-5969,221
 679,96;  479,117;53267,641;-5846,522
 680,54;  503,905;55171,895;-5308,824
 681,12;  418,693;52485,148;-6126,125
 681,70;  485,481;54786,398;-4413,427
 682,27;  460,268;54740,652;-5851,728
 682,85;  423,056;58265,906;-5991,029
 683,43;  454,844;64943,160;-6140,331
 684,01;  490,632;64943,414;-5172,632
 684,58;  475,420;64307,668;-5138,934
 685,16;  539,208;64236,922;-4494,235
 685,74;  547,996;62790,176;-3853,536
 686,32;  471,784;59009,430;-6012,838
 686,89;  489,572;59552,684;-6015,139
 687,47;  460,359;59534,934;-6076,441
 688,05;  424,147;56416,188;-6019,742
 688,63;  421,935;59626,441;-6102,043
 689,20;  413,723;62884,695;-5971,345
 689,78;  410,511;58427,949;-5530,646
 690,36;  450,299;54291,203;-5381,948
 690,93;  386,087;54968,457;-6355,249
 691,51;  456,875;61453,711;-6326,550
 692,09;  420,663;64946,965;-6223,852
 692,67;  452,450;64947,219;-6047,153
 693,24;  418,238;60968,469;-5803,455
 693,82;  436,026;59538,723;-6235,756
 694,40;  431,814;58049,977;-3570,058
 694,97;  403,602;57456,230;-6046,359
 695,55;  421,390;59820,484;-5464,660
 696,13;  460,178;61729,738;-4454,962
 696,70;  434,966;58594,992;-6029,263
 697,28;  414,754;59108,246;-6266,564
 697,86;  450,542;60837,500;-6030,866
 698,43;  427,329;58827,754;-6198,167
 699,01;  444,117;55595,004;-6051,469
 699,59;  441,905;55751,258;-6402,770
 700,16;  393,693;54174,512;-5257,072
 700,74;  377,481;57040,766;-5497,373
 701,32;  353,269;56440,020;-6233,674
 701,89;  402,057;55792,273;-6049,976
 702,47;  428,845;60296,527;-6466,277
 703,05;  370,633;64951,781;-6309,579
 703,62;  370,420;64952,035;-6227,880
 704,20;  342,208;64952,285;-5306,182
 704,77;  373,996;64952,539;-6118,483
 705,35;  341,784;64213,793;-6006,784
 705,93;  340,572;64327,047;-4922,085
 706,50;  366,360;63796,301;-5267,387
 707,08;  338,148;60606,555;-5284,688
 707,65;  347,936;60046,809;-5620,990
 708,23;  383,724;64881,063;-5431,292
 708,81;  332,511;64954,316;-5019,593
 709,38;  377,299;64954,570;-5001,894
 709,96;  375,087;64954,820;-6025,195
 710,53;  371,875;64955,074;-6007,497
 711,11;  387,663;61503,328;-5752,798
 711,69;  398,451;61913,582;-3821,100
 712,26;  388,239;59012,836;-4642,401
 712,84;  359,027;63346,090;-5947,703
 713,41;  377,815;64411,344;-6153,004
 713,99;  379,602;64924,598;-6068,305
 714,56;  346,390;62057,852;-6326,607
 715,14;  395,178;60312,105;-6198,908
 715,71;  336,966;60246,355;-6210,209
 716,29;  391,754;62893,609;-6648,511
 716,86;  348,542;63573,863;-6510,813
 717,44;  358,330;63263,117;-6424,114
 718,02;  422,118;62110,371;-6462,415
 718,59;  398,906;61013,625;-5121,716
 719,17;  368,693;63488,879;-5649,018
 719,74;  368,481;62907,133;-5756,319
 720,32;  385,269;63502,387;-6451,621
 720,89;  403,057;64959,641;-6422,922
 721,47;  343,845;64959,891;-6388,224
 722,04;  382,633;64960,145;-5502,525
 722,62;  400,421;64252,398;-3979,826
 723,19;  364,209;60250,652;-4938,128
 723,77;  350,997;57638,906;-5673,429
 724,34;  395,785;60150,160;-5576,730
 724,92;  386,572;63789,414;-6558,032
 725,49;  291,360;64961,668;-5666,333
 726,07;  363,148;64961,922;-6491,635
 726,64;  382,936;64627,176;-6587,936
 727,21;  334,724;60249,426;-5627,238
 727,79;  352,512;63706,680;-6444,539
 728,36;  372,300;64962,934;-6722,840
 728,94;  416,088;64963,188;-6535,142
 729,51;  315,876;64963,441;-6365,443
 730,09;  363,663;64963,695;-5545,745
 730,66;  330,451;64963,949;-6358,046
 731,24;  416,239;64964,203;-6577,348
 731,81;  432,027;64964,457;-5151,649
 732,38;  435,815;64964,711;-6492,950
 732,96;  385,603;64964,961;-6263,251
 733,53;  425,391;60347,215;-6389,553
 734,11;  424,179;61575,469;-6617,854
 734,68;  509,967;64965,723;-6211,156
 735,26;  485,754;64965,977;-6389,458
 735,83;  526,542;64966,230;-6498,759
 736,40;  528,330;62243,484;-6516,060
 736,98;  547,118;61999,738;-6374,361
 737,55;  517,906;59236,992;-5827,663
 738,13;  521,694;57707,246;-5702,964
 738,70;  522,482;60991,496;-5529,266
 739,27;  521,270;62504,750;-6452,567
 739,85;  590,058;62745,004;-6283,869
 740,42;  623,845;64968,258;-6464,170
 740,99;  659,633;64968,512;-5618,471
 741,57;  731,421;64968,766;-4867,773
 742,14;  753,209;64969,020;-5349,074
 742,72;  728,997;64969,273;-4751,375
 743,29;  715,785;64969,527;-6563,677
 743,86;  777,573;64969,781;-6538,979
 744,44;  813,361;64970,031;-6113,280
 745,01;  738,149;64970,285;-5760,581
 745,58;  721,937;64970,539;-6259,882
 746,16;  701,724;64970,793;-6188,184
 746,73;  798,512;64971,047;-6479,485
 747,30;  818,300;61139,301;-6536,787
 747,88;  770,088;59621,555;-5621,088
 748,45;  853,876;64971,809;-5668,390
 749,02;  965,664;64972,063;-6384,691
 749,60; 1040,452;62401,313;-6212,992
 750,17; 1058,240;61766,566;-5269,294
 750,74; 1180,027;62801,820;-6479,595
 751,31; 1233,815;63306,074;-6347,896
 751,89; 1121,603;64232,328;-6546,198
 752,46; 1172,391;64973,582;-6282,500
 753,03; 1191,179;64973,836;-6160,801
 753,61; 1169,967;63755,090;-4858,102
 754,18; 1054,755;64573,344;-6434,404
 754,75; 1054,543;63888,598;-5191,705
 755,32;  982,331;60715,848;-6332,006
 755,90;  949,119;64975,102;-6493,308
 756,47;  932,906;64975,355;-4809,609
 757,04;  848,694;64975,609;-6457,911
 757,61;  756,482;64975,863;-5553,212
 758,19;  806,270;64976,117;-5253,514
 758,76;  694,058;64976,371;-6603,815
 759,33;  703,846;64976,625;-6664,116
 759,90;  643,634;64976,879;-5714,417
 760,48;  551,422;64977,133;-6778,719
 761,05;  566,210;64977,383;-6083,021
 761,62;  525,997;62082,637;-4888,322
 762,19;  482,785;58992,891;-6144,624
 762,77;  468,573;61730,145;-5963,925
 763,34;  474,361;64978,398;-6610,226
 763,91;  443,149;64978,652;-5818,527
 764,48;  440,937;64978,906;-6756,829
 765,05;  361,725;64979,160;-6543,130
 765,63;  398,513;63215,414;-6417,432
 766,20;  441,301;59753,668;-6004,733
 766,77;  385,089;57105,918;-5921,035
 767,34;  327,876;58807,172;-6640,336
 767,91;  322,664;59176,426;-6689,637
 768,49;  342,452;61368,680;-6772,939
 769,06;  318,240;64980,934;-5832,240
 769,63;  306,028;62272,188;-6636,542
 770,20;  302,816;59567,441;-5868,843
 770,77;  276,604;57921,695;-5645,145
 771,34;  248,392;60065,949;-6615,446
 771,91;  286,180;60549,203;-6102,747
 772,49;  307,967;58558,453;-6369,048
 773,06;  287,755;57687,707;-6203,350
 773,63;  286,543;60204,961;-6639,651
 774,20;  322,331;58197,215;-5918,953
 774,77;  313,119;56475,469;-6631,254
 775,34;  311,907;56707,723;-6214,556
 775,91;  357,695;57056,977;-6417,857
 776,49;  403,483;58787,230;-6590,158
 777,06;  463,271;60761,484;-6015,460
 777,63;  412,058;64224,738;-6367,761
 778,20;  355,846;62572,988;-6250,063
 778,77;  328,634;63316,242;-5763,364
 779,34;  275,422;64985,496;-6585,666
 779,91;  285,210;64985,750;-6534,967
 780,48;  240,998;59144,004;-5853,268
 781,05;  236,786;50716,258;-6586,570
 781,62;  269,574;52124,512;-6604,871
 782,20;  278,362;58813,766;-6500,172
 782,77;  277,149;64987,020;-6529,474
 783,34;  302,937;64052,273;-6522,775
 783,91;  274,725;61362,523;-6509,077
 784,48;  237,513;60480,777;-2126,378
 785,05;  237,301;59144,031;-6540,680
 785,62;  201,089;58221,285;-6452,981
 786,19;  237,877;58149,539;-5100,282
 786,76;  279,665;55130,793;-6677,583
 787,33;  214,453;56202,047;-6515,885
 787,90;  202,240;59491,301;-6591,187
 788,47;  208,028;60148,555;-5075,488
 789,04;  262,816;58988,809;-5763,790
 789,61;  227,604;58863,059;-5066,091
 790,18;  196,392;55747,313;-6561,392
 790,75;  238,180;50841,566;-6671,693
 791,32;  268,968;52056,820;-6577,995
 791,89;  238,756;55205,074;-6068,296
 792,46;  240,544;60806,328;-5763,598
 793,03;  269,332;62404,582;-6702,899
 793,60;  280,119;55699,836;-6440,201
 794,17;  270,907;52257,090;-5569,502
 794,74;  295,695;47273,344;-5886,803
 795,31;  258,483;50096,594;-6099,105
 795,88;  199,271;52579,848;-5572,406
 796,45;  190,059;53365,102;-6529,708
 797,02;  183,847;56004,355;-5046,009
 797,59;  233,635;57922,609;-6675,311
 798,16;  189,423;54563,863;-5861,612
 798,73;  177,210;53534,117;-6761,913
 799,30;  206,998;55088,371;-6611,214
 799,87;  205,786;55650,625;-6713,516
 800,44;  222,574;55353,875;-6729,817
 801,01;  190,362;56836,129;-6807,119
 801,58;  248,150;58477,383;-6537,420
 802,15;  208,938;52086,637;-6658,722
 802,72;  199,726;48849,891;-6694,023
 803,28;  186,514;52000,145;-6076,324
 803,85;  264,301;57179,398;-6728,626
 804,42;  255,089;55235,652;-5999,927
 804,99;  198,877;53752,906;-6539,229
 805,56;  170,665;52472,160;-6770,530
 806,13;  191,453;53387,410;-6075,832
 806,70;  204,241;52719,664;-6748,133
 807,27;  198,029;54477,918;-6672,434
 807,84;  191,817;52786,172;-6693,736
 808,41;  211,605;49728,426;-6022,037
 808,98;  191,392;50479,680;-5986,338
 809,54;  170,180;52469,934;-4958,640
 810,11;  190,968;48281,188;-6782,941
 810,68;  167,756;43021,441;-6680,243
 811,25;  169,544;41394,695;-6760,544
 811,82;  181,332;40374,945;-6886,846
 812,39;  130,120;37710,199;-3331,147
 812,96;  196,908;38779,453;-6767,448
 813,52;  214,696;41291,707;-6937,750
 814,09;  149,483;44522,961;-6766,051
 814,66;  111,271;50325,215;-6827,353
 815,23;  156,059;51240,469;-6669,654
 815,80;  154,847;50439,723;-5853,956
 816,37;  169,635;50917,977;-6801,257
 816,93;  161,423;49487,230;-6731,558
 817,50;  162,211;46790,480;-6102,859
 818,07;  183,999;46034,734;-6960,161
 818,64;  179,787;46919,988;-6856,462
 819,21;  170,575;46261,242;-6053,764
 819,77;  288,362;42742,496;-6571,065
 820,34;  205,150;42053,750;-6677,367
 820,91;  255,938;43276,004;-6469,668
 821,48;  265,726;43873,258;-6689,969
 822,05;  324,514;45571,512;-5875,271
 822,61;  239,302;44296,766;-5631,572
 823,18;  234,090;41860,016;-6620,874
 823,75;  174,878;42585,270;-6957,175
 824,32;  163,666;45286,523;-6923,477
 824,88;  209,453;45073,777;-6882,778
 825,45;  166,241;44018,031;-6899,079
 826,02;  180,029;43798,285;-6643,380
 826,59;  229,817;43974,539;-6639,682
 827,15;  140,605;46077,793;-6906,983
 827,72;  167,393;49519,047;-6723,285
 828,29;  147,181;51523,301;-6895,586
 828,86;  181,969;48827,551;-6791,888
 829,42;  130,757;40797,805;-6812,189
 829,99;  152,544;36802,059;-6647,490
 830,56;  159,332;36252,313;-6869,792
 831,13;  139,120;37220,566;-6060,093
 831,69;  146,908;38022,820;-6506,395
 832,26;  150,696;38832,074;-5062,696
 832,83;  161,484;40408,328;-5452,998
 833,39;  165,272;40187,582;-6904,299
 833,96;  157,060;39167,836;-6687,600
 834,53;  118,848;40039,086;-6928,902
 835,10;  134,635;39930,340;-6529,203
 835,66;  143,423;38972,594;-6920,504
 836,23;  115,211;39801,848;-6803,806
 836,80;  118,999;39428,102;-6790,107
 837,36;  137,787;37086,355;-6810,409
 837,93;  157,575;34475,609;-6902,710
 838,50;  212,363;35084,863;-6789,012
 839,06;  136,151;37684,117;-6288,313
 839,63;  103,939;37191,371;-6895,614
 840,19;  120,727;35132,621;-6607,916
 840,76;  134,514;35364,875;-6404,217
 841,33;   94,302;35892,129;-6509,519
 841,89;  124,090;36779,383;-6949,820
 842,46;  117,878;37103,637;-6751,122
 843,03;  121,666;35389,891;-6089,423
 843,59;  108,454;34224,145;-6403,724
 844,16;  158,242;34994,398;-6181,025
 844,73;  167,030;34249,652;-6067,327
 845,29;  171,818;32937,902;-5695,628
 845,86;  115,605;35699,156;-6800,930
 846,42;  111,393;36940,410;-7004,231
 846,99;  140,181;36477,664;-6967,533
 847,56;  107,969;36265,918;-5840,834
 848,12;   96,757;36240,172;-6745,135
 848,69;  142,545;35710,426;-6715,437
 849,25;  110,333;34401,680;-6845,738
 849,82;   86,121;34081,934;-3247,040
 850,38;  105,909;35064,188;-6840,341
 850,95;  106,696;32489,439;-6324,643
 851,52;   95,484;32520,693;-6565,944
 852,08;   63,272;32548,947;-6691,245
 852,65;   71,060;30323,199;-7005,546
 853,21;   64,848;27698,453;-6958,848
 853,78;   60,636;27362,707;-6363,149
 854,34;   95,424;28860,961;-6871,451
 854,91;   71,212;29081,215;-5086,752
 855,47;  103,000;29942,467;-5108,054
 856,04;  179,787;32027,721;-6746,355
 856,60;  107,575;33961,973;-6104,656
 857,17;  128,363;34979,227;-6840,958
 857,73;   74,151;33553,480;-6811,259
 858,30;   79,939;32532,734;-6985,561
 858,86;  102,727;31110,988;-5926,862
 859,43;  124,515;31430,242;-6226,164
 859,99;   48,303;32011,496;-6852,465
 860,56;   39,091;33126,750;-6903,766
 861,12;   67,878;35190,004;-6737,068
 861,69;   83,666;33669,258;-5924,369
 862,25;  114,454;34731,508;-6821,670
 862,82;   76,242;34419,762;-5972,972
 863,38;   71,030;31196,018;-6843,273
 863,95;  113,818;29305,270;-6239,575
 864,51;   93,606;30403,523;-5287,876
 865,08;  152,394;29284,777;-6090,178
 865,64;  125,182;26795,031;-7018,479
 866,21;   92,970;26131,285;-6745,780
 866,77;   85,757;26051,537;-5552,082
 867,34;   99,545;25734,791;-6672,383
 867,90;   91,333;24632,045;-6303,685
 868,46;  167,121;23835,299;-6041,986
 869,03;  118,909;24389,551;-6929,288
 869,59;  139,697;26353,805;-6884,589
 870,16;   86,485;27647,059;-6052,890
 870,72;  112,273;30060,313;-6657,191
 871,28;  108,061;32915,566;-5992,493
 871,85;   91,848;33142,820;-6907,794
 872,41;  101,636;31569,072;-6004,096
 872,98;   43,424;32738,326;-6050,397
 873,54;   44,212;33876,578;-5920,699
 874,10;   80,000;32768,832;-5876,000
 874,67;   84,000;32987,832;-6904,000
 875,23;   87,000;31068,834;-7032,000
 875,80;   76,000;28009,834;-6641,000
 876,36;   68,000;25058,834;-6642,000
 876,92;   90,000;22832,834;-6189,000
 877,49;   66,000;23923,834;-6517,000
 878,05;   64,000;24896,834;-6797,000
 878,61;   72,000;26938,834;-6812,000
 879,18;   86,000;27553,834;-6252,000
 879,74;   59,000;28076,834;-6720,000
 880,30;   79,000;28679,834;-5926,000
 880,87;   30,000;28852,834;-6326,000
 881,43;   92,000;29533,834;-6871,000
 881,99;   59,000;27306,834;-6879,000
 882,56;   72,000;27610,834;-6661,000
 883,12;   70,000;29049,834;-5740,000
 883,68;   53,000;29120,834;-6518,000
 884,25;   66,000;28300,834;-6949,000
 884,81;   82,000;26343,834;-6701,000
 885,37;  108,000;24221,834;-6786,000
 885,94;   75,000;22940,834;-6851,000
 886,50;   89,000;23098,834;-6886,000
 887,06;   39,000;24358,834;-6796,000
 887,62;   67,000;25019,834;-6866,000
 888,19;   32,000;25774,834;-5986,000
 888,75;   80,000;26542,834;-6821,000
 889,31;   57,000;29043,834;-6778,000
 889,87;  118,000;30537,834;-6723,000
 890,44;   68,000;30349,834;-6696,000
 891,00;   34,000;28757,834;-6786,000
 891,56;   84,000;26457,834;-6998,000
 892,12;  131,000;24463,834;-6754,000
 892,69;   87,000;25310,834;-6373,000
 893,25;   96,000;28798,834;-6877,000
 893,81;  111,000;31774,834;-6696,000
 894,37;  124,000;31330,834;-6342,000
 894,94;  106,000;28713,834;-6772,000
 895,50;   98,000;26035,834; -212,000
 896,06;  126,000;24749,834;-6810,000
 896,62;  146,000;23405,834;-6707,000
 897,18;  140,000;24661,834;-6518,000
 897,75;  189,000;27406,834;-6895,000
 898,31;  185,000;27887,834;-6849,000
 898,87;  151,000;26274,834;-6860,000
 899,43;  155,000;25164,834;-6469,000
 899,99;  132,000;26592,834;-6866,000
 900,56;  169,000;25515,834;-6791,000
 901,12;  167,000;24875,834;-6890,000
 901,68;  214,000;27903,834;-6267,000
 902,24;  202,000;31800,834;-5930,000
 902,80;  204,000;32652,834;-6794,000
 903,36;  299,000;31893,834;-6691,000
 903,93;  442,000;32139,834;-6646,000
 904,49; 1127,000;32761,834;-6913,000
 905,05; 2921,000;30952,834;-6732,000
 905,61; 7076,000;28208,834;-6832,000
 906,17;13428,000;28086,834;-6901,000
 906,73;19527,000;25975,834;-5380,000
 907,29;21650,000;24960,834;-6910,000
 907,86;20133,000;25118,834;-6827,000
 908,42;19386,000;28092,834;-6795,000
 908,98;16628,000;31123,834;-5908,000
 909,54;10194,000;38813,832;-6885,000
 910,10; 4047,000;48220,832;-6634,000
 910,66; 1211,000;57581,832;-6781,000
 911,22;  435,000;65027,832;-6761,000
 911,78;  246,000;62593,832;-6841,000
 912,34;  201,000;53256,832;-6080,000
 912,90;  206,000;44610,832;-5232,000
 913,46;  156,000;37052,832;-6876,000
 914,03;  110,000;30620,834;-5746,000
 914,59;  123,000;27452,834;-6682,000
 915,15;   95,000;24908,834;-6891,000
 915,71;  121,000;24217,834;-6863,000
 916,27;  108,000;23800,834;-6723,000
 916,83;   83,000;23006,834;-5824,000
 917,39;  126,000;21742,834;-3512,000
 917,95;  106,000;20224,834;-6009,000
 918,51;   79,000;19972,834;-6583,000
 919,07;  122,000;21780,834;-6791,000
 919,63;   26,000;23295,834;-6661,000
 920,19;   33,000;23935,834;-6865,000
 920,75;   77,000;23112,834;-6640,000
 921,31;   54,000;21484,834;-4837,000
 921,87;   47,000;20216,834;-6845,000
 922,43;   73,000;18019,834;-5626,000
 922,99;  103,000;17321,834;-6706,000
 923,55;   93,000;18674,834;-6655,000
 924,11;   53,000;19094,834;-6976,000
 924,67;   66,000;19310,834;-6962,000
 925,23;   53,000;19485,834;-6778,000
 925,79;  114,000;20122,834;-6710,000
 926,35;  135,000;20219,834;-6573,000
 926,91;   85,000;19401,834;-6909,000
 927,47;   47,000;19367,834;-6660,000
 928,03;  155,000;20294,834;-6786,000
 928,59;   95,000;20503,834;-6678,000
 929,15;  104,000;20781,834;-6792,000
 929,71;   75,000;22016,834;-6840,000
 930,27;  102,000;23587,834;-6537,000
 930,82;   80,000;25573,834;-6728,000
 931,38;   52,000;24317,834;-5852,000
 931,94;   64,000;22672,834;-6843,000
 932,50;   86,000;21252,834;-6481,000
 933,06;   55,000;20895,834;-6768,000
 933,62;   96,000;21092,834;-6443,000
 934,18;   90,000;20632,834;-6727,000
 934,74;   40,000;21320,834;-6709,000
 935,30;   65,000;22030,834;-6484,000
 935,86;   50,000;21213,834;-6505,000
 936,42;   84,000;20702,834;-6873,000
 936,97;   37,000;21656,834;-6563,000
 937,53;   52,000;20552,834;-6826,000
 938,09;   99,000;21087,834;  123,000
 938,65;   89,000;21186,834;-6268,000
 939,21;   68,000;20179,834;-6708,000
 939,77;   45,000;18946,834;-6213,000
 940,33;   68,000;18602,834;-6748,000
 940,88;   78,000;19429,834;-5908,000
 941,44;  111,000;21301,834;-6983,000
 942,00;   64,000;23225,834;-6697,000
 942,56;   53,000;24231,834;-6604,000
 943,12;   48,000;23427,834;-5907,000
 943,68;   55,000;22950,834;-5679,000
 944,23;   46,000;23124,834;-6749,000
 944,79;   26,000;22674,834;-6102,000
 945,35;   39,000;20741,834;-6599,000
 945,91;   84,000;19519,834;-6767,000
 946,47;   72,000;19827,834;-3353,000
 947,03;   27,000;19896,834;-6850,000
 947,58;   57,000;19661,834;-6840,000
 948,14;   76,000;20790,834;-5897,000
 948,70;   60,000;19573,834;-5855,000
 949,26;  108,000;18881,834;-6616,000
 949,81;   30,000;18342,834;-6644,000
 950,37;   47,000;18686,834;-6695,000
 950,93;   72,000;17993,834;-6224,000
 951,49;   88,000;17568,834;-6057,000
 952,05;   50,000;17926,834;-6571,000
 952,60;   57,000;17299,834;-6951,000
 953,16;   70,000;16933,834;-5783,000
 953,72;   26,000;15628,833;-5813,000
 954,27;   52,000;15524,833;-6566,000
 954,83;   43,000;15317,833;-6703,000
 955,39;   35,000;14917,833;-6691,000
 955,95;   15,000;14456,833;-6849,000
 956,50;   11,000;14272,833;-6698,000
 957,06;    6,000;14126,833;-5922,000
 957,62;   52,000;13780,833;-6559,000
 958,18;   58,000;13872,833;-6741,000
 958,73;   66,000;13326,833;-6820,000
 959,29;   64,000;13518,833;-6106,000
 959,85;   53,000;14785,833;-6864,000
 960,40;   96,000;16746,834;-4263,000
 960,96;   87,000;16386,834;-6738,000
 961,52;   61,000;14755,833;-6643,000
 962,07;   66,000;13711,833;-6742,000
 962,63;   63,000;13208,833;-6723,000
 963,19;   72,000;13435,833;-5779,000
 963,74;   94,000;13877,833;-6582,000
 964,30;   41,000;14475,833;-6595,000
 964,86;   73,000;14281,833;-6484,000
 965,41;   94,000;14290,833;-6705,000
 965,97;   76,000;14185,833;-6569,000
 966,53;   73,000;14792,833;-6750,000
 967,08;  101,000;15311,833;-6611,000
 967,64;   57,000;15082,833;-6705,000
 968,19;   63,000;14471,833;-6684,000
 968,75;   52,000;14662,833;-6566,000
 969,31;   73,000;14880,833;-5626,000
 969,86;   71,000;14995,833;-6505,000
 970,42;  109,000;13195,833;-6620,000
 970,97;   88,000;11567,833;-6437,000
 971,53;   80,000;11625,833;-6490,000
 972,09;   51,000;12998,833;-6646,000
 972,64;  110,000;13523,833;-5812,000
 973,20;   75,000;13815,833;-6599,000
 973,75;   88,000;14605,833;-5760,000
 974,31;  126,000;14826,833;-6578,000
 974,87;  100,000;14921,833;-6674,000
 975,42;   89,000;14507,833;-6727,000
 975,98;   64,000;13201,833;-6651,000
 976,53;  110,000;12100,833;-6555,000
 977,09;   69,000;11353,833;-4624,000
 977,64;   88,000;11164,833;-6532,000
 978,20;  125,000;10649,833;-6585,000
 978,75;  124,000;10482,833;-6429,000
 979,31;  115,000;10950,833;-6513,000
 979,86;  137,000;12220,833;-6739,000
 980,42;   94,000;12828,833;-5813,000
 980,97;  121,000;13290,833;-6642,000
 981,53;  108,000;14285,833;-6636,000
 982,08;  100,000;13803,833;-5046,000
 982,64;  133,000;12278,833;-6237,000
 983,19;   77,000;11308,833;-6760,000
 983,75;  111,000;10993,833;-6576,000
 984,30;   70,000;10430,833;-5581,000
 984,86;   54,000; 9867,833;-5898,000
 985,41;  115,000; 9457,833;-6634,000
 985,97;  131,000; 9632,833;-4797,000
 986,52;  116,000; 9894,833;-5853,000
 987,08;  131,000; 9953,833;-6174,000
 987,63;   89,000;10165,833;-5608,000
 988,19;  110,000;11252,833;-6266,000
 988,74;  110,000;11710,833;-5682,000
 989,30;   96,000;11529,833;-6568,000
 989,85;  120,000;11470,833; -276,000
 990,40;  135,000;11314,833;-6617,000
 990,96;  105,000;11060,833;-6482,000
 991,51;  103,000;11149,833;-6578,000
 992,07;   84,000;10742,833;-6605,000
 992,62;  126,000;10285,833;-6519,000
 993,18;   90,000;10035,833;-6504,000
 993,73;  137,000; 9986,833;-6440,000
 994,28;   98,000; 9800,833;-6464,000
 994,84;  116,000; 9019,833;-6240,000
 995,39;  113,000; 8474,833;-2971,000
 995,94;  155,000; 7953,833;-5673,000
 996,50;   79,000; 7647,833;-6543,000
 997,05;  139,000; 7872,833;-3481,000
 997,61;  160,000; 8363,833;-6489,000
 998,16;  145,000; 8581,833;-6555,000
 998,71;  118,000; 8850,833;-6340,000
 999,27;  128,000; 9115,833;-5223,000
 999,82;  146,000; 8706,833;-4778,000
1000,37;  122,000; 8661,833;-6520,000
1000,93;  161,000; 8920,833;-6107,000
1001,48;  125,000; 8799,833;-6543,000
1002,03;   98,000; 8477,833;-6469,000
1002,59;  193,000; 8715,833;-5972,000
1003,14;  109,000; 8758,833;-6113,000
1003,69;  107,000; 8484,833;-6513,000
1004,25;  119,000; 8299,833;-6507,000
1004,80;  135,000; 8322,833;-6266,000
1005,35;  109,000; 8313,833;-6361,000
1005,91;  141,000; 8515,833;-6558,000
1006,46;  104,000; 8426,833;-6084,000
1007,01;  134,000; 8227,833;-5479,000
1007,56;  172,000; 8599,833;-6440,000
1008,12;  149,000; 8342,833;-6178,000
1008,67;  179,000; 7867,833;-6312,000
1009,22;  170,000; 7509,833;-6481,000
1009,78;  123,000; 7205,833;-6163,000
1010,33;  130,000; 6649,833;-6443,000
1010,88;  121,000; 6413,833;-5618,000
1011,43;  160,000; 5995,833;-6433,000
1011,99;  167,000; 5972,833;-6198,000
1012,54;  152,000; 6320,833;-6387,000
1013,09;  213,000; 6048,833;-6299,000
1013,64;  179,000; 5802,833;-6362,000
1014,19;  164,000; 5823,833;-6442,000
1014,75;  176,000; 5928,833;-6408,000
1015,30;  196,000; 6394,833;-6425,000
1015,85;  197,000; 6370,833;-6367,000
1016,40;  182,000; 6247,833;-5436,000
1016,96;  274,000; 6235,833;-6268,000
1017,51;  206,000; 6150,833;-6351,000
1018,06;  230,000; 6095,833;-6310,000
1018,61;  243,000; 5695,833;-6665,000
1019,16;  227,000; 5609,833;-6697,000
1019,71;  321,000; 5663,833;-6373,000
1020,27;  245,000; 5567,833;-6353,000
1020,82;  281,000; 5375,833;-3700,000
1021,37;  318,000; 5405,833;-4798,000
1021,92;  282,000; 5984,833;-6454,000
1022,47;  357,000; 5965,833;-6548,000
1023,02;  307,000; 5463,833;-6512,000
1023,58;  359,000; 5045,833;-6573,000
1024,13;  357,000; 4730,833;-6258,000
1024,68;  357,000; 4434,833;-6298,000
1025,23;  405,000; 4324,833;-5525,000
1025,78;  400,000; 4613,833;-6475,000
1026,33;  428,000; 4932,833;-5510,000
1026,88;  505,000; 4843,833;-6236,000
1027,43;  487,000; 5167,833;-6276,000
1027,99;  593,000; 5134,833;-6002,000
1028,54;  646,000; 4732,833;-6395,000
1029,09;  682,000; 4106,833;-2478,000
1029,64;  811,000; 3919,833;-6303,000
1030,19;  916,000; 4147,833;-3821,000
1030,74; 1029,000; 4243,833;-5134,000
1031,29; 1177,000; 4284,833;-4765,000
1031,84; 1403,000; 4491,833;-6300,000
1032,39; 1486,000; 4563,833;-5403,000
1032,94; 1790,000; 4617,833;-4326,000
1033,49; 2031,000; 4361,833;-5476,000
1034,04; 2287,000; 4236,833;-6312,000
1034,59; 2576,000; 4205,833;-6507,000
1035,14; 2721,000; 4117,833;-6145,000
1035,69; 2921,000; 4318,833;-6224,000
1036,24; 3252,000; 4104,833;-4477,000
1036,80; 3454,000; 3986,833;-5453,000
1037,35; 3642,000; 4138,833;-6347,000
1037,90; 4085,000; 4172,833;-6274,000
1038,45; 4233,000; 4201,833;-6419,000
1039,00; 4472,000; 4340,833;-5490,000
1039,55; 4715,000; 4229,833;-6284,000
1040,10; 4981,000; 3977,833;-5615,000
1040,65; 4927,000; 3916,833;-5576,000
1041,20; 5269,000; 3850,833;-6325,000
1041,75; 5554,000; 4030,833;-4522,000
1042,30; 6138,000; 4164,833;-3585,000
1042,84; 6679,000; 4338,833;-4439,000
1043,39; 7062,000; 4248,833;-6313,000
1043,94; 7431,000; 4175,833;-5342,000
1044,49; 7875,000; 3887,833;-6246,000
1045,04; 7987,000; 3710,833;-5800,000
1045,59; 8628,000; 3809,833;-6299,000
1046,14; 9321,000; 3732,833;-6392,000
1046,69;10590,000; 3591,833;-6294,000
1047,24;11346,000; 3623,833;-5510,000
1047,79;12562,000; 3737,833;-6139,000
1048,34;13624,000; 4002,833;-5961,000
1048,89;15287,000; 3948,833;-6259,000
1049,44;16931,000; 3935,833;-5172,000
1049,99;19133,000; 3855,833;-4844,000
1050,54;21811,000; 3876,833;-6249,000
1051,08;26462,000; 3961,833;-6178,000
1051,63;34162,000; 4050,833;-5285,000
1052,18;44288,000; 5051,833;-6127,000
1052,73;61667,000; 7151,833;-6173,000
1053,28;65144,000;10516,833;-6386,000
1053,83;65144,000;15224,833;-6214,000
1054,38;65144,000;19203,834;-6254,000
1054,93;65144,000;21243,834;-6285,000
1055,47;65144,000;23825,834;-5328,000
1056,02;65144,000;26212,834;-5832,000
1056,57;65144,000;27830,834;-6198,000
1057,12;65144,000;30497,834;-6378,000
1057,67;65144,000;33805,832;-6078,000
1058,22;65144,000;36084,832;-6313,000
1058,76;65144,000;38542,832;-6093,000
1059,31;65144,000;44129,832;-3514,000
1059,86;65144,000;48778,832;-6204,000
1060,41;65144,000;49718,832;-6152,000
1060,96;65144,000;51396,832;-6226,000
1061,51;65144,000;53649,832;-5344,000
1062,05;65144,000;54082,832;-6122,000
1062,60;65144,000;50555,832;-6061,000
1063,15;65144,000;45221,832;-6149,000
1063,70;65144,000;41550,832;-6250,000
1064,24;65144,000;43676,832;-6169,000
1064,79;65144,000;45461,832;-6144,000
1065,34;65144,000;43989,832;-6064,000
1065,89;65144,000;41776,832;-6202,000
1066,44;65144,000;37631,832;-6120,000
1066,98;65144,000;32612,834;-6224,000
1067,53;65144,000;30790,834;-5953,000
1068,08;65144,000;30368,834;-4845,000
1068,63;65144,000;27618,834;-6096,000
1069,17;65144,000;24647,834;-5893,000
1069,72;65144,000;22350,834;-5857,000
1070,27;65144,000;20529,834;-6040,000
1070,81;65144,000;20388,834;-5996,000
1071,36;65144,000;20367,834;-3883,000
1071,91;65144,000;18745,834;  966,000
1072,46;65144,000;16791,834;-5058,000
1073,00;65144,000;14646,833;-5239,000
1073,55;65144,000;11404,833;-5935,000
1074,10;65144,000; 7803,833;-5981,000
1074,64;65144,000; 5240,833;-5860,000
1075,19;65144,000; 3535,833;-4958,000
1075,74;51646,000; 2551,833;-6091,000
1076,28;36331,000; 2312,833;-6075,000
1076,83;28284,000; 1951,833;-5286,000
1077,38;22779,000; 1820,833;-5653,000
1077,92;18456,000; 1783,833;-6332,000
1078,47;15367,000; 1629,833;-5507,000
1079,02;13072,000; 1578,833;-5959,000
1079,56;11100,000; 1557,833;-5328,000
1080,11; 9438,000; 1304,833;-6094,000
1080,65; 8318,000; 1241,833;-5039,000
1081,20; 6978,000; 1186,833;-6151,000
1081,75; 5898,000; 1125,833;-6039,000
1082,29; 5088,000; 1128,833; -139,000
1082,84; 4481,000; 1184,833;-2678,000
1083,39; 3875,000; 1294,833;-5061,000
1083,93; 3671,000; 1335,833;-5025,000
1084,48; 3355,000; 1196,833;-5961,000
1085,02; 3126,000; 1082,833;-5783,000
1085,57; 2871,000; 1074,833;-5994,000
1086,11; 2636,000; 1079,833;-5968,000
1086,66; 2474,000;  925,833;-5584,000
1087,21; 2414,000; 1060,833;-5802,000
1087,75; 2241,000;  939,833;-6125,000
1088,30; 2090,000;  815,833;-5040,000
1088,84; 1940,000;  783,833;-5963,000
1089,39; 1757,000;  656,833;-5965,000
1089,93; 1659,000;  664,833;-6100,000
1090,48; 1415,000;  649,833;-4394,000
1091,02; 1403,000;  733,833;-5181,000
1091,57; 1244,000;  629,833;-5479,000
1092,11; 1273,000;  642,833;-4094,000
1092,66; 1182,000;  624,833;-6031,000
1093,20; 1106,000;  580,833;-5180,000
1093,75; 1016,000;  566,833;-4998,000
1094,29;  974,000;  486,833;-4979,000
1094,84; 1019,000;  525,833;-5890,000
1095,38;  885,000;  528,833;-5097,000
1095,93;  879,000;  584,833;-5981,000
1096,47;  838,000;  615,833;-5612,000
1097,02;  757,000;  587,833;-4985,000
1097,56;  744,000;  614,833;-5772,000
1098,11;  727,000;  552,833;-5774,000
1098,65;  664,000;  508,833;-5992,000
1099,20;  633,000;  577,833;-5935,000
1099,74;  585,000;  487,833;-6002,000
1100,29;  572,000;  513,833;-4879,000
1100,83;  526,000;  496,833;-5934,000

