
Integration time [ms]:   0,030
Averaging Nr. [scans]: 1
Smoothing Nr. [pixels]: 0
Data measured with spectrometer [name]: 1703254U1
Wave   ;Sample   ;Dark     ;Reference;Scope
[nm]   ;[counts] ;[counts] ;[counts] 

 190,08;  -64,445; -370,119;11982,743
 190,69;  -45,984; -359,404;11603,049
 191,29;  -47,504; -311,651;11479,965
 191,90;  -57,169; -365,508;11440,717
 192,50;  -55,432; -379,511;10355,099
 193,10;  -34,798; -446,299;11244,381
 193,71;  -54,237; -367,888; 9821,736
 194,31;  -48,698; -399,273; 9436,327
 194,91;  -48,698; -382,273; 9291,327
 195,52;  -55,540; -338,386;10555,949
 196,12;  -31,540; -397,056; 8671,847
 196,72;  -51,196; -386,394; 8220,904
 197,32;  -54,237; -375,888; 8251,736
 197,93;  -37,296; -360,420; 8700,957
 198,53;  -50,545; -383,145; 7601,797
 199,13;  -57,495; -397,132; 8091,270
 199,74;  -42,508; -366,410; 7263,813
 200,34;  -38,816; -388,667; 7832,874
 200,94;  -36,318; -436,547; 6941,297
 201,55;  -45,984; -406,404; 7119,049
 202,15;  -49,133; -375,773; 6404,732
 202,75;  -79,106; -373,217; 6097,647
 203,36;  -40,554; -338,664; 6822,492
 203,96;  -91,487; -357,943; 6332,678
 204,56;  -44,029; -355,657;10275,729
 205,16;  -51,522; -363,018; 5478,458
 205,77;  -64,337; -360,244; 4767,892
 206,37;  -52,391; -409,017; 5556,267
 206,97;  -56,083; -363,760; 5129,205
 207,58;  -39,250; -364,166; 5927,278
 208,18;  -59,233; -337,129; 5129,889
 208,78;  -56,626; -404,134; 5295,461
 209,38;  -39,902; -469,415; 4958,385
 209,99;  -26,793; -356,540; 3837,534
 210,59;  -41,422; -361,662; 3890,301
 211,19;  -40,662; -364,538; 3938,343
 211,79;  -17,386; -366,927; 4499,316
 212,40;  -61,405; -373,625; 3368,911
 213,00;  -52,499; -388,891; 3903,118
 213,60;  -57,712; -386,882; 2992,972
 214,20;  -72,156; -401,230; 3081,175
 214,81;  -64,880; -422,618; 2884,148
 215,41;  -72,373; -376,979; 3235,877
 216,01;  -92,247; -373,067; 3109,636
 216,61;  -48,590; -367,399; 2814,476
 217,22;  -87,686; -381,326; 2358,888
 217,82; -102,564; -325,173; 2262,495
 218,42;  -82,147; -383,711; 2389,480
 219,02;  -86,817; -288,327; 3432,079
 219,63;  -70,201; -357,483; 2044,854
 220,23;  -73,568; -366,602; 2425,239
 220,83;  -71,722; -395,730; 1901,770
 221,43;  -90,401; -393,195; 1850,167
 222,03;  -93,224; -348,940; 2326,296
 222,64;  -75,522; -380,348; 1769,560
 223,24;  -51,323; -298,966; 1625,350
 223,84;  -94,636; -376,313; 2637,361
 224,44;  -90,835; -316,695; 2381,571
 225,05;  -87,143; -313,952; 1440,632
 225,65;  -78,116; -301,065; 1227,445
 226,25;  -81,930; -364,961; 1139,777
 226,85;  -96,374; -294,309;  995,979
 227,45;  -84,753; -335,706; 1083,907
 228,06;  -82,907; -365,834; 1945,438
 228,66;  -82,364; -349,460; 4049,182
 229,26;  -44,527; -313,438; 1131,510
 229,86;  -78,998; -396,342; 1760,797
 230,46;  -91,269; -358,194;  891,976
 231,06;  -85,052; -320,444;  757,273
 231,67;  -70,853; -346,732; 1228,961
 232,27; -107,233; -343,789;  778,094
 232,87;  -68,808; -308,808;  526,384
 233,47; -110,383; -321,158;  525,777
 234,07;  -45,464; -268,486; 9912,235
 234,67;  -95,917; -291,013;  672,338
 235,28; -104,383; -319,158;   65,777
 235,88; -116,501; -316,882;  285,426
 236,48;  -51,858; -350,821;  165,911
 237,08;  -71,736; -267,669;  448,518
 237,68; -126,673; -369,378; -267,552
 238,28; -102,053; -304,774; -106,624
 238,89; -106,609; -212,756; -205,723
 239,49;  -80,704; -282,023; 1280,483
 240,09; -108,881; -284,608; -190,544
 240,69; -129,279; -251,373; -319,124
 241,29; -116,030; -289,647;  651,036
 241,89; -113,464; -330,147; -260,559
 242,49; -106,514; -248,490; -358,930
 243,10; -112,039; -201,496; 3664,834
 243,70; -102,514; -284,490;  239,070
 244,30;  -76,433; -275,501; -708,594
 244,90;  -41,782; -188,582; -568,598
 245,50; -107,836; -177,355; 3274,777
 246,10;  -85,112; -307,636; -831,300
 246,70; -127,736; -300,999;   17,620
 247,30;  -86,505; -251,641;  326,273
 247,91; -123,026; -208,218; 5781,292
 248,51;  -74,813; -270,228; -806,563
 249,11;  -68,483; -239,514;  417,933
 249,71;  -83,523; -303,008; -667,235
 250,31;  -76,990; -265,483; -567,693
 250,91;  -49,302; -238,500;   75,216
 251,51;  -61,551; -199,225; -822,945
 252,11;  -60,990; -239,813;  367,410
 252,71;  -92,103; -269,117;-1080,994
 253,31;  -64,311; -222,348; 3228,013
 253,91;  -74,388; -236,578; -676,170
 254,52;  -83,786; -237,342;-1063,750
 255,12;  -76,990; -293,483;-1104,693
 255,72;  -18,754; -206,366;  557,112
 256,32; -115,510; -242,061; -966,674
 256,92;  -38,298; -190,070;-1147,529
 257,52;  -34,768; -173,974; -883,243
 258,12;  -48,610; -201,087;  -91,621
 258,72;  -43,728; -210,810;-1232,972
 259,32;   -8,261; -211,335;-1169,514
 259,92;   -0,868; -199,330;-1343,086
 260,52;  -13,637; -192,973;-1077,433
 261,12;  -55,379; -202,059; -662,865
 261,72;  -70,497; -238,452;-1312,319
 262,32;  -15,225; -215,600;-1561,498
 262,92;  -82,397; -238,426;  405,627
 263,53;  -93,886; -189,698;-1277,594
 264,13;  -89,750; -262,937; -268,632
 264,73;  -42,714; -217,202;-1694,617
 265,33;  -39,818; -188,317;-1708,613
 265,93;  -33,768; -147,304;-1345,140
 266,53;  -53,330; -161,046;-1544,392
 267,13;  -71,434; -139,161; -857,388
 267,73;  -48,171; -185,158;  270,230
 268,33; -129,275; -166,274;-1788,766
 268,93;  -76,673; -213,708;-1702,449
 269,53;  -44,655; -204,670; -644,839
 270,13;    2,322; -201,797;-1810,499
 270,73;  -33,325; -245,287;-1891,239
 271,33;  -22,311; -200,678;-1778,884
 271,93;  -64,307; -242,919;-1867,732
 272,53;  -10,742; -121,748;    8,776
 273,13;   -3,180; -146,677;-1117,075
 273,73;  -56,135; -119,753;-1955,652
 274,33;   19,471; -148,428;-2041,182
 274,93;  -80,181; -188,007;-1843,972
 275,53;  -47,742;  -68,748;-1881,224
 276,13;  -71,769; -121,965;-2261,935
 276,73;  -68,149; -118,361;-1570,007
 277,33;  -45,927; -179,522;-1926,659
 277,93;    3,557; -213,680;-1864,693
 278,53;  -23,189; -194,526;-2112,278
 279,13;  -20,615; -125,506;-2152,568
 279,73;  -34,959; -140,498;-1388,522
 280,33;  -27,398; -154,756;-2179,270
 280,93;   11,869; -105,994;-2049,499
 281,53;  -49,248; -147,387;-2252,953
 282,13;  -40,280; -127,363;-2193,816
 282,73;  -70,764; -156,875; -385,885
 283,33;  -46,502; -137,872;-2307,266
 283,92;   -0,253;  -74,477;-2028,003
 284,52;  -38,235;  -94,109;-2365,496
 285,12;  -46,058; -138,524;-1425,469
 285,72;    5,399; -126,898;-1041,213
 286,32;  -25,719;  -55,622;-1313,564
 286,92;  -26,796; -163,521;-2376,850
 287,52;   19,335;  -89,519;-2170,041
 288,12;   36,077;  -97,763;-2542,507
 288,72;   57,390; -106,417;-1625,518
 289,32;   20,272;  -54,470; 1692,233
 289,92;  -22,013; -106,270;-2344,148
 290,52;  -72,385;  -91,809;-2485,710
 291,12;   10,738;  -57,996;-1570,308
 291,72;   19,747;  -74,477;-1590,003
 292,32;   55,666;  -83,135;-2372,442
 292,92;   53,177;   -2,737;-2481,560
 293,51;   37,077;  -37,093;-2532,404
 294,11;   68,846;  -42,121;-1681,160
 294,71;   67,828;   -7,488;-2695,667
 295,31;   31,652;  -24,743;-1755,797
 295,91;  133,693;   46,751;-2713,629
 296,51;  118,294;   62,656;-1776,106
 297,11;  117,330;   35,061;-2900,988
 297,71;   67,760;    4,131;-2726,648
 298,31;  172,987;   38,730;-2329,148
 298,91;  154,086;   74,756;-2483,202
 299,50;  179,593;   41,395;-2689,473
 300,10;  240,502;  145,887;-2706,114
 300,70;  261,140;   95,528;-2492,576
 301,30;  279,389;   89,253;-2855,415
 301,90;  325,996;   96,248;-2004,843
 302,50;  396,982;  163,640;-2515,198
 303,10;  601,367;  124,126;-2530,076
 303,70;  609,557;  208,660;-3000,488
 304,29;  737,995;  189,918;-2658,740
 304,89; 1207,959;  266,183;-1090,755
 305,49; 1720,258;  163,922;-2773,122
 306,09; 1852,892;  214,133;-2874,839
 306,69; 1917,512;  262,736;-2915,911
 307,29; 2758,666;  312,865;-2008,442
 307,89; 4668,643;  303,408;-3029,000
 308,48; 6208,529;  341,774;-2453,301
 309,08; 6365,254;  369,492;-2743,377
 309,68; 5086,918;  377,019;-3094,026
 310,28; 3145,399;  371,102;-2576,213
 310,88; 2021,978;  321,211;-2936,453
 311,48; 1564,910;  447,500;-2875,331
 312,07; 1303,362;  408,367;-2963,228
 312,67; 1155,878;  497,855;-2128,297
 313,27;  992,711;  494,448;-1105,224
 313,87;  906,575;  583,357;-2164,083
 314,47;  919,670;  516,954;-3030,392
 315,06;  873,404;  620,191; 2713,837
 315,66;  847,426;  579,988;-3245,400
 316,26;  856,358;  632,938;-1844,483
 316,86;  821,851;  777,969;-3140,110
 317,46;  884,508;  720,307;-2115,167
 318,06;  918,467;  739,813; -825,335
 318,65;  948,549;  781,801;-2807,999
 319,25;  841,286;  821,798;-3195,617
 319,85;  823,607;  932,663;-2908,323
 320,45;  885,540;  986,283;-3213,304
 321,05;  830,621;  901,271;-2761,968
 321,64;  789,191;  889,531;-3219,411
 322,24;  898,192; 1056,861;-3265,513
 322,84;  896,232; 1080,356;-3261,345
 323,44;  960,888; 1133,364;-3219,300
 324,03;  986,517; 1194,486;-3072,067
 324,63;  976,762; 1250,452;-2310,059
 325,23; 1011,360; 1241,928;-3097,792
 325,83; 1046,627; 1367,021;-2876,123
 326,42; 1087,116; 1442,622;-3285,005
 327,02; 1167,343; 1476,551;-3076,607
 327,62; 1196,429; 1439,629;-2505,221
 328,22; 1187,094; 1553,486;-3234,973
 328,82; 1255,516; 1577,037;-2229,938
 329,41; 1287,770; 1658,852;-3016,728
 330,01; 1329,504; 1652,750;-2961,704
 330,61; 1397,061; 1806,062;-2928,707
 331,20; 1390,894; 1778,325;-2868,531
 331,80; 1450,559; 1762,512;-2794,386
 332,40; 1521,130; 1752,102;-2896,932
 333,00; 1605,601; 1933,667;-2790,423
 333,59; 1581,787; 1748,771;-2855,091
 334,19; 1701,687; 1920,745;-1771,037
 334,79; 1659,402; 1712,615;-2861,316
 335,39; 1600,515; 1729,919;-2978,912
 335,98; 1572,406; 1726,714;-3126,958
 336,58; 1521,523; 1659,777;-3191,401
 337,18; 1501,654; 1720,779;-2958,592
 337,77; 1461,378; 1782,837;-2098,463
 338,37; 1460,649; 1806,359;-2021,540
 338,97; 1373,617; 1907,384;-2912,402
 339,57; 1422,088; 1862,948;-3044,894
 340,16; 1347,210; 1836,431;-2881,390
 340,76; 1360,486; 1962,712;-3053,314
 341,36; 1387,858; 1861,920;-3195,650
 341,95; 1408,035; 1934,506;-3027,623
 342,55; 1451,944; 1918,998;  703,736
 343,15; 1465,328; 2048,155;-3094,039
 343,74; 1387,976; 1924,644;-2382,298
 344,34; 1494,170; 1860,267;-3015,661
 344,94; 1504,003; 2068,530;-3069,485
 345,53; 1595,867; 2110,769;-2860,447
 346,13; 1574,586; 2174,398;-1283,573
 346,73; 1616,410; 1966,473;-2254,805
 347,32; 1631,369; 2268,649;-3080,871
 347,92; 1616,433; 2312,600;-2277,145
 348,52; 1621,478; 2270,523;-1878,722
 349,11; 1628,708; 2336,551;  975,034
 349,71; 1612,156; 2330,658;-3240,016
 350,31; 1842,668; 2441,387;-2672,237
 350,90; 1785,161; 2483,418;-2326,863
 351,50; 1930,347; 2390,852;-2105,634
 352,10; 2140,442; 2471,119;-3114,840
 352,69; 2355,695; 2532,273;-3182,424
 353,29; 2518,043; 2563,024;-3191,317
 353,89; 2524,740; 2645,527;-3255,104
 354,48; 2799,442; 2693,119;-3208,840
 355,08; 3077,501; 2871,980;-1117,164
 355,67; 3594,487; 2850,042;-2951,417
 356,27; 4370,229; 2839,128;-3232,985
 356,87; 5523,876; 3010,288;-3383,142
 357,46; 8311,211; 3049,431;-2351,390
 358,06;12226,139; 3306,291;-3073,523
 358,66;13338,903; 3337,504;-3109,432
 359,25;11542,704; 3260,792;-2344,119
 359,85;11228,813; 3365,667;-3215,970
 360,44;10531,256; 3389,015;-3292,172
 361,04; 8933,328; 3567,155;-2367,039
 361,64; 7289,328; 3696,155;-2309,039
 362,23; 5671,953; 3772,517;-2932,958
 362,83; 4532,582; 3755,639;-2990,726
 363,42; 3907,867; 3938,769;-2836,447
 364,02; 3398,831; 3910,034;-2973,462
 364,62; 3068,586; 3816,398;-2486,573
 365,21; 2864,170; 3857,937;-1741,558
 365,81; 2692,803; 3935,818;-2792,173
 366,40; 2531,061; 3970,062;-2080,707
 367,00; 2488,577; 4021,550;-2952,776
 367,59; 2417,853; 4071,831;-2979,699
 368,19; 2376,731; 4221,678;-3237,306
 368,79; 2376,142; 4198,720;-3125,268
 369,38; 2437,002; 4107,200;-2250,383
 369,98; 2599,432; 4101,940;-2935,940
 370,57; 2697,726; 4188,588;-3331,356
 371,17; 2786,215; 4164,860;-3326,135
 371,76; 2756,671; 4277,486;-3442,879
 372,36; 2748,513; 4057,598;-3195,501
 372,95; 2548,698; 4115,372;  667,934
 373,55; 2481,156; 4105,998;-3393,811
 374,14; 2332,079; 4300,099;-3405,097
 374,74; 2232,902; 4256,514;-3224,124
 375,34; 2115,581; 4286,979;-3189,521
 375,93; 2036,147; 4295,479;-2706,116
 376,53; 2012,464; 4344,585;-3575,974
 377,12; 1997,075; 4405,670;-1465,352
 377,72; 1879,929; 4480,730;-3410,414
 378,31; 1995,306; 4511,027;-2274,699
 378,91; 1860,079; 4291,429;-3262,199
 379,50; 1963,840; 4588,213;-3331,363
 380,10; 1919,890; 4327,226;-3398,890
 380,69; 1995,139; 4094,621;-2343,626
 381,29; 2116,112; 4586,735;-2550,439
 381,88; 2200,948; 4518,758;-1605,111
 382,48; 2209,456; 4519,727;-3286,485
 383,07; 2259,306; 4495,358;-3457,802
 383,67; 2046,948; 4635,758;-1847,111
 384,26; 2061,854; 4667,491;-2467,905
 384,86; 2085,084; 4921,849;-3182,252
 385,45; 1995,320; 4932,636;-3325,344
 386,05; 1971,089; 5073,608;-3419,100
 386,64; 2013,406; 4911,384;-3524,855
 387,24; 2067,446; 5016,878;-2585,688
 387,83; 2017,559; 4993,512;-2489,386
 388,42; 2152,388; 5182,346;-2109,466
 389,02; 2237,161; 5423,748;-3235,966
 389,61; 2396,962; 5688,036;-3413,653
 390,21; 2465,446; 5729,878;-3463,688
 390,80; 2540,062; 5816,392;-3208,810
 391,40; 2804,152; 6137,899;-2293,168
 391,99; 3086,867; 5981,099;-3195,550
 392,59; 4059,989; 6435,252;-2416,943
 393,18; 6535,586; 6683,398;-2491,573
 393,77;15457,871; 6883,198;-3238,192
 394,37;21732,025; 7145,657;-2198,825
 394,96;18735,980; 7098,403;-2296,146
 395,56;23189,727; 7264,588;-2834,356
 396,15;28610,098; 6867,797;-3125,692
 396,75;21154,984; 7343,163;-2889,993
 397,34;11958,432; 7669,940;-2620,940
 397,93; 8010,083; 7720,188;-3358,047
 398,53; 5972,776; 7595,262;-2525,088
 399,12; 4739,125; 8192,013;-2154,981
 399,72; 3911,442; 8013,119;-2274,840
 400,31; 3394,795; 8034,629;-3169,581
 400,91; 3268,994; 8446,012;-2959,791
 401,50; 2966,871; 8820,198;-2330,192
 402,09; 2851,025; 8550,327;-2894,722
 402,69; 2827,952; 8691,187;-3072,856
 403,28; 2794,550; 9052,663;-2983,588
 403,88; 2724,364; 9162,560; 1927,079
 404,47; 2752,853; 9689,831;  884,300
 405,06; 2690,640; 9684,171;  -68,947
 405,66; 2697,889; 9753,565;-2875,684
 406,25; 2561,142;10085,720;-3119,268
 406,84; 2617,165;10446,177;-2892,711
 407,44; 2555,083;10847,858;-2219,944
 408,03; 2511,594;10422,257;-2906,063
 408,63; 2535,898;10373,085;-3011,379
 409,22; 2654,332;10191,584;-1945,783
 409,81; 2666,812;10681,007;-1849,765
 410,41; 2847,373;11553,078;-2857,615
 411,00; 2837,911;11336,362;-1814,921
 411,59; 2888,784;11251,120;-2826,578
 412,19; 2888,862;11468,350;-2245,394
 412,78; 2831,102;11399,226;-2830,436
 413,37; 2718,658;12151,878;-2704,234
 413,97; 2766,771;12410,512;-2618,933
 414,56; 2797,246;12071,506;-2503,169
 415,15; 2887,404;12410,394;-2121,547
 415,75; 2988,793;12408,639;-2698,272
 416,34; 2859,332;12590,254;-1893,681
 416,93; 2981,092;12922,047;-2777,536
 417,53; 2881,721;12696,169;-1423,303
 418,12; 2799,390;12570,785;-2217,903
 418,71; 2816,200;12907,592;-2673,285
 419,31; 2712,386;13054,695;-1884,952
 419,90; 2635,055;13470,313;-2786,552
 420,49; 2652,875;13619,298;-1733,834
 421,08; 2550,875;14201,298;-1674,834
 421,68; 2573,635;14723,421;-1908,792
 422,27; 2680,195;14035,832;-2004,437
 422,86; 2648,191;13874,073; -437,590
 423,46; 2356,946;14080,107;-2575,598
 424,05; 2289,955;14376,626;-2928,293
 424,64; 2380,693;13888,953;-2640,014
 425,24; 2359,159;14092,098;-2903,453
 425,83; 2246,724;13992,269;-2680,945
 426,42; 2184,955;12987,626;-2760,293
 427,01; 2177,534;13424,734;-2674,533
 427,61; 2230,476;14347,873;-2609,209
 428,20; 2166,489;14036,151;-1764,751
 428,79; 2084,697;14414,052;-2859,656
 429,38; 2267,304;14092,377;-1781,186
 429,98; 2206,770;14922,521; -994,625
 430,57; 2141,476;15058,873;-2193,209
 431,16; 2139,222;14580,389;-2784,522
 431,75; 2116,362;14357,909; -561,407
 432,35; 2173,575;13435,899;-1951,262
 432,94; 2237,244;14429,186;-2324,759
 433,53; 2246,172;14560,375;-1152,995
 434,12; 2216,086;14431,298;-2267,381
 434,72; 2217,841;14188,331;-1413,389
 435,31; 2317,860;14167,699; 7395,119
 435,90; 2252,036;14308,954; 8338,249
 436,49; 2194,538;13427,834; -683,175
 437,08; 2315,773;13895,951; -675,370
 437,68; 2527,013;14442,827;-2987,412
 438,27; 2476,443;14610,237;-2610,866
 438,86; 2429,407;14612,832;-1147,984
 439,45; 2470,022;15313,346;-1937,106
 440,05; 2528,379;15955,616;-2982,694
 440,64; 2641,737;15054,886;-1902,282
 441,23; 2578,243;14152,525;-1415,553
 441,82; 2552,868;13700,218;-2631,576
 442,41; 2560,723;14351,277;-3014,637
 443,00; 2671,886;13625,925;-2724,863
 443,60; 2829,343;14373,881;-3136,710
 444,19; 2816,555;15026,541;-1440,462
 444,78; 2938,700;14960,151;-3012,298
 445,37; 3157,298;15728,297;-2522,928
 445,96; 3270,361;15331,249;-3116,202
 446,56; 3586,031;15596,535;-1144,698
 447,15; 3801,365;16225,678; -884,947
 447,74; 3864,402;17097,412;-2709,931
 448,33; 3918,089;16443,066;-1985,920
 448,92; 3982,632;15422,440;-2964,176
 449,51; 4022,438;15095,817;-2848,813
 450,10; 4114,008;15133,078;-3063,256
 450,70; 4660,066;14904,939;-1957,581
 451,29; 5161,112;15329,193;-1112,260
 451,88; 5438,840;15513,671;-2929,183
 452,47; 6042,171;16565,055;-2795,584
 453,06; 6044,355;16495,498;-2401,047
 453,65; 5655,030;16071,874;-2873,493
 454,24; 5012,441;17329,246;-2173,558
 454,84; 4299,424;17793,209;-1379,168
 455,43; 3872,093;18732,496;-2219,665
 456,02; 3620,912;18879,480;-2927,947
 456,61; 3323,075;17317,459;-2925,275
 457,20; 3112,677;16921,363;-2786,753
 457,79; 2972,337;17588,131;-2922,554
 458,38; 2760,754;18338,264;-2132,467
 458,97; 2600,559;18039,641;-2515,104
 459,56; 2561,650;18190,479;-2760,565
 460,16; 2496,360;17832,258;-2082,894
 460,75; 2453,799;18157,518;-2072,146
 461,34; 2332,080;18077,887;-2962,020
 461,93; 2245,667;18381,186;-2200,853
 462,52; 2381,803;19333,275;-2744,993
 463,11; 2346,364;20546,688;-1989,639
 463,70; 2411,690;19458,643;-2869,295
 464,29; 2572,613;19945,082;-3150,376
 464,88; 2787,731;20795,807;-2743,024
 465,47; 3187,591;19885,285;-2748,139
 466,06; 3749,463;20915,713;-3191,692
 466,65; 4029,260;21667,572;-3018,635
 467,24; 3639,142;22030,848;-2539,986
 467,84; 3114,962;22443,164;-2020,371
 468,43; 2735,989;22325,051;-2238,559
 469,02; 2693,486;23517,170;-2702,135
 469,61; 2596,885;24168,936;-2593,555
 470,20; 2477,038;23781,063;-2841,085
 470,79; 2439,056;22760,100;-3232,475
 471,38; 2343,681;25266,463;-2192,395
 471,97; 2370,038;26009,732; -666,983
 472,56; 2151,160;25472,887;-3035,376
 473,15; 2158,033;25296,975;-2825,135
 473,74; 2132,536;26395,854;-3106,559
 474,33; 2063,011;25866,848;-2957,796
 474,92; 2040,576;27630,348;-3146,391
 475,51; 2017,264;29609,002;-2873,380
 476,10; 1957,083;29847,986;-3011,662
 476,69; 1936,359;26101,268;-2855,586
 477,28; 1968,459;25846,955;-2956,845
 477,87; 1906,762;27035,121; -173,956
 478,46; 1769,639;28695,639;-3029,460
 479,05; 1884,925;30507,100;-2134,284
 479,64; 1853,875;31679,756;-2718,655
 480,23; 1786,223;29541,508;-2845,548
 480,82; 1741,870;28549,996;-2736,807
 481,41; 1680,486;29371,510;-1873,929
 482,00; 1704,029;29284,885;-1364,185
 482,59; 1717,001;29593,998;-2298,998
 483,18; 1678,391;31702,244;-2376,723
 483,77; 2315,074;31703,139;-2193,865
 484,36; 2928,264;32475,002;-1701,380
 484,95; 2811,562;32990,410; -788,643
 485,54; 2630,757;35331,031;-1371,006
 486,13; 2657,739;35762,996; -945,616
 486,72; 2852,943;34334,137;  148,326
 487,31; 2706,802;31046,285;-1109,686
 487,89; 2493,115;32608,633; -193,697
 488,48; 2424,042;33798,164;-1523,728
 489,07; 2398,490;32913,941;-1248,674
 489,66; 2312,164;33511,645;-1505,224
 490,25; 2242,852;31095,299; -660,212
 490,84; 2027,807;34127,375;-1683,635
 491,43; 2005,327;34965,621; -701,552
 492,02; 1965,689;36094,652;-1864,987
 492,61; 1929,341;35362,902;-1043,094
 493,20; 1912,005;33776,426;-2019,743
 493,79; 1756,530;32749,434; 4824,494
 494,38; 1728,675;33706,043;-1938,342
 494,97; 1700,965;32583,934; -629,911
 495,55; 1538,770;34690,309;-2325,548
 496,14; 1570,060;35087,531;-2403,220
 496,73; 1588,078;35451,566;-1952,609
 497,32; 1555,471;34211,570;-2587,182
 497,91; 1539,146;35005,949;-1921,629
 498,50; 1615,666;34165,195;-2912,544
 499,09; 1626,471;34554,570;-3088,182
 499,68; 1632,775;32403,070;-2405,396
 500,27; 1725,096;33321,605;-2490,999
 500,85; 1644,716;32655,207;-2604,071
 501,44; 1519,263;32478,342;-2576,175
 502,03; 1448,367;33194,457;-3368,178
 502,62; 1480,643;31275,068;-3438,205
 503,21; 1432,412;29432,711;-3532,858
 503,80; 1409,136;32028,100;-2976,831
 504,39; 1352,711;32451,119;-3458,121
 504,97; 1380,901;31774,982;-3577,636
 505,56; 1379,915;31537,590;-2979,281
 506,15; 1348,870;32302,336;-3991,602
 506,74; 1316,145;32557,617;-2945,526
 507,33; 1386,647;32185,498;-3165,949
 507,92; 1597,141;33952,859;-3871,678
 508,51; 1483,245;35926,973;-3735,682
 509,09; 1483,195;34536,629;-3921,053
 509,68; 1575,566;34318,508;-3748,286
 510,27; 1759,905;33667,410;-3799,381
 510,86; 1632,308;32572,264;-4081,751
 511,45; 1689,697;33677,512;-3843,476
 512,03; 1787,010;34524,855;-3829,488
 512,62; 1748,326;36240,961;-3780,346
 513,21; 1642,842;33870,789;-3186,209
 513,80; 1640,145;34644,289;-3501,423
 514,39; 1676,154;32752,137;-3905,221
 514,97; 1538,186;35347,781;-4095,255
 515,56; 1484,977;34167,551;-4198,248
 516,15; 1624,461;35428,063;-3955,179
 516,74; 1589,638;32584,318;-4420,049
 517,33; 1610,656;33459,688;-3549,542
 517,91; 1525,086;33935,426;-4188,099
 518,50; 1520,462;32563,393;-3264,282
 519,09; 1448,584;33942,875;-3157,778
 519,68; 1369,534;35231,531;-4286,148
 520,26; 1271,584;38679,547;-4232,675
 520,85; 1236,688;39452,660;-4352,679
 521,44; 1191,642;40826,078;-4358,897
 522,03; 1198,059;39485,539;-4271,912
 522,61; 1198,642;36773,078;-4364,897
 523,20; 1134,561;33924,090;-4337,233
 523,79; 1190,126;32040,590;-4337,828
 524,38; 1111,615;32850,191;-4344,709
 524,96; 1167,140;35883,199;-4321,473
 525,55; 1176,923;36021,449;-4542,771
 526,14;  974,674;34018,723;-4434,931
 526,73; 1053,380;32852,074;-4389,515
 527,31; 1039,031;32903,324;-4488,622
 527,90; 1063,923;33630,449;-4564,771
 528,49; 1063,439;34155,938;-2529,839
 529,08;  961,737;34601,344;-3467,103
 529,66; 1031,660;34848,445;-3911,389
 530,25;  979,253;35279,832;-4414,172
 530,84;  993,999;35334,348;-4583,485
 531,42;  943,004;38583,105;-4365,332
 532,01;  957,547;37528,480;-4291,588
 532,60;  901,316;34512,125;-4473,241
 533,18;  923,429;35538,086;-4078,042
 533,77;  927,244;34969,984;-4236,374
 534,36;  976,497;34459,469;-4374,061
 534,95; 1005,153;35483,477;-4088,015
 535,53; 1003,692;34236,090; -974,424
 536,12;  945,588;36469,977;-2657,420
 536,71;  925,633;36511,230;-3869,099
 537,29;  950,619;36073,621;-3618,454
 537,88; 1046,642;33908,078;-3454,897
 538,47;  972,008;32497,867;-2840,180
 539,05; 1004,289;36837,238;-2139,054
 539,64; 1011,632;40414,898;-1785,997
 540,22; 1035,537;37414,633; -764,790
 540,81; 1045,954;37501,766; 1008,297
 541,40; 1064,275;39018,629; 3425,591
 541,98; 1016,895;38188,230; 4858,519
 542,57; 1164,588;39368,977; 4597,580
 543,16;  938,963;38645,613; 4952,500
 543,74; 1114,416;35774,480; 4083,603
 544,33; 1045,452;36297,883; 3620,721
 544,92; 1019,714;37217,887; 3973,339
 545,50; 1077,072;37338,488;11456,648
 546,09; 1126,669;40064,965;11359,916
 546,67; 1089,805;41948,727; 2857,878
 547,26; 1063,823;40050,094; -202,615
 547,85; 1000,510;39208,414; -567,501
 548,43; 1098,881;38452,625; -849,836
 549,02;  992,945;39427,246;-1040,008
 549,60; 1023,121;40570,500; -984,878
 550,19; 1046,293;41166,996;-2192,901
 550,78;  979,795;42660,875;-2328,325
 551,36; 1020,284;45349,148;-2432,104
 551,95;  996,483;45443,859; -585,416
 552,53; 1030,257;43280,262; -296,916
 553,12; 1081,573;41420,035;-3431,672
 553,70;  972,795;43188,547;-2878,222
 554,29; 1010,343;44058,008;-2869,428
 554,88; 1010,424;41831,668;-4247,989
 555,46; 1015,917;43723,027;-3881,718
 556,05; 1139,592;45007,734;-4207,268
 556,63; 1068,651;45206,266;-3396,489
 557,22; 1112,266;43875,109;-3394,714
 557,80; 1153,691;41749,762;-3568,321
 558,39; 1217,207;44188,250;-4145,390
 558,97; 1210,583;47993,887;-3699,470
 559,56; 1345,365;49889,137;-4544,768
 560,15; 1232,976;50117,891;-3611,042
 560,73; 1160,809;49814,152;-4287,867
 561,32; 1214,832;47024,609;-3741,309
 561,90; 1174,551;46041,910;-4382,333
 562,49; 1237,968;48487,371;-3786,348
 563,07; 1178,017;48074,387;-4783,875
 563,66; 1202,234;50064,133;-4352,577
 564,24; 1220,890;49228,145;-4763,531
 564,83; 1260,162;51344,664;-4603,607
 565,41; 1418,099;53840,375;-4329,539
 566,00; 1371,596;52202,164;-2755,012
 566,58; 1552,230;56465,375;-3725,729
 567,17; 1762,646;56909,508;-4280,642
 567,75; 1940,271;52392,871;-4653,562
 568,34; 2464,479;55893,770;-3216,466
 568,92; 2811,184;55738,793;-3987,947
 569,51; 2903,239;54852,895; 2680,576
 570,09; 2525,542;58247,391;-4676,638
 570,68; 2232,324;53188,313;-4788,833
 571,26; 2179,814;50733,242;-3886,817
 571,85; 2239,854;57347,738;-4822,649
 572,43; 1991,492;57011,379;-4704,111
 573,01; 1531,361;52662,375;-4873,920
 573,60; 1478,605;53819,012;-3785,810
 574,18; 1235,257;55122,262;-4514,917
 574,77; 1119,438;53284,277;-4737,634
 575,35; 1146,605;56113,012;-4452,810
 575,94; 1135,347;57300,770;-4076,275
 576,52; 1029,782;54049,270;-2249,680
 577,11;  987,012;51620,297;-3244,924
 577,69;  962,451;48685,555;-3183,176
 578,27;  973,293;51008,996;-3447,901
 578,86;  907,664;55198,543;-2994,031
 579,44;  981,949;60080,004;-2805,855
 580,03;  979,497;60164,137;-2493,958
 580,61;  937,044;60267,270;-3206,062
 581,19;  983,243;56429,652;-2538,271
 581,78;  905,759;55361,813;-2364,238
 582,36;  957,049;57656,031;-2911,909
 582,95;  996,121;56180,172;-1497,776
 583,53;  945,139;59586,539;-2319,268
 584,11;  928,320;61608,883;-2241,088
 584,70;  987,768;61691,660;-1948,035
 585,28;  924,198;62070,398;-1853,592
 585,87;  916,994;60436,930;-2889,432
 586,45;  917,664;63023,543;-2375,031
 587,03;  956,560;64945,430;-1150,027
 587,62;  928,194;61494,641;-1834,745
 588,20; 1338,225;62236,285;-1020,779
 588,78; 1805,120;58157,840;-3411,673
 589,37; 1681,782;57765,270;-3360,680
 589,95; 1147,610;62238,773;-3385,657
 590,54;  994,270;63633,539;-3461,459
 591,12;  994,406;62116,301;-3508,497
 591,70;  912,922;59586,789;-3331,565
 592,29;  914,103;62881,805;-2923,283
 592,87;  953,099;63542,375;-2394,538
 593,45;  962,971;63404,801; 1487,908
 594,04;  885,564;62800,188;-3676,875
 594,62;  930,551;59709,910;-3708,333
 595,20;  939,071;62066,828;-4371,146
 595,79;  945,094;62681,285;-4165,588
 596,37;  965,451;61108,555;-3657,176
 596,95;  926,727;56922,164;-4321,203
 597,53;  932,479;58806,770;-4226,466
 598,12;  872,469;61848,922;-3959,669
 598,70;  966,745;64932,531;-3776,695
 599,28;  863,099;64911,375;-3404,538
 599,87;  882,135;64929,777;-3061,420
 600,45;  901,750;64938,293;-3907,543
 601,03;  904,397;63145,781;-4100,802
 601,62;  875,564;61727,188;-4468,875
 602,20;  874,248;59786,414;-4541,119
 602,78;  901,329;64399,070;-4770,680
 603,36;  927,537;64783,301;-3166,688
 603,95;  929,438;58863,277;-4492,634
 604,53;  862,831;62401,281;-4574,207
 605,11;  891,995;59505,258;-2755,535
 605,69;  907,071;62362,156;-3365,249
 606,28;  946,103;62594,805;-4223,283
 606,86;  907,035;61629,422;-3946,264
 607,44;  875,795;60431,547;-3906,222
 608,02;  838,234;58047,805;-4037,474
 608,61;  958,424;60099,668;-2866,989
 609,19;  902,772;58582,418;-2582,882
 609,77;  912,904;57398,422; -710,073
 610,35;  797,791;55748,785; 5794,625
 610,94; 1003,732;56509,926;14509,949
 611,52;  946,424;55803,668;12610,011
 612,10;  856,356;53026,957; 8432,133
 612,68;  790,569;56637,949; 2694,278
 613,26;  797,320;57037,551; 2032,015
 613,85;  838,863;61759,926; -599,241
 614,43;  767,076;62306,918;-1030,096
 615,01;  739,483;62272,199;-1215,211
 615,59;  768,768;64874,328; -972,932
 616,17;  833,981;59402,648;-2561,890
 616,76;  878,583;62178,887;-2993,470
 617,34;  946,768;62666,988;-2389,138
 617,92;  919,479;58547,770;-3399,466
 618,50;  947,243;61202,652;-2562,271
 619,08;  991,180;57928,031;-2514,100
 619,67;  968,596;55968,164;-3196,012
 620,25; 1057,194;54290,641;-2743,745
 620,83; 1029,750;50498,293;-3495,543
 621,41; 1122,709;52314,797;-2800,711
 621,99; 1130,687;54560,672;-2529,371
 622,57; 1367,628;55529,141;-3707,149
 623,15; 1488,017;56213,387;-3783,875
 623,74; 1558,642;58266,746;-3892,794
 624,32; 1730,298;59330,754;-2827,749
 624,90; 1742,764;58625,898;-2311,188
 625,48; 1771,098;57897,043;-3132,436
 626,06; 1704,542;56898,391;-4006,638
 626,64; 1604,949;57787,004;-4162,855
 627,22; 1498,261;58993,020;-3409,764
 627,81; 1415,791;58046,117;-4334,478
 628,39; 1346,022;57121,145;-4560,722
 628,97; 1371,881;56597,293;-4437,733
 629,55; 1234,773;55377,750;-4219,985
 630,13; 1264,044;55669,270;-2959,062
 630,71; 1171,108;54162,891;-2747,233
 631,29; 1153,438;53129,277;-3824,634
 631,87; 1109,515;52776,504;-4223,451
 632,45; 1004,981;52786,648;-4716,890
 633,03;  982,990;54183,500;-4191,688
 633,62;  972,831;55423,281;-4714,207
 634,20;  907,252;54882,172;-4089,966
 634,78;  899,556;56497,000;-4430,283
 635,36;  870,718;56701,648;-4449,508
 635,94;  911,886;55183,383;-5398,684
 636,52;  901,456;51027,645;-5422,126
 637,10;  793,727;52116,164;-5488,203
 637,68;  753,352;50694,527;-4702,123
 638,26;  761,904;47618,750;-5536,176
 638,84;  702,026;48688,902;-5421,569
 639,42;  704,727;49235,164;-3756,203
 640,00;  720,019;51366,148;-5405,726
 640,58;  776,799;54579,402;-4806,027
 641,16;  703,579;55521,656;-5571,328
 641,74;  716,359;53214,906;-5433,630
 642,32;  665,139;50106,160;-5620,931
 642,90;  678,919;50434,414;-5856,232
 643,48;  642,700;49231,668;-5786,534
 644,06;  676,480;49280,922;-5796,835
 644,64;  690,260;49595,176;-5842,137
 645,22;  587,040;50513,430;-5562,438
 645,80;  599,820;50547,684;-4957,740
 646,39;  583,600;48107,938;-5515,041
 646,97;  530,380;49773,191;-5850,342
 647,54;  595,160;52328,441;-5717,644
 648,12;  604,940;54879,695;-5865,945
 648,70;  647,721;58954,949;-5885,247
 649,28;  579,501;56421,203;-6090,548
 649,86;  522,281;51091,457;-5609,850
 650,44;  579,061;48619,711;-5452,151
 651,02;  589,841;49970,965;-5474,452
 651,60;  572,621;51793,219;-5803,753
 652,18;  588,401;51320,473;-4735,055
 652,76;  566,181;53277,723;-5934,356
 653,34;  579,961;54817,977;-5939,658
 653,92;  577,742;57729,230;-5784,959
 654,50;  620,522;59042,484;-5818,261
 655,08;  654,302;58048,738;-5841,562
 655,66;  661,082;55058,992;-5115,863
 656,24;  583,862;56743,246;-5200,165
 656,82;  644,642;58989,500;-4979,466
 657,40;  636,422;58967,754;-5667,768
 657,98;  595,202;60169,008;-5486,069
 658,56;  567,982;61114,258;-5717,371
 659,14;  597,762;61380,512;-5913,672
 659,72;  631,543;63381,766;-5916,973
 660,29;  575,323;62437,020;-5907,275
 660,87;  589,103;59738,273;-5212,576
 661,45;  576,883;58590,527;-5664,877
 662,03;  541,663;57513,781;-4971,179
 662,61;  500,443;54945,035;-5638,480
 663,19;  518,223;54618,289;-5657,782
 663,77;  573,003;53917,543;-5939,083
 664,35;  490,783;56689,793;-5887,384
 664,93;  443,564;62595,047;-4922,686
 665,51;  480,344;61993,301;-6033,987
 666,08;  469,124;57747,555;-5652,289
 666,66;  450,904;51859,809;-4400,590
 667,24;  479,684;49420,063;-5952,892
 667,82;  483,464;50250,316;-5849,193
 668,40;  528,244;50723,570;-5932,494
 668,98;  668,024;51952,824;-5097,796
 669,56;  656,804;57957,078;-6096,097
 670,13;  631,585;61797,328;-6222,398
 670,71;  643,365;59698,582;-5900,700
 671,29;  571,145;57209,836;-6139,001
 671,87;  512,925;56814,090;-6051,303
 672,45;  469,705;51822,344;-6050,604
 673,03;  522,485;52592,598;-4769,906
 673,60;  550,265;58431,852;-3503,207
 674,18;  484,045;63679,105;-5938,508
 674,76;  456,825;61159,359;-6226,810
 675,34;  489,605;56361,613;-5251,111
 675,92;  423,386;55284,863;-6338,413
 676,50;  453,166;55051,117;-6085,714
 677,07;  471,946;56952,371;-6095,016
 677,65;  490,726;56680,625;-6163,317
 678,23;  432,506;55997,879;-5057,618
 678,81;  501,286;58016,133;-5299,919
 679,38;  512,066;56669,387;-5969,221
 679,96;  483,846;53267,641;-5846,522
 680,54;  478,626;55171,895;-5308,824
 681,12;  465,407;52485,148;-6126,125
 681,70;  450,187;54786,398;-4413,427
 682,27;  540,967;54740,652;-5851,728
 682,85;  514,747;58265,906;-5991,029
 683,43;  542,527;64943,160;-6140,331
 684,01;  599,307;64943,414;-5172,632
 684,58;  592,087;64307,668;-5138,934
 685,16;  608,867;64236,922;-4494,235
 685,74;  625,647;62790,176;-3853,536
 686,32;  563,428;59009,430;-6012,838
 686,89;  590,208;59552,684;-6015,139
 687,47;  495,988;59534,934;-6076,441
 688,05;  604,768;56416,188;-6019,742
 688,63;  512,548;59626,441;-6102,043
 689,20;  495,328;62884,695;-5971,345
 689,78;  511,108;58427,949;-5530,646
 690,36;  523,888;54291,203;-5381,948
 690,93;  511,668;54968,457;-6355,249
 691,51;  513,449;61453,711;-6326,550
 692,09;  501,229;64946,965;-6223,852
 692,67;  527,009;64947,219;-6047,153
 693,24;  500,789;60968,469;-5803,455
 693,82;  532,569;59538,723;-6235,756
 694,40;  517,349;58049,977;-3570,058
 694,97;  511,129;57456,230;-6046,359
 695,55;  515,909;59820,484;-5464,660
 696,13;  612,689;61729,738;-4454,962
 696,70;  564,470;58594,992;-6029,263
 697,28;  531,250;59108,246;-6266,564
 697,86;  580,030;60837,500;-6030,866
 698,43;  601,810;58827,754;-6198,167
 699,01;  652,590;55595,004;-6051,469
 699,59;  690,370;55751,258;-6402,770
 700,16;  651,150;54174,512;-5257,072
 700,74;  729,930;57040,766;-5497,373
 701,32;  768,710;56440,020;-6233,674
 701,89;  935,490;55792,273;-6049,976
 702,47; 1130,271;60296,527;-6466,277
 703,05; 1483,051;64951,781;-6309,579
 703,62; 1657,831;64952,035;-6227,880
 704,20; 1763,611;64952,285;-5306,182
 704,77; 1572,391;64952,539;-6118,483
 705,35; 1426,171;64213,793;-6006,784
 705,93; 1229,951;64327,047;-4922,085
 706,50; 1077,731;63796,301;-5267,387
 707,08;  820,511;60606,555;-5284,688
 707,65;  740,292;60046,809;-5620,990
 708,23;  653,072;64881,063;-5431,292
 708,81;  616,852;64954,316;-5019,593
 709,38;  542,632;64954,570;-5001,894
 709,96;  564,412;64954,820;-6025,195
 710,53;  512,192;64955,074;-6007,497
 711,11;  497,972;61503,328;-5752,798
 711,69;  449,752;61913,582;-3821,100
 712,26;  464,532;59012,836;-4642,401
 712,84;  429,313;63346,090;-5947,703
 713,41;  457,093;64411,344;-6153,004
 713,99;  397,873;64924,598;-6068,305
 714,56;  425,653;62057,852;-6326,607
 715,14;  427,433;60312,105;-6198,908
 715,71;  411,213;60246,355;-6210,209
 716,29;  380,993;62893,609;-6648,511
 716,86;  343,773;63573,863;-6510,813
 717,44;  371,553;63263,117;-6424,114
 718,02;  376,334;62110,371;-6462,415
 718,59;  318,114;61013,625;-5121,716
 719,17;  318,894;63488,879;-5649,018
 719,74;  383,674;62907,133;-5756,319
 720,32;  311,454;63502,387;-6451,621
 720,89;  336,234;64959,641;-6422,922
 721,47;  327,014;64959,891;-6388,224
 722,04;  404,794;64960,145;-5502,525
 722,62;  395,574;64252,398;-3979,826
 723,19;  355,355;60250,652;-4938,128
 723,77;  335,135;57638,906;-5673,429
 724,34;  348,915;60150,160;-5576,730
 724,92;  363,695;63789,414;-6558,032
 725,49;  310,475;64961,668;-5666,333
 726,07;  390,255;64961,922;-6491,635
 726,64;  388,035;64627,176;-6587,936
 727,21;  366,815;60249,426;-5627,238
 727,79;  312,595;63706,680;-6444,539
 728,36;  375,376;64962,934;-6722,840
 728,94;  385,156;64963,188;-6535,142
 729,51;  339,936;64963,441;-6365,443
 730,09;  379,716;64963,695;-5545,745
 730,66;  388,496;64963,949;-6358,046
 731,24;  327,276;64964,203;-6577,348
 731,81;  392,056;64964,457;-5151,649
 732,38;  351,836;64964,711;-6492,950
 732,96;  373,616;64964,961;-6263,251
 733,53;  377,396;60347,215;-6389,553
 734,11;  411,177;61575,469;-6617,854
 734,68;  416,957;64965,723;-6211,156
 735,26;  346,737;64965,977;-6389,458
 735,83;  393,517;64966,230;-6498,759
 736,40;  403,297;62243,484;-6516,060
 736,98;  420,077;61999,738;-6374,361
 737,55;  362,857;59236,992;-5827,663
 738,13;  381,637;57707,246;-5702,964
 738,70;  355,417;60991,496;-5529,266
 739,27;  436,198;62504,750;-6452,567
 739,85;  381,978;62745,004;-6283,869
 740,42;  459,758;64968,258;-6464,170
 740,99;  440,538;64968,512;-5618,471
 741,57;  465,318;64968,766;-4867,773
 742,14;  464,098;64969,020;-5349,074
 742,72;  484,878;64969,273;-4751,375
 743,29;  487,658;64969,527;-6563,677
 743,86;  467,438;64969,781;-6538,979
 744,44;  550,219;64970,031;-6113,280
 745,01;  518,999;64970,285;-5760,581
 745,58;  475,779;64970,539;-6259,882
 746,16;  564,559;64970,793;-6188,184
 746,73;  590,339;64971,047;-6479,485
 747,30;  578,119;61139,301;-6536,787
 747,88;  619,899;59621,555;-5621,088
 748,45;  576,679;64971,809;-5668,390
 749,02;  644,459;64972,063;-6384,691
 749,60;  547,240;62401,313;-6212,992
 750,17;  619,020;61766,566;-5269,294
 750,74;  609,800;62801,820;-6479,595
 751,31;  616,580;63306,074;-6347,896
 751,89;  618,360;64232,328;-6546,198
 752,46;  657,140;64973,582;-6282,500
 753,03;  604,920;64973,836;-6160,801
 753,61;  570,700;63755,090;-4858,102
 754,18;  507,480;64573,344;-6434,404
 754,75;  478,260;63888,598;-5191,705
 755,32;  504,041;60715,848;-6332,006
 755,90;  479,821;64975,102;-6493,308
 756,47;  498,601;64975,355;-4809,609
 757,04;  472,381;64975,609;-6457,911
 757,61;  430,161;64975,863;-5553,212
 758,19;  494,941;64976,117;-5253,514
 758,76;  454,721;64976,371;-6603,815
 759,33;  397,501;64976,625;-6664,116
 759,90;  442,281;64976,879;-5714,417
 760,48;  373,062;64977,133;-6778,719
 761,05;  351,842;64977,383;-6083,021
 761,62;  367,622;62082,637;-4888,322
 762,19;  344,402;58992,891;-6144,624
 762,77;  377,182;61730,145;-5963,925
 763,34;  337,962;64978,398;-6610,226
 763,91;  337,742;64978,652;-5818,527
 764,48;  363,522;64978,906;-6756,829
 765,05;  319,302;64979,160;-6543,130
 765,63;  400,083;63215,414;-6417,432
 766,20;  459,863;59753,668;-6004,733
 766,77;  363,643;57105,918;-5921,035
 767,34;  376,423;58807,172;-6640,336
 767,91;  308,203;59176,426;-6689,637
 768,49;  270,983;61368,680;-6772,939
 769,06;  348,763;64980,934;-5832,240
 769,63;  396,543;62272,188;-6636,542
 770,20;  330,323;59567,441;-5868,843
 770,77;  278,104;57921,695;-5645,145
 771,34;  287,884;60065,949;-6615,446
 771,91;  328,664;60549,203;-6102,747
 772,49;  340,444;58558,453;-6369,048
 773,06;  257,224;57687,707;-6203,350
 773,63;  255,004;60204,961;-6639,651
 774,20;  349,784;58197,215;-5918,953
 774,77;  351,564;56475,469;-6631,254
 775,34;  293,344;56707,723;-6214,556
 775,91;  400,125;57056,977;-6417,857
 776,49;  448,905;58787,230;-6590,158
 777,06;  515,685;60761,484;-6015,460
 777,63;  448,465;64224,738;-6367,761
 778,20;  429,245;62572,988;-6250,063
 778,77;  315,025;63316,242;-5763,364
 779,34;  302,805;64985,496;-6585,666
 779,91;  328,585;64985,750;-6534,967
 780,48;  304,365;59144,004;-5853,268
 781,05;  253,146;50716,258;-6586,570
 781,62;  269,926;52124,512;-6604,871
 782,20;  281,706;58813,766;-6500,172
 782,77;  296,486;64987,020;-6529,474
 783,34;  306,266;64052,273;-6522,775
 783,91;  268,046;61362,523;-6509,077
 784,48;  280,826;60480,777;-2126,378
 785,05;  308,606;59144,031;-6540,680
 785,62;  277,386;58221,285;-6452,981
 786,19;  326,166;58149,539;-5100,282
 786,76;  248,947;55130,793;-6677,583
 787,33;  279,727;56202,047;-6515,885
 787,90;  227,507;59491,301;-6591,187
 788,47;  293,287;60148,555;-5075,488
 789,04;  240,067;58988,809;-5763,790
 789,61;  288,847;58863,059;-5066,091
 790,18;  244,627;55747,313;-6561,392
 790,75;  250,407;50841,566;-6671,693
 791,32;  293,187;52056,820;-6577,995
 791,89;  223,968;55205,074;-6068,296
 792,46;  240,748;60806,328;-5763,598
 793,03;  250,528;62404,582;-6702,899
 793,60;  249,308;55699,836;-6440,201
 794,17;  246,088;52257,090;-5569,502
 794,74;  317,868;47273,344;-5886,803
 795,31;  267,648;50096,594;-6099,105
 795,88;  166,428;52579,848;-5572,406
 796,45;  228,208;53365,102;-6529,708
 797,02;  179,989;56004,355;-5046,009
 797,59;  197,769;57922,609;-6675,311
 798,16;  248,549;54563,863;-5861,612
 798,73;  176,329;53534,117;-6761,913
 799,30;  169,109;55088,371;-6611,214
 799,87;  132,889;55650,625;-6713,516
 800,44;  139,669;55353,875;-6729,817
 801,01;  166,449;56836,129;-6807,119
 801,58;  232,229;58477,383;-6537,420
 802,15;  195,010;52086,637;-6658,722
 802,72;  220,790;48849,891;-6694,023
 803,28;  207,570;52000,145;-6076,324
 803,85;  171,350;57179,398;-6728,626
 804,42;  236,130;55235,652;-5999,927
 804,99;  164,910;53752,906;-6539,229
 805,56;  185,690;52472,160;-6770,530
 806,13;  189,470;53387,410;-6075,832
 806,70;  197,250;52719,664;-6748,133
 807,27;  195,031;54477,918;-6672,434
 807,84;  163,811;52786,172;-6693,736
 808,41;  179,591;49728,426;-6022,037
 808,98;  161,371;50479,680;-5986,338
 809,54;  163,151;52469,934;-4958,640
 810,11;  137,931;48281,188;-6782,941
 810,68;  196,711;43021,441;-6680,243
 811,25;  108,491;41394,695;-6760,544
 811,82;  145,271;40374,945;-6886,846
 812,39;  146,051;37710,199;-3331,147
 812,96;  188,832;38779,453;-6767,448
 813,52;  186,612;41291,707;-6937,750
 814,09;  136,392;44522,961;-6766,051
 814,66;  180,172;50325,215;-6827,353
 815,23;  188,952;51240,469;-6669,654
 815,80;  175,732;50439,723;-5853,956
 816,37;  144,512;50917,977;-6801,257
 816,93;  195,292;49487,230;-6731,558
 817,50;  177,072;46790,480;-6102,859
 818,07;  231,853;46034,734;-6960,161
 818,64;  172,633;46919,988;-6856,462
 819,21;  221,413;46261,242;-6053,764
 819,77;  284,193;42742,496;-6571,065
 820,34;  180,973;42053,750;-6677,367
 820,91;  240,753;43276,004;-6469,668
 821,48;  252,533;43873,258;-6689,969
 822,05;  257,313;45571,512;-5875,271
 822,61;  234,093;44296,766;-5631,572
 823,18;  220,874;41860,016;-6620,874
 823,75;  182,654;42585,270;-6957,175
 824,32;  200,434;45286,523;-6923,477
 824,88;  190,214;45073,777;-6882,778
 825,45;  150,994;44018,031;-6899,079
 826,02;  137,774;43798,285;-6643,380
 826,59;  180,554;43974,539;-6639,682
 827,15;  147,334;46077,793;-6906,983
 827,72;  186,114;49519,047;-6723,285
 828,29;  170,895;51523,301;-6895,586
 828,86;  163,675;48827,551;-6791,888
 829,42;  167,455;40797,805;-6812,189
 829,99;  192,235;36802,059;-6647,490
 830,56;  190,015;36252,313;-6869,792
 831,13;  155,795;37220,566;-6060,093
 831,69;  150,575;38022,820;-6506,395
 832,26;  128,355;38832,074;-5062,696
 832,83;  118,135;40408,328;-5452,998
 833,39;  192,916;40187,582;-6904,299
 833,96;  145,696;39167,836;-6687,600
 834,53;   99,476;40039,086;-6928,902
 835,10;  142,256;39930,340;-6529,203
 835,66;  171,036;38972,594;-6920,504
 836,23;  173,816;39801,848;-6803,806
 836,80;  116,596;39428,102;-6790,107
 837,36;  157,376;37086,355;-6810,409
 837,93;  168,156;34475,609;-6902,710
 838,50;  132,936;35084,863;-6789,012
 839,06;  117,717;37684,117;-6288,313
 839,63;  161,497;37191,371;-6895,614
 840,19;   99,277;35132,621;-6607,916
 840,76;  123,057;35364,875;-6404,217
 841,33;  158,837;35892,129;-6509,519
 841,89;  147,617;36779,383;-6949,820
 842,46;  115,397;37103,637;-6751,122
 843,03;  162,177;35389,891;-6089,423
 843,59;  159,957;34224,145;-6403,724
 844,16;  143,738;34994,398;-6181,025
 844,73;  171,518;34249,652;-6067,327
 845,29;  151,298;32937,902;-5695,628
 845,86;  137,078;35699,156;-6800,930
 846,42;   85,858;36940,410;-7004,231
 846,99;  101,638;36477,664;-6967,533
 847,56;  125,418;36265,918;-5840,834
 848,12;   93,198;36240,172;-6745,135
 848,69;   79,978;35710,426;-6715,437
 849,25;   97,759;34401,680;-6845,738
 849,82;  115,539;34081,934;-3247,040
 850,38;  121,319;35064,188;-6840,341
 850,95;   93,099;32489,439;-6324,643
 851,52;   90,879;32520,693;-6565,944
 852,08;   67,659;32548,947;-6691,245
 852,65;   32,439;30323,199;-7005,546
 853,21;   67,219;27698,453;-6958,848
 853,78;   70,999;27362,707;-6363,149
 854,34;   79,780;28860,961;-6871,451
 854,91;   39,560;29081,215;-5086,752
 855,47;   80,340;29942,467;-5108,054
 856,04;  129,120;32027,721;-6746,355
 856,60;   88,900;33961,973;-6104,656
 857,17;  101,680;34979,227;-6840,958
 857,73;  107,460;33553,480;-6811,259
 858,30;   73,240;32532,734;-6985,561
 858,86;   76,020;31110,988;-5926,862
 859,43;   87,801;31430,242;-6226,164
 859,99;   97,581;32011,496;-6852,465
 860,56;   62,361;33126,750;-6903,766
 861,12;   77,141;35190,004;-6737,068
 861,69;   74,921;33669,258;-5924,369
 862,25;  136,701;34731,508;-6821,670
 862,82;  123,481;34419,762;-5972,972
 863,38;  125,261;31196,018;-6843,273
 863,95;   85,041;29305,270;-6239,575
 864,51;  109,821;30403,523;-5287,876
 865,08;  124,602;29284,777;-6090,178
 865,64;  131,382;26795,031;-7018,479
 866,21;  112,162;26131,285;-6745,780
 866,77;  123,942;26051,537;-5552,082
 867,34;  152,722;25734,791;-6672,383
 867,90;  141,502;24632,045;-6303,685
 868,46;  153,282;23835,299;-6041,986
 869,03;   41,062;24389,551;-6929,288
 869,59;  116,842;26353,805;-6884,589
 870,16;  123,623;27647,059;-6052,890
 870,72;   89,403;30060,313;-6657,191
 871,28;   93,183;32915,566;-5992,493
 871,85;  106,963;33142,820;-6907,794
 872,41;   70,743;31569,072;-6004,096
 872,98;   38,523;32738,326;-6050,397
 873,54;   63,303;33876,578;-5920,699
 874,10;  115,083;32768,832;-5876,000
 874,67;   68,083;32987,832;-6904,000
 875,23;   62,083;31068,834;-7032,000
 875,80;   86,083;28009,834;-6641,000
 876,36;   44,083;25058,834;-6642,000
 876,92;   76,083;22832,834;-6189,000
 877,49;   65,083;23923,834;-6517,000
 878,05;  104,083;24896,834;-6797,000
 878,61;   98,083;26938,834;-6812,000
 879,18;   85,083;27553,834;-6252,000
 879,74;   59,083;28076,834;-6720,000
 880,30;   99,083;28679,834;-5926,000
 880,87;   55,083;28852,834;-6326,000
 881,43;   72,083;29533,834;-6871,000
 881,99;   37,083;27306,834;-6879,000
 882,56;   76,083;27610,834;-6661,000
 883,12;   74,083;29049,834;-5740,000
 883,68;   66,083;29120,834;-6518,000
 884,25;   89,083;28300,834;-6949,000
 884,81;   39,083;26343,834;-6701,000
 885,37;   51,083;24221,834;-6786,000
 885,94;   40,083;22940,834;-6851,000
 886,50;   68,083;23098,834;-6886,000
 887,06;   43,083;24358,834;-6796,000
 887,62;   96,083;25019,834;-6866,000
 888,19;   44,083;25774,834;-5986,000
 888,75;   25,083;26542,834;-6821,000
 889,31;   39,083;29043,834;-6778,000
 889,87;   90,083;30537,834;-6723,000
 890,44;   81,083;30349,834;-6696,000
 891,00;   31,083;28757,834;-6786,000
 891,56;   57,083;26457,834;-6998,000
 892,12;   98,083;24463,834;-6754,000
 892,69;   56,083;25310,834;-6373,000
 893,25;   67,083;28798,834;-6877,000
 893,81;   50,083;31774,834;-6696,000
 894,37;   79,083;31330,834;-6342,000
 894,94;   94,083;28713,834;-6772,000
 895,50;   67,083;26035,834; -212,000
 896,06;   90,083;24749,834;-6810,000
 896,62;   84,083;23405,834;-6707,000
 897,18;   76,083;24661,834;-6518,000
 897,75;   80,083;27406,834;-6895,000
 898,31;   68,083;27887,834;-6849,000
 898,87;  106,083;26274,834;-6860,000
 899,43;   77,083;25164,834;-6469,000
 899,99;   77,083;26592,834;-6866,000
 900,56;   77,083;25515,834;-6791,000
 901,12;   79,083;24875,834;-6890,000
 901,68;   74,083;27903,834;-6267,000
 902,24;   59,083;31800,834;-5930,000
 902,80;   85,083;32652,834;-6794,000
 903,36;  169,083;31893,834;-6691,000
 903,93;  146,083;32139,834;-6646,000
 904,49;  242,083;32761,834;-6913,000
 905,05;  542,083;30952,834;-6732,000
 905,61; 1255,083;28208,834;-6832,000
 906,17; 2197,083;28086,834;-6901,000
 906,73; 3254,083;25975,834;-5380,000
 907,29; 4132,083;24960,834;-6910,000
 907,86; 4516,083;25118,834;-6827,000
 908,42; 4060,083;28092,834;-6795,000
 908,98; 3331,083;31123,834;-5908,000
 909,54; 1958,083;38813,832;-6885,000
 910,10;  731,083;48220,832;-6634,000
 910,66;  221,083;57581,832;-6781,000
 911,22;  115,083;65027,832;-6761,000
 911,78;   28,083;62593,832;-6841,000
 912,34;   -7,917;53256,832;-6080,000
 912,90;   94,083;44610,832;-5232,000
 913,46;   79,083;37052,832;-6876,000
 914,03;   18,083;30620,834;-5746,000
 914,59;   71,083;27452,834;-6682,000
 915,15;   75,083;24908,834;-6891,000
 915,71;   46,083;24217,834;-6863,000
 916,27;   60,083;23800,834;-6723,000
 916,83;   46,083;23006,834;-5824,000
 917,39;   46,083;21742,834;-3512,000
 917,95;   36,083;20224,834;-6009,000
 918,51;   50,083;19972,834;-6583,000
 919,07;   77,083;21780,834;-6791,000
 919,63;  -17,917;23295,834;-6661,000
 920,19;  -15,917;23935,834;-6865,000
 920,75;   31,083;23112,834;-6640,000
 921,31;   14,083;21484,834;-4837,000
 921,87;    7,083;20216,834;-6845,000
 922,43;   62,083;18019,834;-5626,000
 922,99;   51,083;17321,834;-6706,000
 923,55;   56,083;18674,834;-6655,000
 924,11;   66,083;19094,834;-6976,000
 924,67;   12,083;19310,834;-6962,000
 925,23;   72,083;19485,834;-6778,000
 925,79;   66,083;20122,834;-6710,000
 926,35;   59,083;20219,834;-6573,000
 926,91;   -3,917;19401,834;-6909,000
 927,47;   49,083;19367,834;-6660,000
 928,03;  121,083;20294,834;-6786,000
 928,59;   62,083;20503,834;-6678,000
 929,15;  108,083;20781,834;-6792,000
 929,71;  105,083;22016,834;-6840,000
 930,27;   85,083;23587,834;-6537,000
 930,82;  109,083;25573,834;-6728,000
 931,38;   34,083;24317,834;-5852,000
 931,94;   59,083;22672,834;-6843,000
 932,50;   47,083;21252,834;-6481,000
 933,06;   51,083;20895,834;-6768,000
 933,62;   41,083;21092,834;-6443,000
 934,18;   74,083;20632,834;-6727,000
 934,74;   64,083;21320,834;-6709,000
 935,30;  104,083;22030,834;-6484,000
 935,86;   42,083;21213,834;-6505,000
 936,42;   33,083;20702,834;-6873,000
 936,97;   58,083;21656,834;-6563,000
 937,53;   29,083;20552,834;-6826,000
 938,09;   53,083;21087,834;  123,000
 938,65;   54,083;21186,834;-6268,000
 939,21;   61,083;20179,834;-6708,000
 939,77;   34,083;18946,834;-6213,000
 940,33;   39,083;18602,834;-6748,000
 940,88;   55,083;19429,834;-5908,000
 941,44;   12,083;21301,834;-6983,000
 942,00;   13,083;23225,834;-6697,000
 942,56;   34,083;24231,834;-6604,000
 943,12;   36,083;23427,834;-5907,000
 943,68;   38,083;22950,834;-5679,000
 944,23;   43,083;23124,834;-6749,000
 944,79;   19,083;22674,834;-6102,000
 945,35;   20,083;20741,834;-6599,000
 945,91;   51,083;19519,834;-6767,000
 946,47;   40,083;19827,834;-3353,000
 947,03;   14,083;19896,834;-6850,000
 947,58;   36,083;19661,834;-6840,000
 948,14;   77,083;20790,834;-5897,000
 948,70;    8,083;19573,834;-5855,000
 949,26;   71,083;18881,834;-6616,000
 949,81;   34,083;18342,834;-6644,000
 950,37;   21,083;18686,834;-6695,000
 950,93;   77,083;17993,834;-6224,000
 951,49;    5,083;17568,834;-6057,000
 952,05;   22,083;17926,834;-6571,000
 952,60;    8,083;17299,834;-6951,000
 953,16;   55,083;16933,834;-5783,000
 953,72;   35,083;15628,833;-5813,000
 954,27;    3,083;15524,833;-6566,000
 954,83;   40,083;15317,833;-6703,000
 955,39;   37,083;14917,833;-6691,000
 955,95;   14,083;14456,833;-6849,000
 956,50;  -23,917;14272,833;-6698,000
 957,06;   -9,917;14126,833;-5922,000
 957,62;  -12,917;13780,833;-6559,000
 958,18;    1,083;13872,833;-6741,000
 958,73;   10,083;13326,833;-6820,000
 959,29;   39,083;13518,833;-6106,000
 959,85;  -13,917;14785,833;-6864,000
 960,40;   56,083;16746,834;-4263,000
 960,96;   75,083;16386,834;-6738,000
 961,52;   30,083;14755,833;-6643,000
 962,07;   74,083;13711,833;-6742,000
 962,63;   64,083;13208,833;-6723,000
 963,19;  -36,917;13435,833;-5779,000
 963,74;   62,083;13877,833;-6582,000
 964,30;   26,083;14475,833;-6595,000
 964,86;   28,083;14281,833;-6484,000
 965,41;   55,083;14290,833;-6705,000
 965,97;   -7,917;14185,833;-6569,000
 966,53;   14,083;14792,833;-6750,000
 967,08;   38,083;15311,833;-6611,000
 967,64;   51,083;15082,833;-6705,000
 968,19;   36,083;14471,833;-6684,000
 968,75;   17,083;14662,833;-6566,000
 969,31;   34,083;14880,833;-5626,000
 969,86;   24,083;14995,833;-6505,000
 970,42;  -15,917;13195,833;-6620,000
 970,97;   13,083;11567,833;-6437,000
 971,53;   21,083;11625,833;-6490,000
 972,09;    6,083;12998,833;-6646,000
 972,64;   27,083;13523,833;-5812,000
 973,20;   41,083;13815,833;-6599,000
 973,75;    5,083;14605,833;-5760,000
 974,31;   15,083;14826,833;-6578,000
 974,87;   46,083;14921,833;-6674,000
 975,42;   -7,917;14507,833;-6727,000
 975,98;   17,083;13201,833;-6651,000
 976,53;   15,083;12100,833;-6555,000
 977,09;   -9,917;11353,833;-4624,000
 977,64;    8,083;11164,833;-6532,000
 978,20;   19,083;10649,833;-6585,000
 978,75;   11,083;10482,833;-6429,000
 979,31;   16,083;10950,833;-6513,000
 979,86;   30,083;12220,833;-6739,000
 980,42;   -4,917;12828,833;-5813,000
 980,97;   42,083;13290,833;-6642,000
 981,53;   60,083;14285,833;-6636,000
 982,08;   37,083;13803,833;-5046,000
 982,64;    0,083;12278,833;-6237,000
 983,19;   34,083;11308,833;-6760,000
 983,75;   28,083;10993,833;-6576,000
 984,30;   15,083;10430,833;-5581,000
 984,86;   31,083; 9867,833;-5898,000
 985,41;   13,083; 9457,833;-6634,000
 985,97;   18,083; 9632,833;-4797,000
 986,52;   29,083; 9894,833;-5853,000
 987,08;   14,083; 9953,833;-6174,000
 987,63;   12,083;10165,833;-5608,000
 988,19;   55,083;11252,833;-6266,000
 988,74;   -3,917;11710,833;-5682,000
 989,30;   23,083;11529,833;-6568,000
 989,85;   40,083;11470,833; -276,000
 990,40;   13,083;11314,833;-6617,000
 990,96;   72,083;11060,833;-6482,000
 991,51;   41,083;11149,833;-6578,000
 992,07;   32,083;10742,833;-6605,000
 992,62;   41,083;10285,833;-6519,000
 993,18;   -0,917;10035,833;-6504,000
 993,73;   43,083; 9986,833;-6440,000
 994,28;   55,083; 9800,833;-6464,000
 994,84;   23,083; 9019,833;-6240,000
 995,39;   19,083; 8474,833;-2971,000
 995,94;   64,083; 7953,833;-5673,000
 996,50;   10,083; 7647,833;-6543,000
 997,05;   20,083; 7872,833;-3481,000
 997,61;   32,083; 8363,833;-6489,000
 998,16;    4,083; 8581,833;-6555,000
 998,71;   19,083; 8850,833;-6340,000
 999,27;   -5,917; 9115,833;-5223,000
 999,82;   23,083; 8706,833;-4778,000
1000,37;   43,083; 8661,833;-6520,000
1000,93;   47,083; 8920,833;-6107,000
1001,48;   38,083; 8799,833;-6543,000
1002,03;   -5,917; 8477,833;-6469,000
1002,59;   56,083; 8715,833;-5972,000
1003,14;   54,083; 8758,833;-6113,000
1003,69;   -3,917; 8484,833;-6513,000
1004,25;   44,083; 8299,833;-6507,000
1004,80;   28,083; 8322,833;-6266,000
1005,35;   51,083; 8313,833;-6361,000
1005,91;   74,083; 8515,833;-6558,000
1006,46;   35,083; 8426,833;-6084,000
1007,01;   45,083; 8227,833;-5479,000
1007,56;   37,083; 8599,833;-6440,000
1008,12;   46,083; 8342,833;-6178,000
1008,67;   64,083; 7867,833;-6312,000
1009,22;   58,083; 7509,833;-6481,000
1009,78;    1,083; 7205,833;-6163,000
1010,33;   47,083; 6649,833;-6443,000
1010,88;   30,083; 6413,833;-5618,000
1011,43;   31,083; 5995,833;-6433,000
1011,99;   46,083; 5972,833;-6198,000
1012,54;   33,083; 6320,833;-6387,000
1013,09;   64,083; 6048,833;-6299,000
1013,64;   24,083; 5802,833;-6362,000
1014,19;   52,083; 5823,833;-6442,000
1014,75;   62,083; 5928,833;-6408,000
1015,30;   37,083; 6394,833;-6425,000
1015,85;   75,083; 6370,833;-6367,000
1016,40;   65,083; 6247,833;-5436,000
1016,96;  103,083; 6235,833;-6268,000
1017,51;   54,083; 6150,833;-6351,000
1018,06;   55,083; 6095,833;-6310,000
1018,61;   26,083; 5695,833;-6665,000
1019,16;    7,083; 5609,833;-6697,000
1019,71;  142,083; 5663,833;-6373,000
1020,27;   96,083; 5567,833;-6353,000
1020,82;   76,083; 5375,833;-3700,000
1021,37;   66,083; 5405,833;-4798,000
1021,92;   66,083; 5984,833;-6454,000
1022,47;   66,083; 5965,833;-6548,000
1023,02;   65,083; 5463,833;-6512,000
1023,58;   91,083; 5045,833;-6573,000
1024,13;  144,083; 4730,833;-6258,000
1024,68;   94,083; 4434,833;-6298,000
1025,23;  102,083; 4324,833;-5525,000
1025,78;   91,083; 4613,833;-6475,000
1026,33;  144,083; 4932,833;-5510,000
1026,88;  151,083; 4843,833;-6236,000
1027,43;  144,083; 5167,833;-6276,000
1027,99;  154,083; 5134,833;-6002,000
1028,54;  154,083; 4732,833;-6395,000
1029,09;  183,083; 4106,833;-2478,000
1029,64;  196,083; 3919,833;-6303,000
1030,19;  247,083; 4147,833;-3821,000
1030,74;  264,083; 4243,833;-5134,000
1031,29;  300,083; 4284,833;-4765,000
1031,84;  340,083; 4491,833;-6300,000
1032,39;  303,083; 4563,833;-5403,000
1032,94;  398,083; 4617,833;-4326,000
1033,49;  429,083; 4361,833;-5476,000
1034,04;  451,083; 4236,833;-6312,000
1034,59;  563,083; 4205,833;-6507,000
1035,14;  546,083; 4117,833;-6145,000
1035,69;  616,083; 4318,833;-6224,000
1036,24;  587,083; 4104,833;-4477,000
1036,80;  662,083; 3986,833;-5453,000
1037,35;  640,083; 4138,833;-6347,000
1037,90;  810,083; 4172,833;-6274,000
1038,45;  871,083; 4201,833;-6419,000
1039,00;  840,083; 4340,833;-5490,000
1039,55;  918,083; 4229,833;-6284,000
1040,10;  987,083; 3977,833;-5615,000
1040,65;  964,083; 3916,833;-5576,000
1041,20; 1086,083; 3850,833;-6325,000
1041,75; 1143,083; 4030,833;-4522,000
1042,30; 1168,083; 4164,833;-3585,000
1042,84; 1362,083; 4338,833;-4439,000
1043,39; 1445,083; 4248,833;-6313,000
1043,94; 1662,083; 4175,833;-5342,000
1044,49; 1642,083; 3887,833;-6246,000
1045,04; 1867,083; 3710,833;-5800,000
1045,59; 2072,083; 3809,833;-6299,000
1046,14; 2321,083; 3732,833;-6392,000
1046,69; 2504,083; 3591,833;-6294,000
1047,24; 2866,083; 3623,833;-5510,000
1047,79; 3350,083; 3737,833;-6139,000
1048,34; 3677,083; 4002,833;-5961,000
1048,89; 4101,083; 3948,833;-6259,000
1049,44; 4741,083; 3935,833;-5172,000
1049,99; 5544,083; 3855,833;-4844,000
1050,54; 6676,083; 3876,833;-6249,000
1051,08; 8701,083; 3961,833;-6178,000
1051,63;12617,083; 4050,833;-5285,000
1052,18;19429,084; 5051,833;-6127,000
1052,73;30905,084; 7151,833;-6173,000
1053,28;46333,082;10516,833;-6386,000
1053,83;65053,082;15224,833;-6214,000
1054,38;65173,082;19203,834;-6254,000
1054,93;65173,082;21243,834;-6285,000
1055,47;65173,082;23825,834;-5328,000
1056,02;65173,082;26212,834;-5832,000
1056,57;65173,082;27830,834;-6198,000
1057,12;65173,082;30497,834;-6378,000
1057,67;65173,082;33805,832;-6078,000
1058,22;65173,082;36084,832;-6313,000
1058,76;65173,082;38542,832;-6093,000
1059,31;65173,082;44129,832;-3514,000
1059,86;65173,082;48778,832;-6204,000
1060,41;65173,082;49718,832;-6152,000
1060,96;65173,082;51396,832;-6226,000
1061,51;65173,082;53649,832;-5344,000
1062,05;65173,082;54082,832;-6122,000
1062,60;65173,082;50555,832;-6061,000
1063,15;65173,082;45221,832;-6149,000
1063,70;65173,082;41550,832;-6250,000
1064,24;65173,082;43676,832;-6169,000
1064,79;65173,082;45461,832;-6144,000
1065,34;65173,082;43989,832;-6064,000
1065,89;65173,082;41776,832;-6202,000
1066,44;65173,082;37631,832;-6120,000
1066,98;65173,082;32612,834;-6224,000
1067,53;65173,082;30790,834;-5953,000
1068,08;65173,082;30368,834;-4845,000
1068,63;65173,082;27618,834;-6096,000
1069,17;65173,082;24647,834;-5893,000
1069,72;65173,082;22350,834;-5857,000
1070,27;65173,082;20529,834;-6040,000
1070,81;65173,082;20388,834;-5996,000
1071,36;65173,082;20367,834;-3883,000
1071,91;65173,082;18745,834;  966,000
1072,46;65173,082;16791,834;-5058,000
1073,00;65173,082;14646,833;-5239,000
1073,55;65173,082;11404,833;-5935,000
1074,10;65173,082; 7803,833;-5981,000
1074,64;44771,082; 5240,833;-5860,000
1075,19;25614,084; 3535,833;-4958,000
1075,74;15349,083; 2551,833;-6091,000
1076,28;10649,083; 2312,833;-6075,000
1076,83; 7969,083; 1951,833;-5286,000
1077,38; 6344,083; 1820,833;-5653,000
1077,92; 5176,083; 1783,833;-6332,000
1078,47; 4357,083; 1629,833;-5507,000
1079,02; 3573,083; 1578,833;-5959,000
1079,56; 3075,083; 1557,833;-5328,000
1080,11; 2547,083; 1304,833;-6094,000
1080,65; 2229,083; 1241,833;-5039,000
1081,20; 1815,083; 1186,833;-6151,000
1081,75; 1647,083; 1125,833;-6039,000
1082,29; 1426,083; 1128,833; -139,000
1082,84; 1148,083; 1184,833;-2678,000
1083,39; 1093,083; 1294,833;-5061,000
1083,93;  906,083; 1335,833;-5025,000
1084,48;  802,083; 1196,833;-5961,000
1085,02;  760,083; 1082,833;-5783,000
1085,57;  753,083; 1074,833;-5994,000
1086,11;  715,083; 1079,833;-5968,000
1086,66;  658,083;  925,833;-5584,000
1087,21;  630,083; 1060,833;-5802,000
1087,75;  565,083;  939,833;-6125,000
1088,30;  503,083;  815,833;-5040,000
1088,84;  510,083;  783,833;-5963,000
1089,39;  444,083;  656,833;-5965,000
1089,93;  448,083;  664,833;-6100,000
1090,48;  397,083;  649,833;-4394,000
1091,02;  392,083;  733,833;-5181,000
1091,57;  382,083;  629,833;-5479,000
1092,11;  335,083;  642,833;-4094,000
1092,66;  369,083;  624,833;-6031,000
1093,20;  305,083;  580,833;-5180,000
1093,75;  281,083;  566,833;-4998,000
1094,29;  254,083;  486,833;-4979,000
1094,84;  294,083;  525,833;-5890,000
1095,38;  267,083;  528,833;-5097,000
1095,93;  237,083;  584,833;-5981,000
1096,47;  223,083;  615,833;-5612,000
1097,02;  200,083;  587,833;-4985,000
1097,56;  262,083;  614,833;-5772,000
1098,11;  180,083;  552,833;-5774,000
1098,65;  183,083;  508,833;-5992,000
1099,20;  198,083;  577,833;-5935,000
1099,74;  135,083;  487,833;-6002,000
1100,29;  180,083;  513,833;-4879,000
1100,83;  121,083;  496,833;-5934,000

