
Integration time [ms]:   1,000
Averaging Nr. [scans]: 1
Smoothing Nr. [pixels]: 0
Data measured with spectrometer [name]: 1703254U1
Wave   ;Sample   ;Dark     ;Reference;Scope
[nm]   ;[counts] ;[counts] ;[counts] 

 190,08;  -70,268; -370,119;11982,743
 190,69;  -51,541; -359,404;11603,049
 191,29;  -53,083; -311,651;11479,965
 191,90;  -62,887; -365,508;11440,717
 192,50;  -61,125; -379,511;10355,099
 193,10;  -40,195; -446,299;11244,381
 193,71;  -59,913; -367,888; 9821,736
 194,31;  -54,295; -399,273; 9436,327
 194,91;  -54,295; -382,273; 9291,327
 195,52;  -61,235; -338,386;10555,949
 196,12;  -36,891; -397,056; 8671,847
 196,72;  -56,829; -386,394; 8220,904
 197,32;  -59,913; -375,888; 8251,736
 197,93;  -42,729; -360,420; 8700,957
 198,53;  -56,168; -383,145; 7601,797
 199,13;  -63,218; -397,132; 8091,270
 199,74;  -48,016; -366,410; 7263,813
 200,34;  -44,271; -388,667; 7832,874
 200,94;  -41,737; -436,547; 6941,297
 201,55;  -51,541; -406,404; 7119,049
 202,15;  -54,736; -375,773; 6404,732
 202,75;  -85,138; -373,217; 6097,647
 203,36;  -46,033; -338,664; 6822,492
 203,96;  -97,696; -357,943; 6332,678
 204,56;  -49,558; -355,657;10275,729
 205,16;  -57,159; -363,018; 5478,458
 205,77;  -70,157; -360,244; 4767,892
 206,37;  -58,040; -409,017; 5556,267
 206,97;  -61,786; -363,760; 5129,205
 207,58;  -44,712; -364,166; 5927,278
 208,18;  -64,980; -337,129; 5129,889
 208,78;  -62,336; -404,134; 5295,461
 209,38;  -45,373; -469,415; 4958,385
 209,99;  -45,262; -356,540; 3837,534
 210,59;  -46,915; -361,662; 3890,301
 211,19;  -46,144; -364,538; 3938,343
 211,79;  -38,763; -366,927; 4499,316
 212,40;  -67,183; -373,625; 3368,911
 213,00;  -58,151; -388,891; 3903,118
 213,60;  -63,438; -386,882; 2992,972
 214,20;  -78,089; -401,230; 3081,175
 214,81;  -70,708; -422,618; 2884,148
 215,41;  -78,309; -376,979; 3235,877
 216,01;  -98,467; -373,067; 3109,636
 216,61;  -54,185; -367,399; 2814,476
 217,22;  -93,841; -381,326; 2358,888
 217,82; -108,932; -325,173; 2262,495
 218,42;  -88,223; -383,711; 2389,480
 219,02;  -92,959; -288,327; 3432,079
 219,63;  -76,106; -357,483; 2044,854
 220,23;  -79,521; -366,602; 2425,239
 220,83;  -77,648; -395,730; 1901,770
 221,43;  -96,595; -393,195; 1850,167
 222,03;  -99,459; -348,940; 2326,296
 222,64;  -81,503; -380,348; 1769,560
 223,24;  -85,359; -298,966; 1625,350
 223,84; -100,891; -376,313; 2637,361
 224,44;  -97,035; -316,695; 2381,571
 225,05;  -93,290; -313,952; 1440,632
 225,65;  -99,348; -301,065; 1227,445
 226,25;  -88,002; -364,961; 1139,777
 226,85; -102,653; -294,309;  995,979
 227,45;  -90,866; -335,706; 1083,907
 228,06;  -88,994; -365,834; 1945,438
 228,66;  -88,443; -349,460; 4049,182
 229,26; -100,780; -313,438; 1131,510
 229,86;  -85,028; -396,342; 1760,797
 230,46;  -97,476; -358,194;  891,976
 231,06;  -97,255; -320,444;  757,273
 231,67;  -76,767; -346,732; 1228,961
 232,27; -113,669; -343,789;  778,094
 232,87; -103,094; -308,808;  526,384
 233,47; -116,863; -321,158;  525,777
 234,07;  -74,343; -268,486; 9912,235
 234,67; -127,548; -291,013;  672,338
 235,28; -116,863; -319,158;   65,777
 235,88; -131,183; -316,882;  285,426
 236,48;  -96,044; -350,821;  165,911
 237,08; -111,135; -267,669;  448,518
 237,68; -133,386; -369,378; -267,552
 238,28;  -93,600; -304,774; -106,624
 238,89; -131,293; -212,756; -205,723
 239,49; -122,261; -282,023; 1280,483
 240,09; -143,741; -284,608; -190,544
 240,69; -136,030; -251,373; -319,124
 241,29; -122,591; -289,647;  651,036
 241,89; -123,032; -330,147; -260,559
 242,49; -114,326; -248,490; -358,930
 243,10; -129,801; -201,496; 3664,834
 243,70; -140,326; -284,490;  239,070
 244,30; -117,157; -275,501; -708,594
 244,90; -114,841; -188,582; -568,598
 245,50; -136,724; -177,355; 3274,777
 246,10; -128,760; -307,636; -831,300
 246,70; -135,479; -300,999;   17,620
 247,30; -122,116; -251,641;  326,273
 247,91; -145,002; -208,218; 5781,292
 248,51; -116,715; -270,228; -806,563
 249,11; -110,107; -239,514;  417,933
 249,71;  -90,192; -303,008; -667,235
 250,31; -101,851; -265,483; -567,693
 250,91; -102,039; -238,500;   75,216
 251,51;  -81,477; -199,225; -822,945
 252,11; -110,195; -239,813;  367,410
 252,71;  -76,894; -269,117;-1080,994
 253,31; -128,249; -222,348; 3228,013
 253,91; -110,484; -236,578; -676,170
 254,52;  -91,774; -237,342;-1063,750
 255,12; -104,851; -293,483;-1104,693
 255,72;   -2,555; -206,366;  557,112
 256,32;  -95,737; -242,061; -966,674
 256,92;  -65,450; -190,070;-1147,529
 257,52;    3,302; -173,974; -883,243
 258,12;  -84,638; -201,087;  -91,621
 258,72; -101,958; -210,810;-1232,972
 259,32;  -43,298; -211,335;-1169,514
 259,92;  -57,942; -199,330;-1343,086
 260,52;  -31,579; -192,973;-1077,433
 261,12;  -35,619; -202,059; -662,865
 261,72;  -88,594; -238,452;-1312,319
 262,32;  -74,147; -215,600;-1561,498
 262,92; -114,694; -238,426;  405,627
 263,53;  -60,018; -189,698;-1277,594
 264,13;  -81,966; -262,937; -268,632
 264,73; -116,815; -217,202;-1694,617
 265,33;  -62,992; -188,317;-1708,613
 265,93;  -65,042; -147,304;-1345,140
 266,53;  -96,669; -161,046;-1544,392
 267,13;  -95,846; -139,161; -857,388
 267,73;  -68,608; -185,158;  270,230
 268,33;  -92,786; -166,274;-1788,766
 268,93;  -73,730; -213,708;-1702,449
 269,53; -101,999; -204,670; -644,839
 270,13;  -54,008; -201,797;-1810,499
 270,73; -120,736; -245,287;-1891,239
 271,33;  -47,593; -200,678;-1778,884
 271,93;  -78,660; -242,919;-1867,732
 272,53;  -33,445; -121,748;    8,776
 273,13;  -45,474; -146,677;-1117,075
 273,73;  -55,801; -119,753;-1955,652
 274,33;  -68,813; -148,428;-2041,182
 274,93;  -96,818; -188,007;-1843,972
 275,53;  -60,445;  -68,748;-1881,224
 276,13;  -77,730; -121,965;-2261,935
 276,73;  -57,944; -118,361;-1570,007
 277,33;  -52,446; -179,522;-1926,659
 277,93;  -49,712; -213,680;-1864,693
 278,53;  -49,684; -194,526;-2112,278
 279,13;  -55,259; -125,506;-2152,568
 279,73;  -97,665; -140,498;-1388,522
 280,33;  -76,039; -154,756;-2179,270
 280,93;  -42,868; -105,994;-2049,499
 281,53;  -40,844; -147,387;-2252,953
 282,13;  -53,063; -127,363;-2193,816
 282,73; -127,453; -156,875; -385,885
 283,33;  -79,216; -137,872;-2307,266
 283,92;  -18,121;  -74,477;-2028,003
 284,52;  -50,045;  -94,109;-2365,496
 285,12;  -69,565; -138,524;-1425,469
 285,72;  -39,116; -126,898;-1041,213
 286,32;  -24,436;  -55,622;-1313,564
 286,92;  -65,328; -163,521;-2376,850
 287,52;   -8,209;  -89,519;-2170,041
 288,12;   -7,514;  -97,763;-2542,507
 288,72;  -30,982; -106,417;-1625,518
 289,32;   -0,646;  -54,470; 1692,233
 289,92;  -58,548; -106,270;-2344,148
 290,52;  -48,584;  -91,809;-2485,710
 291,12;  -56,987;  -57,996;-1570,308
 291,72;  -47,121;  -74,477;-1590,003
 292,32;    0,054;  -83,135;-2372,442
 292,92;    8,387;   -2,737;-2481,560
 293,51;  -12,858;  -37,093;-2532,404
 294,11;  -16,877;  -42,121;-1681,160
 294,71;   17,048;   -7,488;-2695,667
 295,31;  -26,088;  -24,743;-1755,797
 295,91;   31,996;   46,751;-2713,629
 296,51;   25,363;   62,656;-1776,106
 297,11;   18,170;   35,061;-2900,988
 297,71;   23,022;    4,131;-2726,648
 298,31;  110,452;   38,730;-2329,148
 298,91;   55,352;   74,756;-2483,202
 299,50;   32,751;   41,395;-2689,473
 300,10;  151,717;  145,887;-2706,114
 300,70;  122,235;   95,528;-2492,576
 301,30;  138,674;   89,253;-2855,415
 301,90;  154,318;   96,248;-2004,843
 302,50;  214,175;  163,640;-2515,198
 303,10;  366,665;  124,126;-2530,076
 303,70;  354,600;  208,660;-3000,488
 304,29;  494,974;  189,918;-2658,740
 304,89;  771,822;  266,183;-1090,755
 305,49; 1048,211;  163,922;-2773,122
 306,09; 1178,141;  214,133;-2874,839
 306,69; 1296,927;  262,736;-2915,911
 307,29; 1825,054;  312,865;-2008,442
 307,89; 3158,702;  303,408;-3029,000
 308,48; 3988,658;  341,774;-2453,301
 309,08; 4437,623;  369,492;-2743,377
 309,68; 3555,082;  377,019;-3094,026
 310,28; 2258,884;  371,102;-2576,213
 310,88; 1367,586;  321,211;-2936,453
 311,48; 1013,216;  447,500;-2875,331
 312,07;  829,733;  408,367;-2963,228
 312,67;  816,342;  497,855;-2128,297
 313,27;  785,416;  494,448;-1105,224
 313,87;  629,020;  583,357;-2164,083
 314,47;  648,331;  516,954;-3030,392
 315,06;  655,161;  620,191; 2713,837
 315,66;  581,825;  579,988;-3245,400
 316,26;  649,144;  632,938;-1844,483
 316,86;  621,400;  777,969;-3140,110
 317,46;  649,338;  720,307;-2115,167
 318,06;  654,254;  739,813; -825,335
 318,65;  612,423;  781,801;-2807,999
 319,25;  570,185;  821,798;-3195,617
 319,85;  585,583;  932,663;-2908,323
 320,45;  680,557;  986,283;-3213,304
 321,05;  654,726;  901,271;-2761,968
 321,64;  595,218;  889,531;-3219,411
 322,24;  673,562; 1056,861;-3265,513
 322,84;  743,646; 1080,356;-3261,345
 323,44;  677,240; 1133,364;-3219,300
 324,03;  778,893; 1194,486;-3072,067
 324,63;  786,399; 1250,452;-2310,059
 325,23;  750,177; 1241,928;-3097,792
 325,83;  727,691; 1367,021;-2876,123
 326,42;  785,359; 1442,622;-3285,005
 327,02;  902,133; 1476,551;-3076,607
 327,62;  879,579; 1439,629;-2505,221
 328,22;  837,383; 1553,486;-3234,973
 328,82;  847,369; 1577,037;-2229,938
 329,41;  956,085; 1658,852;-3016,728
 330,01; 1030,603; 1652,750;-2961,704
 330,61; 1068,641; 1806,062;-2928,707
 331,20; 1073,371; 1778,325;-2868,531
 331,80; 1152,519; 1762,512;-2794,386
 332,40; 1167,355; 1752,102;-2896,932
 333,00; 1150,292; 1933,667;-2790,423
 333,59; 1161,638; 1748,771;-2855,091
 334,19; 1227,737; 1920,745;-1771,037
 334,79; 1214,491; 1712,615;-2861,316
 335,39; 1179,190; 1729,919;-2978,912
 335,98; 1165,736; 1726,714;-3126,958
 336,58; 1107,367; 1659,777;-3191,401
 337,18; 1076,486; 1720,779;-2958,592
 337,77; 1096,761; 1782,837;-2098,463
 338,37; 1131,865; 1806,359;-2021,540
 338,97; 1110,646; 1907,384;-2912,402
 339,57; 1087,583; 1862,948;-3044,894
 340,16; 1057,836; 1836,431;-2881,390
 340,76; 1092,872; 1962,712;-3053,314
 341,36; 1112,564; 1861,920;-3195,650
 341,95; 1126,044; 1934,506;-3027,623
 342,55; 1154,009; 1918,998;  703,736
 343,15; 1176,156; 2048,155;-3094,039
 343,74; 1155,884; 1924,644;-2382,298
 344,34; 1153,095; 1860,267;-3015,661
 344,94; 1157,825; 2068,530;-3069,485
 345,53; 1259,774; 2110,769;-2860,447
 346,13; 1295,460; 2174,398;-1283,573
 346,73; 1291,669; 1966,473;-2254,805
 347,32; 1240,240; 2268,649;-3080,871
 347,92; 1256,677; 2312,600;-2277,145
 348,52; 1328,350; 2270,523;-1878,722
 349,11; 1280,369; 2336,551;  975,034
 349,71; 1277,953; 2330,658;-3240,016
 350,31; 1453,629; 2441,387;-2672,237
 350,90; 1477,885; 2483,418;-2326,863
 351,50; 1594,576; 2390,852;-2105,634
 352,10; 1811,543; 2471,119;-3114,840
 352,69; 1979,571; 2532,273;-3182,424
 353,29; 2082,910; 2563,024;-3191,317
 353,89; 2157,588; 2645,527;-3255,104
 354,48; 2280,543; 2693,119;-3208,840
 355,08; 2692,703; 2871,980;-1117,164
 355,67; 3083,216; 2850,042;-2951,417
 356,27; 3788,256; 2839,128;-3232,985
 356,87; 4919,639; 3010,288;-3383,142
 357,46; 7137,835; 3049,431;-2351,390
 358,06;10486,877; 3306,291;-3073,523
 358,66;11432,925; 3337,504;-3109,432
 359,25; 9734,437; 3260,792;-2344,119
 359,85; 9477,547; 3365,667;-3215,970
 360,44; 8952,197; 3389,015;-3292,172
 361,04; 7672,156; 3567,155;-2367,039
 361,64; 6167,156; 3696,155;-2309,039
 362,23; 4632,875; 3772,517;-2932,958
 362,83; 3636,527; 3755,639;-2990,726
 363,42; 3279,773; 3938,769;-2836,447
 364,02; 2839,622; 3910,034;-2973,462
 364,62; 2636,460; 3816,398;-2486,573
 365,21; 2465,751; 3857,937;-1741,558
 365,81; 2293,336; 3935,818;-2792,173
 366,40; 2247,641; 3970,062;-2080,707
 367,00; 2180,250; 4021,550;-2952,776
 367,59; 2282,287; 4071,831;-2979,699
 368,19; 2188,378; 4221,678;-3237,306
 368,79; 2101,466; 4198,720;-3125,268
 369,38; 2163,481; 4107,200;-2250,383
 369,98; 2193,989; 4101,940;-2935,940
 370,57; 2361,101; 4188,588;-3331,356
 371,17; 2484,424; 4164,860;-3326,135
 371,76; 2519,874; 4277,486;-3442,879
 372,36; 2468,813; 4057,598;-3195,501
 372,95; 2259,815; 4115,372;  667,934
 373,55; 2113,264; 4105,998;-3393,811
 374,14; 2132,373; 4300,099;-3405,097
 374,74; 1960,892; 4256,514;-3224,124
 375,34; 1956,839; 4286,979;-3189,521
 375,93; 1886,398; 4295,479;-2706,116
 376,53; 1807,863; 4344,585;-3575,974
 377,12; 1818,784; 4405,670;-1465,352
 377,72; 1753,178; 4480,730;-3410,414
 378,31; 1811,147; 4511,027;-2274,699
 378,91; 1681,717; 4291,429;-3262,199
 379,50; 1787,176; 4588,213;-3331,363
 380,10; 1808,126; 4327,226;-3398,890
 380,69; 1749,221; 4094,621;-2343,626
 381,29; 1843,280; 4586,735;-2550,439
 381,88; 1928,942; 4518,758;-1605,111
 382,48; 1925,686; 4519,727;-3286,485
 383,07; 1916,491; 4495,358;-3457,802
 383,67; 1878,942; 4635,758;-1847,111
 384,26; 1879,975; 4667,491;-2467,905
 384,86; 1816,338; 4921,849;-3182,252
 385,45; 1822,290; 4932,636;-3325,344
 386,05; 1810,271; 5073,608;-3419,100
 386,64; 1810,391; 4911,384;-3524,855
 387,24; 1901,476; 5016,878;-2585,688
 387,83; 1822,519; 4993,512;-2489,386
 388,42; 1945,660; 5182,346;-2109,466
 389,02; 2023,230; 5423,748;-3235,966
 389,61; 2121,741; 5688,036;-3413,653
 390,21; 2167,476; 5729,878;-3463,688
 390,80; 2276,985; 5816,392;-3208,810
 391,40; 2462,020; 6137,899;-2293,168
 391,99; 2837,118; 5981,099;-3195,550
 392,59; 3621,027; 6435,252;-2416,943
 393,18; 5705,460; 6683,398;-2491,573
 393,77;13047,362; 6883,198;-3238,192
 394,37;18573,834; 7145,657;-2198,825
 394,96;16489,816; 7098,403;-2296,146
 395,56;19861,102; 7264,588;-2834,356
 396,15;24769,793; 6867,797;-3125,692
 396,75;19012,750; 7343,163;-2889,993
 397,34;11137,988; 7669,940;-2620,940
 397,93; 7439,650; 7720,188;-3358,047
 398,53; 5465,739; 7595,262;-2525,088
 399,12; 4390,078; 8192,013;-2154,981
 399,72; 3469,543; 8013,119;-2274,840
 400,31; 3133,815; 8034,629;-3169,581
 400,91; 2968,959; 8446,012;-2959,791
 401,50; 2598,362; 8820,198;-2330,192
 402,09; 2584,490; 8550,327;-2894,722
 402,69; 2597,531; 8691,187;-3072,856
 403,28; 2439,309; 9052,663;-2983,588
 403,88; 2434,963; 9162,560; 1927,079
 404,47; 2385,287; 9689,831;  884,300
 405,06; 2328,343; 9684,171;  -68,947
 405,66; 2355,438; 9753,565;-2875,684
 406,25; 2302,466;10085,720;-3119,268
 406,84; 2378,818;10446,177;-2892,711
 407,44; 2319,305;10847,858;-2219,944
 408,03; 2292,638;10422,257;-2906,063
 408,63; 2351,304;10373,085;-3011,379
 409,22; 2397,744;10191,584;-1945,783
 409,81; 2451,858;10681,007;-1849,765
 410,41; 2532,829;11553,078;-2857,615
 411,00; 2557,102;11336,362;-1814,921
 411,59; 2500,917;11251,120;-2826,578
 412,19; 2601,152;11468,350;-2245,394
 412,78; 2524,381;11399,226;-2830,436
 413,37; 2461,730;12151,878;-2704,234
 413,97; 2414,774;12410,512;-2618,933
 414,56; 2588,299;12071,506;-2503,169
 415,15; 2551,359;12410,394;-2121,547
 415,75; 2655,782;12408,639;-2698,272
 416,34; 2639,400;12590,254;-1893,681
 416,93; 2708,827;12922,047;-2777,536
 417,53; 2737,479;12696,169;-1423,303
 418,12; 2607,216;12570,785;-2217,903
 418,71; 2557,593;12907,592;-2673,285
 419,31; 2529,939;13054,695;-1884,952
 419,90; 2419,676;13470,313;-2786,552
 420,49; 2460,607;13619,298;-1733,834
 421,08; 2379,607;14201,298;-1674,834
 421,68; 2308,378;14723,421;-1908,792
 422,27; 2397,660;14035,832;-2004,437
 422,86; 2452,727;13874,073; -437,590
 423,46; 2259,221;14080,107;-2575,598
 424,05; 2170,087;14376,626;-2928,293
 424,64; 2140,194;13888,953;-2640,014
 425,24; 2110,509;14092,098;-2903,453
 425,83; 2052,724;13992,269;-2680,945
 426,42; 2058,087;12987,626;-2760,293
 427,01; 2145,789;13424,734;-2674,533
 427,61; 2104,629;14347,873;-2609,209
 428,20; 2075,428;14036,151;-1764,751
 428,79; 1889,438;14414,052;-2859,656
 429,38; 2096,426;14092,377;-1781,186
 429,98; 2120,741;14922,521; -994,625
 430,57; 2054,629;15058,873;-2193,209
 431,16; 1969,257;14580,389;-2784,522
 431,75; 1928,242;14357,909; -561,407
 432,35; 2001,529;13435,899;-1951,262
 432,94; 2015,922;14429,186;-2324,759
 433,53; 2054,307;14560,375;-1152,995
 434,12; 1992,861;14431,298;-2267,381
 434,72; 2023,355;14188,331;-1413,389
 435,31; 2047,431;14167,699; 7395,119
 435,90; 2091,567;14308,954; 8338,249
 436,49; 2030,034;13427,834; -683,175
 437,08; 2142,330;13895,951; -675,370
 437,68; 2143,559;14442,827;-2987,412
 438,27; 2320,722;14610,237;-2610,866
 438,86; 2254,915;14612,832;-1147,984
 439,45; 2227,424;15313,346;-1937,106
 440,05; 2282,629;15955,616;-2982,694
 440,64; 2260,834;15054,886;-1902,282
 441,23; 2307,233;14152,525;-1415,553
 441,82; 2389,297;13700,218;-2631,576
 442,41; 2342,691;14351,277;-3014,637
 443,00; 2387,684;13625,925;-2724,863
 443,60; 2592,478;14373,881;-3136,710
 444,19; 2660,421;15026,541;-1440,462
 444,78; 2771,683;14960,151;-3012,298
 445,37; 2787,116;15728,297;-2522,928
 445,96; 3100,553;15331,249;-3116,202
 446,56; 3256,946;15596,535;-1144,698
 447,15; 3447,142;16225,678; -884,947
 447,74; 3512,293;17097,412;-2709,931
 448,33; 3642,762;16443,066;-1985,920
 448,92; 3700,313;15422,440;-2964,176
 449,51; 3747,101;15095,817;-2848,813
 450,10; 4049,593;15133,078;-3063,256
 450,70; 4337,753;14904,939;-1957,581
 451,29; 4852,771;15329,193;-1112,260
 451,88; 5102,667;15513,671;-2929,183
 452,47; 5443,930;16565,055;-2795,584
 453,06; 5540,588;16495,498;-2401,047
 453,65; 5299,257;16071,874;-2873,493
 454,24; 4714,689;17329,246;-2173,558
 454,84; 4115,958;17793,209;-1379,168
 455,43; 3751,350;18732,496;-2219,665
 456,02; 3368,281;18879,480;-2927,947
 456,61; 3114,619;17317,459;-2925,275
 457,20; 2966,985;16921,363;-2786,753
 457,79; 2813,512;17588,131;-2922,554
 458,38; 2501,877;18338,264;-2132,467
 458,97; 2542,665;18039,641;-2515,104
 459,56; 2434,044;18190,479;-2760,565
 460,16; 2264,521;17832,258;-2082,894
 460,75; 2279,894;18157,518;-2072,146
 461,34; 2192,208;18077,887;-2962,020
 461,93; 2095,431;18381,186;-2200,853
 462,52; 2154,827;19333,275;-2744,993
 463,11; 2089,109;20546,688;-1989,639
 463,70; 2207,784;19458,643;-2869,295
 464,29; 2305,204;19945,082;-3150,376
 464,88; 2537,524;20795,807;-2743,024
 465,47; 3011,540;19885,285;-2748,139
 466,06; 3498,010;20915,713;-3191,692
 466,65; 3627,932;21667,572;-3018,635
 467,24; 3297,612;22030,848;-2539,986
 467,84; 2896,887;22443,164;-2020,371
 468,43; 2530,829;22325,051;-2238,559
 469,02; 2450,362;23517,170;-2702,135
 469,61; 2437,652;24168,936;-2593,555
 470,20; 2285,779;23781,063;-2841,085
 470,79; 2080,510;22760,100;-3232,475
 471,38; 2081,230;25266,463;-2192,395
 471,97; 2131,435;26009,732; -666,983
 472,56; 2037,344;25472,887;-3035,376
 473,15; 1950,502;25296,975;-2825,135
 473,74; 1913,968;26395,854;-3106,559
 474,33; 1948,493;25866,848;-2957,796
 474,92; 1800,053;27630,348;-3146,391
 475,51; 1839,521;29609,002;-2873,380
 476,10; 1699,452;29847,986;-3011,662
 476,69; 1699,488;26101,268;-2855,586
 477,28; 1752,077;25846,955;-2956,845
 477,87; 1717,054;27035,121; -173,956
 478,46; 1694,801;28695,639;-3029,460
 479,05; 1634,392;30507,100;-2134,284
 479,64; 1648,097;31679,756;-2718,655
 480,23; 1648,437;29541,508;-2845,548
 480,82; 1550,165;28549,996;-2736,807
 481,41; 1579,674;29371,510;-1873,929
 482,00; 1559,225;29284,885;-1364,185
 482,59; 1529,283;29593,998;-2298,998
 483,18; 1537,707;31702,244;-2376,723
 483,77; 2049,242;31703,139;-2193,865
 484,36; 2558,521;32475,002;-1701,380
 484,95; 2467,566;32990,410; -788,643
 485,54; 2414,777;35331,031;-1371,006
 486,13; 2520,046;35762,996; -945,616
 486,72; 2530,123;34334,137;  148,326
 487,31; 2386,794;31046,285;-1109,686
 487,89; 2305,326;32608,633; -193,697
 488,48; 2174,023;33798,164;-1523,728
 489,07; 2102,263;32913,941;-1248,674
 489,66; 2045,276;33511,645;-1505,224
 490,25; 1908,745;31095,299; -660,212
 490,84; 1959,072;34127,375;-1683,635
 491,43; 1912,614;34965,621; -701,552
 492,02; 1716,751;36094,652;-1864,987
 492,61; 1614,412;35362,902;-1043,094
 493,20; 1685,872;33776,426;-2019,743
 493,79; 1584,347;32749,434; 4824,494
 494,38; 1582,609;33706,043;-1938,342
 494,97; 1548,788;32583,934; -629,911
 495,55; 1395,576;34690,309;-2325,548
 496,14; 1471,099;35087,531;-2403,220
 496,73; 1435,831;35451,566;-1952,609
 497,32; 1376,187;34211,570;-2587,182
 497,91; 1328,856;35005,949;-1921,629
 498,50; 1450,399;34165,195;-2912,544
 499,09; 1415,187;34554,570;-3088,182
 499,68; 1456,509;32403,070;-2405,396
 500,27; 1497,562;33321,605;-2490,999
 500,85; 1455,349;32655,207;-2604,071
 501,44; 1316,832;32478,342;-2576,175
 502,03; 1379,010;33194,457;-3368,178
 502,62; 1292,390;31275,068;-3438,205
 503,21; 1343,027;29432,711;-3532,858
 503,80; 1236,646;32028,100;-2976,831
 504,39; 1247,072;32451,119;-3458,121
 504,97; 1218,350;31774,982;-3577,636
 505,56; 1318,493;31537,590;-2979,281
 506,15; 1230,476;32302,336;-3991,602
 506,74; 1179,512;32557,617;-2945,526
 507,33; 1283,979;32185,498;-3165,949
 507,92; 1467,579;33952,859;-3871,678
 508,51; 1354,757;35926,973;-3735,682
 509,09; 1358,462;34536,629;-3921,053
 509,68; 1435,810;34318,508;-3748,286
 510,27; 1583,939;33667,410;-3799,381
 510,86; 1523,505;32572,264;-4081,751
 511,45; 1470,929;33677,512;-3843,476
 512,03; 1607,461;34524,855;-3829,488
 512,62; 1578,925;36240,961;-3780,346
 513,21; 1440,846;33870,789;-3186,209
 513,80; 1522,168;34644,289;-3501,423
 514,39; 1550,378;32752,137;-3905,221
 514,97; 1424,252;35347,781;-4095,255
 515,56; 1417,898;34167,551;-4198,248
 516,15; 1457,288;35428,063;-3955,179
 516,74; 1468,424;32584,318;-4420,049
 517,33; 1353,500;33459,688;-3549,542
 517,91; 1382,008;33935,426;-4188,099
 518,50; 1299,633;32563,393;-3264,282
 519,09; 1349,886;33942,875;-3157,778
 519,68; 1313,591;35231,531;-4286,148
 520,26; 1224,542;38679,547;-4232,675
 520,85; 1191,719;39452,660;-4352,679
 521,44; 1141,357;40826,078;-4358,897
 522,03; 1082,066;39485,539;-4271,912
 522,61; 1096,357;36773,078;-4364,897
 523,20; 1079,189;33924,090;-4337,233
 523,79; 1049,748;32040,590;-4337,828
 524,38; 1024,416;32850,191;-4344,709
 524,96;  974,891;35883,199;-4321,473
 525,55;  981,671;36021,449;-4542,771
 526,14;  957,232;34018,723;-4434,931
 526,73;  959,120;32852,074;-4389,515
 527,31;  978,781;32903,324;-4488,622
 527,90;  927,671;33630,449;-4564,771
 528,49;  946,280;34155,938;-2529,839
 529,08;  888,325;34601,344;-3467,103
 529,66;  930,433;34848,445;-3911,389
 530,25;  910,934;35279,832;-4414,172
 530,84;  937,562;35334,348;-4583,485
 531,42;  938,495;38583,105;-4365,332
 532,01;  883,046;37528,480;-4291,588
 532,60;  807,683;34512,125;-4473,241
 533,18;  841,070;35538,086;-4078,042
 533,77;  870,724;34969,984;-4236,374
 534,36;  886,096;34459,469;-4374,061
 534,95;  855,690;35483,477;-4088,015
 535,53;  904,307;34236,090; -974,424
 536,12;  866,130;36469,977;-2657,420
 536,71;  869,147;36511,230;-3869,099
 537,29;  829,005;36073,621;-3618,454
 537,88;  951,357;33908,078;-3454,897
 538,47;  864,428;32497,867;-2840,180
 539,05;  909,741;36837,238;-2139,054
 539,64;  936,803;40414,898;-1785,997
 540,22;  915,836;37414,633; -764,790
 540,81;  942,201;37501,766; 1008,297
 541,40;  998,598;39018,629; 3425,591
 541,98;  919,385;38188,230; 4858,519
 542,57; 1001,130;39368,977; 4597,580
 543,16;  967,411;38645,613; 4952,500
 543,74;  988,927;35774,480; 4083,603
 544,33;  999,734;36297,883; 3620,721
 544,92;  980,972;37217,887; 3973,339
 545,50; 1035,521;37338,488;11456,648
 546,09; 1024,299;40064,965;11359,916
 546,67; 1023,350;41948,727; 2857,878
 547,26; 1024,426;40050,094; -202,615
 547,85;  940,550;39208,414; -567,501
 548,43;  929,242;38452,625; -849,836
 549,02;  935,335;39427,246;-1040,008
 549,60;  963,471;40570,500; -984,878
 550,19;  937,674;41166,996;-2192,901
 550,78;  949,141;42660,875;-2328,325
 551,36;  930,464;45349,148;-2432,104
 551,95;  900,953;45443,859; -585,416
 552,53;  906,523;43280,262; -296,916
 553,12;  944,643;41420,035;-3431,672
 553,70;  934,796;43188,547;-2878,222
 554,29;  956,624;44058,008;-2869,428
 554,88;  955,449;41831,668;-4247,989
 555,46; 1007,049;43723,027;-3881,718
 556,05; 1001,063;45007,734;-4207,268
 556,63; 1011,879;45206,266;-3396,489
 557,22; 1103,733;43875,109;-3394,714
 557,80; 1041,963;41749,762;-3568,321
 558,39; 1218,573;44188,250;-4145,390
 558,97; 1110,853;47993,887;-3699,470
 559,56; 1192,633;49889,137;-4544,768
 560,15; 1174,209;50117,891;-3611,042
 560,73; 1106,939;49814,152;-4287,867
 561,32; 1145,292;47024,609;-3741,309
 561,90; 1091,635;46041,910;-4382,333
 562,49; 1123,344;48487,371;-3786,348
 563,07; 1078,294;48074,387;-4783,875
 563,66; 1000,514;50064,133;-4352,577
 564,24; 1100,108;49228,145;-4763,531
 564,83; 1154,211;51344,664;-4603,607
 565,41; 1238,462;53840,375;-4329,539
 566,00; 1329,652;52202,164;-2755,012
 566,58; 1451,581;56465,375;-3725,729
 567,17; 1657,946;56909,508;-4280,642
 567,75; 1905,665;52392,871;-4653,562
 568,34; 2206,676;55893,770;-3216,466
 568,92; 2667,220;55738,793;-3987,947
 569,51; 2648,447;54852,895; 2680,576
 570,09; 2328,769;58247,391;-4676,638
 570,68; 2126,204;53188,313;-4788,833
 571,26; 2085,216;50733,242;-3886,817
 571,85; 2142,301;57347,738;-4822,649
 572,43; 1871,819;57011,379;-4704,111
 573,01; 1466,700;52662,375;-4873,920
 573,60; 1291,862;53819,012;-3785,810
 574,18; 1177,523;55122,262;-4514,917
 574,77; 1102,591;53284,277;-4737,634
 575,35; 1064,862;56113,012;-4452,810
 575,94; 1036,557;57300,770;-4076,275
 576,52;  997,998;54049,270;-2249,680
 577,11;  952,017;51620,297;-3244,924
 577,69;  895,390;48685,555;-3183,176
 578,27;  886,674;51008,996;-3447,901
 578,86;  871,677;55198,543;-2994,031
 579,44;  886,268;60080,004;-2805,855
 580,03;  921,752;60164,137;-2493,958
 580,61;  969,235;60267,270;-3206,062
 581,19;  919,380;56429,652;-2538,271
 581,78;  887,645;55361,813;-2364,238
 582,36;  836,168;57656,031;-2911,909
 582,95;  828,127;56180,172;-1497,776
 583,53;  854,202;59586,539;-2319,268
 584,11;  915,616;61608,883;-2241,088
 584,70;  915,855;61691,660;-1948,035
 585,28;  893,363;62070,398;-1853,592
 585,87;  853,941;60436,930;-2889,432
 586,45;  869,677;63023,543;-2375,031
 587,03;  853,500;64945,430;-1150,027
 587,62;  923,430;61494,641;-1834,745
 588,20; 1218,304;62236,285;-1020,779
 588,78; 1628,782;58157,840;-3411,673
 589,37; 1589,998;57765,270;-3360,680
 589,95; 1039,795;62238,773;-3385,657
 590,54;  845,321;63633,539;-3461,459
 591,12;  852,373;62116,301;-3508,497
 591,70;  866,982;59586,789;-3331,565
 592,29;  928,051;62881,805;-2923,283
 592,87;  889,462;63542,375;-2394,538
 593,45;  851,932;63404,801; 1487,908
 594,04;  836,433;62800,188;-3676,875
 594,62;  881,635;59709,910;-3708,333
 595,20;  830,832;62066,828;-4371,146
 595,79;  872,185;62681,285;-4165,588
 596,37;  881,390;61108,555;-3657,176
 596,95;  857,770;56922,164;-4321,203
 597,53;  839,676;58806,770;-4226,466
 598,12;  683,466;61848,922;-3959,669
 598,70;  843,846;64932,531;-3776,695
 599,28;  892,462;64911,375;-3404,538
 599,87;  825,270;64929,777;-3061,420
 600,45;  822,779;64938,293;-3907,543
 601,03;  783,507;63145,781;-4100,802
 601,62;  825,433;61727,188;-4468,875
 602,20;  832,313;59786,414;-4541,119
 602,78;  832,137;64399,070;-4770,680
 603,36;  839,492;64783,301;-3166,688
 603,95;  866,591;58863,277;-4492,634
 604,53;  847,948;62401,281;-4574,207
 605,11;  874,285;59505,258;-2755,535
 605,69;  878,177;62362,156;-3365,249
 606,28;  860,051;62594,805;-4223,283
 606,86;  877,025;61629,422;-3946,264
 607,44;  827,796;60431,547;-3906,222
 608,02;  770,170;58047,805;-4037,474
 608,61;  833,449;60099,668;-2866,989
 609,19;  834,788;58582,418;-2582,882
 609,77;  854,906;57398,422; -710,073
 610,35;  808,863;55748,785; 5794,625
 610,94;  831,703;56509,926;14509,949
 611,52;  855,449;55803,668;12610,011
 612,10;  785,079;53026,957; 8432,133
 612,68;  717,366;56637,949; 2694,278
 613,26;  768,271;57037,551; 2032,015
 613,85;  791,822;61759,926; -599,241
 614,43;  769,109;62306,918;-1030,096
 615,01;  769,264;62272,199;-1215,211
 615,59;  747,511;64874,328; -972,932
 616,17;  751,142;59402,648;-2561,890
 616,76;  806,853;62178,887;-2993,470
 617,34;  916,199;62666,988;-2389,138
 617,92;  806,676;58547,770;-3399,466
 618,50;  868,380;61202,652;-2562,271
 619,08;  919,287;57928,031;-2514,100
 619,67;  967,652;55968,164;-3196,012
 620,25; 1023,430;54290,641;-2743,745
 620,83;  996,779;50498,293;-3495,543
 621,41; 1032,695;52314,797;-2800,711
 621,99; 1041,686;54560,672;-2529,371
 622,57; 1232,870;55529,141;-3707,149
 623,15; 1299,294;56213,387;-3783,875
 623,74; 1506,013;58266,746;-3892,794
 624,32; 1586,607;59330,754;-2827,749
 624,90; 1615,922;58625,898;-2311,188
 625,48; 1643,118;57897,043;-3132,436
 626,06; 1665,769;56898,391;-4006,638
 626,64; 1460,268;57787,004;-4162,855
 627,22; 1364,455;58993,020;-3409,764
 627,81; 1254,208;58046,117;-4334,478
 628,39; 1231,227;57121,145;-4560,722
 628,97; 1231,898;56597,293;-4437,733
 629,55; 1110,132;55377,750;-4219,985
 630,13; 1141,235;55669,270;-2959,062
 630,71; 1080,328;54162,891;-2747,233
 631,29; 1065,591;53129,277;-3824,634
 631,87;  967,827;52776,504;-4223,451
 632,45;  940,142;52786,648;-4716,890
 633,03;  901,352;54183,500;-4191,688
 633,62;  798,948;55423,281;-4714,207
 634,20;  853,245;54882,172;-4089,966
 634,78;  813,912;56497,000;-4430,283
 635,36;  799,905;56701,648;-4449,508
 635,94;  830,175;55183,383;-5398,684
 636,52;  792,667;51027,645;-5422,126
 637,10;  735,770;52116,164;-5488,203
 637,68;  694,490;50694,527;-4702,123
 638,26;  722,251;47618,750;-5536,176
 638,84;  684,159;48688,902;-5421,569
 639,42;  649,770;49235,164;-3756,203
 640,00;  631,224;51366,148;-5405,726
 640,58;  697,001;54579,402;-4806,027
 641,16;  660,778;55521,656;-5571,328
 641,74;  625,555;53214,906;-5433,630
 642,32;  573,332;50106,160;-5620,931
 642,90;  578,109;50434,414;-5856,232
 643,48;  578,886;49231,668;-5786,534
 644,06;  630,663;49280,922;-5796,835
 644,64;  610,440;49595,176;-5842,137
 645,22;  484,216;50513,430;-5562,438
 645,80;  526,993;50547,684;-4957,740
 646,39;  532,770;48107,938;-5515,041
 646,97;  494,547;49773,191;-5850,342
 647,54;  572,324;52328,441;-5717,644
 648,12;  519,101;54879,695;-5865,945
 648,70;  578,878;58954,949;-5885,247
 649,28;  489,655;56421,203;-6090,548
 649,86;  512,432;51091,457;-5609,850
 650,44;  545,209;48619,711;-5452,151
 651,02;  541,986;49970,965;-5474,452
 651,60;  419,763;51793,219;-5803,753
 652,18;  527,540;51320,473;-4735,055
 652,76;  524,317;53277,723;-5934,356
 653,34;  501,094;54817,977;-5939,658
 653,92;  524,871;57729,230;-5784,959
 654,50;  525,648;59042,484;-5818,261
 655,08;  595,425;58048,738;-5841,562
 655,66;  538,202;55058,992;-5115,863
 656,24;  521,979;56743,246;-5200,165
 656,82;  641,756;58989,500;-4979,466
 657,40;  546,533;58967,754;-5667,768
 657,98;  533,310;60169,008;-5486,069
 658,56;  508,087;61114,258;-5717,371
 659,14;  597,863;61380,512;-5913,672
 659,72;  633,640;63381,766;-5916,973
 660,29;  556,417;62437,020;-5907,275
 660,87;  563,194;59738,273;-5212,576
 661,45;  540,971;58590,527;-5664,877
 662,03;  483,748;57513,781;-4971,179
 662,61;  443,525;54945,035;-5638,480
 663,19;  484,302;54618,289;-5657,782
 663,77;  472,079;53917,543;-5939,083
 664,35;  452,856;56689,793;-5887,384
 664,93;  513,633;62595,047;-4922,686
 665,51;  403,410;61993,301;-6033,987
 666,08;  458,187;57747,555;-5652,289
 666,66;  409,964;51859,809;-4400,590
 667,24;  477,741;49420,063;-5952,892
 667,82;  442,518;50250,316;-5849,193
 668,40;  473,295;50723,570;-5932,494
 668,98;  514,072;51952,824;-5097,796
 669,56;  599,849;57957,078;-6096,097
 670,13;  607,626;61797,328;-6222,398
 670,71;  562,403;59698,582;-5900,700
 671,29;  489,180;57209,836;-6139,001
 671,87;  441,957;56814,090;-6051,303
 672,45;  466,734;51822,344;-6050,604
 673,03;  500,510;52592,598;-4769,906
 673,60;  435,287;58431,852;-3503,207
 674,18;  453,064;63679,105;-5938,508
 674,76;  460,841;61159,359;-6226,810
 675,34;  463,618;56361,613;-5251,111
 675,92;  416,395;55284,863;-6338,413
 676,50;  441,172;55051,117;-6085,714
 677,07;  409,949;56952,371;-6095,016
 677,65;  441,726;56680,625;-6163,317
 678,23;  439,503;55997,879;-5057,618
 678,81;  421,280;58016,133;-5299,919
 679,38;  434,057;56669,387;-5969,221
 679,96;  459,834;53267,641;-5846,522
 680,54;  471,611;55171,895;-5308,824
 681,12;  426,388;52485,148;-6126,125
 681,70;  415,165;54786,398;-4413,427
 682,27;  487,942;54740,652;-5851,728
 682,85;  456,719;58265,906;-5991,029
 683,43;  508,496;64943,160;-6140,331
 684,01;  531,273;64943,414;-5172,632
 684,58;  538,050;64307,668;-5138,934
 685,16;  585,827;64236,922;-4494,235
 685,74;  556,604;62790,176;-3853,536
 686,32;  506,381;59009,430;-6012,838
 686,89;  537,157;59552,684;-6015,139
 687,47;  506,934;59534,934;-6076,441
 688,05;  444,711;56416,188;-6019,742
 688,63;  487,488;59626,441;-6102,043
 689,20;  468,265;62884,695;-5971,345
 689,78;  496,042;58427,949;-5530,646
 690,36;  496,819;54291,203;-5381,948
 690,93;  455,596;54968,457;-6355,249
 691,51;  510,373;61453,711;-6326,550
 692,09;  503,150;64946,965;-6223,852
 692,67;  486,927;64947,219;-6047,153
 693,24;  488,704;60968,469;-5803,455
 693,82;  496,481;59538,723;-6235,756
 694,40;  501,258;58049,977;-3570,058
 694,97;  524,035;57456,230;-6046,359
 695,55;  471,812;59820,484;-5464,660
 696,13;  566,589;61729,738;-4454,962
 696,70;  536,366;58594,992;-6029,263
 697,28;  490,143;59108,246;-6266,564
 697,86;  493,920;60837,500;-6030,866
 698,43;  505,697;58827,754;-6198,167
 699,01;  542,474;55595,004;-6051,469
 699,59;  667,251;55751,258;-6402,770
 700,16;  654,028;54174,512;-5257,072
 700,74;  697,805;57040,766;-5497,373
 701,32;  755,581;56440,020;-6233,674
 701,89;  900,358;55792,273;-6049,976
 702,47; 1110,135;60296,527;-6466,277
 703,05; 1367,912;64951,781;-6309,579
 703,62; 1613,689;64952,035;-6227,880
 704,20; 1638,466;64952,285;-5306,182
 704,77; 1492,243;64952,539;-6118,483
 705,35; 1389,020;64213,793;-6006,784
 705,93; 1151,797;64327,047;-4922,085
 706,50; 1022,574;63796,301;-5267,387
 707,08;  817,351;60606,555;-5284,688
 707,65;  664,128;60046,809;-5620,990
 708,23;  631,905;64881,063;-5431,292
 708,81;  513,682;64954,316;-5019,593
 709,38;  538,459;64954,570;-5001,894
 709,96;  472,236;64954,820;-6025,195
 710,53;  487,013;64955,074;-6007,497
 711,11;  492,790;61503,328;-5752,798
 711,69;  455,567;61913,582;-3821,100
 712,26;  400,344;59012,836;-4642,401
 712,84;  407,121;63346,090;-5947,703
 713,41;  409,898;64411,344;-6153,004
 713,99;  398,675;64924,598;-6068,305
 714,56;  374,452;62057,852;-6326,607
 715,14;  380,228;60312,105;-6198,908
 715,71;  388,005;60246,355;-6210,209
 716,29;  426,782;62893,609;-6648,511
 716,86;  345,559;63573,863;-6510,813
 717,44;  381,336;63263,117;-6424,114
 718,02;  368,113;62110,371;-6462,415
 718,59;  321,890;61013,625;-5121,716
 719,17;  324,667;63488,879;-5649,018
 719,74;  364,444;62907,133;-5756,319
 720,32;  294,221;63502,387;-6451,621
 720,89;  336,998;64959,641;-6422,922
 721,47;  281,775;64959,891;-6388,224
 722,04;  337,552;64960,145;-5502,525
 722,62;  343,329;64252,398;-3979,826
 723,19;  312,106;60250,652;-4938,128
 723,77;  302,883;57638,906;-5673,429
 724,34;  333,660;60150,160;-5576,730
 724,92;  327,437;63789,414;-6558,032
 725,49;  340,214;64961,668;-5666,333
 726,07;  333,991;64961,922;-6491,635
 726,64;  363,768;64627,176;-6587,936
 727,21;  348,545;60249,426;-5627,238
 727,79;  275,322;63706,680;-6444,539
 728,36;  314,099;64962,934;-6722,840
 728,94;  362,875;64963,188;-6535,142
 729,51;  313,652;64963,441;-6365,443
 730,09;  337,429;64963,695;-5545,745
 730,66;  353,206;64963,949;-6358,046
 731,24;  305,983;64964,203;-6577,348
 731,81;  358,760;64964,457;-5151,649
 732,38;  351,537;64964,711;-6492,950
 732,96;  315,314;64964,961;-6263,251
 733,53;  393,091;60347,215;-6389,553
 734,11;  347,868;61575,469;-6617,854
 734,68;  365,645;64965,723;-6211,156
 735,26;  364,422;64965,977;-6389,458
 735,83;  366,199;64966,230;-6498,759
 736,40;  354,976;62243,484;-6516,060
 736,98;  337,753;61999,738;-6374,361
 737,55;  340,530;59236,992;-5827,663
 738,13;  310,307;57707,246;-5702,964
 738,70;  305,084;60991,496;-5529,266
 739,27;  316,861;62504,750;-6452,567
 739,85;  322,638;62745,004;-6283,869
 740,42;  365,415;64968,258;-6464,170
 740,99;  384,192;64968,512;-5618,471
 741,57;  397,969;64968,766;-4867,773
 742,14;  403,746;64969,020;-5349,074
 742,72;  358,523;64969,273;-4751,375
 743,29;  307,299;64969,527;-6563,677
 743,86;  415,076;64969,781;-6538,979
 744,44;  431,853;64970,031;-6113,280
 745,01;  440,630;64970,285;-5760,581
 745,58;  415,407;64970,539;-6259,882
 746,16;  456,184;64970,793;-6188,184
 746,73;  483,961;64971,047;-6479,485
 747,30;  461,738;61139,301;-6536,787
 747,88;  460,515;59621,555;-5621,088
 748,45;  531,292;64971,809;-5668,390
 749,02;  478,069;64972,063;-6384,691
 749,60;  465,846;62401,313;-6212,992
 750,17;  468,623;61766,566;-5269,294
 750,74;  463,400;62801,820;-6479,595
 751,31;  423,177;63306,074;-6347,896
 751,89;  459,954;64232,328;-6546,198
 752,46;  447,731;64973,582;-6282,500
 753,03;  437,508;64973,836;-6160,801
 753,61;  450,285;63755,090;-4858,102
 754,18;  362,062;64573,344;-6434,404
 754,75;  360,839;63888,598;-5191,705
 755,32;  386,616;60715,848;-6332,006
 755,90;  351,393;64975,102;-6493,308
 756,47;  377,170;64975,355;-4809,609
 757,04;  382,946;64975,609;-6457,911
 757,61;  350,723;64975,863;-5553,212
 758,19;  351,500;64976,117;-5253,514
 758,76;  333,277;64976,371;-6603,815
 759,33;  340,054;64976,625;-6664,116
 759,90;  342,831;64976,879;-5714,417
 760,48;  286,608;64977,133;-6778,719
 761,05;  323,385;64977,383;-6083,021
 761,62;  318,162;62082,637;-4888,322
 762,19;  320,939;58992,891;-6144,624
 762,77;  312,716;61730,145;-5963,925
 763,34;  296,493;64978,398;-6610,226
 763,91;  280,270;64978,652;-5818,527
 764,48;  294,047;64978,906;-6756,829
 765,05;  322,824;64979,160;-6543,130
 765,63;  340,601;63215,414;-6417,432
 766,20;  414,378;59753,668;-6004,733
 766,77;  346,155;57105,918;-5921,035
 767,34;  272,932;58807,172;-6640,336
 767,91;  265,709;59176,426;-6689,637
 768,49;  286,486;61368,680;-6772,939
 769,06;  279,263;64980,934;-5832,240
 769,63;  335,040;62272,188;-6636,542
 770,20;  355,817;59567,441;-5868,843
 770,77;  226,593;57921,695;-5645,145
 771,34;  250,370;60065,949;-6615,446
 771,91;  277,147;60549,203;-6102,747
 772,49;  306,924;58558,453;-6369,048
 773,06;  264,701;57687,707;-6203,350
 773,63;  234,478;60204,961;-6639,651
 774,20;  274,255;58197,215;-5918,953
 774,77;  319,032;56475,469;-6631,254
 775,34;  251,809;56707,723;-6214,556
 775,91;  338,586;57056,977;-6417,857
 776,49;  433,363;58787,230;-6590,158
 777,06;  471,140;60761,484;-6015,460
 777,63;  423,917;64224,738;-6367,761
 778,20;  301,694;62572,988;-6250,063
 778,77;  309,471;63316,242;-5763,364
 779,34;  224,248;64985,496;-6585,666
 779,91;  275,025;64985,750;-6534,967
 780,48;  211,802;59144,004;-5853,268
 781,05;  218,579;50716,258;-6586,570
 781,62;  302,356;52124,512;-6604,871
 782,20;  237,133;58813,766;-6500,172
 782,77;  256,910;64987,020;-6529,474
 783,34;  278,687;64052,273;-6522,775
 783,91;  266,464;61362,523;-6509,077
 784,48;  204,241;60480,777;-2126,378
 785,05;  261,017;59144,031;-6540,680
 785,62;  226,794;58221,285;-6452,981
 786,19;  307,571;58149,539;-5100,282
 786,76;  249,348;55130,793;-6677,583
 787,33;  268,125;56202,047;-6515,885
 787,90;  238,902;59491,301;-6591,187
 788,47;  225,679;60148,555;-5075,488
 789,04;  241,456;58988,809;-5763,790
 789,61;  244,233;58863,059;-5066,091
 790,18;  218,010;55747,313;-6561,392
 790,75;  236,787;50841,566;-6671,693
 791,32;  258,564;52056,820;-6577,995
 791,89;  194,341;55205,074;-6068,296
 792,46;  229,118;60806,328;-5763,598
 793,03;  227,895;62404,582;-6702,899
 793,60;  185,672;55699,836;-6440,201
 794,17;  238,449;52257,090;-5569,502
 794,74;  244,226;47273,344;-5886,803
 795,31;  219,003;50096,594;-6099,105
 795,88;  160,780;52579,848;-5572,406
 796,45;  143,557;53365,102;-6529,708
 797,02;  197,334;56004,355;-5046,009
 797,59;  200,111;57922,609;-6675,311
 798,16;  225,888;54563,863;-5861,612
 798,73;  176,664;53534,117;-6761,913
 799,30;  143,441;55088,371;-6611,214
 799,87;  130,218;55650,625;-6713,516
 800,44;  171,995;55353,875;-6729,817
 801,01;  188,772;56836,129;-6807,119
 801,58;  181,549;58477,383;-6537,420
 802,15;  197,326;52086,637;-6658,722
 802,72;  154,103;48849,891;-6694,023
 803,28;  178,880;52000,145;-6076,324
 803,85;  161,657;57179,398;-6728,626
 804,42;  227,434;55235,652;-5999,927
 804,99;  129,211;53752,906;-6539,229
 805,56;  127,988;52472,160;-6770,530
 806,13;  145,765;53387,410;-6075,832
 806,70;  167,542;52719,664;-6748,133
 807,27;  144,319;54477,918;-6672,434
 807,84;  131,096;52786,172;-6693,736
 808,41;  163,873;49728,426;-6022,037
 808,98;  184,650;50479,680;-5986,338
 809,54;  149,427;52469,934;-4958,640
 810,11;  128,204;48281,188;-6782,941
 810,68;  170,981;43021,441;-6680,243
 811,25;  119,758;41394,695;-6760,544
 811,82;  159,535;40374,945;-6886,846
 812,39;  142,311;37710,199;-3331,147
 812,96;  171,088;38779,453;-6767,448
 813,52;  176,865;41291,707;-6937,750
 814,09;  154,642;44522,961;-6766,051
 814,66;  140,419;50325,215;-6827,353
 815,23;  124,196;51240,469;-6669,654
 815,80;  123,973;50439,723;-5853,956
 816,37;  122,750;50917,977;-6801,257
 816,93;   99,527;49487,230;-6731,558
 817,50;  164,304;46790,480;-6102,859
 818,07;  158,081;46034,734;-6960,161
 818,64;  181,858;46919,988;-6856,462
 819,21;  161,635;46261,242;-6053,764
 819,77;  209,412;42742,496;-6571,065
 820,34;  170,189;42053,750;-6677,367
 820,91;  196,966;43276,004;-6469,668
 821,48;  194,743;43873,258;-6689,969
 822,05;  230,520;45571,512;-5875,271
 822,61;  210,297;44296,766;-5631,572
 823,18;  194,074;41860,016;-6620,874
 823,75;  155,851;42585,270;-6957,175
 824,32;  138,628;45286,523;-6923,477
 824,88;  194,405;45073,777;-6882,778
 825,45;  162,182;44018,031;-6899,079
 826,02;  163,958;43798,285;-6643,380
 826,59;  164,735;43974,539;-6639,682
 827,15;  131,512;46077,793;-6906,983
 827,72;  109,289;49519,047;-6723,285
 828,29;   87,066;51523,301;-6895,586
 828,86;   91,843;48827,551;-6791,888
 829,42;  136,620;40797,805;-6812,189
 829,99;  117,397;36802,059;-6647,490
 830,56;  132,174;36252,313;-6869,792
 831,13;  114,951;37220,566;-6060,093
 831,69;  137,728;38022,820;-6506,395
 832,26;  111,505;38832,074;-5062,696
 832,83;   86,282;40408,328;-5452,998
 833,39;  167,059;40187,582;-6904,299
 833,96;  212,836;39167,836;-6687,600
 834,53;  135,613;40039,086;-6928,902
 835,10;  108,390;39930,340;-6529,203
 835,66;  110,167;38972,594;-6920,504
 836,23;  135,944;39801,848;-6803,806
 836,80;   92,721;39428,102;-6790,107
 837,36;  136,498;37086,355;-6810,409
 837,93;  118,275;34475,609;-6902,710
 838,50;  227,052;35084,863;-6789,012
 839,06;  135,829;37684,117;-6288,313
 839,63;   98,606;37191,371;-6895,614
 840,19;   98,382;35132,621;-6607,916
 840,76;   93,159;35364,875;-6404,217
 841,33;   88,936;35892,129;-6509,519
 841,89;  123,713;36779,383;-6949,820
 842,46;   94,490;37103,637;-6751,122
 843,03;   90,267;35389,891;-6089,423
 843,59;   78,044;34224,145;-6403,724
 844,16;  125,821;34994,398;-6181,025
 844,73;  138,598;34249,652;-6067,327
 845,29;  114,375;32937,902;-5695,628
 845,86;  112,152;35699,156;-6800,930
 846,42;   87,929;36940,410;-7004,231
 846,99;   87,706;36477,664;-6967,533
 847,56;  103,483;36265,918;-5840,834
 848,12;   87,260;36240,172;-6745,135
 848,69;   84,037;35710,426;-6715,437
 849,25;   81,814;34401,680;-6845,738
 849,82;   71,591;34081,934;-3247,040
 850,38;   83,368;35064,188;-6840,341
 850,95;   65,145;32489,439;-6324,643
 851,52;   51,922;32520,693;-6565,944
 852,08;   58,699;32548,947;-6691,245
 852,65;   35,476;30323,199;-7005,546
 853,21;   61,253;27698,453;-6958,848
 853,78;   46,029;27362,707;-6363,149
 854,34;   52,806;28860,961;-6871,451
 854,91;   32,583;29081,215;-5086,752
 855,47;   64,360;29942,467;-5108,054
 856,04;   77,137;32027,721;-6746,355
 856,60;   81,914;33961,973;-6104,656
 857,17;   76,691;34979,227;-6840,958
 857,73;   88,468;33553,480;-6811,259
 858,30;   54,245;32532,734;-6985,561
 858,86;   99,022;31110,988;-5926,862
 859,43;   58,799;31430,242;-6226,164
 859,99;   72,576;32011,496;-6852,465
 860,56;   60,353;33126,750;-6903,766
 861,12;   45,130;35190,004;-6737,068
 861,69;   62,907;33669,258;-5924,369
 862,25;  120,684;34731,508;-6821,670
 862,82;   55,461;34419,762;-5972,972
 863,38;   87,238;31196,018;-6843,273
 863,95;   66,015;29305,270;-6239,575
 864,51;  102,792;30403,523;-5287,876
 865,08;  115,569;29284,777;-6090,178
 865,64;   64,346;26795,031;-7018,479
 866,21;   86,123;26131,285;-6745,780
 866,77;   95,900;26051,537;-5552,082
 867,34;   89,676;25734,791;-6672,383
 867,90;  122,453;24632,045;-6303,685
 868,46;  106,230;23835,299;-6041,986
 869,03;   51,007;24389,551;-6929,288
 869,59;  105,784;26353,805;-6884,589
 870,16;   68,561;27647,059;-6052,890
 870,72;   81,338;30060,313;-6657,191
 871,28;   77,115;32915,566;-5992,493
 871,85;  148,892;33142,820;-6907,794
 872,41;   64,669;31569,072;-6004,096
 872,98;   29,446;32738,326;-6050,397
 873,54;   34,223;33876,578;-5920,699
 874,10;  138,000;32768,832;-5876,000
 874,67;   72,000;32987,832;-6904,000
 875,23;   48,000;31068,834;-7032,000
 875,80;   58,000;28009,834;-6641,000
 876,36;   25,000;25058,834;-6642,000
 876,92;   47,000;22832,834;-6189,000
 877,49;   96,000;23923,834;-6517,000
 878,05;   92,000;24896,834;-6797,000
 878,61;   59,000;26938,834;-6812,000
 879,18;   54,000;27553,834;-6252,000
 879,74;   45,000;28076,834;-6720,000
 880,30;   56,000;28679,834;-5926,000
 880,87;   26,000;28852,834;-6326,000
 881,43;   41,000;29533,834;-6871,000
 881,99;   55,000;27306,834;-6879,000
 882,56;   32,000;27610,834;-6661,000
 883,12;   26,000;29049,834;-5740,000
 883,68;   59,000;29120,834;-6518,000
 884,25;   36,000;28300,834;-6949,000
 884,81;   19,000;26343,834;-6701,000
 885,37;   38,000;24221,834;-6786,000
 885,94;   65,000;22940,834;-6851,000
 886,50;  101,000;23098,834;-6886,000
 887,06;   -2,000;24358,834;-6796,000
 887,62;   45,000;25019,834;-6866,000
 888,19;   23,000;25774,834;-5986,000
 888,75;   38,000;26542,834;-6821,000
 889,31;   64,000;29043,834;-6778,000
 889,87;   33,000;30537,834;-6723,000
 890,44;   70,000;30349,834;-6696,000
 891,00;   19,000;28757,834;-6786,000
 891,56;   37,000;26457,834;-6998,000
 892,12;   70,000;24463,834;-6754,000
 892,69;   64,000;25310,834;-6373,000
 893,25;   23,000;28798,834;-6877,000
 893,81;   43,000;31774,834;-6696,000
 894,37;   84,000;31330,834;-6342,000
 894,94;   57,000;28713,834;-6772,000
 895,50;   36,000;26035,834; -212,000
 896,06;   47,000;24749,834;-6810,000
 896,62;   75,000;23405,834;-6707,000
 897,18;   78,000;24661,834;-6518,000
 897,75;   86,000;27406,834;-6895,000
 898,31;   82,000;27887,834;-6849,000
 898,87;   37,000;26274,834;-6860,000
 899,43;   43,000;25164,834;-6469,000
 899,99;   39,000;26592,834;-6866,000
 900,56;   41,000;25515,834;-6791,000
 901,12;    3,000;24875,834;-6890,000
 901,68;   50,000;27903,834;-6267,000
 902,24;   73,000;31800,834;-5930,000
 902,80;    3,000;32652,834;-6794,000
 903,36;   72,000;31893,834;-6691,000
 903,93;  107,000;32139,834;-6646,000
 904,49;  167,000;32761,834;-6913,000
 905,05;  272,000;30952,834;-6732,000
 905,61;  509,000;28208,834;-6832,000
 906,17;  966,000;28086,834;-6901,000
 906,73; 1427,000;25975,834;-5380,000
 907,29; 2013,000;24960,834;-6910,000
 907,86; 2424,000;25118,834;-6827,000
 908,42; 2552,000;28092,834;-6795,000
 908,98; 2281,000;31123,834;-5908,000
 909,54; 1369,000;38813,832;-6885,000
 910,10;  610,000;48220,832;-6634,000
 910,66;  190,000;57581,832;-6781,000
 911,22;  136,000;65027,832;-6761,000
 911,78;   46,000;62593,832;-6841,000
 912,34;   14,000;53256,832;-6080,000
 912,90;   75,000;44610,832;-5232,000
 913,46;   35,000;37052,832;-6876,000
 914,03;   14,000;30620,834;-5746,000
 914,59;   31,000;27452,834;-6682,000
 915,15;   23,000;24908,834;-6891,000
 915,71;   -7,000;24217,834;-6863,000
 916,27;   29,000;23800,834;-6723,000
 916,83;   67,000;23006,834;-5824,000
 917,39;   59,000;21742,834;-3512,000
 917,95;   29,000;20224,834;-6009,000
 918,51;   14,000;19972,834;-6583,000
 919,07;   52,000;21780,834;-6791,000
 919,63;   -9,000;23295,834;-6661,000
 920,19;  -23,000;23935,834;-6865,000
 920,75;    8,000;23112,834;-6640,000
 921,31;   19,000;21484,834;-4837,000
 921,87;   46,000;20216,834;-6845,000
 922,43;  -11,000;18019,834;-5626,000
 922,99;   64,000;17321,834;-6706,000
 923,55;   50,000;18674,834;-6655,000
 924,11;   31,000;19094,834;-6976,000
 924,67;   43,000;19310,834;-6962,000
 925,23;   36,000;19485,834;-6778,000
 925,79;   34,000;20122,834;-6710,000
 926,35;   75,000;20219,834;-6573,000
 926,91;   39,000;19401,834;-6909,000
 927,47;   23,000;19367,834;-6660,000
 928,03;   80,000;20294,834;-6786,000
 928,59;   45,000;20503,834;-6678,000
 929,15;   83,000;20781,834;-6792,000
 929,71;   45,000;22016,834;-6840,000
 930,27;   79,000;23587,834;-6537,000
 930,82;   78,000;25573,834;-6728,000
 931,38;   12,000;24317,834;-5852,000
 931,94;   17,000;22672,834;-6843,000
 932,50;   36,000;21252,834;-6481,000
 933,06;   35,000;20895,834;-6768,000
 933,62;   15,000;21092,834;-6443,000
 934,18;   20,000;20632,834;-6727,000
 934,74;    2,000;21320,834;-6709,000
 935,30;   48,000;22030,834;-6484,000
 935,86;   47,000;21213,834;-6505,000
 936,42;   21,000;20702,834;-6873,000
 936,97;   20,000;21656,834;-6563,000
 937,53;   21,000;20552,834;-6826,000
 938,09;   62,000;21087,834;  123,000
 938,65;   27,000;21186,834;-6268,000
 939,21;   -4,000;20179,834;-6708,000
 939,77;   22,000;18946,834;-6213,000
 940,33;   32,000;18602,834;-6748,000
 940,88;    1,000;19429,834;-5908,000
 941,44;   31,000;21301,834;-6983,000
 942,00;  -10,000;23225,834;-6697,000
 942,56;   17,000;24231,834;-6604,000
 943,12;   22,000;23427,834;-5907,000
 943,68;   46,000;22950,834;-5679,000
 944,23;   41,000;23124,834;-6749,000
 944,79;   29,000;22674,834;-6102,000
 945,35;  -16,000;20741,834;-6599,000
 945,91;   25,000;19519,834;-6767,000
 946,47;   15,000;19827,834;-3353,000
 947,03;   22,000;19896,834;-6850,000
 947,58;   -4,000;19661,834;-6840,000
 948,14;   28,000;20790,834;-5897,000
 948,70;   20,000;19573,834;-5855,000
 949,26;   11,000;18881,834;-6616,000
 949,81;  -15,000;18342,834;-6644,000
 950,37;  -20,000;18686,834;-6695,000
 950,93;    0,000;17993,834;-6224,000
 951,49;   -2,000;17568,834;-6057,000
 952,05;  -21,000;17926,834;-6571,000
 952,60;    4,000;17299,834;-6951,000
 953,16;  -10,000;16933,834;-5783,000
 953,72;  -18,000;15628,833;-5813,000
 954,27;  -23,000;15524,833;-6566,000
 954,83;  -17,000;15317,833;-6703,000
 955,39;    6,000;14917,833;-6691,000
 955,95;   -5,000;14456,833;-6849,000
 956,50;  -53,000;14272,833;-6698,000
 957,06;   -4,000;14126,833;-5922,000
 957,62;  -31,000;13780,833;-6559,000
 958,18;   31,000;13872,833;-6741,000
 958,73;   -7,000;13326,833;-6820,000
 959,29;   -7,000;13518,833;-6106,000
 959,85;  -10,000;14785,833;-6864,000
 960,40;    0,000;16746,834;-4263,000
 960,96;    1,000;16386,834;-6738,000
 961,52;   16,000;14755,833;-6643,000
 962,07;  -26,000;13711,833;-6742,000
 962,63;  -17,000;13208,833;-6723,000
 963,19;  -64,000;13435,833;-5779,000
 963,74;   28,000;13877,833;-6582,000
 964,30;   16,000;14475,833;-6595,000
 964,86;   19,000;14281,833;-6484,000
 965,41;    7,000;14290,833;-6705,000
 965,97;  -38,000;14185,833;-6569,000
 966,53;  -38,000;14792,833;-6750,000
 967,08;   22,000;15311,833;-6611,000
 967,64;   11,000;15082,833;-6705,000
 968,19;  -31,000;14471,833;-6684,000
 968,75;  -17,000;14662,833;-6566,000
 969,31;   13,000;14880,833;-5626,000
 969,86;    1,000;14995,833;-6505,000
 970,42;  -17,000;13195,833;-6620,000
 970,97;   18,000;11567,833;-6437,000
 971,53;   11,000;11625,833;-6490,000
 972,09;  -54,000;12998,833;-6646,000
 972,64;   18,000;13523,833;-5812,000
 973,20;   11,000;13815,833;-6599,000
 973,75;  -23,000;14605,833;-5760,000
 974,31;    1,000;14826,833;-6578,000
 974,87;  -11,000;14921,833;-6674,000
 975,42;  -17,000;14507,833;-6727,000
 975,98;  -43,000;13201,833;-6651,000
 976,53;  -20,000;12100,833;-6555,000
 977,09;  -16,000;11353,833;-4624,000
 977,64;   -8,000;11164,833;-6532,000
 978,20;   13,000;10649,833;-6585,000
 978,75;  -14,000;10482,833;-6429,000
 979,31;    2,000;10950,833;-6513,000
 979,86;   18,000;12220,833;-6739,000
 980,42;  -64,000;12828,833;-5813,000
 980,97;   -6,000;13290,833;-6642,000
 981,53;   13,000;14285,833;-6636,000
 982,08;  -29,000;13803,833;-5046,000
 982,64;  -17,000;12278,833;-6237,000
 983,19;    8,000;11308,833;-6760,000
 983,75;   -7,000;10993,833;-6576,000
 984,30;   10,000;10430,833;-5581,000
 984,86;  -29,000; 9867,833;-5898,000
 985,41;   -1,000; 9457,833;-6634,000
 985,97;    8,000; 9632,833;-4797,000
 986,52;    0,000; 9894,833;-5853,000
 987,08;  -15,000; 9953,833;-6174,000
 987,63;   25,000;10165,833;-5608,000
 988,19;   -9,000;11252,833;-6266,000
 988,74;   14,000;11710,833;-5682,000
 989,30;    0,000;11529,833;-6568,000
 989,85;   18,000;11470,833; -276,000
 990,40;   18,000;11314,833;-6617,000
 990,96;    5,000;11060,833;-6482,000
 991,51;    5,000;11149,833;-6578,000
 992,07;  -40,000;10742,833;-6605,000
 992,62;  -51,000;10285,833;-6519,000
 993,18;   -9,000;10035,833;-6504,000
 993,73;   -4,000; 9986,833;-6440,000
 994,28;   -4,000; 9800,833;-6464,000
 994,84;  -26,000; 9019,833;-6240,000
 995,39;   -2,000; 8474,833;-2971,000
 995,94;   17,000; 7953,833;-5673,000
 996,50;  -42,000; 7647,833;-6543,000
 997,05;    0,000; 7872,833;-3481,000
 997,61;  -23,000; 8363,833;-6489,000
 998,16;  -47,000; 8581,833;-6555,000
 998,71;    0,000; 8850,833;-6340,000
 999,27;  -27,000; 9115,833;-5223,000
 999,82;   10,000; 8706,833;-4778,000
1000,37;   -4,000; 8661,833;-6520,000
1000,93;  -20,000; 8920,833;-6107,000
1001,48;  -42,000; 8799,833;-6543,000
1002,03;  -10,000; 8477,833;-6469,000
1002,59;   19,000; 8715,833;-5972,000
1003,14;  -34,000; 8758,833;-6113,000
1003,69;   20,000; 8484,833;-6513,000
1004,25;  -47,000; 8299,833;-6507,000
1004,80;    7,000; 8322,833;-6266,000
1005,35;  -23,000; 8313,833;-6361,000
1005,91;   -9,000; 8515,833;-6558,000
1006,46;  -38,000; 8426,833;-6084,000
1007,01;   -2,000; 8227,833;-5479,000
1007,56;   25,000; 8599,833;-6440,000
1008,12;  -22,000; 8342,833;-6178,000
1008,67;   11,000; 7867,833;-6312,000
1009,22;  -15,000; 7509,833;-6481,000
1009,78;  -25,000; 7205,833;-6163,000
1010,33;  -20,000; 6649,833;-6443,000
1010,88;   -9,000; 6413,833;-5618,000
1011,43;   15,000; 5995,833;-6433,000
1011,99;   16,000; 5972,833;-6198,000
1012,54;  -13,000; 6320,833;-6387,000
1013,09;    6,000; 6048,833;-6299,000
1013,64;   -5,000; 5802,833;-6362,000
1014,19;   37,000; 5823,833;-6442,000
1014,75;   36,000; 5928,833;-6408,000
1015,30;    3,000; 6394,833;-6425,000
1015,85;   33,000; 6370,833;-6367,000
1016,40;  -19,000; 6247,833;-5436,000
1016,96;   50,000; 6235,833;-6268,000
1017,51;  -18,000; 6150,833;-6351,000
1018,06;   21,000; 6095,833;-6310,000
1018,61;  -26,000; 5695,833;-6665,000
1019,16;  -28,000; 5609,833;-6697,000
1019,71;   73,000; 5663,833;-6373,000
1020,27;    3,000; 5567,833;-6353,000
1020,82;   10,000; 5375,833;-3700,000
1021,37;   11,000; 5405,833;-4798,000
1021,92;  -26,000; 5984,833;-6454,000
1022,47;   20,000; 5965,833;-6548,000
1023,02;   29,000; 5463,833;-6512,000
1023,58;   27,000; 5045,833;-6573,000
1024,13;   19,000; 4730,833;-6258,000
1024,68;   -5,000; 4434,833;-6298,000
1025,23;   34,000; 4324,833;-5525,000
1025,78;    4,000; 4613,833;-6475,000
1026,33;   41,000; 4932,833;-5510,000
1026,88;   57,000; 4843,833;-6236,000
1027,43;    3,000; 5167,833;-6276,000
1027,99;   31,000; 5134,833;-6002,000
1028,54;   82,000; 4732,833;-6395,000
1029,09;   46,000; 4106,833;-2478,000
1029,64;   76,000; 3919,833;-6303,000
1030,19;   95,000; 4147,833;-3821,000
1030,74;   55,000; 4243,833;-5134,000
1031,29;  121,000; 4284,833;-4765,000
1031,84;  111,000; 4491,833;-6300,000
1032,39;  114,000; 4563,833;-5403,000
1032,94;  137,000; 4617,833;-4326,000
1033,49;  229,000; 4361,833;-5476,000
1034,04;  206,000; 4236,833;-6312,000
1034,59;  201,000; 4205,833;-6507,000
1035,14;  193,000; 4117,833;-6145,000
1035,69;  234,000; 4318,833;-6224,000
1036,24;  264,000; 4104,833;-4477,000
1036,80;  269,000; 3986,833;-5453,000
1037,35;  302,000; 4138,833;-6347,000
1037,90;  372,000; 4172,833;-6274,000
1038,45;  361,000; 4201,833;-6419,000
1039,00;  364,000; 4340,833;-5490,000
1039,55;  372,000; 4229,833;-6284,000
1040,10;  437,000; 3977,833;-5615,000
1040,65;  468,000; 3916,833;-5576,000
1041,20;  542,000; 3850,833;-6325,000
1041,75;  548,000; 4030,833;-4522,000
1042,30;  582,000; 4164,833;-3585,000
1042,84;  694,000; 4338,833;-4439,000
1043,39;  730,000; 4248,833;-6313,000
1043,94;  735,000; 4175,833;-5342,000
1044,49;  926,000; 3887,833;-6246,000
1045,04;  943,000; 3710,833;-5800,000
1045,59; 1017,000; 3809,833;-6299,000
1046,14; 1183,000; 3732,833;-6392,000
1046,69; 1339,000; 3591,833;-6294,000
1047,24; 1463,000; 3623,833;-5510,000
1047,79; 1771,000; 3737,833;-6139,000
1048,34; 1954,000; 4002,833;-5961,000
1048,89; 2319,000; 3948,833;-6259,000
1049,44; 2667,000; 3935,833;-5172,000
1049,99; 2931,000; 3855,833;-4844,000
1050,54; 3507,000; 3876,833;-6249,000
1051,08; 4501,000; 3961,833;-6178,000
1051,63; 6355,000; 4050,833;-5285,000
1052,18; 9887,000; 5051,833;-6127,000
1052,73;16163,000; 7151,833;-6173,000
1053,28;24925,000;10516,833;-6386,000
1053,83;36374,000;15224,833;-6214,000
1054,38;48721,000;19203,834;-6254,000
1054,93;54507,000;21243,834;-6285,000
1055,47;58973,000;23825,834;-5328,000
1056,02;61918,000;26212,834;-5832,000
1056,57;65163,000;27830,834;-6198,000
1057,12;65163,000;30497,834;-6378,000
1057,67;65163,000;33805,832;-6078,000
1058,22;65163,000;36084,832;-6313,000
1058,76;65163,000;38542,832;-6093,000
1059,31;65163,000;44129,832;-3514,000
1059,86;65163,000;48778,832;-6204,000
1060,41;65163,000;49718,832;-6152,000
1060,96;65163,000;51396,832;-6226,000
1061,51;65163,000;53649,832;-5344,000
1062,05;65163,000;54082,832;-6122,000
1062,60;65163,000;50555,832;-6061,000
1063,15;65163,000;45221,832;-6149,000
1063,70;65163,000;41550,832;-6250,000
1064,24;65163,000;43676,832;-6169,000
1064,79;65163,000;45461,832;-6144,000
1065,34;65163,000;43989,832;-6064,000
1065,89;65163,000;41776,832;-6202,000
1066,44;65163,000;37631,832;-6120,000
1066,98;65163,000;32612,834;-6224,000
1067,53;65163,000;30790,834;-5953,000
1068,08;65163,000;30368,834;-4845,000
1068,63;65163,000;27618,834;-6096,000
1069,17;65163,000;24647,834;-5893,000
1069,72;65163,000;22350,834;-5857,000
1070,27;65163,000;20529,834;-6040,000
1070,81;65163,000;20388,834;-5996,000
1071,36;65163,000;20367,834;-3883,000
1071,91;65163,000;18745,834;  966,000
1072,46;65163,000;16791,834;-5058,000
1073,00;65163,000;14646,833;-5239,000
1073,55;58023,000;11404,833;-5935,000
1074,10;38599,000; 7803,833;-5981,000
1074,64;22999,000; 5240,833;-5860,000
1075,19;13525,000; 3535,833;-4958,000
1075,74; 8454,000; 2551,833;-6091,000
1076,28; 6063,000; 2312,833;-6075,000
1076,83; 4619,000; 1951,833;-5286,000
1077,38; 3705,000; 1820,833;-5653,000
1077,92; 3078,000; 1783,833;-6332,000
1078,47; 2631,000; 1629,833;-5507,000
1079,02; 2267,000; 1578,833;-5959,000
1079,56; 1953,000; 1557,833;-5328,000
1080,11; 1666,000; 1304,833;-6094,000
1080,65; 1369,000; 1241,833;-5039,000
1081,20; 1199,000; 1186,833;-6151,000
1081,75; 1059,000; 1125,833;-6039,000
1082,29;  978,000; 1128,833; -139,000
1082,84;  873,000; 1184,833;-2678,000
1083,39;  704,000; 1294,833;-5061,000
1083,93;  659,000; 1335,833;-5025,000
1084,48;  567,000; 1196,833;-5961,000
1085,02;  557,000; 1082,833;-5783,000
1085,57;  522,000; 1074,833;-5994,000
1086,11;  470,000; 1079,833;-5968,000
1086,66;  393,000;  925,833;-5584,000
1087,21;  437,000; 1060,833;-5802,000
1087,75;  362,000;  939,833;-6125,000
1088,30;  339,000;  815,833;-5040,000
1088,84;  317,000;  783,833;-5963,000
1089,39;  304,000;  656,833;-5965,000
1089,93;  262,000;  664,833;-6100,000
1090,48;  243,000;  649,833;-4394,000
1091,02;  269,000;  733,833;-5181,000
1091,57;  204,000;  629,833;-5479,000
1092,11;  222,000;  642,833;-4094,000
1092,66;  201,000;  624,833;-6031,000
1093,20;  137,000;  580,833;-5180,000
1093,75;  178,000;  566,833;-4998,000
1094,29;  160,000;  486,833;-4979,000
1094,84;  197,000;  525,833;-5890,000
1095,38;  140,000;  528,833;-5097,000
1095,93;  102,000;  584,833;-5981,000
1096,47;  121,000;  615,833;-5612,000
1097,02;  118,000;  587,833;-4985,000
1097,56;   74,000;  614,833;-5772,000
1098,11;   70,000;  552,833;-5774,000
1098,65;  107,000;  508,833;-5992,000
1099,20;   64,000;  577,833;-5935,000
1099,74;   71,000;  487,833;-6002,000
1100,29;   85,000;  513,833;-4879,000
1100,83;   19,000;  496,833;-5934,000

