
Integration time [ms]:   1,000
Averaging Nr. [scans]: 1
Smoothing Nr. [pixels]: 0
Data measured with spectrometer [name]: 1703254U1
Wave   ;Sample   ;Dark     ;Reference;Scope
[nm]   ;[counts] ;[counts] ;[counts] 

 190,08;  -89,955; -370,119;11982,743
 190,69;  -71,266; -359,404;11603,049
 191,29;  -72,805; -311,651;11479,965
 191,90;  -82,589; -365,508;11440,717
 192,50;  -80,830; -379,511;10355,099
 193,10;  -59,943; -446,299;11244,381
 193,71;  -79,621; -367,888; 9821,736
 194,31;  -74,015; -399,273; 9436,327
 194,91;  -74,015; -382,273; 9291,327
 195,52;  -80,940; -338,386;10555,949
 196,12;  -56,645; -397,056; 8671,847
 196,72;  -76,543; -386,394; 8220,904
 197,32;  -79,621; -375,888; 8251,736
 197,93;  -62,471; -360,420; 8700,957
 198,53;  -75,883; -383,145; 7601,797
 199,13;  -82,919; -397,132; 8091,270
 199,74;  -67,748; -366,410; 7263,813
 200,34;  -64,010; -388,667; 7832,874
 200,94;  -61,482; -436,547; 6941,297
 201,55;  -71,266; -406,404; 7119,049
 202,15;  -74,454; -375,773; 6404,732
 202,75; -104,796; -373,217; 6097,647
 203,36;  -65,769; -338,664; 6822,492
 203,96; -117,329; -357,943; 6332,678
 204,56;  -69,287; -355,657;10275,729
 205,16;  -76,873; -363,018; 5478,458
 205,77;  -89,845; -360,244; 4767,892
 206,37;  -77,752; -409,017; 5556,267
 206,97;  -81,490; -363,760; 5129,205
 207,58;  -64,450; -364,166; 5927,278
 208,18;  -84,678; -337,129; 5129,889
 208,78;  -82,040; -404,134; 5295,461
 209,38;  -65,110; -469,415; 4958,385
 209,99;  -65,000; -356,540; 3837,534
 210,59;  -66,649; -361,662; 3890,301
 211,19;  -57,879; -364,538; 3938,343
 211,79;  -58,514; -366,927; 4499,316
 212,40;  -86,877; -373,625; 3368,911
 213,00;  -77,862; -388,891; 3903,118
 213,60;  -83,139; -386,882; 2992,972
 214,20;  -97,760; -401,230; 3081,175
 214,81;  -90,395; -422,618; 2884,148
 215,41;  -97,980; -376,979; 3235,877
 216,01; -118,098; -373,067; 3109,636
 216,61;  -73,905; -367,399; 2814,476
 217,22; -113,481; -381,326; 2358,888
 217,82; -128,542; -325,173; 2262,495
 218,42; -107,874; -383,711; 2389,480
 219,02; -112,601; -288,327; 3432,079
 219,63;  -95,782; -357,483; 2044,854
 220,23;  -99,189; -366,602; 2425,239
 220,83;  -97,321; -395,730; 1901,770
 221,43; -116,229; -393,195; 1850,167
 222,03; -119,088; -348,940; 2326,296
 222,64; -101,168; -380,348; 1769,560
 223,24;  -90,016; -298,966; 1625,350
 223,84; -120,517; -376,313; 2637,361
 224,44; -116,669; -316,695; 2381,571
 225,05;  -87,931; -313,952; 1440,632
 225,65; -118,978; -301,065; 1227,445
 226,25; -107,654; -364,961; 1139,777
 226,85; -122,276; -294,309;  995,979
 227,45; -110,513; -335,706; 1083,907
 228,06;  -96,644; -365,834; 1945,438
 228,66; -108,094; -349,460; 4049,182
 229,26;  -96,407; -313,438; 1131,510
 229,86; -104,686; -396,342; 1760,797
 230,46; -117,109; -358,194;  891,976
 231,06; -116,889; -320,444;  757,273
 231,67;  -84,441; -346,732; 1228,961
 232,27; -133,269; -343,789;  778,094
 232,87; -122,715; -308,808;  526,384
 233,47; -136,457; -321,158;  525,777
 234,07;  -94,023; -268,486; 9912,235
 234,67; -113,121; -291,013;  672,338
 235,28; -136,457; -319,158;   65,777
 235,88; -150,749; -316,882;  285,426
 236,48; -115,680; -350,821;  165,911
 237,08; -127,741; -267,669;  448,518
 237,68; -152,947; -369,378; -267,552
 238,28; -141,184; -304,774; -106,624
 238,89; -150,859; -212,756; -205,723
 239,49; -121,844; -282,023; 1280,483
 240,09; -152,281; -284,608; -190,544
 240,69; -155,586; -251,373; -319,124
 241,29; -142,174; -289,647;  651,036
 241,89; -135,614; -330,147; -260,559
 242,49;  -95,873; -248,490; -358,930
 243,10; -141,355; -201,496; 3664,834
 243,70; -148,873; -284,490;  239,070
 244,30; -126,717; -275,501; -708,594
 244,90;  -90,353; -188,582; -568,598
 245,50; -141,260; -177,355; 3274,777
 246,10; -148,330; -307,636; -831,300
 246,70; -120,036; -300,999;   17,620
 247,30; -126,692; -251,641;  326,273
 247,91; -170,526; -208,218; 5781,292
 248,51; -142,249; -270,228; -806,563
 249,11;  -81,681; -239,514;  417,933
 249,71; -112,759; -303,008; -667,235
 250,31;  -96,391; -265,483; -567,693
 250,91;  -74,596; -238,500;   75,216
 251,51; -102,008; -199,225; -822,945
 252,11; -101,687; -239,813;  367,410
 252,71; -134,444; -269,117;-1080,994
 253,31;  -95,778; -222,348; 3228,013
 253,91;  -97,991; -236,578; -676,170
 254,52;  -99,296; -237,342;-1063,750
 255,12;  -84,391; -293,483;-1104,693
 255,72;  -71,104; -206,366;  557,112
 256,32; -143,226; -242,061; -966,674
 256,92;  -68,949; -190,070;-1147,529
 257,52;  -48,228; -173,974; -883,243
 258,12; -128,154; -201,087;  -91,621
 258,72;  -81,446; -210,810;-1232,972
 259,32;  -84,814; -211,335;-1169,514
 259,92;  -35,452; -199,330;-1343,086
 260,52;  -57,108; -192,973;-1077,433
 261,12;  -89,105; -202,059; -662,865
 261,72; -100,101; -238,452;-1312,319
 262,32;  -58,679; -215,600;-1561,498
 262,92; -119,173; -238,426;  405,627
 263,53;  -98,520; -189,698;-1277,594
 264,13; -110,456; -262,937; -268,632
 264,73;  -68,321; -217,202;-1694,617
 265,33;  -87,488; -188,317;-1708,613
 265,93; -109,524; -147,304;-1345,140
 266,53;  -73,141; -161,046;-1544,392
 267,13;  -91,308; -139,161; -857,388
 267,73;  -50,067; -185,158;  270,230
 268,33; -128,234; -166,274;-1788,766
 268,93;  -68,243; -213,708;-1702,449
 269,53;  -93,471; -204,670; -644,839
 270,13;  -73,481; -201,797;-1810,499
 270,73;  -95,198; -245,287;-1891,239
 271,33;  -39,073; -200,678;-1778,884
 271,93;  -46,130; -242,919;-1867,732
 272,53;  -22,866; -121,748;    8,776
 273,13;  -46,953; -146,677;-1117,075
 273,73;  -57,227; -119,753;-1955,652
 274,33;  -48,293; -148,428;-2041,182
 274,93;  -74,248; -188,007;-1843,972
 275,53;  -60,866;  -68,748;-1881,224
 276,13; -112,115; -121,965;-2261,935
 276,73; -102,352; -118,361;-1570,007
 277,33;  -93,893; -179,522;-1926,659
 277,93;   -4,194; -213,680;-1864,693
 278,53;  -67,134; -194,526;-2112,278
 279,13;  -80,688; -125,506;-2152,568
 279,73;  -76,085; -140,498;-1388,522
 280,33;  -40,468; -154,756;-2179,270
 280,93;  -39,284; -105,994;-2049,499
 281,53;  -57,280; -147,387;-2252,953
 282,13;  -47,472; -127,363;-2193,816
 282,73;  -56,876; -156,875; -385,885
 283,33;  -42,635; -137,872;-2307,266
 283,92;   -9,519;  -74,477;-2028,003
 284,52;   -9,451;  -94,109;-2365,496
 285,12;   10,986; -138,524;-1425,469
 285,72;    6,437; -126,898;-1041,213
 286,32;   10,145;  -55,622;-1313,564
 286,92;   -2,773; -163,521;-2376,850
 287,52;   26,348;  -89,519;-2170,041
 288,12;   49,050;  -97,763;-2542,507
 288,72;   34,550; -106,417;-1625,518
 289,32;   20,964;  -54,470; 1692,233
 289,92;   -6,993; -106,270;-2344,148
 290,52;  -56,935;  -91,809;-2485,710
 291,12;   65,595;  -57,996;-1570,308
 291,72;   66,481;  -74,477;-1590,003
 292,32;  144,621;  -83,135;-2372,442
 292,92;  146,978;   -2,737;-2481,560
 293,51;  176,754;  -37,093;-2532,404
 294,11;  354,705;  -42,121;-1681,160
 294,71;  401,638;   -7,488;-2695,667
 295,31;  342,496;  -24,743;-1755,797
 295,91;  461,574;   46,751;-2713,629
 296,51;  556,974;   62,656;-1776,106
 297,11;  551,814;   35,061;-2900,988
 297,71;  701,606;    4,131;-2726,648
 298,31;  939,007;   38,730;-2329,148
 298,91;  760,936;   74,756;-2483,202
 299,50;  795,350;   41,395;-2689,473
 300,10; 1090,308;  145,887;-2706,114
 300,70;  899,843;   95,528;-2492,576
 301,30;  993,255;   89,253;-2855,415
 301,90; 1227,893;   96,248;-2004,843
 302,50; 1135,769;  163,640;-2515,198
 303,10;  888,244;  124,126;-2530,076
 303,70;  863,215;  208,660;-3000,488
 304,29;  888,598;  189,918;-2658,740
 304,89;  896,463;  266,183;-1090,755
 305,49; 1139,839;  163,922;-2773,122
 306,09; 1210,726;  214,133;-2874,839
 306,69; 1115,490;  262,736;-2915,911
 307,29; 1176,621;  312,865;-2008,442
 307,89; 1133,314;  303,408;-3029,000
 308,48;  904,262;  341,774;-2453,301
 309,08; 1094,191;  369,492;-2743,377
 309,68; 1372,680;  377,019;-3094,026
 310,28; 1218,437;  371,102;-2576,213
 310,88;  911,121;  321,211;-2936,453
 311,48;  914,794;  447,500;-2875,331
 312,07;  960,301;  408,367;-2963,228
 312,67; 1132,897;  497,855;-2128,297
 313,27; 1063,937;  494,448;-1105,224
 313,87; 1239,578;  583,357;-2164,083
 314,47; 1388,859;  516,954;-3030,392
 315,06; 1846,675;  620,191; 2713,837
 315,66; 1920,390;  579,988;-3245,400
 316,26; 1956,654;  632,938;-1844,483
 316,86; 2012,944;  777,969;-3140,110
 317,46; 2261,842;  720,307;-2115,167
 318,06; 2385,764;  739,813; -825,335
 318,65; 2649,920;  781,801;-2807,999
 319,25; 3311,679;  821,798;-3195,617
 319,85; 3172,066;  932,663;-2908,323
 320,45; 3777,034;  986,283;-3213,304
 321,05; 5261,190;  901,271;-2761,968
 321,64; 5514,694;  889,531;-3219,411
 322,24; 5678,989; 1056,861;-3265,513
 322,84; 4599,067; 1080,356;-3261,345
 323,44; 3311,670; 1133,364;-3219,300
 324,03; 3036,319; 1194,486;-3072,067
 324,63; 2962,788; 1250,452;-2310,059
 325,23; 2693,540; 1241,928;-3097,792
 325,83; 2513,020; 1367,021;-2876,123
 326,42; 2446,662; 1442,622;-3285,005
 327,02; 2458,359; 1476,551;-3076,607
 327,62; 2519,754; 1439,629;-2505,221
 328,22; 2968,538; 1553,486;-3234,973
 328,82; 2875,444; 1577,037;-2229,938
 329,41; 2337,095; 1658,852;-3016,728
 330,01; 2892,502; 1652,750;-2961,704
 330,61; 3182,471; 1806,062;-2928,707
 331,20; 2399,216; 1778,325;-2868,531
 331,80; 2202,295; 1762,512;-2794,386
 332,40; 2324,094; 1752,102;-2896,932
 333,00; 2134,964; 1933,667;-2790,423
 333,59; 2102,288; 1748,771;-2855,091
 334,19; 2058,359; 1920,745;-1771,037
 334,79; 2171,107; 1712,615;-2861,316
 335,39; 2195,865; 1729,919;-2978,912
 335,98; 2038,460; 1726,714;-3126,958
 336,58; 2290,160; 1659,777;-3191,401
 337,18; 2366,281; 1720,779;-2958,592
 337,77; 2247,620; 1782,837;-2098,463
 338,37; 2314,747; 1806,359;-2021,540
 338,97; 2518,555; 1907,384;-2912,402
 339,57; 2860,425; 1862,948;-3044,894
 340,16; 3520,659; 1836,431;-2881,390
 340,76; 3777,729; 1962,712;-3053,314
 341,36; 3438,376; 1861,920;-3195,650
 341,95; 3917,813; 1934,506;-3027,623
 342,55; 4118,771; 1918,998;  703,736
 343,15; 3694,951; 2048,155;-3094,039
 343,74; 4849,667; 1924,644;-2382,298
 344,34; 4749,876; 1860,267;-3015,661
 344,94; 3321,621; 2068,530;-3069,485
 345,53; 2996,557; 2110,769;-2860,447
 346,13; 3392,249; 2174,398;-1283,573
 346,73; 3718,403; 1966,473;-2254,805
 347,32; 3958,029; 2268,649;-3080,871
 347,92; 3572,413; 2312,600;-2277,145
 348,52; 3604,139; 2270,523;-1878,722
 349,11; 3888,188; 2336,551;  975,034
 349,71; 3417,752; 2330,658;-3240,016
 350,31; 3022,405; 2441,387;-2672,237
 350,90; 3151,695; 2483,418;-2326,863
 351,50; 3496,314; 2390,852;-2105,634
 352,10; 4537,299; 2471,119;-3114,840
 352,69; 5419,359; 2532,273;-3182,424
 353,29; 5556,699; 2563,024;-3191,317
 353,89; 5786,380; 2645,527;-3255,104
 354,48; 5527,299; 2693,119;-3208,840
 355,08; 6375,445; 2871,980;-1117,164
 355,67; 7321,025; 2850,042;-2951,417
 356,27; 9037,022; 2839,128;-3232,985
 356,87;10037,443; 3010,288;-3383,142
 357,46;10195,659; 3049,431;-2351,390
 358,06;12055,685; 3306,291;-3073,523
 358,66; 9757,692; 3337,504;-3109,432
 359,25; 6434,245; 3260,792;-2344,119
 359,85; 7118,355; 3365,667;-3215,970
 360,44; 9270,976; 3389,015;-3292,172
 361,04; 9272,951; 3567,155;-2367,039
 361,64; 9401,951; 3696,155;-2309,039
 362,23; 8606,657; 3772,517;-2932,958
 362,83; 8192,306; 3755,639;-2990,726
 363,42; 7700,558; 3938,769;-2836,447
 364,02; 7497,422; 3910,034;-2973,462
 364,62; 8126,249; 3816,398;-2486,573
 365,21; 6366,581; 3857,937;-1741,558
 365,81; 4431,173; 3935,818;-2792,173
 366,40; 4375,471; 3970,062;-2080,707
 367,00; 4829,067; 4021,550;-2952,776
 367,59; 5543,138; 4071,831;-2979,699
 368,19; 6523,198; 4221,678;-3237,306
 368,79; 6166,332; 4198,720;-3125,268
 369,38; 5371,326; 4107,200;-2250,383
 369,98; 6012,822; 4101,940;-2935,940
 370,57; 6660,960; 4188,588;-3331,356
 371,17; 6222,307; 4164,860;-3326,135
 371,76; 7452,757; 4277,486;-3442,879
 372,36; 8162,683; 4057,598;-3195,501
 372,95;10345,711; 4115,372;  667,934
 373,55;11777,161; 4105,998;-3393,811
 374,14;11537,243; 4300,099;-3405,097
 374,74;11416,807; 4256,514;-3224,124
 375,34; 9967,715; 4286,979;-3189,521
 375,93; 9765,275; 4295,479;-2706,116
 376,53; 8643,719; 4344,585;-3575,974
 377,12; 5454,596; 4405,670;-1465,352
 377,72; 4139,055; 4480,730;-3410,414
 378,31; 4460,940; 4511,027;-2274,699
 378,91; 5209,539; 4291,429;-3262,199
 379,50; 5920,899; 4588,213;-3331,363
 380,10; 5927,863; 4327,226;-3398,890
 380,69; 6057,980; 4094,621;-2343,626
 381,29; 8538,026; 4586,735;-2550,439
 381,88;11264,714; 4518,758;-1605,111
 382,48;11128,424; 4519,727;-3286,485
 383,07; 9044,235; 4495,358;-3457,802
 383,67; 8695,714; 4635,758;-1847,111
 384,26; 7781,729; 4667,491;-2467,905
 384,86; 5960,073; 4921,849;-3182,252
 385,45; 6096,065; 4932,636;-3325,344
 386,05; 5874,016; 5073,608;-3419,100
 386,64; 4897,164; 4911,384;-3524,855
 387,24; 5126,242; 5016,878;-2585,688
 387,83; 5504,295; 4993,512;-2489,386
 388,42; 5962,392; 5182,346;-2109,466
 389,02; 5378,991; 5423,748;-3235,966
 389,61; 5133,543; 5688,036;-3413,653
 390,21; 4946,242; 5729,878;-3463,688
 390,80; 3811,767; 5816,392;-3208,810
 391,40; 3927,809; 6137,899;-2293,168
 391,99; 4676,853; 5981,099;-3195,550
 392,59; 4872,792; 6435,252;-2416,943
 393,18; 4043,249; 6683,398;-2491,573
 393,77; 3232,205; 6883,198;-3238,192
 394,37; 3642,632; 7145,657;-2198,825
 394,96; 4205,610; 7098,403;-2296,146
 395,56; 4042,960; 7264,588;-2834,356
 396,15; 4692,606; 6867,797;-3125,692
 396,75; 5269,554; 7343,163;-2889,993
 397,34; 4082,822; 7669,940;-2620,940
 397,93; 3191,482; 7720,188;-3358,047
 398,53; 2970,515; 7595,262;-2525,088
 399,12; 3231,855; 8192,013;-2154,981
 399,72; 3930,299; 8013,119;-2274,840
 400,31; 4246,583; 8034,629;-3169,581
 400,91; 3774,735; 8446,012;-2959,791
 401,50; 3202,205; 8820,198;-2330,192
 402,09; 3151,336; 8550,327;-2894,722
 402,69; 3251,361; 8691,187;-3072,856
 403,28; 3479,114; 9052,663;-2983,588
 403,88; 6115,791; 9162,560; 1927,079
 404,47; 7963,138; 9689,831;  884,300
 405,06; 5007,156; 9684,171;  -68,947
 405,66; 5996,272; 9753,565;-2875,684
 406,25; 8466,332;10085,720;-3119,268
 406,84; 8715,639;10446,177;-2892,711
 407,44; 6554,187;10847,858;-2219,944
 408,03; 4314,544;10422,257;-2906,063
 408,63; 3590,159;10373,085;-3011,379
 409,22; 3439,598;10191,584;-1945,783
 409,81; 3420,764;10681,007;-1849,765
 410,41; 3755,677;11553,078;-2857,615
 411,00; 4129,988;11336,362;-1814,921
 411,59; 4606,810;11251,120;-2826,578
 412,19; 4636,023;11468,350;-2245,394
 412,78; 5163,254;11399,226;-2830,436
 413,37; 5533,633;12151,878;-2704,234
 413,97; 5838,686;12410,512;-2618,933
 414,56; 5527,204;12071,506;-2503,169
 415,15; 4929,278;12410,394;-2121,547
 415,75; 4415,696;12408,639;-2698,272
 416,34; 3583,303;12590,254;-1893,681
 416,93; 4008,777;12922,047;-2777,536
 417,53; 4573,426;12696,169;-1423,303
 418,12; 5544,153;12570,785;-2217,903
 418,71; 5937,591;12907,592;-2673,285
 419,31; 6675,915;13054,695;-1884,952
 419,90; 7121,642;13470,313;-2786,552
 420,49; 4988,557;13619,298;-1733,834
 421,08; 4025,557;14201,298;-1674,834
 421,68; 4642,327;14723,421;-1908,792
 422,27; 5418,648;14035,832;-2004,437
 422,86; 5781,706;13874,073; -437,590
 423,46; 5607,236;14080,107;-2575,598
 424,05; 4985,123;14376,626;-2928,293
 424,64; 5777,177;13888,953;-2640,014
 425,24; 5878,513;14092,098;-2903,453
 425,83; 5720,778;13992,269;-2680,945
 426,42; 6584,123;12987,626;-2760,293
 427,01; 6952,807;13424,734;-2674,533
 427,61; 4848,662;14347,873;-2609,209
 428,20; 3513,491;14036,151;-1764,751
 428,79; 3585,529;14414,052;-2859,656
 429,38; 4339,463;14092,377;-1781,186
 429,98; 5254,799;14922,521; -994,625
 430,57; 6414,662;15058,873;-2193,209
 431,16; 5126,307;14580,389;-2784,522
 431,75; 4756,313;14357,909; -561,407
 432,35; 6227,590;13435,899;-1951,262
 432,94; 4695,021;14429,186;-2324,759
 433,53; 3114,342;14560,375;-1152,995
 434,12; 3172,948;14431,298;-2267,381
 434,72; 3047,479;14188,331;-1413,389
 435,31; 2830,546;14167,699; 7395,119
 435,90; 2606,688;14308,954; 8338,249
 436,49; 2736,159;13427,834; -683,175
 437,08; 2844,447;13895,951; -675,370
 437,68; 5323,677;14442,827;-2987,412
 438,27; 6648,878;14610,237;-2610,866
 438,86; 3796,039;14612,832;-1147,984
 439,45; 2840,563;15313,346;-1937,106
 440,05; 4709,790;15955,616;-2982,694
 440,64; 4869,016;15054,886;-1902,282
 441,23; 3819,431;14152,525;-1415,553
 441,82; 2956,432;13700,218;-2631,576
 442,41; 2249,892;14351,277;-3014,637
 443,00; 2015,909;13625,925;-2724,863
 443,60; 2172,655;14373,881;-3136,710
 444,19; 2292,636;15026,541;-1440,462
 444,78; 2121,881;14960,151;-3012,298
 445,37; 2081,338;15728,297;-2522,928
 445,96; 2434,722;15331,249;-3116,202
 446,56; 2397,154;15596,535;-1144,698
 447,15; 2285,370;16225,678; -884,947
 447,74; 2243,505;17097,412;-2709,931
 448,33; 1924,004;16443,066;-1985,920
 448,92; 1921,554;15422,440;-2964,176
 449,51; 1813,344;15095,817;-2848,813
 450,10; 1558,848;15133,078;-3063,256
 450,70; 1584,994;14904,939;-1957,581
 451,29; 1599,015;15329,193;-1112,260
 451,88; 1685,888;15513,671;-2929,183
 452,47; 2109,160;16565,055;-2795,584
 453,06; 1895,893;16495,498;-2401,047
 453,65; 1518,563;16071,874;-2873,493
 454,24; 1561,992;17329,246;-2173,558
 454,84; 1624,220;17793,209;-1379,168
 455,43; 1484,652;18732,496;-2219,665
 456,02; 1508,567;18879,480;-2927,947
 456,61; 1429,880;17317,459;-2925,275
 457,20; 1488,280;16921,363;-2786,753
 457,79; 1555,825;17588,131;-2922,554
 458,38; 1692,197;18338,264;-2132,467
 458,97; 1700,988;18039,641;-2515,104
 459,56; 1736,326;18190,479;-2760,565
 460,16; 1608,836;17832,258;-2082,894
 460,75; 1645,219;18157,518;-2072,146
 461,34; 1605,527;18077,887;-2962,020
 461,93; 1514,802;18381,186;-2200,853
 462,52; 1668,161;19333,275;-2744,993
 463,11; 1759,483;20546,688;-1989,639
 463,70; 2056,109;19458,643;-2869,295
 464,29; 2285,600;19945,082;-3150,376
 464,88; 2135,891;20795,807;-2743,024
 465,47; 1895,885;19885,285;-2748,139
 466,06; 1863,412;20915,713;-3191,692
 466,65; 1898,316;21667,572;-3018,635
 467,24; 1986,025;22030,848;-2539,986
 467,84; 1840,236;22443,164;-2020,371
 468,43; 1801,189;22325,051;-2238,559
 469,02; 1929,718;23517,170;-2702,135
 469,61; 2001,022;24168,936;-2593,555
 470,20; 2026,153;23781,063;-2841,085
 470,79; 2002,926;22760,100;-3232,475
 471,38; 1668,632;25266,463;-2192,395
 471,97; 1584,858;26009,732; -666,983
 472,56; 1641,797;25472,887;-3035,376
 473,15; 1724,915;25296,975;-2825,135
 473,74; 1723,386;26395,854;-3106,559
 474,33; 1715,904;25866,848;-2957,796
 474,92; 1637,465;27630,348;-3146,391
 475,51; 1611,964;29609,002;-2873,380
 476,10; 1612,879;29847,986;-3011,662
 476,69; 1712,949;26101,268;-2855,586
 477,28; 1585,469;25846,955;-2956,845
 477,87; 1461,492;27035,121; -173,956
 478,46; 1579,258;28695,639;-3029,460
 479,05; 1519,805;30507,100;-2134,284
 479,64; 1476,545;31679,756;-2718,655
 480,23; 1488,886;29541,508;-2845,548
 480,82; 1416,602;28549,996;-2736,807
 481,41; 1480,127;29371,510;-1873,929
 482,00; 1404,677;29284,885;-1364,185
 482,59; 1513,723;29593,998;-2298,998
 483,18; 1536,141;31702,244;-2376,723
 483,77; 1472,698;31703,139;-2193,865
 484,36; 1532,964;32475,002;-1701,380
 484,95; 1613,045;32990,410; -788,643
 485,54; 1937,254;35331,031;-1371,006
 486,13; 2193,482;35762,996; -945,616
 486,72; 2806,577;34334,137;  148,326
 487,31; 2824,275;31046,285;-1109,686
 487,89; 2268,776;32608,633; -193,697
 488,48; 3083,506;33798,164;-1523,728
 489,07; 3818,774;32913,941;-1248,674
 489,66; 2645,740;33511,645;-1505,224
 490,25; 2078,239;31095,299; -660,212
 490,84; 2210,514;34127,375;-1683,635
 491,43; 3686,053;34965,621; -701,552
 492,02; 4707,222;36094,652;-1864,987
 492,61; 3078,882;35362,902;-1043,094
 493,20; 2158,370;33776,426;-2019,743
 493,79; 2179,853;32749,434; 4824,494
 494,38; 2095,098;33706,043;-1938,342
 494,97; 3166,292;32583,934; -629,911
 495,55; 4770,083;34690,309;-2325,548
 496,14; 3797,573;35087,531;-2403,220
 496,73; 2318,345;35451,566;-1952,609
 497,32; 2018,707;34211,570;-2587,182
 497,91; 2340,377;35005,949;-1921,629
 498,50; 2435,916;34165,195;-2912,544
 499,09; 2252,707;34554,570;-3088,182
 499,68; 2286,026;32403,070;-2405,396
 500,27; 3141,117;33321,605;-2490,999
 500,85; 3001,880;32655,207;-2604,071
 501,44; 2810,373;32478,342;-2576,175
 502,03; 2470,540;33194,457;-3368,178
 502,62; 2143,906;31275,068;-3438,205
 503,21; 2009,561;29432,711;-3532,858
 503,80; 1926,195;32028,100;-2976,831
 504,39; 1968,642;32451,119;-3458,121
 504,97; 1871,908;31774,982;-3577,636
 505,56; 1798,033;31537,590;-2979,281
 506,15; 1836,011;32302,336;-3991,602
 506,74; 2003,082;32557,617;-2945,526
 507,33; 1932,553;32185,498;-3165,949
 507,92; 1925,138;33952,859;-3871,678
 508,51; 1728,305;35926,973;-3735,682
 509,09; 1797,046;34536,629;-3921,053
 509,68; 1879,397;34318,508;-3748,286
 510,27; 1812,556;33667,410;-3799,381
 510,86; 1863,099;32572,264;-4081,751
 511,45; 1870,517;33677,512;-3843,476
 512,03; 1993,018;34524,855;-3829,488
 512,62; 2169,462;36240,961;-3780,346
 513,21; 2471,467;33870,789;-3186,209
 513,80; 2817,786;34644,289;-3501,423
 514,39; 2578,968;32752,137;-3905,221
 514,97; 2254,864;35347,781;-4095,255
 515,56; 2235,530;34167,551;-4198,248
 516,15; 3046,934;35428,063;-3955,179
 516,74; 3497,076;32584,318;-4420,049
 517,33; 2492,144;33459,688;-3549,542
 517,91; 2139,640;33935,426;-4188,099
 518,50; 2392,230;32563,393;-3264,282
 519,09; 2894,464;33942,875;-3157,778
 519,68; 2618,205;35231,531;-4286,148
 520,26; 2252,169;38679,547;-4232,675
 520,85; 2198,336;39452,660;-4352,679
 521,44; 2406,019;40826,078;-4358,897
 522,03; 2764,687;39485,539;-4271,912
 522,61; 3347,019;36773,078;-4364,897
 523,20; 3282,863;33924,090;-4337,233
 523,79; 2497,423;32040,590;-4337,828
 524,38; 2057,065;32850,191;-4344,709
 524,96; 1918,547;35883,199;-4321,473
 525,55; 1915,328;36021,449;-4542,771
 526,14; 2714,916;34018,723;-4434,931
 526,73; 3295,778;32852,074;-4389,515
 527,31; 2653,438;32903,324;-4488,622
 527,90; 2108,328;33630,449;-4564,771
 528,49; 1974,924;34155,938;-2529,839
 529,08; 1602,004;34601,344;-3467,103
 529,66; 1605,087;34848,445;-3911,389
 530,25; 1558,600;35279,832;-4414,172
 530,84; 1526,245;35334,348;-4583,485
 531,42; 1655,188;38583,105;-4365,332
 532,01; 2285,738;37528,480;-4291,588
 532,60; 2623,394;34512,125;-4473,241
 533,18; 1894,742;35538,086;-4078,042
 533,77; 1617,419;34969,984;-4236,374
 534,36; 1610,774;34459,469;-4374,061
 534,95; 1431,377;35483,477;-4088,015
 535,53; 1580,983;34236,090; -974,424
 536,12; 2063,816;36469,977;-2657,420
 536,71; 2492,837;36511,230;-3869,099
 537,29; 2211,713;36073,621;-3618,454
 537,88; 1990,019;33908,078;-3454,897
 538,47; 1925,131;32497,867;-2840,180
 539,05; 2107,440;36837,238;-2139,054
 539,64; 2354,542;40414,898;-1785,997
 540,22; 2563,557;37414,633; -764,790
 540,81; 2341,929;37501,766; 1008,297
 541,40; 2191,316;39018,629; 3425,591
 541,98; 1939,079;38188,230; 4858,519
 542,57; 2071,816;39368,977; 4597,580
 543,16; 1789,110;38645,613; 4952,500
 543,74; 1594,618;35774,480; 4083,603
 544,33; 1722,457;36297,883; 3620,721
 544,92; 1746,698;37217,887; 3973,339
 545,50; 1679,220;37338,488;11456,648
 546,09; 1441,973;40064,965;11359,916
 546,67; 1428,036;41948,727; 2857,878
 547,26; 1444,104;40050,094; -202,615
 547,85; 1383,307;39208,414; -567,501
 548,43; 1263,954;38452,625; -849,836
 549,02; 1297,043;39427,246;-1040,008
 549,60; 1322,184;40570,500; -984,878
 550,19; 1200,383;41166,996;-2192,901
 550,78; 1234,855;42660,875;-2328,325
 551,36; 1172,202;45349,148;-2432,104
 551,95; 1092,649;45443,859; -585,416
 552,53; 1084,248;43280,262; -296,916
 553,12; 1106,396;41420,035;-3431,672
 553,70; 1063,559;43188,547;-2878,222
 554,29; 1126,347;44058,008;-2869,428
 554,88; 1092,208;41831,668;-4247,989
 555,46; 1090,794;43723,027;-3881,718
 556,05; 1182,759;45007,734;-4207,268
 556,63; 1370,610;45206,266;-3396,489
 557,22; 1484,430;43875,109;-3394,714
 557,80; 1416,688;41749,762;-3568,321
 558,39; 1591,284;44188,250;-4145,390
 558,97; 1318,578;47993,887;-3699,470
 559,56; 1168,358;49889,137;-4544,768
 560,15; 1138,939;50117,891;-3611,042
 560,73; 1266,684;49814,152;-4287,867
 561,32; 1739,990;47024,609;-3741,309
 561,90; 1402,386;46041,910;-4382,333
 562,49; 1212,053;48487,371;-3786,348
 563,07; 1071,018;48074,387;-4783,875
 563,66; 1063,237;50064,133;-4352,577
 564,24; 1125,840;49228,145;-4763,531
 564,83;  981,967;51344,664;-4603,607
 565,41; 1161,174;53840,375;-4329,539
 566,00; 1182,407;52202,164;-2755,012
 566,58; 1141,294;56465,375;-3725,729
 567,17;  984,667;56909,508;-4280,642
 567,75;  923,373;52392,871;-4653,562
 568,34;  948,411;55893,770;-3216,466
 568,92;  893,978;55738,793;-3987,947
 569,51;  951,180;54852,895; 2680,576
 570,09;  954,500;58247,391;-4676,638
 570,68; 1035,984;53188,313;-4788,833
 571,26;  983,922;50733,242;-3886,817
 571,85; 1040,000;57347,738;-4822,649
 572,43;  859,535;57011,379;-4704,111
 573,01;  835,415;52662,375;-4873,920
 573,60;  860,588;53819,012;-3785,810
 574,18;  869,248;55122,262;-4514,917
 574,77;  909,333;53284,277;-4737,634
 575,35;  938,588;56113,012;-4452,810
 575,94;  959,290;57300,770;-4076,275
 576,52;  918,730;54049,270;-2249,680
 577,11;  847,779;51620,297;-3244,924
 577,69;  909,162;48685,555;-3183,176
 578,27;  919,383;51008,996;-3447,901
 578,86;  857,439;55198,543;-2994,031
 579,44;  956,986;60080,004;-2805,855
 580,03;  942,478;60164,137;-2493,958
 580,61;  910,971;60267,270;-3206,062
 581,19;  948,123;56429,652;-2538,271
 581,78;  892,424;55361,813;-2364,238
 582,36;  935,914;57656,031;-2911,909
 582,95;  928,889;56180,172;-1497,776
 583,53;  891,957;59586,539;-2319,268
 584,11;  968,337;61608,883;-2241,088
 584,70;  924,606;61691,660;-1948,035
 585,28;  888,102;62070,398;-1853,592
 585,87;  928,711;60436,930;-2889,432
 586,45;  919,439;63023,543;-2375,031
 587,03;  918,272;64945,430;-1150,027
 587,62;  914,159;61494,641;-1834,745
 588,20; 1068,056;62236,285;-1020,779
 588,78;  998,594;58157,840;-3411,673
 589,37; 1024,730;57765,270;-3360,680
 589,95; 1032,531;62238,773;-3385,657
 590,54; 1013,077;63633,539;-3461,459
 591,12; 1097,141;62116,301;-3508,497
 591,70; 1035,737;59586,789;-3331,565
 592,29; 1063,821;62881,805;-2923,283
 592,87; 1006,174;63542,375;-2394,538
 593,45; 1022,701;63404,801; 1487,908
 594,04;  895,215;62800,188;-3676,875
 594,62;  930,386;59709,910;-3708,333
 595,20;  969,629;62066,828;-4371,146
 595,79;  944,935;62681,285;-4165,588
 596,37;  931,162;61108,555;-3657,176
 596,95;  955,527;56922,164;-4321,203
 597,53;  948,411;58806,770;-4226,466
 598,12;  931,229;61848,922;-3959,669
 598,70;  974,595;64932,531;-3776,695
 599,28;  962,174;64911,375;-3404,538
 599,87;  924,014;64929,777;-3061,420
 600,45; 1003,538;64938,293;-3907,543
 601,03; 1000,255;63145,781;-4100,802
 601,62; 1091,215;61727,188;-4468,875
 602,20; 1017,066;59786,414;-4541,119
 602,78;  863,927;64399,070;-4770,680
 603,36;  832,261;64783,301;-3166,688
 603,95;  917,333;58863,277;-4492,634
 604,53;  812,694;62401,281;-4574,207
 605,11;  851,007;59505,258;-2755,535
 605,69;  918,925;62362,156;-3365,249
 606,28;  826,821;62594,805;-4223,283
 606,86;  810,790;61629,422;-3946,264
 607,44;  784,559;60431,547;-3906,222
 608,02;  714,942;58047,805;-4037,474
 608,61;  804,208;60099,668;-2866,989
 609,19;  720,549;58582,418;-2582,882
 609,77;  830,669;57398,422; -710,073
 610,35;  741,616;55748,785; 5794,625
 610,94;  718,470;56509,926;14509,949
 611,52;  689,208;55803,668;12610,011
 612,10;  662,881;53026,957; 8432,133
 612,68;  631,158;56637,949; 2694,278
 613,26;  803,041;57037,551; 2032,015
 613,85;  805,591;61759,926; -599,241
 614,43;  644,868;62306,918;-1030,096
 615,01;  578,058;62272,199;-1215,211
 615,59;  619,310;64874,328; -972,932
 616,17;  626,882;59402,648;-2561,890
 616,76;  669,578;62178,887;-2993,470
 617,34;  715,901;62666,988;-2389,138
 617,92;  671,411;58547,770;-3399,466
 618,50;  675,123;61202,652;-2562,271
 619,08;  710,035;57928,031;-2514,100
 619,67;  669,407;55968,164;-3196,012
 620,25;  580,159;54290,641;-2743,745
 620,83;  579,538;50498,293;-3495,543
 621,41;  660,460;52314,797;-2800,711
 621,99;  615,449;54560,672;-2529,371
 622,57;  690,599;55529,141;-3707,149
 623,15;  706,018;56213,387;-3783,875
 623,74;  673,724;58266,746;-3892,794
 624,32;  695,326;59330,754;-2827,749
 624,90;  665,663;58625,898;-2311,188
 625,48;  602,878;57897,043;-3132,436
 626,06;  593,500;56898,391;-4006,638
 626,64;  584,986;57787,004;-4162,855
 627,22;  497,191;58993,020;-3409,764
 627,81;  444,912;58046,117;-4334,478
 628,39;  483,961;57121,145;-4560,722
 628,97;  522,659;56597,293;-4437,733
 629,55;  552,844;55377,750;-4219,985
 630,13;  593,971;55669,270;-2959,062
 630,71;  522,060;54162,891;-2747,233
 631,29;  586,333;53129,277;-3824,634
 631,87;  533,546;52776,504;-4223,451
 632,45;  523,882;52786,648;-4716,890
 633,03;  580,064;54183,500;-4191,688
 633,62;  551,694;55423,281;-4714,207
 634,20;  512,010;54882,172;-4089,966
 634,78;  501,624;56497,000;-4430,283
 635,36;  565,641;56701,648;-4449,508
 635,94;  559,897;55183,383;-5398,684
 636,52;  583,400;51027,645;-5422,126
 637,10;  543,527;52116,164;-5488,203
 637,68;  486,233;50694,527;-4702,123
 638,26;  494,965;47618,750;-5536,176
 638,84;  513,904;48688,902;-5421,569
 639,42;  603,527;49235,164;-3756,203
 640,00;  664,958;51366,148;-5405,726
 640,58;  700,735;54579,402;-4806,027
 641,16;  585,513;55521,656;-5571,328
 641,74;  588,290;53214,906;-5433,630
 642,32;  542,068;50106,160;-5620,931
 642,90;  518,845;50434,414;-5856,232
 643,48;  488,622;49231,668;-5786,534
 644,06;  489,400;49280,922;-5796,835
 644,64;  508,177;49595,176;-5842,137
 645,22;  382,954;50513,430;-5562,438
 645,80;  413,732;50547,684;-4957,740
 646,39;  444,509;48107,938;-5515,041
 646,97;  416,287;49773,191;-5850,342
 647,54;  434,064;52328,441;-5717,644
 648,12;  370,842;54879,695;-5865,945
 648,70;  494,619;58954,949;-5885,247
 649,28;  507,396;56421,203;-6090,548
 649,86;  507,174;51091,457;-5609,850
 650,44;  441,951;48619,711;-5452,151
 651,02;  456,729;49970,965;-5474,452
 651,60;  414,506;51793,219;-5803,753
 652,18;  426,283;51320,473;-4735,055
 652,76;  382,061;53277,723;-5934,356
 653,34;  403,838;54817,977;-5939,658
 653,92;  428,616;57729,230;-5784,959
 654,50;  465,393;59042,484;-5818,261
 655,08;  495,170;58048,738;-5841,562
 655,66;  502,948;55058,992;-5115,863
 656,24;  529,725;56743,246;-5200,165
 656,82;  576,503;58989,500;-4979,466
 657,40;  482,280;58967,754;-5667,768
 657,98;  433,057;60169,008;-5486,069
 658,56;  440,835;61114,258;-5717,371
 659,14;  442,612;61380,512;-5913,672
 659,72;  489,390;63381,766;-5916,973
 660,29;  338,167;62437,020;-5907,275
 660,87;  381,944;59738,273;-5212,576
 661,45;  373,722;58590,527;-5664,877
 662,03;  396,499;57513,781;-4971,179
 662,61;  405,277;54945,035;-5638,480
 663,19;  382,054;54618,289;-5657,782
 663,77;  347,831;53917,543;-5939,083
 664,35;  317,609;56689,793;-5887,384
 664,93;  344,386;62595,047;-4922,686
 665,51;  363,164;61993,301;-6033,987
 666,08;  322,941;57747,555;-5652,289
 666,66;  347,719;51859,809;-4400,590
 667,24;  408,496;49420,063;-5952,892
 667,82;  384,273;50250,316;-5849,193
 668,40;  389,051;50723,570;-5932,494
 668,98;  404,828;51952,824;-5097,796
 669,56;  353,606;57957,078;-6096,097
 670,13;  435,383;61797,328;-6222,398
 670,71;  471,160;59698,582;-5900,700
 671,29;  419,938;57209,836;-6139,001
 671,87;  323,715;56814,090;-6051,303
 672,45;  321,493;51822,344;-6050,604
 673,03;  396,270;52592,598;-4769,906
 673,60;  346,047;58431,852;-3503,207
 674,18;  374,825;63679,105;-5938,508
 674,76;  334,602;61159,359;-6226,810
 675,34;  365,380;56361,613;-5251,111
 675,92;  304,157;55284,863;-6338,413
 676,50;  364,934;55051,117;-6085,714
 677,07;  311,712;56952,371;-6095,016
 677,65;  375,489;56680,625;-6163,317
 678,23;  360,267;55997,879;-5057,618
 678,81;  366,044;58016,133;-5299,919
 679,38;  359,821;56669,387;-5969,221
 679,96;  333,599;53267,641;-5846,522
 680,54;  329,376;55171,895;-5308,824
 681,12;  305,154;52485,148;-6126,125
 681,70;  295,931;54786,398;-4413,427
 682,27;  332,708;54740,652;-5851,728
 682,85;  307,486;58265,906;-5991,029
 683,43;  359,263;64943,160;-6140,331
 684,01;  317,041;64943,414;-5172,632
 684,58;  330,818;64307,668;-5138,934
 685,16;  380,595;64236,922;-4494,235
 685,74;  404,373;62790,176;-3853,536
 686,32;  298,150;59009,430;-6012,838
 686,89;  342,928;59552,684;-6015,139
 687,47;  339,705;59534,934;-6076,441
 688,05;  320,483;56416,188;-6019,742
 688,63;  290,260;59626,441;-6102,043
 689,20;  301,037;62884,695;-5971,345
 689,78;  330,815;58427,949;-5530,646
 690,36;  335,592;54291,203;-5381,948
 690,93;  311,370;54968,457;-6355,249
 691,51;  328,147;61453,711;-6326,550
 692,09;  325,924;64946,965;-6223,852
 692,67;  312,702;64947,219;-6047,153
 693,24;  302,479;60968,469;-5803,455
 693,82;  308,257;59538,723;-6235,756
 694,40;  369,034;58049,977;-3570,058
 694,97;  297,811;57456,230;-6046,359
 695,55;  284,589;59820,484;-5464,660
 696,13;  289,366;61729,738;-4454,962
 696,70;  306,144;58594,992;-6029,263
 697,28;  304,921;59108,246;-6266,564
 697,86;  274,698;60837,500;-6030,866
 698,43;  304,476;58827,754;-6198,167
 699,01;  304,253;55595,004;-6051,469
 699,59;  349,031;55751,258;-6402,770
 700,16;  307,808;54174,512;-5257,072
 700,74;  308,585;57040,766;-5497,373
 701,32;  271,363;56440,020;-6233,674
 701,89;  261,140;55792,273;-6049,976
 702,47;  297,918;60296,527;-6466,277
 703,05;  296,695;64951,781;-6309,579
 703,62;  247,472;64952,035;-6227,880
 704,20;  260,250;64952,285;-5306,182
 704,77;  273,027;64952,539;-6118,483
 705,35;  211,805;64213,793;-6006,784
 705,93;  234,582;64327,047;-4922,085
 706,50;  302,359;63796,301;-5267,387
 707,08;  234,137;60606,555;-5284,688
 707,65;  268,914;60046,809;-5620,990
 708,23;  253,692;64881,063;-5431,292
 708,81;  243,469;64954,316;-5019,593
 709,38;  273,247;64954,570;-5001,894
 709,96;  307,024;64954,820;-6025,195
 710,53;  253,801;64955,074;-6007,497
 711,11;  228,579;61503,328;-5752,798
 711,69;  227,356;61913,582;-3821,100
 712,26;  262,134;59012,836;-4642,401
 712,84;  246,911;63346,090;-5947,703
 713,41;  299,688;64411,344;-6153,004
 713,99;  267,466;64924,598;-6068,305
 714,56;  296,243;62057,852;-6326,607
 715,14;  288,021;60312,105;-6198,908
 715,71;  291,798;60246,355;-6210,209
 716,29;  332,575;62893,609;-6648,511
 716,86;  294,353;63573,863;-6510,813
 717,44;  270,130;63263,117;-6424,114
 718,02;  319,908;62110,371;-6462,415
 718,59;  343,685;61013,625;-5121,716
 719,17;  254,462;63488,879;-5649,018
 719,74;  299,240;62907,133;-5756,319
 720,32;  253,017;63502,387;-6451,621
 720,89;  259,795;64959,641;-6422,922
 721,47;  237,572;64959,891;-6388,224
 722,04;  284,349;64960,145;-5502,525
 722,62;  221,127;64252,398;-3979,826
 723,19;  251,904;60250,652;-4938,128
 723,77;  202,682;57638,906;-5673,429
 724,34;  261,459;60150,160;-5576,730
 724,92;  207,236;63789,414;-6558,032
 725,49;  235,014;64961,668;-5666,333
 726,07;  262,791;64961,922;-6491,635
 726,64;  259,569;64627,176;-6587,936
 727,21;  267,346;60249,426;-5627,238
 727,79;  220,123;63706,680;-6444,539
 728,36;  271,901;64962,934;-6722,840
 728,94;  317,678;64963,188;-6535,142
 729,51;  219,456;64963,441;-6365,443
 730,09;  227,233;64963,695;-5545,745
 730,66;  260,010;64963,949;-6358,046
 731,24;  213,788;64964,203;-6577,348
 731,81;  282,565;64964,457;-5151,649
 732,38;  227,343;64964,711;-6492,950
 732,96;  261,120;64964,961;-6263,251
 733,53;  252,898;60347,215;-6389,553
 734,11;  259,675;61575,469;-6617,854
 734,68;  298,452;64965,723;-6211,156
 735,26;  268,230;64965,977;-6389,458
 735,83;  201,007;64966,230;-6498,759
 736,40;  250,785;62243,484;-6516,060
 736,98;  282,562;61999,738;-6374,361
 737,55;  237,339;59236,992;-5827,663
 738,13;  274,117;57707,246;-5702,964
 738,70;  282,894;60991,496;-5529,266
 739,27;  271,672;62504,750;-6452,567
 739,85;  275,449;62745,004;-6283,869
 740,42;  298,226;64968,258;-6464,170
 740,99;  321,004;64968,512;-5618,471
 741,57;  306,781;64968,766;-4867,773
 742,14;  327,559;64969,020;-5349,074
 742,72;  323,336;64969,273;-4751,375
 743,29;  296,113;64969,527;-6563,677
 743,86;  319,891;64969,781;-6538,979
 744,44;  410,668;64970,031;-6113,280
 745,01;  342,446;64970,285;-5760,581
 745,58;  326,223;64970,539;-6259,882
 746,16;  375,000;64970,793;-6188,184
 746,73;  366,778;64971,047;-6479,485
 747,30;  335,555;61139,301;-6536,787
 747,88;  333,333;59621,555;-5621,088
 748,45;  351,110;64971,809;-5668,390
 749,02;  425,887;64972,063;-6384,691
 749,60;  463,665;62401,313;-6212,992
 750,17;  419,442;61766,566;-5269,294
 750,74;  476,220;62801,820;-6479,595
 751,31;  490,997;63306,074;-6347,896
 751,89;  382,775;64232,328;-6546,198
 752,46;  429,552;64973,582;-6282,500
 753,03;  395,329;64973,836;-6160,801
 753,61;  345,107;63755,090;-4858,102
 754,18;  294,884;64573,344;-6434,404
 754,75;  372,662;63888,598;-5191,705
 755,32;  315,439;60715,848;-6332,006
 755,90;  332,216;64975,102;-6493,308
 756,47;  310,994;64975,355;-4809,609
 757,04;  313,771;64975,609;-6457,911
 757,61;  314,549;64975,863;-5553,212
 758,19;  338,326;64976,117;-5253,514
 758,76;  330,103;64976,371;-6603,815
 759,33;  253,881;64976,625;-6664,116
 759,90;  254,658;64976,879;-5714,417
 760,48;  273,436;64977,133;-6778,719
 761,05;  263,213;64977,383;-6083,021
 761,62;  266,990;62082,637;-4888,322
 762,19;  226,768;58992,891;-6144,624
 762,77;  236,545;61730,145;-5963,925
 763,34;  200,323;64978,398;-6610,226
 763,91;  191,100;64978,652;-5818,527
 764,48;  218,877;64978,906;-6756,829
 765,05;  272,655;64979,160;-6543,130
 765,63;  241,432;63215,414;-6417,432
 766,20;  255,210;59753,668;-6004,733
 766,77;  255,987;57105,918;-5921,035
 767,34;  183,764;58807,172;-6640,336
 767,91;  164,542;59176,426;-6689,637
 768,49;  223,319;61368,680;-6772,939
 769,06;  184,097;64980,934;-5832,240
 769,63;  201,874;62272,188;-6636,542
 770,20;  243,651;59567,441;-5868,843
 770,77;  148,429;57921,695;-5645,145
 771,34;  173,206;60065,949;-6615,446
 771,91;  223,984;60549,203;-6102,747
 772,49;  214,761;58558,453;-6369,048
 773,06;  183,538;57687,707;-6203,350
 773,63;  177,316;60204,961;-6639,651
 774,20;  232,093;58197,215;-5918,953
 774,77;  296,871;56475,469;-6631,254
 775,34;  308,648;56707,723;-6214,556
 775,91;  420,426;57056,977;-6417,857
 776,49;  665,203;58787,230;-6590,158
 777,06;  918,980;60761,484;-6015,460
 777,63;  776,758;64224,738;-6367,761
 778,20;  476,535;62572,988;-6250,063
 778,77;  362,313;63316,242;-5763,364
 779,34;  249,090;64985,496;-6585,666
 779,91;  221,867;64985,750;-6534,967
 780,48;  186,645;59144,004;-5853,268
 781,05;  192,422;50716,258;-6586,570
 781,62;  189,200;52124,512;-6604,871
 782,20;  181,977;58813,766;-6500,172
 782,77;  224,754;64987,020;-6529,474
 783,34;  186,532;64052,273;-6522,775
 783,91;  167,309;61362,523;-6509,077
 784,48;  138,087;60480,777;-2126,378
 785,05;  145,864;59144,031;-6540,680
 785,62;  123,641;58221,285;-6452,981
 786,19;  200,419;58149,539;-5100,282
 786,76;  124,196;55130,793;-6677,583
 787,33;  167,974;56202,047;-6515,885
 787,90;  117,751;59491,301;-6591,187
 788,47;  136,528;60148,555;-5075,488
 789,04;  142,306;58988,809;-5763,790
 789,61;  156,083;58863,059;-5066,091
 790,18;  173,861;55747,313;-6561,392
 790,75;  152,638;50841,566;-6671,693
 791,32;  184,415;52056,820;-6577,995
 791,89;  163,193;55205,074;-6068,296
 792,46;  169,970;60806,328;-5763,598
 793,03;  194,748;62404,582;-6702,899
 793,60;  259,525;55699,836;-6440,201
 794,17;  199,303;52257,090;-5569,502
 794,74;  287,080;47273,344;-5886,803
 795,31;  227,857;50096,594;-6099,105
 795,88;  160,635;52579,848;-5572,406
 796,45;  104,412;53365,102;-6529,708
 797,02;  100,190;56004,355;-5046,009
 797,59;  121,967;57922,609;-6675,311
 798,16;  162,744;54563,863;-5861,612
 798,73;   82,522;53534,117;-6761,913
 799,30;  142,299;55088,371;-6611,214
 799,87;  124,077;55650,625;-6713,516
 800,44;  102,854;55353,875;-6729,817
 801,01;   61,631;56836,129;-6807,119
 801,58;  163,409;58477,383;-6537,420
 802,15;  135,186;52086,637;-6658,722
 802,72;  117,964;48849,891;-6694,023
 803,28;  104,741;52000,145;-6076,324
 803,85;  186,518;57179,398;-6728,626
 804,42;  173,296;55235,652;-5999,927
 804,99;  117,073;53752,906;-6539,229
 805,56;   97,851;52472,160;-6770,530
 806,13;  117,628;53387,410;-6075,832
 806,70;   80,405;52719,664;-6748,133
 807,27;  105,183;54477,918;-6672,434
 807,84;   82,960;52786,172;-6693,736
 808,41;  103,738;49728,426;-6022,037
 808,98;   79,515;50479,680;-5986,338
 809,54;   88,292;52469,934;-4958,640
 810,11;   71,070;48281,188;-6782,941
 810,68;   87,847;43021,441;-6680,243
 811,25;   67,625;41394,695;-6760,544
 811,82;   89,402;40374,945;-6886,846
 812,39;   94,179;37710,199;-3331,147
 812,96;   82,957;38779,453;-6767,448
 813,52;  115,734;41291,707;-6937,750
 814,09;   87,512;44522,961;-6766,051
 814,66;   88,289;50325,215;-6827,353
 815,23;   86,067;51240,469;-6669,654
 815,80;   40,844;50439,723;-5853,956
 816,37;   94,621;50917,977;-6801,257
 816,93;   58,399;49487,230;-6731,558
 817,50;  109,176;46790,480;-6102,859
 818,07;  113,954;46034,734;-6960,161
 818,64;  130,731;46919,988;-6856,462
 819,21;  117,508;46261,242;-6053,764
 819,77;  157,286;42742,496;-6571,065
 820,34;  119,063;42053,750;-6677,367
 820,91;  216,841;43276,004;-6469,668
 821,48;  233,618;43873,258;-6689,969
 822,05;  254,395;45571,512;-5875,271
 822,61;  192,173;44296,766;-5631,572
 823,18;  152,950;41860,016;-6620,874
 823,75;  147,728;42585,270;-6957,175
 824,32;   94,505;45286,523;-6923,477
 824,88;  132,282;45073,777;-6882,778
 825,45;   87,060;44018,031;-6899,079
 826,02;   99,837;43798,285;-6643,380
 826,59;  124,615;43974,539;-6639,682
 827,15;  104,392;46077,793;-6906,983
 827,72;  105,169;49519,047;-6723,285
 828,29;   79,947;51523,301;-6895,586
 828,86;  118,724;48827,551;-6791,888
 829,42;   72,502;40797,805;-6812,189
 829,99;   66,279;36802,059;-6647,490
 830,56;   41,056;36252,313;-6869,792
 831,13;   53,834;37220,566;-6060,093
 831,69;   39,611;38022,820;-6506,395
 832,26;  108,389;38832,074;-5062,696
 832,83;  107,166;40408,328;-5452,998
 833,39;   83,943;40187,582;-6904,299
 833,96;  108,721;39167,836;-6687,600
 834,53;   51,498;40039,086;-6928,902
 835,10;   67,276;39930,340;-6529,203
 835,66;   39,053;38972,594;-6920,504
 836,23;   84,831;39801,848;-6803,806
 836,80;   17,608;39428,102;-6790,107
 837,36;   94,385;37086,355;-6810,409
 837,93;   66,163;34475,609;-6902,710
 838,50;  127,940;35084,863;-6789,012
 839,06;   72,718;37684,117;-6288,313
 839,63;   63,495;37191,371;-6895,614
 840,19;   63,272;35132,621;-6607,916
 840,76;   61,050;35364,875;-6404,217
 841,33;   31,827;35892,129;-6509,519
 841,89;   72,605;36779,383;-6949,820
 842,46;   31,382;37103,637;-6751,122
 843,03;  125,159;35389,891;-6089,423
 843,59;   29,937;34224,145;-6403,724
 844,16;  137,714;34994,398;-6181,025
 844,73;  219,492;34249,652;-6067,327
 845,29;  137,269;32937,902;-5695,628
 845,86;   82,046;35699,156;-6800,930
 846,42;   19,824;36940,410;-7004,231
 846,99;   85,601;36477,664;-6967,533
 847,56;   46,379;36265,918;-5840,834
 848,12;   43,156;36240,172;-6745,135
 848,69;   75,933;35710,426;-6715,437
 849,25;   36,711;34401,680;-6845,738
 849,82;   13,488;34081,934;-3247,040
 850,38;   51,266;35064,188;-6840,341
 850,95;   54,043;32489,439;-6324,643
 851,52;   63,820;32520,693;-6565,944
 852,08;   18,598;32548,947;-6691,245
 852,65;   32,375;30323,199;-7005,546
 853,21;    3,153;27698,453;-6958,848
 853,78;   -3,070;27362,707;-6363,149
 854,34;   33,707;28860,961;-6871,451
 854,91;  -13,515;29081,215;-5086,752
 855,47;   21,262;29942,467;-5108,054
 856,04;   61,040;32027,721;-6746,355
 856,60;   19,817;33961,973;-6104,656
 857,17;   43,595;34979,227;-6840,958
 857,73;   22,372;33553,480;-6811,259
 858,30;   31,149;32532,734;-6985,561
 858,86;   18,927;31110,988;-5926,862
 859,43;   34,704;31430,242;-6226,164
 859,99;   28,482;32011,496;-6852,465
 860,56;  -10,741;33126,750;-6903,766
 861,12;   10,036;35190,004;-6737,068
 861,69;  -32,186;33669,258;-5924,369
 862,25;   25,591;34731,508;-6821,670
 862,82;   16,369;34419,762;-5972,972
 863,38;   34,146;31196,018;-6843,273
 863,95;   30,923;29305,270;-6239,575
 864,51;   43,701;30403,523;-5287,876
 865,08;   68,478;29284,777;-6090,178
 865,64;   23,256;26795,031;-7018,479
 866,21;   22,033;26131,285;-6745,780
 866,77;   12,810;26051,537;-5552,082
 867,34;   82,588;25734,791;-6672,383
 867,90;   77,365;24632,045;-6303,685
 868,46;  114,143;23835,299;-6041,986
 869,03;   39,920;24389,551;-6929,288
 869,59;   48,697;26353,805;-6884,589
 870,16;   43,475;27647,059;-6052,890
 870,72;   45,252;30060,313;-6657,191
 871,28;  -10,970;32915,566;-5992,493
 871,85;   53,807;33142,820;-6907,794
 872,41;   22,584;31569,072;-6004,096
 872,98;   33,362;32738,326;-6050,397
 873,54;  -11,861;33876,578;-5920,699
 874,10;   67,917;32768,832;-5876,000
 874,67;   36,917;32987,832;-6904,000
 875,23;  -19,083;31068,834;-7032,000
 875,80;   40,917;28009,834;-6641,000
 876,36;    9,917;25058,834;-6642,000
 876,92;  -24,083;22832,834;-6189,000
 877,49;   10,917;23923,834;-6517,000
 878,05;   -5,083;24896,834;-6797,000
 878,61;   22,917;26938,834;-6812,000
 879,18;   -9,083;27553,834;-6252,000
 879,74;   27,917;28076,834;-6720,000
 880,30;    3,917;28679,834;-5926,000
 880,87;  -30,083;28852,834;-6326,000
 881,43;   29,917;29533,834;-6871,000
 881,99;   27,917;27306,834;-6879,000
 882,56;  -22,083;27610,834;-6661,000
 883,12;    1,917;29049,834;-5740,000
 883,68;   -1,083;29120,834;-6518,000
 884,25;    6,917;28300,834;-6949,000
 884,81;  -10,083;26343,834;-6701,000
 885,37;  -35,083;24221,834;-6786,000
 885,94;  -19,083;22940,834;-6851,000
 886,50;   33,917;23098,834;-6886,000
 887,06;   11,917;24358,834;-6796,000
 887,62;   32,917;25019,834;-6866,000
 888,19;   -7,083;25774,834;-5986,000
 888,75;   14,917;26542,834;-6821,000
 889,31;    8,917;29043,834;-6778,000
 889,87;   25,917;30537,834;-6723,000
 890,44;   40,917;30349,834;-6696,000
 891,00;   -9,083;28757,834;-6786,000
 891,56;   19,917;26457,834;-6998,000
 892,12;   34,917;24463,834;-6754,000
 892,69;   42,917;25310,834;-6373,000
 893,25;   12,917;28798,834;-6877,000
 893,81;    1,917;31774,834;-6696,000
 894,37;   47,917;31330,834;-6342,000
 894,94;   11,917;28713,834;-6772,000
 895,50;   39,917;26035,834; -212,000
 896,06;   30,917;24749,834;-6810,000
 896,62;   72,917;23405,834;-6707,000
 897,18;   75,917;24661,834;-6518,000
 897,75;   81,917;27406,834;-6895,000
 898,31;   65,917;27887,834;-6849,000
 898,87;   99,917;26274,834;-6860,000
 899,43;   60,917;25164,834;-6469,000
 899,99;   67,917;26592,834;-6866,000
 900,56;   94,917;25515,834;-6791,000
 901,12;   66,917;24875,834;-6890,000
 901,68;  103,917;27903,834;-6267,000
 902,24;   78,917;31800,834;-5930,000
 902,80;   97,917;32652,834;-6794,000
 903,36;  149,917;31893,834;-6691,000
 903,93;  261,917;32139,834;-6646,000
 904,49;  545,917;32761,834;-6913,000
 905,05; 1627,917;30952,834;-6732,000
 905,61; 3976,917;28208,834;-6832,000
 906,17; 7116,917;28086,834;-6901,000
 906,73;11142,917;25975,834;-5380,000
 907,29;14728,917;24960,834;-6910,000
 907,86;16833,916;25118,834;-6827,000
 908,42;16506,916;28092,834;-6795,000
 908,98;13656,917;31123,834;-5908,000
 909,54; 7595,917;38813,832;-6885,000
 910,10; 2424,917;48220,832;-6634,000
 910,66;  506,917;57581,832;-6781,000
 911,22;  155,917;65027,832;-6761,000
 911,78;  126,917;62593,832;-6841,000
 912,34;   61,917;53256,832;-6080,000
 912,90;   82,917;44610,832;-5232,000
 913,46;  109,917;37052,832;-6876,000
 914,03;   39,917;30620,834;-5746,000
 914,59;   71,917;27452,834;-6682,000
 915,15;   56,917;24908,834;-6891,000
 915,71;   33,917;24217,834;-6863,000
 916,27;   12,917;23800,834;-6723,000
 916,83;   31,917;23006,834;-5824,000
 917,39;   37,917;21742,834;-3512,000
 917,95;   46,917;20224,834;-6009,000
 918,51;    2,917;19972,834;-6583,000
 919,07;   10,917;21780,834;-6791,000
 919,63;  -28,083;23295,834;-6661,000
 920,19;  -37,083;23935,834;-6865,000
 920,75;   31,917;23112,834;-6640,000
 921,31;  -40,083;21484,834;-4837,000
 921,87;  -14,083;20216,834;-6845,000
 922,43;  -30,083;18019,834;-5626,000
 922,99;    9,917;17321,834;-6706,000
 923,55;   35,917;18674,834;-6655,000
 924,11;   37,917;19094,834;-6976,000
 924,67;    4,917;19310,834;-6962,000
 925,23;   26,917;19485,834;-6778,000
 925,79;    4,917;20122,834;-6710,000
 926,35;   37,917;20219,834;-6573,000
 926,91;   38,917;19401,834;-6909,000
 927,47;   -9,083;19367,834;-6660,000
 928,03;   45,917;20294,834;-6786,000
 928,59;   20,917;20503,834;-6678,000
 929,15;   56,917;20781,834;-6792,000
 929,71;   35,917;22016,834;-6840,000
 930,27;   49,917;23587,834;-6537,000
 930,82;   10,917;25573,834;-6728,000
 931,38;   -3,083;24317,834;-5852,000
 931,94;  -49,083;22672,834;-6843,000
 932,50;   -0,083;21252,834;-6481,000
 933,06;   -5,083;20895,834;-6768,000
 933,62;    3,917;21092,834;-6443,000
 934,18;   24,917;20632,834;-6727,000
 934,74;    1,917;21320,834;-6709,000
 935,30;   65,917;22030,834;-6484,000
 935,86;   13,917;21213,834;-6505,000
 936,42;    7,917;20702,834;-6873,000
 936,97;   14,917;21656,834;-6563,000
 937,53;  -17,083;20552,834;-6826,000
 938,09;    2,917;21087,834;  123,000
 938,65;  -13,083;21186,834;-6268,000
 939,21;   -0,083;20179,834;-6708,000
 939,77;  -10,083;18946,834;-6213,000
 940,33;   15,917;18602,834;-6748,000
 940,88;   -2,083;19429,834;-5908,000
 941,44;   17,917;21301,834;-6983,000
 942,00;  -46,083;23225,834;-6697,000
 942,56;   10,917;24231,834;-6604,000
 943,12;   21,917;23427,834;-5907,000
 943,68;  -11,083;22950,834;-5679,000
 944,23;   20,917;23124,834;-6749,000
 944,79;  -53,083;22674,834;-6102,000
 945,35;  -38,083;20741,834;-6599,000
 945,91;   46,917;19519,834;-6767,000
 946,47;  -19,083;19827,834;-3353,000
 947,03;  -19,083;19896,834;-6850,000
 947,58;  -22,083;19661,834;-6840,000
 948,14;   22,917;20790,834;-5897,000
 948,70;  -30,083;19573,834;-5855,000
 949,26;    4,917;18881,834;-6616,000
 949,81;  -19,083;18342,834;-6644,000
 950,37;  -21,083;18686,834;-6695,000
 950,93;   47,917;17993,834;-6224,000
 951,49;  -41,083;17568,834;-6057,000
 952,05;   -3,083;17926,834;-6571,000
 952,60;  -13,083;17299,834;-6951,000
 953,16;  -46,083;16933,834;-5783,000
 953,72;  -44,083;15628,833;-5813,000
 954,27;  -38,083;15524,833;-6566,000
 954,83;  -27,083;15317,833;-6703,000
 955,39;  -40,083;14917,833;-6691,000
 955,95;  -29,083;14456,833;-6849,000
 956,50;  -38,083;14272,833;-6698,000
 957,06;  -15,083;14126,833;-5922,000
 957,62;  -17,083;13780,833;-6559,000
 958,18;  -26,083;13872,833;-6741,000
 958,73;  -18,083;13326,833;-6820,000
 959,29;   10,917;13518,833;-6106,000
 959,85;  -47,083;14785,833;-6864,000
 960,40;   -2,083;16746,834;-4263,000
 960,96;   22,917;16386,834;-6738,000
 961,52;   -9,083;14755,833;-6643,000
 962,07;  -62,083;13711,833;-6742,000
 962,63;  -27,083;13208,833;-6723,000
 963,19;  -51,083;13435,833;-5779,000
 963,74;  -18,083;13877,833;-6582,000
 964,30;  -50,083;14475,833;-6595,000
 964,86;  -29,083;14281,833;-6484,000
 965,41;    4,917;14290,833;-6705,000
 965,97;  -59,083;14185,833;-6569,000
 966,53;  -15,083;14792,833;-6750,000
 967,08;    2,917;15311,833;-6611,000
 967,64;   -8,083;15082,833;-6705,000
 968,19;  -39,083;14471,833;-6684,000
 968,75;    2,917;14662,833;-6566,000
 969,31;    4,917;14880,833;-5626,000
 969,86;  -24,083;14995,833;-6505,000
 970,42;  -24,083;13195,833;-6620,000
 970,97;  -17,083;11567,833;-6437,000
 971,53;  -52,083;11625,833;-6490,000
 972,09;  -41,083;12998,833;-6646,000
 972,64;   -4,083;13523,833;-5812,000
 973,20;  -32,083;13815,833;-6599,000
 973,75;   -6,083;14605,833;-5760,000
 974,31;   15,917;14826,833;-6578,000
 974,87;  -10,083;14921,833;-6674,000
 975,42;  -42,083;14507,833;-6727,000
 975,98;  -56,083;13201,833;-6651,000
 976,53;  -25,083;12100,833;-6555,000
 977,09;  -70,083;11353,833;-4624,000
 977,64;  -69,083;11164,833;-6532,000
 978,20;   -5,083;10649,833;-6585,000
 978,75;  -14,083;10482,833;-6429,000
 979,31;    1,917;10950,833;-6513,000
 979,86;  -43,083;12220,833;-6739,000
 980,42;  -60,083;12828,833;-5813,000
 980,97;  -60,083;13290,833;-6642,000
 981,53;   24,917;14285,833;-6636,000
 982,08;  -15,083;13803,833;-5046,000
 982,64;  -37,083;12278,833;-6237,000
 983,19;  -50,083;11308,833;-6760,000
 983,75;  -24,083;10993,833;-6576,000
 984,30;  -37,083;10430,833;-5581,000
 984,86;  -49,083; 9867,833;-5898,000
 985,41;  -12,083; 9457,833;-6634,000
 985,97;    0,917; 9632,833;-4797,000
 986,52;  -16,083; 9894,833;-5853,000
 987,08;  -26,083; 9953,833;-6174,000
 987,63;  -16,083;10165,833;-5608,000
 988,19;   15,917;11252,833;-6266,000
 988,74;  -19,083;11710,833;-5682,000
 989,30;    3,917;11529,833;-6568,000
 989,85;  -17,083;11470,833; -276,000
 990,40;  -28,083;11314,833;-6617,000
 990,96;  -16,083;11060,833;-6482,000
 991,51;   -7,083;11149,833;-6578,000
 992,07;  -26,083;10742,833;-6605,000
 992,62;  -38,083;10285,833;-6519,000
 993,18;  -30,083;10035,833;-6504,000
 993,73;  -40,083; 9986,833;-6440,000
 994,28;  -31,083; 9800,833;-6464,000
 994,84;   -1,083; 9019,833;-6240,000
 995,39;  -21,083; 8474,833;-2971,000
 995,94;    0,917; 7953,833;-5673,000
 996,50;  -24,083; 7647,833;-6543,000
 997,05;  -27,083; 7872,833;-3481,000
 997,61;   -0,083; 8363,833;-6489,000
 998,16;  -30,083; 8581,833;-6555,000
 998,71;  -25,083; 8850,833;-6340,000
 999,27;  -38,083; 9115,833;-5223,000
 999,82;  -31,083; 8706,833;-4778,000
1000,37;  -32,083; 8661,833;-6520,000
1000,93;    6,917; 8920,833;-6107,000
1001,48;   -8,083; 8799,833;-6543,000
1002,03;  -53,083; 8477,833;-6469,000
1002,59;   20,917; 8715,833;-5972,000
1003,14;  -24,083; 8758,833;-6113,000
1003,69;  -50,083; 8484,833;-6513,000
1004,25;  -62,083; 8299,833;-6507,000
1004,80;  -10,083; 8322,833;-6266,000
1005,35;    2,917; 8313,833;-6361,000
1005,91;   45,917; 8515,833;-6558,000
1006,46;  -49,083; 8426,833;-6084,000
1007,01;  -23,083; 8227,833;-5479,000
1007,56;   -5,083; 8599,833;-6440,000
1008,12;  -28,083; 8342,833;-6178,000
1008,67;  -21,083; 7867,833;-6312,000
1009,22;  -18,083; 7509,833;-6481,000
1009,78;  -19,083; 7205,833;-6163,000
1010,33;  -38,083; 6649,833;-6443,000
1010,88;  -54,083; 6413,833;-5618,000
1011,43;  -14,083; 5995,833;-6433,000
1011,99;  -17,083; 5972,833;-6198,000
1012,54;   14,917; 6320,833;-6387,000
1013,09;    0,917; 6048,833;-6299,000
1013,64;  -11,083; 5802,833;-6362,000
1014,19;  -57,083; 5823,833;-6442,000
1014,75;   13,917; 5928,833;-6408,000
1015,30;   11,917; 6394,833;-6425,000
1015,85;   16,917; 6370,833;-6367,000
1016,40;    2,917; 6247,833;-5436,000
1016,96;   29,917; 6235,833;-6268,000
1017,51;    8,917; 6150,833;-6351,000
1018,06;   -8,083; 6095,833;-6310,000
1018,61;  -39,083; 5695,833;-6665,000
1019,16;  -50,083; 5609,833;-6697,000
1019,71;   36,917; 5663,833;-6373,000
1020,27;    6,917; 5567,833;-6353,000
1020,82;   -6,083; 5375,833;-3700,000
1021,37;    0,917; 5405,833;-4798,000
1021,92;    4,917; 5984,833;-6454,000
1022,47;    0,917; 5965,833;-6548,000
1023,02;   15,917; 5463,833;-6512,000
1023,58;   26,917; 5045,833;-6573,000
1024,13;   36,917; 4730,833;-6258,000
1024,68;   16,917; 4434,833;-6298,000
1025,23;   50,917; 4324,833;-5525,000
1025,78;   21,917; 4613,833;-6475,000
1026,33;   43,917; 4932,833;-5510,000
1026,88;   50,917; 4843,833;-6236,000
1027,43;   40,917; 5167,833;-6276,000
1027,99;   41,917; 5134,833;-6002,000
1028,54;   56,917; 4732,833;-6395,000
1029,09;   73,917; 4106,833;-2478,000
1029,64;   95,917; 3919,833;-6303,000
1030,19;  110,917; 4147,833;-3821,000
1030,74;  170,917; 4243,833;-5134,000
1031,29;  178,917; 4284,833;-4765,000
1031,84;  216,917; 4491,833;-6300,000
1032,39;  225,917; 4563,833;-5403,000
1032,94;  283,917; 4617,833;-4326,000
1033,49;  327,917; 4361,833;-5476,000
1034,04;  421,917; 4236,833;-6312,000
1034,59;  462,917; 4205,833;-6507,000
1035,14;  444,917; 4117,833;-6145,000
1035,69;  581,917; 4318,833;-6224,000
1036,24;  563,917; 4104,833;-4477,000
1036,80;  608,917; 3986,833;-5453,000
1037,35;  599,917; 4138,833;-6347,000
1037,90;  706,917; 4172,833;-6274,000
1038,45;  704,917; 4201,833;-6419,000
1039,00;  711,917; 4340,833;-5490,000
1039,55;  718,917; 4229,833;-6284,000
1040,10;  945,917; 3977,833;-5615,000
1040,65;  789,917; 3916,833;-5576,000
1041,20;  914,917; 3850,833;-6325,000
1041,75;  909,917; 4030,833;-4522,000
1042,30;  889,917; 4164,833;-3585,000
1042,84;  992,917; 4338,833;-4439,000
1043,39; 1050,917; 4248,833;-6313,000
1043,94; 1125,917; 4175,833;-5342,000
1044,49; 1136,917; 3887,833;-6246,000
1045,04; 1210,917; 3710,833;-5800,000
1045,59; 1328,917; 3809,833;-6299,000
1046,14; 1459,917; 3732,833;-6392,000
1046,69; 1546,917; 3591,833;-6294,000
1047,24; 1708,917; 3623,833;-5510,000
1047,79; 1871,917; 3737,833;-6139,000
1048,34; 2018,917; 4002,833;-5961,000
1048,89; 2407,917; 3948,833;-6259,000
1049,44; 2797,917; 3935,833;-5172,000
1049,99; 3210,917; 3855,833;-4844,000
1050,54; 3755,917; 3876,833;-6249,000
1051,08; 4719,917; 3961,833;-6178,000
1051,63; 6323,917; 4050,833;-5285,000
1052,18; 9370,917; 5051,833;-6127,000
1052,73;14889,917; 7151,833;-6173,000
1053,28;23247,916;10516,833;-6386,000
1053,83;31219,916;15224,833;-6214,000
1054,38;38339,918;19203,834;-6254,000
1054,93;45537,918;21243,834;-6285,000
1055,47;54760,918;23825,834;-5328,000
1056,02;59259,918;26212,834;-5832,000
1056,57;63843,918;27830,834;-6198,000
1057,12;65143,918;30497,834;-6378,000
1057,67;65143,918;33805,832;-6078,000
1058,22;65143,918;36084,832;-6313,000
1058,76;65143,918;38542,832;-6093,000
1059,31;65143,918;44129,832;-3514,000
1059,86;65143,918;48778,832;-6204,000
1060,41;65143,918;49718,832;-6152,000
1060,96;65143,918;51396,832;-6226,000
1061,51;65143,918;53649,832;-5344,000
1062,05;65143,918;54082,832;-6122,000
1062,60;65143,918;50555,832;-6061,000
1063,15;65143,918;45221,832;-6149,000
1063,70;65143,918;41550,832;-6250,000
1064,24;65143,918;43676,832;-6169,000
1064,79;65143,918;45461,832;-6144,000
1065,34;65143,918;43989,832;-6064,000
1065,89;65143,918;41776,832;-6202,000
1066,44;65143,918;37631,832;-6120,000
1066,98;65143,918;32612,834;-6224,000
1067,53;65143,918;30790,834;-5953,000
1068,08;65143,918;30368,834;-4845,000
1068,63;65143,918;27618,834;-6096,000
1069,17;65143,918;24647,834;-5893,000
1069,72;65143,918;22350,834;-5857,000
1070,27;65143,918;20529,834;-6040,000
1070,81;65143,918;20388,834;-5996,000
1071,36;65143,918;20367,834;-3883,000
1071,91;65143,918;18745,834;  966,000
1072,46;65143,918;16791,834;-5058,000
1073,00;65143,918;14646,833;-5239,000
1073,55;59625,918;11404,833;-5935,000
1074,10;40555,918; 7803,833;-5981,000
1074,64;24868,916; 5240,833;-5860,000
1075,19;15167,917; 3535,833;-4958,000
1075,74; 9862,917; 2551,833;-6091,000
1076,28; 7366,917; 2312,833;-6075,000
1076,83; 5599,917; 1951,833;-5286,000
1077,38; 4530,917; 1820,833;-5653,000
1077,92; 3927,917; 1783,833;-6332,000
1078,47; 3339,917; 1629,833;-5507,000
1079,02; 2841,917; 1578,833;-5959,000
1079,56; 2465,917; 1557,833;-5328,000
1080,11; 2141,917; 1304,833;-6094,000
1080,65; 1835,917; 1241,833;-5039,000
1081,20; 1555,917; 1186,833;-6151,000
1081,75; 1302,917; 1125,833;-6039,000
1082,29; 1154,917; 1128,833; -139,000
1082,84; 1060,917; 1184,833;-2678,000
1083,39;  959,917; 1294,833;-5061,000
1083,93;  875,917; 1335,833;-5025,000
1084,48;  783,917; 1196,833;-5961,000
1085,02;  713,917; 1082,833;-5783,000
1085,57;  682,917; 1074,833;-5994,000
1086,11;  655,917; 1079,833;-5968,000
1086,66;  551,917;  925,833;-5584,000
1087,21;  597,917; 1060,833;-5802,000
1087,75;  542,917;  939,833;-6125,000
1088,30;  473,917;  815,833;-5040,000
1088,84;  475,917;  783,833;-5963,000
1089,39;  379,917;  656,833;-5965,000
1089,93;  418,917;  664,833;-6100,000
1090,48;  347,917;  649,833;-4394,000
1091,02;  376,917;  733,833;-5181,000
1091,57;  349,917;  629,833;-5479,000
1092,11;  285,917;  642,833;-4094,000
1092,66;  253,917;  624,833;-6031,000
1093,20;  209,917;  580,833;-5180,000
1093,75;  192,917;  566,833;-4998,000
1094,29;  182,917;  486,833;-4979,000
1094,84;  224,917;  525,833;-5890,000
1095,38;  162,917;  528,833;-5097,000
1095,93;  162,917;  584,833;-5981,000
1096,47;  132,917;  615,833;-5612,000
1097,02;  145,917;  587,833;-4985,000
1097,56;  138,917;  614,833;-5772,000
1098,11;  115,917;  552,833;-5774,000
1098,65;  113,917;  508,833;-5992,000
1099,20;  104,917;  577,833;-5935,000
1099,74;   62,917;  487,833;-6002,000
1100,29;   81,917;  513,833;-4879,000
1100,83;   29,917;  496,833;-5934,000

