
Integration time [ms]:   1,000
Averaging Nr. [scans]: 1
Smoothing Nr. [pixels]: 0
Data measured with spectrometer [name]: 1703254U1
Wave   ;Sample   ;Dark     ;Reference;Scope
[nm]   ;[counts] ;[counts] ;[counts] 

 190,08;  -92,537; -370,119;11982,743
 190,69;  -74,334; -359,404;11603,049
 191,29;  -75,833; -311,651;11479,965
 191,90;  -85,363; -365,508;11440,717
 192,50;  -83,650; -379,511;10355,099
 193,10;  -63,305; -446,299;11244,381
 193,71;  -82,472; -367,888; 9821,736
 194,31;  -77,011; -399,273; 9436,327
 194,91;  -77,011; -382,273; 9291,327
 195,52;  -83,757; -338,386;10555,949
 196,12;  -60,093; -397,056; 8671,847
 196,72;  -79,474; -386,394; 8220,904
 197,32;  -82,472; -375,888; 8251,736
 197,93;  -65,768; -360,420; 8700,957
 198,53;  -78,831; -383,145; 7601,797
 199,13;  -85,684; -397,132; 8091,270
 199,74;  -70,908; -366,410; 7263,813
 200,34;  -67,267; -388,667; 7832,874
 200,94;  -64,804; -436,547; 6941,297
 201,55;  -74,334; -406,404; 7119,049
 202,15;  -77,439; -375,773; 6404,732
 202,75; -106,992; -373,217; 6097,647
 203,36;  -68,980; -338,664; 6822,492
 203,96; -119,199; -357,943; 6332,678
 204,56;  -72,407; -355,657;10275,729
 205,16;  -69,795; -363,018; 5478,458
 205,77;  -92,430; -360,244; 4767,892
 206,37;  -80,652; -409,017; 5556,267
 206,97;  -84,292; -363,760; 5129,205
 207,58;  -67,695; -364,166; 5927,278
 208,18;  -87,397; -337,129; 5129,889
 208,78;  -66,827; -404,134; 5295,461
 209,38;  -68,338; -469,415; 4958,385
 209,99;  -61,231; -356,540; 3837,534
 210,59;  -69,837; -361,662; 3890,301
 211,19;  -69,087; -364,538; 3938,343
 211,79;  -50,913; -366,927; 4499,316
 212,40;  -66,539; -373,625; 3368,911
 213,00;  -71,759; -388,891; 3903,118
 213,60;  -74,898; -386,882; 2992,972
 214,20;  -95,139; -401,230; 3081,175
 214,81;  -92,965; -422,618; 2884,148
 215,41; -100,353; -376,979; 3235,877
 216,01; -119,948; -373,067; 3109,636
 216,61;  -76,904; -367,399; 2814,476
 217,22; -115,451; -381,326; 2358,888
 217,82;  -58,120; -325,173; 2262,495
 218,42; -102,990; -383,711; 2389,480
 219,02; -114,594; -288,327; 3432,079
 219,63;  -98,212; -357,483; 2044,854
 220,23;  -67,531; -366,602; 2425,239
 220,83;  -75,711; -395,730; 1901,770
 221,43; -118,128; -393,195; 1850,167
 222,03; -106,912; -348,940; 2326,296
 222,64;  -76,459; -380,348; 1769,560
 223,24;  -44,206; -298,966; 1625,350
 223,84;  -88,304; -376,313; 2637,361
 224,44;  -91,556; -316,695; 2381,571
 225,05;  -71,916; -313,952; 1440,632
 225,65;  -85,805; -301,065; 1227,445
 226,25;  -64,776; -364,961; 1139,777
 226,85; -117,017; -294,309;  995,979
 227,45;  -91,560; -335,706; 1083,907
 228,06;  -75,740; -365,834; 1945,438
 228,66;  -95,204; -349,460; 4049,182
 229,26;  -40,197; -313,438; 1131,510
 229,86; -106,885; -396,342; 1760,797
 230,46; -118,984; -358,194;  891,976
 231,06; -107,770; -320,444;  757,273
 231,67;  -98,854; -346,732; 1228,961
 232,27; -134,724; -343,789;  778,094
 232,87;  -96,445; -308,808;  526,384
 233,47; -137,830; -321,158;  525,777
 234,07;  -45,499; -268,486; 9912,235
 234,67; -121,216; -291,013;  672,338
 235,28; -137,830; -319,158;   65,777
 235,88; -123,749; -316,882;  285,426
 236,48;  -98,592; -350,821;  165,911
 237,08;  -97,262; -267,669;  448,518
 237,68; -153,891; -369,378; -267,552
 238,28; -119,434; -304,774; -106,624
 238,89; -133,856; -212,756; -205,723
 239,49; -142,076; -282,023; 1280,483
 240,09; -120,956; -284,608; -190,544
 240,69; -156,461; -251,373; -319,124
 241,29; -114,398; -289,647;  651,036
 241,89; -124,826; -330,147; -260,559
 242,49; -124,637; -248,490; -358,930
 243,10; -144,210; -201,496; 3664,834
 243,70; -132,637; -284,490;  239,070
 244,30;  -72,640; -275,501; -708,594
 244,90;  -96,662; -188,582; -568,598
 245,50;  -97,883; -177,355; 3274,777
 246,10; -121,394; -307,636; -831,300
 246,70; -121,925; -300,999;   17,620
 247,30;  -91,824; -251,641;  326,273
 247,91; -127,987; -208,218; 5781,292
 248,51;  -72,847; -270,228; -806,563
 249,11;  -51,788; -239,514;  417,933
 249,71;  -67,786; -303,008; -667,235
 250,31;  -77,063; -265,483; -567,693
 250,91;  -83,497; -238,500;   75,216
 251,51;  -61,560; -199,225; -822,945
 252,11;  -85,727; -239,813;  367,410
 252,71;  -70,245; -269,117;-1080,994
 253,31; -106,310; -222,348; 3228,013
 253,91;  -80,231; -236,578; -676,170
 254,52;  -81,736; -237,342;-1063,750
 255,12;  -65,063; -293,483;-1104,693
 255,72;  -13,887; -206,366;  557,112
 256,32; -118,226; -242,061; -966,674
 256,92;  -52,086; -190,070;-1147,529
 257,52;  -43,774; -173,974; -883,243
 258,12;  -80,520; -201,087;  -91,621
 258,72;  -70,440; -210,810;-1232,972
 259,32;  -39,162; -211,335;-1169,514
 259,92;  -14,732; -199,330;-1343,086
 260,52;  -17,631; -192,973;-1077,433
 261,12;  -55,082; -202,059; -662,865
 261,72;  -69,338; -238,452;-1312,319
 262,32;  -24,239; -215,600;-1561,498
 262,92; -118,044; -238,426;  405,627
 263,53;  -72,694; -189,698;-1277,594
 264,13;  -93,476; -262,937; -268,632
 264,73;  -49,553; -217,202;-1694,617
 265,33;  -43,585; -188,317;-1708,613
 265,93;  -38,438; -147,304;-1345,140
 266,53;  -29,935; -161,046;-1544,392
 267,13;  -48,968; -139,161; -857,388
 267,73;  -54,681; -185,158;  270,230
 268,33;  -57,713; -166,274;-1788,766
 268,93;  -88,554; -213,708;-1702,449
 269,53;  -66,256; -204,670; -644,839
 270,13;  -60,293; -201,797;-1810,499
 270,73; -105,861; -245,287;-1891,239
 271,33;    6,027; -200,678;-1778,884
 271,93;  -93,899; -242,919;-1867,732
 272,53;  -14,991; -121,748;    8,776
 273,13;   -1,830; -146,677;-1117,075
 273,73;  -63,421; -119,753;-1955,652
 274,33;  -36,187; -148,428;-2041,182
 274,93;  -33,493; -188,007;-1843,972
 275,53;  -38,991;  -68,748;-1881,224
 276,13;  -79,765; -121,965;-2261,935
 276,73;  -82,308; -118,361;-1570,007
 277,33;  -49,356; -179,522;-1926,659
 277,93;  -16,117; -213,680;-1864,693
 278,53;  -12,643; -194,526;-2112,278
 279,13;    4,078; -125,506;-2152,568
 279,73;  -63,205; -140,498;-1388,522
 280,33;  -53,708; -154,756;-2179,270
 280,93;   11,654; -105,994;-2049,499
 281,53;  -35,602; -147,387;-2252,953
 282,13;  -32,451; -127,363;-2193,816
 282,73; -100,027; -156,875; -385,885
 283,33;  -22,740; -137,872;-2307,266
 283,92;   24,659;  -74,477;-2028,003
 284,52;   -6,379;  -94,109;-2365,496
 285,12;   -1,499; -138,524;-1425,469
 285,72;   -5,035; -126,898;-1041,213
 286,32;   13,046;  -55,622;-1313,564
 286,92;   16,788; -163,521;-2376,850
 287,52;   41,931;  -89,519;-2170,041
 288,12;   36,719;  -97,763;-2542,507
 288,72;   48,816; -106,417;-1625,518
 289,32;   21,233;  -54,470; 1692,233
 289,92;   18,573; -106,270;-2344,148
 290,52;   15,852;  -91,809;-2485,710
 291,12;   87,510;  -57,996;-1570,308
 291,72;   40,659;  -74,477;-1590,003
 292,32;  153,327;  -83,135;-2372,442
 292,92;  108,013;   -2,737;-2481,560
 293,51;  118,055;  -37,093;-2532,404
 294,11;  221,617;  -42,121;-1681,160
 294,71;  315,656;   -7,488;-2695,667
 295,31;  199,440;  -24,743;-1755,797
 295,91;  408,438;   46,751;-2713,629
 296,51;  446,269;   62,656;-1776,106
 297,11;  452,529;   35,061;-2900,988
 297,71;  516,547;    4,131;-2726,648
 298,31;  773,573;   38,730;-2329,148
 298,91;  620,868;   74,756;-2483,202
 299,50;  628,480;   41,395;-2689,473
 300,10;  795,334;  145,887;-2706,114
 300,70;  710,090;   95,528;-2492,576
 301,30;  753,153;   89,253;-2855,415
 301,90;  879,723;   96,248;-2004,843
 302,50;  886,835;  163,640;-2515,198
 303,10;  747,116;  124,126;-2530,076
 303,70;  667,556;  208,660;-3000,488
 304,29;  694,059;  189,918;-2658,740
 304,89;  688,135;  266,183;-1090,755
 305,49;  880,346;  163,922;-2773,122
 306,09;  926,690;  214,133;-2874,839
 306,69;  887,147;  262,736;-2915,911
 307,29;  975,327;  312,865;-2008,442
 307,89;  845,627;  303,408;-3029,000
 308,48;  733,445;  341,774;-2453,301
 309,08;  886,935;  369,492;-2743,377
 309,68; 1128,801;  377,019;-3094,026
 310,28;  959,965;  371,102;-2576,213
 310,88;  755,424;  321,211;-2936,453
 311,48;  793,652;  447,500;-2875,331
 312,07;  795,042;  408,367;-2963,228
 312,67;  983,466;  497,855;-2128,297
 313,27;  982,063;  494,448;-1105,224
 313,87; 1004,182;  583,357;-2164,083
 314,47; 1170,065;  516,954;-3030,392
 315,06; 1521,704;  620,191; 2713,837
 315,66; 1554,076;  579,988;-3245,400
 316,26; 1541,631;  632,938;-1844,483
 316,86; 1719,355;  777,969;-3140,110
 317,46; 2019,736;  720,307;-2115,167
 318,06; 2101,738;  739,813; -825,335
 318,65; 2267,734;  781,801;-2807,999
 319,25; 2620,448;  821,798;-3195,617
 319,85; 2638,694;  932,663;-2908,323
 320,45; 3105,585;  986,283;-3213,304
 321,05; 4108,582;  901,271;-2761,968
 321,64; 4297,228;  889,531;-3219,411
 322,24; 4387,891; 1056,861;-3265,513
 322,84; 3701,889; 1080,356;-3261,345
 323,44; 2759,606; 1133,364;-3219,300
 324,03; 2571,212; 1194,486;-3072,067
 324,63; 2574,201; 1250,452;-2310,059
 325,23; 2348,622; 1241,928;-3097,792
 325,83; 2224,647; 1367,021;-2876,123
 326,42; 2275,960; 1442,622;-3285,005
 327,02; 2296,651; 1476,551;-3076,607
 327,62; 2320,385; 1439,629;-2505,221
 328,22; 2666,915; 1553,486;-3234,973
 328,82; 2644,783; 1577,037;-2229,938
 329,41; 2304,584; 1658,852;-3016,728
 330,01; 2759,550; 1652,750;-2961,704
 330,61; 2996,636; 1806,062;-2928,707
 331,20; 2369,569; 1778,325;-2868,531
 331,80; 2244,763; 1762,512;-2794,386
 332,40; 2425,073; 1752,102;-2896,932
 333,00; 2317,088; 1933,667;-2790,423
 333,59; 2324,117; 1748,771;-2855,091
 334,19; 2275,822; 1920,745;-1771,037
 334,79; 2285,499; 1712,615;-2861,316
 335,39; 2366,017; 1729,919;-2978,912
 335,98; 2272,247; 1726,714;-3126,958
 336,58; 2390,839; 1659,777;-3191,401
 337,18; 2370,982; 1720,779;-2958,592
 337,77; 2388,145; 1782,837;-2098,463
 338,37; 2440,581; 1806,359;-2021,540
 338,97; 2584,732; 1907,384;-2912,402
 339,57; 2814,747; 1862,948;-3044,894
 340,16; 3410,741; 1836,431;-2881,390
 340,76; 3468,252; 1962,712;-3053,314
 341,36; 3150,309; 1861,920;-3195,650
 341,95; 3733,189; 1934,506;-3027,623
 342,55; 3710,044; 1918,998;  703,736
 343,15; 3477,661; 2048,155;-3094,039
 343,74; 4394,229; 1924,644;-2382,298
 344,34; 4175,407; 1860,267;-3015,661
 344,94; 3283,340; 2068,530;-3069,485
 345,53; 2935,122; 2110,769;-2860,447
 346,13; 3200,874; 2174,398;-1283,573
 346,73; 3481,321; 1966,473;-2254,805
 347,32; 3630,659; 2268,649;-3080,871
 347,92; 3419,357; 2312,600;-2277,145
 348,52; 3294,766; 2270,523;-1878,722
 349,11; 3524,204; 2336,551;  975,034
 349,71; 3240,520; 2330,658;-3240,016
 350,31; 2953,870; 2441,387;-2672,237
 350,90; 3111,594; 2483,418;-2326,863
 351,50; 3462,287; 2390,852;-2105,634
 352,10; 4347,506; 2471,119;-3114,840
 352,69; 4913,980; 2532,273;-3182,424
 353,29; 5074,338; 2563,024;-3191,317
 353,89; 5258,053; 2645,527;-3255,104
 354,48; 5017,506; 2693,119;-3208,840
 355,08; 5779,466; 2871,980;-1117,164
 355,67; 6487,916; 2850,042;-2951,417
 356,27; 7936,367; 2839,128;-3232,985
 356,87; 8749,271; 3010,288;-3383,142
 357,46; 8782,741; 3049,431;-2351,390
 358,06;10477,558; 3306,291;-3073,523
 358,66; 8522,046; 3337,504;-3109,432
 359,25; 5526,130; 3260,792;-2344,119
 359,85; 6195,237; 3365,667;-3215,970
 360,44; 8119,478; 3389,015;-3292,172
 361,04; 8106,661; 3567,155;-2367,039
 361,64; 8017,661; 3696,155;-2309,039
 362,23; 7460,193; 3772,517;-2932,958
 362,83; 7129,799; 3755,639;-2990,726
 363,42; 6656,122; 3938,769;-2836,447
 364,02; 6498,199; 3910,034;-2973,462
 364,62; 6940,874; 3816,398;-2486,573
 365,21; 5600,743; 3857,937;-1741,558
 365,81; 4017,424; 3935,818;-2792,173
 366,40; 3819,636; 3970,062;-2080,707
 367,00; 4335,061; 4021,550;-2952,776
 367,59; 4886,571; 4071,831;-2979,699
 368,19; 5947,241; 4221,678;-3237,306
 368,79; 5472,969; 4198,720;-3125,268
 369,38; 4817,676; 4107,200;-2250,383
 369,98; 5339,030; 4101,940;-2935,940
 370,57; 5928,502; 4188,588;-3331,356
 371,17; 5630,152; 4164,860;-3326,135
 371,76; 6213,617; 4277,486;-3442,879
 372,36; 7025,363; 4057,598;-3195,501
 372,95; 8814,728; 4115,372;  667,934
 373,55; 9949,192; 4105,998;-3393,811
 374,14; 9878,935; 4300,099;-3405,097
 374,74; 9500,055; 4256,514;-3224,124
 375,34; 8352,472; 4286,979;-3189,521
 375,93; 8323,044; 4295,479;-2706,116
 376,53; 7317,216; 4344,585;-3575,974
 377,12; 5052,523; 4405,670;-1465,352
 377,72; 3761,829; 4480,730;-3410,414
 378,31; 4063,625; 4511,027;-2274,699
 378,91; 4579,598; 4291,429;-3262,199
 379,50; 5323,675; 4588,213;-3331,363
 380,10; 5257,822; 4327,226;-3398,890
 380,69; 5451,222; 4094,621;-2343,626
 381,29; 7286,111; 4586,735;-2550,439
 381,88; 9699,118; 4518,758;-1605,111
 382,48; 9393,394; 4519,727;-3286,485
 383,07; 7932,289; 4495,358;-3457,802
 383,67; 7673,118; 4635,758;-1847,111
 384,26; 7016,898; 4667,491;-2467,905
 384,86; 5330,000; 4921,849;-3182,252
 385,45; 5465,512; 4932,636;-3325,344
 386,05; 5239,074; 5073,608;-3419,100
 386,64; 4546,583; 4911,384;-3524,855
 387,24; 4677,581; 5016,878;-2585,688
 387,83; 5004,763; 4993,512;-2489,386
 388,42; 5231,285; 5182,346;-2109,466
 389,02; 4857,258; 5423,748;-3235,966
 389,61; 4759,342; 5688,036;-3413,653
 390,21; 4464,581; 5729,878;-3463,688
 390,80; 3525,300; 5816,392;-3208,810
 391,40; 3628,445; 6137,899;-2293,168
 391,99; 4470,786; 5981,099;-3195,550
 392,59; 5123,116; 6435,252;-2416,943
 393,18; 4989,874; 6683,398;-2491,573
 393,77; 3697,533; 6883,198;-3238,192
 394,37; 3598,376; 7145,657;-2198,825
 394,96; 3968,304; 7098,403;-2296,146
 395,56; 3870,502; 7264,588;-2834,356
 396,15; 4875,560; 6867,797;-3125,692
 396,75; 5555,378; 7343,163;-2889,993
 397,34; 4074,030; 7669,940;-2620,940
 397,93; 3152,673; 7720,188;-3358,047
 398,53; 3028,977; 7595,262;-2525,088
 399,12; 3260,334; 8192,013;-2154,981
 399,72; 3873,506; 8013,119;-2274,840
 400,31; 4158,938; 8034,629;-3169,581
 400,91; 3722,191; 8446,012;-2959,791
 401,50; 3139,533; 8820,198;-2330,192
 402,09; 3045,713; 8550,327;-2894,722
 402,69; 3155,529; 8691,187;-3072,856
 403,28; 3330,950; 9052,663;-2983,588
 403,88; 5835,921; 9162,560; 1927,079
 404,47; 7331,571; 9689,831;  884,300
 405,06; 4634,095; 9684,171;  -68,947
 405,66; 5396,495; 9753,565;-2875,684
 406,25; 7443,969;10085,720;-3119,268
 406,84; 7264,669;10446,177;-2892,711
 407,44; 5377,009;10847,858;-2219,944
 408,03; 3594,695;10422,257;-2906,063
 408,63; 3215,644;10373,085;-3011,379
 409,22; 3046,072;10191,584;-1945,783
 409,81; 3199,910;10681,007;-1849,765
 410,41; 3467,070;11553,078;-2857,615
 411,00; 3683,867;11336,362;-1814,921
 411,59; 4113,799;11251,120;-2826,578
 412,19; 4349,720;11468,350;-2245,394
 412,78; 4999,971;11399,226;-2830,436
 413,37; 5323,730;12151,878;-2704,234
 413,97; 5537,912;12410,512;-2618,933
 414,56; 5376,338;12071,506;-2503,169
 415,15; 4626,592;12410,394;-2121,547
 415,75; 4267,948;12408,639;-2698,272
 416,34; 3708,409;12590,254;-1893,681
 416,93; 4017,495;12922,047;-2777,536
 417,53; 4674,101;12696,169;-1423,303
 418,12; 5323,705;12570,785;-2217,903
 418,71; 5494,938;12907,592;-2673,285
 419,31; 6345,967;13054,695;-1884,952
 419,90; 6604,571;13470,313;-2786,552
 420,49; 4757,280;13619,298;-1733,834
 421,08; 3976,280;14201,298;-1674,834
 421,68; 4619,030;14723,421;-1908,792
 422,27; 5583,863;14035,832;-2004,437
 422,86; 5803,789;13874,073; -437,590
 423,46; 5458,800;14080,107;-2575,598
 424,05; 4755,949;14376,626;-2928,293
 424,64; 5566,326;13888,953;-2640,014
 425,24; 5773,940;14092,098;-2903,453
 425,83; 5593,848;13992,269;-2680,945
 426,42; 6314,949;12987,626;-2760,293
 427,01; 6457,408;13424,734;-2674,533
 427,61; 4698,448;14347,873;-2609,209
 428,20; 3534,672;14036,151;-1764,751
 428,79; 3599,073;14414,052;-2859,656
 429,38; 4259,307;14092,377;-1781,186
 429,98; 5187,921;14922,521; -994,625
 430,57; 6016,448;15058,873;-2193,209
 431,16; 4806,311;14580,389;-2784,522
 431,75; 4722,603;14357,909; -561,407
 432,35; 5886,743;13435,899;-1951,262
 432,94; 4634,684;14429,186;-2324,759
 433,53; 3220,164;14560,375;-1152,995
 434,12; 2994,429;14431,298;-2267,381
 434,72; 2968,441;14188,331;-1413,389
 435,31; 2909,402;14167,699; 7395,119
 435,90; 2736,618;14308,954; 8338,249
 436,49; 2749,156;13427,834; -683,175
 437,08; 2784,332;13895,951; -675,370
 437,68; 5111,582;14442,827;-2987,412
 438,27; 6144,272;14610,237;-2610,866
 438,86; 3599,012;14612,832;-1147,984
 439,45; 2808,731;15313,346;-1937,106
 440,05; 4458,238;15955,616;-2982,694
 440,64; 4531,745;15054,886;-1902,282
 441,23; 3471,356;14152,525;-1415,553
 441,82; 2813,552;13700,218;-2631,576
 442,41; 2251,857;14351,277;-3014,637
 443,00; 2174,186;13625,925;-2724,863
 443,60; 2299,314;14373,881;-3136,710
 444,19; 2348,790;15026,541;-1440,462
 444,78; 2270,821;14960,151;-3012,298
 445,37; 2206,578;15728,297;-2522,928
 445,96; 2413,276;15331,249;-3116,202
 446,56; 2377,217;15596,535;-1144,698
 447,15; 2263,687;16225,678; -884,947
 447,74; 2254,611;17097,412;-2709,931
 448,33; 1996,513;16443,066;-1985,920
 448,92; 2008,048;15422,440;-2964,176
 449,51; 1821,871;15095,817;-2848,813
 450,10; 1606,517;15133,078;-3063,256
 450,70; 1667,477;14904,939;-1957,581
 451,29; 1701,549;15329,193;-1112,260
 451,88; 1749,113;15513,671;-2929,183
 452,47; 2151,509;16565,055;-2795,584
 453,06; 1946,211;16495,498;-2401,047
 453,65; 1628,890;16071,874;-2873,493
 454,24; 1694,281;17329,246;-2173,558
 454,84; 1741,983;17793,209;-1379,168
 455,43; 1736,924;18732,496;-2219,665
 456,02; 1567,633;18879,480;-2927,947
 456,61; 1577,626;17317,459;-2925,275
 457,20; 1611,457;16921,363;-2786,753
 457,79; 1618,249;17588,131;-2922,554
 458,38; 1649,715;18338,264;-2132,467
 458,97; 1607,538;18039,641;-2515,104
 459,56; 1670,347;18190,479;-2760,565
 460,16; 1765,285;17832,258;-2082,894
 460,75; 1722,788;18157,518;-2072,146
 461,34; 1647,037;18077,887;-2962,020
 461,93; 1572,981;18381,186;-2200,853
 462,52; 1676,863;19333,275;-2744,993
 463,11; 1768,696;20546,688;-1989,639
 463,70; 1865,681;19458,643;-2869,295
 464,29; 1882,096;19945,082;-3150,376
 464,88; 1898,016;20795,807;-2743,024
 465,47; 1761,723;19885,285;-2748,139
 466,06; 1772,991;20915,713;-3191,692
 466,65; 1932,664;21667,572;-3018,635
 467,24; 1979,744;22030,848;-2539,986
 467,84; 1956,117;22443,164;-2020,371
 468,43; 1829,228;22325,051;-2238,559
 469,02; 1776,691;23517,170;-2702,135
 469,61; 1811,195;24168,936;-2593,555
 470,20; 1893,375;23781,063;-2841,085
 470,79; 1832,673;22760,100;-3232,475
 471,38; 1740,205;25266,463;-2192,395
 471,97; 1642,711;26009,732; -666,983
 472,56; 1715,042;25472,887;-3035,376
 473,15; 1844,637;25296,975;-2825,135
 473,74; 1839,174;26395,854;-3106,559
 474,33; 1835,601;25866,848;-2957,796
 474,92; 1833,172;27630,348;-3146,391
 475,51; 1762,075;29609,002;-2873,380
 476,10; 1746,784;29847,986;-3011,662
 476,69; 1776,295;26101,268;-2855,586
 477,28; 1712,916;25846,955;-2956,845
 477,87; 1611,537;27035,121; -173,956
 478,46; 1662,543;28695,639;-3029,460
 479,05; 1683,530;30507,100;-2134,284
 479,64; 1667,719;31679,756;-2718,655
 480,23; 1605,077;29541,508;-2845,548
 480,82; 1606,645;28549,996;-2736,807
 481,41; 1609,363;29371,510;-1873,929
 482,00; 1647,899;29284,885;-1364,185
 482,59; 1658,788;29593,998;-2298,998
 483,18; 1690,144;31702,244;-2376,723
 483,77; 1687,971;31703,139;-2193,865
 484,36; 1699,075;32475,002;-1701,380
 484,95; 1808,621;32990,410; -788,643
 485,54; 2063,799;35331,031;-1371,006
 486,13; 2240,501;35762,996; -945,616
 486,72; 2803,828;34334,137;  148,326
 487,31; 2912,872;31046,285;-1109,686
 487,89; 2339,969;32608,633; -193,697
 488,48; 3171,122;33798,164;-1523,728
 489,07; 3666,774;32913,941;-1248,674
 489,66; 2598,117;33511,645;-1505,224
 490,25; 2196,019;31095,299; -660,212
 490,84; 2237,610;34127,375;-1683,635
 491,43; 3793,109;34965,621; -701,552
 492,02; 4572,690;36094,652;-1864,987
 492,61; 2983,333;35362,902;-1043,094
 493,20; 2247,199;33776,426;-2019,743
 493,79; 2307,772;32749,434; 4824,494
 494,38; 2124,803;33706,043;-1938,342
 494,97; 3209,201;32583,934; -629,911
 495,55; 4807,023;34690,309;-2325,548
 496,14; 3748,084;35087,531;-2403,220
 496,73; 2326,382;35451,566;-1952,609
 497,32; 2239,813;34211,570;-2587,182
 497,91; 2473,491;35005,949;-1921,629
 498,50; 2568,990;34165,195;-2912,544
 499,09; 2315,813;34554,570;-3088,182
 499,68; 2644,097;32403,070;-2405,396
 500,27; 3161,681;33321,605;-2490,999
 500,85; 3194,138;32655,207;-2604,071
 501,44; 2948,748;32478,342;-2576,175
 502,03; 2653,780;33194,457;-3368,178
 502,62; 2264,954;31275,068;-3438,205
 503,21; 2011,853;29432,711;-3532,858
 503,80; 2082,679;32028,100;-2976,831
 504,39; 2210,399;32451,119;-3458,121
 504,97; 2096,503;31774,982;-3577,636
 505,56; 1959,390;31537,590;-2979,281
 506,15; 2033,317;32302,336;-3991,602
 506,74; 2133,828;32557,617;-2945,526
 507,33; 2160,365;32185,498;-3165,949
 507,92; 2117,753;33952,859;-3871,678
 508,51; 1991,786;35926,973;-3735,682
 509,09; 2054,975;34536,629;-3921,053
 509,68; 2071,369;34318,508;-3748,286
 510,27; 2051,914;33667,410;-3799,381
 510,86; 2026,157;32572,264;-4081,751
 511,45; 1984,512;33677,512;-3843,476
 512,03; 2219,610;34524,855;-3829,488
 512,62; 2458,782;36240,961;-3780,346
 513,21; 2763,879;33870,789;-3186,209
 513,80; 2922,164;34644,289;-3501,423
 514,39; 2807,977;32752,137;-3905,221
 514,97; 2465,162;35347,781;-4095,255
 515,56; 2538,097;34167,551;-4198,248
 516,15; 3392,673;35428,063;-3955,179
 516,74; 3659,889;32584,318;-4420,049
 517,33; 2841,851;33459,688;-3549,542
 517,91; 2411,204;33935,426;-4188,099
 518,50; 2712,336;32563,393;-3264,282
 519,09; 3219,331;33942,875;-3157,778
 519,68; 2861,520;35231,531;-4286,148
 520,26; 2463,667;38679,547;-4232,675
 520,85; 2502,699;39452,660;-4352,679
 521,44; 2628,963;40826,078;-4358,897
 522,03; 2954,094;39485,539;-4271,912
 522,61; 3637,963;36773,078;-4364,897
 523,20; 3575,967;33924,090;-4337,233
 523,79; 2802,539;32040,590;-4337,828
 524,38; 2356,853;32850,191;-4344,709
 524,96; 2204,426;35883,199;-4321,473
 525,55; 2256,212;36021,449;-4542,771
 526,14; 2825,149;34018,723;-4434,931
 526,73; 3554,677;32852,074;-4389,515
 527,31; 2852,319;32903,324;-4488,622
 527,90; 2334,212;33630,449;-4564,771
 528,49; 2192,636;34155,938;-2529,839
 529,08; 1852,183;34601,344;-3467,103
 529,66; 1870,925;34848,445;-3911,389
 530,25; 1857,608;35279,832;-4414,172
 530,84; 1758,470;35334,348;-4583,485
 531,42; 1847,544;38583,105;-4365,332
 532,01; 2424,080;37528,480;-4291,588
 532,60; 2653,979;34512,125;-4473,241
 533,18; 2041,824;35538,086;-4078,042
 533,77; 1886,795;34969,984;-4236,374
 534,36; 1797,933;34459,469;-4374,061
 534,95; 1683,650;35483,477;-4088,015
 535,53; 1839,110;34236,090; -974,424
 536,12; 2322,078;36469,977;-2657,420
 536,71; 2680,151;36511,230;-3869,099
 537,29; 2429,263;36073,621;-3618,454
 537,88; 2072,963;33908,078;-3454,897
 538,47; 2093,619;32497,867;-2840,180
 539,05; 2219,868;36837,238;-2139,054
 539,64; 2552,487;40414,898;-1785,997
 540,22; 2636,267;37414,633; -764,790
 540,81; 2504,734;37501,766; 1008,297
 541,40; 2184,980;39018,629; 3425,591
 541,98; 2042,437;38188,230; 4858,519
 542,57; 2110,078;39368,977; 4597,580
 543,16; 1906,546;38645,613; 4952,500
 543,74; 1710,937;35774,480; 4083,603
 544,33; 1875,196;36297,883; 3620,721
 544,92; 1922,483;37217,887; 3973,339
 545,50; 1795,653;37338,488;11456,648
 546,09; 1643,074;40064,965;11359,916
 546,67; 1517,292;41948,727; 2857,878
 547,26; 1585,254;40050,094; -202,615
 547,85; 1483,493;39208,414; -567,501
 548,43; 1487,550;38452,625; -849,836
 549,02; 1394,585;39427,246;-1040,008
 549,60; 1409,801;40570,500; -984,878
 550,19; 1459,942;41166,996;-2192,901
 550,78; 1404,479;42660,875;-2328,325
 551,36; 1248,130;45349,148;-2432,104
 551,95; 1234,045;45443,859; -585,416
 552,53; 1219,019;43280,262; -296,916
 553,12; 1253,527;41420,035;-3431,672
 553,70; 1156,816;43188,547;-2878,222
 554,29; 1233,089;44058,008;-2869,428
 554,88; 1234,422;41831,668;-4247,989
 555,46; 1241,810;43723,027;-3881,718
 556,05; 1335,152;45007,734;-4207,268
 556,63; 1508,449;45206,266;-3396,489
 557,22; 1616,831;43875,109;-3394,714
 557,80; 1523,447;41749,762;-3568,321
 558,39; 1637,871;44188,250;-4145,390
 558,97; 1446,340;47993,887;-3699,470
 559,56; 1351,126;49889,137;-4544,768
 560,15; 1252,770;50117,891;-3611,042
 560,73; 1325,703;49814,152;-4287,867
 561,32; 1782,403;47024,609;-3741,309
 561,90; 1513,491;46041,910;-4382,333
 562,49; 1244,621;48487,371;-3786,348
 563,07; 1171,768;48074,387;-4783,875
 563,66; 1207,982;50064,133;-4352,577
 564,24; 1188,699;49228,145;-4763,531
 564,83; 1135,135;51344,664;-4603,607
 565,41; 1308,764;53840,375;-4329,539
 566,00; 1288,563;52202,164;-2755,012
 566,58; 1218,908;56465,375;-3725,729
 567,17; 1075,374;56909,508;-4280,642
 567,75; 1122,906;52392,871;-4653,562
 568,34; 1077,307;55893,770;-3216,466
 568,92; 1047,172;55738,793;-3987,947
 569,51; 1062,057;54852,895; 2680,576
 570,09; 1115,342;58247,391;-4676,638
 570,68; 1173,464;53188,313;-4788,833
 571,26; 1051,441;50733,242;-3886,817
 571,85; 1063,439;57347,738;-4822,649
 572,43;  966,195;57011,379;-4704,111
 573,01;  963,051;52662,375;-4873,920
 573,60;  958,376;53819,012;-3785,810
 574,18;  988,019;55122,262;-4514,917
 574,77; 1007,309;53284,277;-4737,634
 575,35; 1075,376;56113,012;-4452,810
 575,94; 1104,164;57300,770;-4076,275
 576,52; 1063,592;54049,270;-2249,680
 577,11; 1009,030;51620,297;-3244,924
 577,69; 1016,533;48685,555;-3183,176
 578,27;  982,942;51008,996;-3447,901
 578,86;  947,672;55198,543;-2994,031
 579,44; 1132,659;60080,004;-2805,855
 580,03; 1172,269;60164,137;-2493,958
 580,61; 1061,879;60267,270;-3206,062
 581,19; 1084,131;56429,652;-2538,271
 581,78; 1089,892;55361,813;-2364,238
 582,36; 1035,953;57656,031;-2911,909
 582,95; 1028,137;56180,172;-1497,776
 583,53; 1063,099;59586,539;-2319,268
 584,11; 1092,053;61608,883;-2241,088
 584,70; 1110,705;61691,660;-1948,035
 585,28; 1149,059;62070,398;-1853,592
 585,87; 1104,068;60436,930;-2889,432
 586,45; 1072,672;63023,543;-2375,031
 587,03;  961,640;64945,430;-1150,027
 587,62; 1116,984;61494,641;-1834,745
 588,20; 1108,170;62236,285;-1020,779
 588,78; 1128,474;58157,840;-3411,673
 589,37; 1150,592;57765,270;-3360,680
 589,95; 1143,451;62238,773;-3385,657
 590,54; 1142,242;63633,539;-3461,459
 591,12; 1233,460;62116,301;-3508,497
 591,70; 1157,885;59586,789;-3331,565
 592,29; 1158,175;62881,805;-2923,283
 592,87; 1170,764;63542,375;-2394,538
 593,45; 1091,032;63404,801; 1487,908
 594,04; 1050,714;62800,188;-3676,875
 594,62; 1090,491;59709,910;-3708,333
 595,20; 1004,326;62066,828;-4371,146
 595,79; 1065,026;62681,285;-4165,588
 596,37; 1076,533;61108,555;-3657,176
 596,95; 1070,707;56922,164;-4321,203
 597,53; 1042,307;58806,770;-4226,466
 598,12; 1040,495;61848,922;-3959,669
 598,70; 1066,669;64932,531;-3776,695
 599,28; 1161,764;64911,375;-3404,538
 599,87; 1065,024;64929,777;-3061,420
 600,45; 1154,743;64938,293;-3907,543
 601,03; 1150,311;63145,781;-4100,802
 601,62; 1196,714;61727,188;-4468,875
 602,20; 1165,206;59786,414;-4541,119
 602,78; 1078,539;64399,070;-4770,680
 603,36;  999,604;64783,301;-3166,688
 603,95; 1010,309;58863,277;-4492,634
 604,53;  928,739;62401,281;-4574,207
 605,11; 1036,732;59505,258;-2755,535
 605,69;  920,990;62362,156;-3365,249
 606,28; 1004,175;62594,805;-4223,283
 606,86;  973,066;61629,422;-3946,264
 607,44;  894,816;60431,547;-3906,222
 608,02;  902,319;58047,805;-4037,474
 608,61;  848,422;60099,668;-2866,989
 609,19;  856,780;58582,418;-2582,882
 609,77;  904,923;57398,422; -710,073
 610,35;  878,741;55748,785; 5794,625
 610,94;  801,781;56509,926;14509,949
 611,52;  769,422;55803,668;12610,011
 612,10;  808,649;53026,957; 8432,133
 612,68;  770,789;56637,949; 2694,278
 613,26;  877,389;57037,551; 2032,015
 613,85;  902,925;61759,926; -599,241
 614,43;  688,064;62306,918;-1030,096
 615,01;  644,718;62272,199;-1215,211
 615,59;  785,041;64874,328; -972,932
 616,17;  771,845;59402,648;-2561,890
 616,76;  803,340;62178,887;-2993,470
 617,34;  858,369;62666,988;-2389,138
 617,92;  783,307;58547,770;-3399,466
 618,50;  831,131;61202,652;-2562,271
 619,08;  864,097;57928,031;-2514,100
 619,67;  802,563;55968,164;-3196,012
 620,25;  716,984;54290,641;-2743,745
 620,83;  740,743;50498,293;-3495,543
 621,41;  759,745;52314,797;-2800,711
 621,99;  734,709;54560,672;-2529,371
 622,57;  766,412;55529,141;-3707,149
 623,15;  807,768;56213,387;-3783,875
 623,74;  773,300;58266,746;-3892,794
 624,32;  806,017;59330,754;-2827,749
 624,90;  776,630;58625,898;-2311,188
 625,48;  722,101;57897,043;-3132,436
 626,06;  688,342;56898,391;-4006,638
 626,64;  627,659;57787,004;-4162,855
 627,22;  588,093;58993,020;-3409,764
 627,81;  569,405;58046,117;-4334,478
 628,39;  558,843;57121,145;-4560,722
 628,97;  615,887;56597,293;-4437,733
 629,55;  673,443;55377,750;-4219,985
 630,13;  662,879;55669,270;-2959,062
 630,71;  553,913;54162,891;-2747,233
 631,29;  605,309;53129,277;-3824,634
 631,87;  657,231;52776,504;-4223,451
 632,45;  599,845;52786,648;-4716,890
 633,03;  603,657;54183,500;-4191,688
 633,62;  581,739;55423,281;-4714,207
 634,20;  633,280;54882,172;-4089,966
 634,78;  554,229;56497,000;-4430,283
 635,36;  617,558;56701,648;-4449,508
 635,94;  667,625;55183,383;-5398,684
 636,52;  669,271;51027,645;-5422,126
 637,10;  601,707;52116,164;-5488,203
 637,68;  552,238;50694,527;-4702,123
 638,26;  592,586;47618,750;-5536,176
 638,84;  616,917;48688,902;-5421,569
 639,42;  622,707;49235,164;-3756,203
 640,00;  695,840;51366,148;-5405,726
 640,58;  785,623;54579,402;-4806,027
 641,16;  688,406;55521,656;-5571,328
 641,74;  701,190;53214,906;-5433,630
 642,32;  592,973;50106,160;-5620,931
 642,90;  591,756;50434,414;-5856,232
 643,48;  588,539;49231,668;-5786,534
 644,06;  610,322;49280,922;-5796,835
 644,64;  590,106;49595,176;-5842,137
 645,22;  589,889;50513,430;-5562,438
 645,80;  535,672;50547,684;-4957,740
 646,39;  573,455;48107,938;-5515,041
 646,97;  514,238;49773,191;-5850,342
 647,54;  512,022;52328,441;-5717,644
 648,12;  549,805;54879,695;-5865,945
 648,70;  584,588;58954,949;-5885,247
 649,28;  667,371;56421,203;-6090,548
 649,86;  584,154;51091,457;-5609,850
 650,44;  536,938;48619,711;-5452,151
 651,02;  579,721;49970,965;-5474,452
 651,60;  512,504;51793,219;-5803,753
 652,18;  544,287;51320,473;-4735,055
 652,76;  492,070;53277,723;-5934,356
 653,34;  536,854;54817,977;-5939,658
 653,92;  523,637;57729,230;-5784,959
 654,50;  646,420;59042,484;-5818,261
 655,08;  656,203;58048,738;-5841,562
 655,66;  691,986;55058,992;-5115,863
 656,24;  679,769;56743,246;-5200,165
 656,82;  689,553;58989,500;-4979,466
 657,40;  644,336;58967,754;-5667,768
 657,98;  589,119;60169,008;-5486,069
 658,56;  580,902;61114,258;-5717,371
 659,14;  642,685;61380,512;-5913,672
 659,72;  555,469;63381,766;-5916,973
 660,29;  523,252;62437,020;-5907,275
 660,87;  527,035;59738,273;-5212,576
 661,45;  506,818;58590,527;-5664,877
 662,03;  493,601;57513,781;-4971,179
 662,61;  494,385;54945,035;-5638,480
 663,19;  398,168;54618,289;-5657,782
 663,77;  455,951;53917,543;-5939,083
 664,35;  417,734;56689,793;-5887,384
 664,93;  364,517;62595,047;-4922,686
 665,51;  397,301;61993,301;-6033,987
 666,08;  419,084;57747,555;-5652,289
 666,66;  423,867;51859,809;-4400,590
 667,24;  472,650;49420,063;-5952,892
 667,82;  483,433;50250,316;-5849,193
 668,40;  462,217;50723,570;-5932,494
 668,98;  461,000;51952,824;-5097,796
 669,56;  420,783;57957,078;-6096,097
 670,13;  467,566;61797,328;-6222,398
 670,71;  460,349;59698,582;-5900,700
 671,29;  446,133;57209,836;-6139,001
 671,87;  430,916;56814,090;-6051,303
 672,45;  392,699;51822,344;-6050,604
 673,03;  484,482;52592,598;-4769,906
 673,60;  418,265;58431,852;-3503,207
 674,18;  489,048;63679,105;-5938,508
 674,76;  441,832;61159,359;-6226,810
 675,34;  464,615;56361,613;-5251,111
 675,92;  384,398;55284,863;-6338,413
 676,50;  423,181;55051,117;-6085,714
 677,07;  387,964;56952,371;-6095,016
 677,65;  404,748;56680,625;-6163,317
 678,23;  409,531;55997,879;-5057,618
 678,81;  453,314;58016,133;-5299,919
 679,38;  435,097;56669,387;-5969,221
 679,96;  342,880;53267,641;-5846,522
 680,54;  405,664;55171,895;-5308,824
 681,12;  401,447;52485,148;-6126,125
 681,70;  373,230;54786,398;-4413,427
 682,27;  380,013;54740,652;-5851,728
 682,85;  403,796;58265,906;-5991,029
 683,43;  385,580;64943,160;-6140,331
 684,01;  407,363;64943,414;-5172,632
 684,58;  405,146;64307,668;-5138,934
 685,16;  449,929;64236,922;-4494,235
 685,74;  455,712;62790,176;-3853,536
 686,32;  388,496;59009,430;-6012,838
 686,89;  411,279;59552,684;-6015,139
 687,47;  426,062;59534,934;-6076,441
 688,05;  424,845;56416,188;-6019,742
 688,63;  335,628;59626,441;-6102,043
 689,20;  369,412;62884,695;-5971,345
 689,78;  407,195;58427,949;-5530,646
 690,36;  399,978;54291,203;-5381,948
 690,93;  331,761;54968,457;-6355,249
 691,51;  420,544;61453,711;-6326,550
 692,09;  371,328;64946,965;-6223,852
 692,67;  364,111;64947,219;-6047,153
 693,24;  366,894;60968,469;-5803,455
 693,82;  372,677;59538,723;-6235,756
 694,40;  404,460;58049,977;-3570,058
 694,97;  354,243;57456,230;-6046,359
 695,55;  322,027;59820,484;-5464,660
 696,13;  375,810;61729,738;-4454,962
 696,70;  356,593;58594,992;-6029,263
 697,28;  342,376;59108,246;-6266,564
 697,86;  393,159;60837,500;-6030,866
 698,43;  372,943;58827,754;-6198,167
 699,01;  363,726;55595,004;-6051,469
 699,59;  377,509;55751,258;-6402,770
 700,16;  352,292;54174,512;-5257,072
 700,74;  360,075;57040,766;-5497,373
 701,32;  345,859;56440,020;-6233,674
 701,89;  334,642;55792,273;-6049,976
 702,47;  323,425;60296,527;-6466,277
 703,05;  347,208;64951,781;-6309,579
 703,62;  300,991;64952,035;-6227,880
 704,20;  307,775;64952,285;-5306,182
 704,77;  309,558;64952,539;-6118,483
 705,35;  216,341;64213,793;-6006,784
 705,93;  304,124;64327,047;-4922,085
 706,50;  298,907;63796,301;-5267,387
 707,08;  273,691;60606,555;-5284,688
 707,65;  340,474;60046,809;-5620,990
 708,23;  294,257;64881,063;-5431,292
 708,81;  276,040;64954,316;-5019,593
 709,38;  300,823;64954,570;-5001,894
 709,96;  354,607;64954,820;-6025,195
 710,53;  329,390;64955,074;-6007,497
 711,11;  288,173;61503,328;-5752,798
 711,69;  296,956;61913,582;-3821,100
 712,26;  345,739;59012,836;-4642,401
 712,84;  286,523;63346,090;-5947,703
 713,41;  371,306;64411,344;-6153,004
 713,99;  323,089;64924,598;-6068,305
 714,56;  298,872;62057,852;-6326,607
 715,14;  333,655;60312,105;-6198,908
 715,71;  323,439;60246,355;-6210,209
 716,29;  324,222;62893,609;-6648,511
 716,86;  284,005;63573,863;-6510,813
 717,44;  317,788;63263,117;-6424,114
 718,02;  288,571;62110,371;-6462,415
 718,59;  317,354;61013,625;-5121,716
 719,17;  294,138;63488,879;-5649,018
 719,74;  333,921;62907,133;-5756,319
 720,32;  326,704;63502,387;-6451,621
 720,89;  327,487;64959,641;-6422,922
 721,47;  256,270;64959,891;-6388,224
 722,04;  320,054;64960,145;-5502,525
 722,62;  307,837;64252,398;-3979,826
 723,19;  300,620;60250,652;-4938,128
 723,77;  258,403;57638,906;-5673,429
 724,34;  279,186;60150,160;-5576,730
 724,92;  234,970;63789,414;-6558,032
 725,49;  318,753;64961,668;-5666,333
 726,07;  292,536;64961,922;-6491,635
 726,64;  327,319;64627,176;-6587,936
 727,21;  314,102;60249,426;-5627,238
 727,79;  241,886;63706,680;-6444,539
 728,36;  319,669;64962,934;-6722,840
 728,94;  326,452;64963,188;-6535,142
 729,51;  287,235;64963,441;-6365,443
 730,09;  283,018;64963,695;-5545,745
 730,66;  306,802;64963,949;-6358,046
 731,24;  329,585;64964,203;-6577,348
 731,81;  318,368;64964,457;-5151,649
 732,38;  313,151;64964,711;-6492,950
 732,96;  316,934;64964,961;-6263,251
 733,53;  368,718;60347,215;-6389,553
 734,11;  373,501;61575,469;-6617,854
 734,68;  336,284;64965,723;-6211,156
 735,26;  403,067;64965,977;-6389,458
 735,83;  364,850;64966,230;-6498,759
 736,40;  394,634;62243,484;-6516,060
 736,98;  453,417;61999,738;-6374,361
 737,55;  468,200;59236,992;-5827,663
 738,13;  425,983;57707,246;-5702,964
 738,70;  422,766;60991,496;-5529,266
 739,27;  435,549;62504,750;-6452,567
 739,85;  424,333;62745,004;-6283,869
 740,42;  478,116;64968,258;-6464,170
 740,99;  520,899;64968,512;-5618,471
 741,57;  538,682;64968,766;-4867,773
 742,14;  525,466;64969,020;-5349,074
 742,72;  479,249;64969,273;-4751,375
 743,29;  512,032;64969,527;-6563,677
 743,86;  563,815;64969,781;-6538,979
 744,44;  618,598;64970,031;-6113,280
 745,01;  539,381;64970,285;-5760,581
 745,58;  502,165;64970,539;-6259,882
 746,16;  502,948;64970,793;-6188,184
 746,73;  510,731;64971,047;-6479,485
 747,30;  481,514;61139,301;-6536,787
 747,88;  544,297;59621,555;-5621,088
 748,45;  561,081;64971,809;-5668,390
 749,02;  635,864;64972,063;-6384,691
 749,60;  625,647;62401,313;-6212,992
 750,17;  624,430;61766,566;-5269,294
 750,74;  740,213;62801,820;-6479,595
 751,31;  737,997;63306,074;-6347,896
 751,89;  651,780;64232,328;-6546,198
 752,46;  704,563;64973,582;-6282,500
 753,03;  671,346;64973,836;-6160,801
 753,61;  645,129;63755,090;-4858,102
 754,18;  613,913;64573,344;-6434,404
 754,75;  618,696;63888,598;-5191,705
 755,32;  539,479;60715,848;-6332,006
 755,90;  500,262;64975,102;-6493,308
 756,47;  529,045;64975,355;-4809,609
 757,04;  497,829;64975,609;-6457,911
 757,61;  489,612;64975,863;-5553,212
 758,19;  506,395;64976,117;-5253,514
 758,76;  454,178;64976,371;-6603,815
 759,33;  468,961;64976,625;-6664,116
 759,90;  428,745;64976,879;-5714,417
 760,48;  330,528;64977,133;-6778,719
 761,05;  341,311;64977,383;-6083,021
 761,62;  335,094;62082,637;-4888,322
 762,19;  373,877;58992,891;-6144,624
 762,77;  355,660;61730,145;-5963,925
 763,34;  294,444;64978,398;-6610,226
 763,91;  262,227;64978,652;-5818,527
 764,48;  303,010;64978,906;-6756,829
 765,05;  255,793;64979,160;-6543,130
 765,63;  320,576;63215,414;-6417,432
 766,20;  280,360;59753,668;-6004,733
 766,77;  296,143;57105,918;-5921,035
 767,34;  217,926;58807,172;-6640,336
 767,91;  208,709;59176,426;-6689,637
 768,49;  270,492;61368,680;-6772,939
 769,06;  208,276;64980,934;-5832,240
 769,63;  246,059;62272,188;-6636,542
 770,20;  234,842;59567,441;-5868,843
 770,77;  210,625;57921,695;-5645,145
 771,34;  213,408;60065,949;-6615,446
 771,91;  180,192;60549,203;-6102,747
 772,49;  228,975;58558,453;-6369,048
 773,06;  194,758;57687,707;-6203,350
 773,63;  224,541;60204,961;-6639,651
 774,20;  226,324;58197,215;-5918,953
 774,77;  263,108;56475,469;-6631,254
 775,34;  207,891;56707,723;-6214,556
 775,91;  326,674;57056,977;-6417,857
 776,49;  371,457;58787,230;-6590,158
 777,06;  434,240;60761,484;-6015,460
 777,63;  360,024;64224,738;-6367,761
 778,20;  282,807;62572,988;-6250,063
 778,77;  263,590;63316,242;-5763,364
 779,34;  200,373;64985,496;-6585,666
 779,91;  211,156;64985,750;-6534,967
 780,48;  193,940;59144,004;-5853,268
 781,05;  195,723;50716,258;-6586,570
 781,62;  211,506;52124,512;-6604,871
 782,20;  198,289;58813,766;-6500,172
 782,77;  211,072;64987,020;-6529,474
 783,34;  236,856;64052,273;-6522,775
 783,91;  239,639;61362,523;-6509,077
 784,48;  153,422;60480,777;-2126,378
 785,05;  174,205;59144,031;-6540,680
 785,62;  216,988;58221,285;-6452,981
 786,19;  163,771;58149,539;-5100,282
 786,76;  160,555;55130,793;-6677,583
 787,33;  141,338;56202,047;-6515,885
 787,90;  138,121;59491,301;-6591,187
 788,47;  180,904;60148,555;-5075,488
 789,04;  182,687;58988,809;-5763,790
 789,61;  178,471;58863,059;-5066,091
 790,18;  163,254;55747,313;-6561,392
 790,75;  165,037;50841,566;-6671,693
 791,32;  210,820;52056,820;-6577,995
 791,89;  185,603;55205,074;-6068,296
 792,46;  227,387;60806,328;-5763,598
 793,03;  231,170;62404,582;-6702,899
 793,60;  231,953;55699,836;-6440,201
 794,17;  204,736;52257,090;-5569,502
 794,74;  258,519;47273,344;-5886,803
 795,31;  211,303;50096,594;-6099,105
 795,88;  177,086;52579,848;-5572,406
 796,45;  172,869;53365,102;-6529,708
 797,02;  135,652;56004,355;-5046,009
 797,59;  136,435;57922,609;-6675,311
 798,16;  164,219;54563,863;-5861,612
 798,73;  153,002;53534,117;-6761,913
 799,30;  166,785;55088,371;-6611,214
 799,87;  186,568;55650,625;-6713,516
 800,44;  146,351;55353,875;-6729,817
 801,01;  142,135;56836,129;-6807,119
 801,58;  186,918;58477,383;-6537,420
 802,15;  161,701;52086,637;-6658,722
 802,72;  161,484;48849,891;-6694,023
 803,28;  145,267;52000,145;-6076,324
 803,85;  183,051;57179,398;-6728,626
 804,42;  198,834;55235,652;-5999,927
 804,99;  154,617;53752,906;-6539,229
 805,56;   96,400;52472,160;-6770,530
 806,13;  144,183;53387,410;-6075,832
 806,70;  188,966;52719,664;-6748,133
 807,27;  110,750;54477,918;-6672,434
 807,84;  142,533;52786,172;-6693,736
 808,41;  133,316;49728,426;-6022,037
 808,98;  135,099;50479,680;-5986,338
 809,54;  126,882;52469,934;-4958,640
 810,11;  105,666;48281,188;-6782,941
 810,68;  113,449;43021,441;-6680,243
 811,25;   59,232;41394,695;-6760,544
 811,82;  120,015;40374,945;-6886,846
 812,39;  111,798;37710,199;-3331,147
 812,96;  126,582;38779,453;-6767,448
 813,52;  136,365;41291,707;-6937,750
 814,09;   67,148;44522,961;-6766,051
 814,66;   79,931;50325,215;-6827,353
 815,23;  119,714;51240,469;-6669,654
 815,80;   94,498;50439,723;-5853,956
 816,37;   73,281;50917,977;-6801,257
 816,93;  101,064;49487,230;-6731,558
 817,50;  116,847;46790,480;-6102,859
 818,07;  168,630;46034,734;-6960,161
 818,64;  120,414;46919,988;-6856,462
 819,21;  143,197;46261,242;-6053,764
 819,77;  190,980;42742,496;-6571,065
 820,34;  146,763;42053,750;-6677,367
 820,91;  198,546;43276,004;-6469,668
 821,48;  254,330;43873,258;-6689,969
 822,05;  238,113;45571,512;-5875,271
 822,61;  231,896;44296,766;-5631,572
 823,18;  213,679;41860,016;-6620,874
 823,75;  147,462;42585,270;-6957,175
 824,32;  155,246;45286,523;-6923,477
 824,88;  151,029;45073,777;-6882,778
 825,45;  115,812;44018,031;-6899,079
 826,02;   70,595;43798,285;-6643,380
 826,59;  167,378;43974,539;-6639,682
 827,15;   93,162;46077,793;-6906,983
 827,72;  106,945;49519,047;-6723,285
 828,29;  118,728;51523,301;-6895,586
 828,86;  136,511;48827,551;-6791,888
 829,42;   76,294;40797,805;-6812,189
 829,99;   87,077;36802,059;-6647,490
 830,56;   97,861;36252,313;-6869,792
 831,13;  105,644;37220,566;-6060,093
 831,69;  128,427;38022,820;-6506,395
 832,26;  124,210;38832,074;-5062,696
 832,83;  131,993;40408,328;-5452,998
 833,39;  136,777;40187,582;-6904,299
 833,96;  124,560;39167,836;-6687,600
 834,53;   88,343;40039,086;-6928,902
 835,10;   54,126;39930,340;-6529,203
 835,66;   63,909;38972,594;-6920,504
 836,23;   77,693;39801,848;-6803,806
 836,80;   55,476;39428,102;-6790,107
 837,36;   69,259;37086,355;-6810,409
 837,93;  118,042;34475,609;-6902,710
 838,50;  134,825;35084,863;-6789,012
 839,06;   77,609;37684,117;-6288,313
 839,63;   40,392;37191,371;-6895,614
 840,19;   57,175;35132,621;-6607,916
 840,76;   65,958;35364,875;-6404,217
 841,33;  113,741;35892,129;-6509,519
 841,89;  119,525;36779,383;-6949,820
 842,46;   54,308;37103,637;-6751,122
 843,03;  107,091;35389,891;-6089,423
 843,59;   46,874;34224,145;-6403,724
 844,16;  118,657;34994,398;-6181,025
 844,73;  123,441;34249,652;-6067,327
 845,29;  123,224;32937,902;-5695,628
 845,86;   71,007;35699,156;-6800,930
 846,42;   50,790;36940,410;-7004,231
 846,99;   86,573;36477,664;-6967,533
 847,56;   25,357;36265,918;-5840,834
 848,12;   99,140;36240,172;-6745,135
 848,69;   44,923;35710,426;-6715,437
 849,25;   72,706;34401,680;-6845,738
 849,82;   44,489;34081,934;-3247,040
 850,38;   71,272;35064,188;-6840,341
 850,95;   62,056;32489,439;-6324,643
 851,52;   62,839;32520,693;-6565,944
 852,08;   42,622;32548,947;-6691,245
 852,65;   24,405;30323,199;-7005,546
 853,21;   88,188;27698,453;-6958,848
 853,78;   50,972;27362,707;-6363,149
 854,34;   57,755;28860,961;-6871,451
 854,91;   13,538;29081,215;-5086,752
 855,47;   86,321;29942,467;-5108,054
 856,04;  116,104;32027,721;-6746,355
 856,60;   54,888;33961,973;-6104,656
 857,17;   60,671;34979,227;-6840,958
 857,73;   52,454;33553,480;-6811,259
 858,30;    4,237;32532,734;-6985,561
 858,86;   31,020;31110,988;-5926,862
 859,43;   82,804;31430,242;-6226,164
 859,99;   55,587;32011,496;-6852,465
 860,56;    1,370;33126,750;-6903,766
 861,12;   43,153;35190,004;-6737,068
 861,69;   33,936;33669,258;-5924,369
 862,25;   63,720;34731,508;-6821,670
 862,82;   68,503;34419,762;-5972,972
 863,38;   79,286;31196,018;-6843,273
 863,95;   68,069;29305,270;-6239,575
 864,51;   80,852;30403,523;-5287,876
 865,08;   67,636;29284,777;-6090,178
 865,64;   30,419;26795,031;-7018,479
 866,21;   79,202;26131,285;-6745,780
 866,77;   65,985;26051,537;-5552,082
 867,34;  125,768;25734,791;-6672,383
 867,90;  139,552;24632,045;-6303,685
 868,46;  164,335;23835,299;-6041,986
 869,03;   65,118;24389,551;-6929,288
 869,59;   85,901;26353,805;-6884,589
 870,16;   87,684;27647,059;-6052,890
 870,72;   32,467;30060,313;-6657,191
 871,28;   51,251;32915,566;-5992,493
 871,85;   87,034;33142,820;-6907,794
 872,41;   33,817;31569,072;-6004,096
 872,98;   56,600;32738,326;-6050,397
 873,54;   34,383;33876,578;-5920,699
 874,10;   62,167;32768,832;-5876,000
 874,67;   38,167;32987,832;-6904,000
 875,23;   47,167;31068,834;-7032,000
 875,80;   75,167;28009,834;-6641,000
 876,36;  -21,833;25058,834;-6642,000
 876,92;   44,167;22832,834;-6189,000
 877,49;   30,167;23923,834;-6517,000
 878,05;   34,167;24896,834;-6797,000
 878,61;   48,167;26938,834;-6812,000
 879,18;   10,167;27553,834;-6252,000
 879,74;    5,167;28076,834;-6720,000
 880,30;   24,167;28679,834;-5926,000
 880,87;   -3,833;28852,834;-6326,000
 881,43;   61,167;29533,834;-6871,000
 881,99;   20,167;27306,834;-6879,000
 882,56;   17,167;27610,834;-6661,000
 883,12;   17,167;29049,834;-5740,000
 883,68;   19,167;29120,834;-6518,000
 884,25;   45,167;28300,834;-6949,000
 884,81;   35,167;26343,834;-6701,000
 885,37;   47,167;24221,834;-6786,000
 885,94;   57,167;22940,834;-6851,000
 886,50;   38,167;23098,834;-6886,000
 887,06;   35,167;24358,834;-6796,000
 887,62;   44,167;25019,834;-6866,000
 888,19;   24,167;25774,834;-5986,000
 888,75;    1,167;26542,834;-6821,000
 889,31;   50,167;29043,834;-6778,000
 889,87;   48,167;30537,834;-6723,000
 890,44;   61,167;30349,834;-6696,000
 891,00;   25,167;28757,834;-6786,000
 891,56;   33,167;26457,834;-6998,000
 892,12;   90,167;24463,834;-6754,000
 892,69;   21,167;25310,834;-6373,000
 893,25;   43,167;28798,834;-6877,000
 893,81;   73,167;31774,834;-6696,000
 894,37;   65,167;31330,834;-6342,000
 894,94;   88,167;28713,834;-6772,000
 895,50;   97,167;26035,834; -212,000
 896,06;   86,167;24749,834;-6810,000
 896,62;  101,167;23405,834;-6707,000
 897,18;   71,167;24661,834;-6518,000
 897,75;  113,167;27406,834;-6895,000
 898,31;  121,167;27887,834;-6849,000
 898,87;  104,167;26274,834;-6860,000
 899,43;  109,167;25164,834;-6469,000
 899,99;  104,167;26592,834;-6866,000
 900,56;  135,167;25515,834;-6791,000
 901,12;   95,167;24875,834;-6890,000
 901,68;  131,167;27903,834;-6267,000
 902,24;  129,167;31800,834;-5930,000
 902,80;  133,167;32652,834;-6794,000
 903,36;  210,167;31893,834;-6691,000
 903,93;  312,167;32139,834;-6646,000
 904,49;  674,167;32761,834;-6913,000
 905,05; 1757,167;30952,834;-6732,000
 905,61; 4443,167;28208,834;-6832,000
 906,17; 8682,167;28086,834;-6901,000
 906,73;14037,167;25975,834;-5380,000
 907,29;18366,166;24960,834;-6910,000
 907,86;21009,166;25118,834;-6827,000
 908,42;21886,166;28092,834;-6795,000
 908,98;18368,166;31123,834;-5908,000
 909,54;11163,167;38813,832;-6885,000
 910,10; 3942,167;48220,832;-6634,000
 910,66;  873,167;57581,832;-6781,000
 911,22;  322,167;65027,832;-6761,000
 911,78;  237,167;62593,832;-6841,000
 912,34;  160,167;53256,832;-6080,000
 912,90;  146,167;44610,832;-5232,000
 913,46;  135,167;37052,832;-6876,000
 914,03;   58,167;30620,834;-5746,000
 914,59;   63,167;27452,834;-6682,000
 915,15;   83,167;24908,834;-6891,000
 915,71;   64,167;24217,834;-6863,000
 916,27;   68,167;23800,834;-6723,000
 916,83;   62,167;23006,834;-5824,000
 917,39;   50,167;21742,834;-3512,000
 917,95;   78,167;20224,834;-6009,000
 918,51;   49,167;19972,834;-6583,000
 919,07;   89,167;21780,834;-6791,000
 919,63;  -35,833;23295,834;-6661,000
 920,19;   -5,833;23935,834;-6865,000
 920,75;   38,167;23112,834;-6640,000
 921,31;   39,167;21484,834;-4837,000
 921,87;   55,167;20216,834;-6845,000
 922,43;   25,167;18019,834;-5626,000
 922,99;   72,167;17321,834;-6706,000
 923,55;   40,167;18674,834;-6655,000
 924,11;   46,167;19094,834;-6976,000
 924,67;   40,167;19310,834;-6962,000
 925,23;   29,167;19485,834;-6778,000
 925,79;   47,167;20122,834;-6710,000
 926,35;   43,167;20219,834;-6573,000
 926,91;   12,167;19401,834;-6909,000
 927,47;   13,167;19367,834;-6660,000
 928,03;  111,167;20294,834;-6786,000
 928,59;   62,167;20503,834;-6678,000
 929,15;   64,167;20781,834;-6792,000
 929,71;   47,167;22016,834;-6840,000
 930,27;   39,167;23587,834;-6537,000
 930,82;   50,167;25573,834;-6728,000
 931,38;  -29,833;24317,834;-5852,000
 931,94;  -12,833;22672,834;-6843,000
 932,50;   34,167;21252,834;-6481,000
 933,06;   74,167;20895,834;-6768,000
 933,62;   30,167;21092,834;-6443,000
 934,18;   32,167;20632,834;-6727,000
 934,74;   34,167;21320,834;-6709,000
 935,30;   78,167;22030,834;-6484,000
 935,86;   50,167;21213,834;-6505,000
 936,42;   58,167;20702,834;-6873,000
 936,97;    9,167;21656,834;-6563,000
 937,53;   -7,833;20552,834;-6826,000
 938,09;   60,167;21087,834;  123,000
 938,65;   42,167;21186,834;-6268,000
 939,21;   32,167;20179,834;-6708,000
 939,77;   -4,833;18946,834;-6213,000
 940,33;   25,167;18602,834;-6748,000
 940,88;   39,167;19429,834;-5908,000
 941,44;   40,167;21301,834;-6983,000
 942,00;   25,167;23225,834;-6697,000
 942,56;   20,167;24231,834;-6604,000
 943,12;   59,167;23427,834;-5907,000
 943,68;   48,167;22950,834;-5679,000
 944,23;   -2,833;23124,834;-6749,000
 944,79;  -42,833;22674,834;-6102,000
 945,35;    5,167;20741,834;-6599,000
 945,91;   52,167;19519,834;-6767,000
 946,47;   63,167;19827,834;-3353,000
 947,03;    1,167;19896,834;-6850,000
 947,58;   29,167;19661,834;-6840,000
 948,14;   63,167;20790,834;-5897,000
 948,70;   17,167;19573,834;-5855,000
 949,26;   82,167;18881,834;-6616,000
 949,81;    3,167;18342,834;-6644,000
 950,37;   11,167;18686,834;-6695,000
 950,93;   26,167;17993,834;-6224,000
 951,49;    5,167;17568,834;-6057,000
 952,05;    6,167;17926,834;-6571,000
 952,60;   30,167;17299,834;-6951,000
 953,16;   54,167;16933,834;-5783,000
 953,72;  -17,833;15628,833;-5813,000
 954,27;  -18,833;15524,833;-6566,000
 954,83;   46,167;15317,833;-6703,000
 955,39;   -5,833;14917,833;-6691,000
 955,95;   16,167;14456,833;-6849,000
 956,50;   28,167;14272,833;-6698,000
 957,06;  -12,833;14126,833;-5922,000
 957,62;   20,167;13780,833;-6559,000
 958,18;   32,167;13872,833;-6741,000
 958,73;    7,167;13326,833;-6820,000
 959,29;  -22,833;13518,833;-6106,000
 959,85;  -19,833;14785,833;-6864,000
 960,40;   33,167;16746,834;-4263,000
 960,96;   25,167;16386,834;-6738,000
 961,52;   14,167;14755,833;-6643,000
 962,07;   13,167;13711,833;-6742,000
 962,63;  -12,833;13208,833;-6723,000
 963,19;  -14,833;13435,833;-5779,000
 963,74;   43,167;13877,833;-6582,000
 964,30;    4,167;14475,833;-6595,000
 964,86;   41,167;14281,833;-6484,000
 965,41;   34,167;14290,833;-6705,000
 965,97;  -10,833;14185,833;-6569,000
 966,53;   -5,833;14792,833;-6750,000
 967,08;   21,167;15311,833;-6611,000
 967,64;   85,167;15082,833;-6705,000
 968,19;   68,167;14471,833;-6684,000
 968,75;   -4,833;14662,833;-6566,000
 969,31;   16,167;14880,833;-5626,000
 969,86;   29,167;14995,833;-6505,000
 970,42;    5,167;13195,833;-6620,000
 970,97;   33,167;11567,833;-6437,000
 971,53;   28,167;11625,833;-6490,000
 972,09;   13,167;12998,833;-6646,000
 972,64;   39,167;13523,833;-5812,000
 973,20;   25,167;13815,833;-6599,000
 973,75;  -12,833;14605,833;-5760,000
 974,31;   57,167;14826,833;-6578,000
 974,87;   15,167;14921,833;-6674,000
 975,42;  -17,833;14507,833;-6727,000
 975,98;  -24,833;13201,833;-6651,000
 976,53;   38,167;12100,833;-6555,000
 977,09;   45,167;11353,833;-4624,000
 977,64;   32,167;11164,833;-6532,000
 978,20;   72,167;10649,833;-6585,000
 978,75;   10,167;10482,833;-6429,000
 979,31;   10,167;10950,833;-6513,000
 979,86;   37,167;12220,833;-6739,000
 980,42;   23,167;12828,833;-5813,000
 980,97;   11,167;13290,833;-6642,000
 981,53;  108,167;14285,833;-6636,000
 982,08;   64,167;13803,833;-5046,000
 982,64;  103,167;12278,833;-6237,000
 983,19;    8,167;11308,833;-6760,000
 983,75;    4,167;10993,833;-6576,000
 984,30;   53,167;10430,833;-5581,000
 984,86;   -8,833; 9867,833;-5898,000
 985,41;   36,167; 9457,833;-6634,000
 985,97;   31,167; 9632,833;-4797,000
 986,52;   27,167; 9894,833;-5853,000
 987,08;   43,167; 9953,833;-6174,000
 987,63;   20,167;10165,833;-5608,000
 988,19;    7,167;11252,833;-6266,000
 988,74;   40,167;11710,833;-5682,000
 989,30;   10,167;11529,833;-6568,000
 989,85;   34,167;11470,833; -276,000
 990,40;   51,167;11314,833;-6617,000
 990,96;   66,167;11060,833;-6482,000
 991,51;   51,167;11149,833;-6578,000
 992,07;    8,167;10742,833;-6605,000
 992,62;   16,167;10285,833;-6519,000
 993,18;   32,167;10035,833;-6504,000
 993,73;   40,167; 9986,833;-6440,000
 994,28;   14,167; 9800,833;-6464,000
 994,84;   57,167; 9019,833;-6240,000
 995,39;   21,167; 8474,833;-2971,000
 995,94;  101,167; 7953,833;-5673,000
 996,50;   35,167; 7647,833;-6543,000
 997,05;   26,167; 7872,833;-3481,000
 997,61;   57,167; 8363,833;-6489,000
 998,16;   27,167; 8581,833;-6555,000
 998,71;   69,167; 8850,833;-6340,000
 999,27;   46,167; 9115,833;-5223,000
 999,82;   54,167; 8706,833;-4778,000
1000,37;   25,167; 8661,833;-6520,000
1000,93;   46,167; 8920,833;-6107,000
1001,48;   43,167; 8799,833;-6543,000
1002,03;   40,167; 8477,833;-6469,000
1002,59;   74,167; 8715,833;-5972,000
1003,14;   13,167; 8758,833;-6113,000
1003,69;   32,167; 8484,833;-6513,000
1004,25;   26,167; 8299,833;-6507,000
1004,80;   87,167; 8322,833;-6266,000
1005,35;   30,167; 8313,833;-6361,000
1005,91;   65,167; 8515,833;-6558,000
1006,46;   11,167; 8426,833;-6084,000
1007,01;   52,167; 8227,833;-5479,000
1007,56;   20,167; 8599,833;-6440,000
1008,12;  -17,833; 8342,833;-6178,000
1008,67;   27,167; 7867,833;-6312,000
1009,22;   34,167; 7509,833;-6481,000
1009,78;   37,167; 7205,833;-6163,000
1010,33;   69,167; 6649,833;-6443,000
1010,88;   30,167; 6413,833;-5618,000
1011,43;   26,167; 5995,833;-6433,000
1011,99;   48,167; 5972,833;-6198,000
1012,54;   41,167; 6320,833;-6387,000
1013,09;   69,167; 6048,833;-6299,000
1013,64;   28,167; 5802,833;-6362,000
1014,19;   36,167; 5823,833;-6442,000
1014,75;   61,167; 5928,833;-6408,000
1015,30;   83,167; 6394,833;-6425,000
1015,85;   49,167; 6370,833;-6367,000
1016,40;   21,167; 6247,833;-5436,000
1016,96;  123,167; 6235,833;-6268,000
1017,51;   67,167; 6150,833;-6351,000
1018,06;   74,167; 6095,833;-6310,000
1018,61;   73,167; 5695,833;-6665,000
1019,16;   51,167; 5609,833;-6697,000
1019,71;  164,167; 5663,833;-6373,000
1020,27;  128,167; 5567,833;-6353,000
1020,82;   98,167; 5375,833;-3700,000
1021,37;   91,167; 5405,833;-4798,000
1021,92;  154,167; 5984,833;-6454,000
1022,47;  115,167; 5965,833;-6548,000
1023,02;  161,167; 5463,833;-6512,000
1023,58;  102,167; 5045,833;-6573,000
1024,13;  144,167; 4730,833;-6258,000
1024,68;  170,167; 4434,833;-6298,000
1025,23;  178,167; 4324,833;-5525,000
1025,78;  209,167; 4613,833;-6475,000
1026,33;  172,167; 4932,833;-5510,000
1026,88;  237,167; 4843,833;-6236,000
1027,43;  234,167; 5167,833;-6276,000
1027,99;  248,167; 5134,833;-6002,000
1028,54;  277,167; 4732,833;-6395,000
1029,09;  221,167; 4106,833;-2478,000
1029,64;  303,167; 3919,833;-6303,000
1030,19;  354,167; 4147,833;-3821,000
1030,74;  403,167; 4243,833;-5134,000
1031,29;  417,167; 4284,833;-4765,000
1031,84;  407,167; 4491,833;-6300,000
1032,39;  456,167; 4563,833;-5403,000
1032,94;  468,167; 4617,833;-4326,000
1033,49;  502,167; 4361,833;-5476,000
1034,04;  551,167; 4236,833;-6312,000
1034,59;  612,167; 4205,833;-6507,000
1035,14;  647,167; 4117,833;-6145,000
1035,69;  773,167; 4318,833;-6224,000
1036,24;  782,167; 4104,833;-4477,000
1036,80;  878,167; 3986,833;-5453,000
1037,35;  957,167; 4138,833;-6347,000
1037,90; 1052,167; 4172,833;-6274,000
1038,45; 1123,167; 4201,833;-6419,000
1039,00; 1138,167; 4340,833;-5490,000
1039,55; 1218,167; 4229,833;-6284,000
1040,10; 1369,167; 3977,833;-5615,000
1040,65; 1485,167; 3916,833;-5576,000
1041,20; 1578,167; 3850,833;-6325,000
1041,75; 1762,167; 4030,833;-4522,000
1042,30; 1942,167; 4164,833;-3585,000
1042,84; 2295,167; 4338,833;-4439,000
1043,39; 2475,167; 4248,833;-6313,000
1043,94; 2888,167; 4175,833;-5342,000
1044,49; 3190,167; 3887,833;-6246,000
1045,04; 3568,167; 3710,833;-5800,000
1045,59; 4040,167; 3809,833;-6299,000
1046,14; 4614,167; 3732,833;-6392,000
1046,69; 5133,167; 3591,833;-6294,000
1047,24; 6000,167; 3623,833;-5510,000
1047,79; 6811,167; 3737,833;-6139,000
1048,34; 8087,167; 4002,833;-5961,000
1048,89; 9436,167; 3948,833;-6259,000
1049,44;10921,167; 3935,833;-5172,000
1049,99;12871,167; 3855,833;-4844,000
1050,54;15120,167; 3876,833;-6249,000
1051,08;19018,166; 3961,833;-6178,000
1051,63;25235,166; 4050,833;-5285,000
1052,18;35019,168; 5051,833;-6127,000
1052,73;51718,168; 7151,833;-6173,000
1053,28;65149,168;10516,833;-6386,000
1053,83;65149,168;15224,833;-6214,000
1054,38;65149,168;19203,834;-6254,000
1054,93;65149,168;21243,834;-6285,000
1055,47;65149,168;23825,834;-5328,000
1056,02;65149,168;26212,834;-5832,000
1056,57;65149,168;27830,834;-6198,000
1057,12;65149,168;30497,834;-6378,000
1057,67;65149,168;33805,832;-6078,000
1058,22;65149,168;36084,832;-6313,000
1058,76;65149,168;38542,832;-6093,000
1059,31;65149,168;44129,832;-3514,000
1059,86;65149,168;48778,832;-6204,000
1060,41;65149,168;49718,832;-6152,000
1060,96;65149,168;51396,832;-6226,000
1061,51;65149,168;53649,832;-5344,000
1062,05;65149,168;54082,832;-6122,000
1062,60;65149,168;50555,832;-6061,000
1063,15;65149,168;45221,832;-6149,000
1063,70;65149,168;41550,832;-6250,000
1064,24;65149,168;43676,832;-6169,000
1064,79;65149,168;45461,832;-6144,000
1065,34;65149,168;43989,832;-6064,000
1065,89;65149,168;41776,832;-6202,000
1066,44;65149,168;37631,832;-6120,000
1066,98;65149,168;32612,834;-6224,000
1067,53;65149,168;30790,834;-5953,000
1068,08;65149,168;30368,834;-4845,000
1068,63;65149,168;27618,834;-6096,000
1069,17;65149,168;24647,834;-5893,000
1069,72;65149,168;22350,834;-5857,000
1070,27;65149,168;20529,834;-6040,000
1070,81;65149,168;20388,834;-5996,000
1071,36;65149,168;20367,834;-3883,000
1071,91;65149,168;18745,834;  966,000
1072,46;65149,168;16791,834;-5058,000
1073,00;65149,168;14646,833;-5239,000
1073,55;65149,168;11404,833;-5935,000
1074,10;65149,168; 7803,833;-5981,000
1074,64;42789,168; 5240,833;-5860,000
1075,19;28692,166; 3535,833;-4958,000
1075,74;21009,166; 2551,833;-6091,000
1076,28;16910,166; 2312,833;-6075,000
1076,83;13902,167; 1951,833;-5286,000
1077,38;11675,167; 1820,833;-5653,000
1077,92; 9947,167; 1783,833;-6332,000
1078,47; 8593,167; 1629,833;-5507,000
1079,02; 7198,167; 1578,833;-5959,000
1079,56; 6318,167; 1557,833;-5328,000
1080,11; 5560,167; 1304,833;-6094,000
1080,65; 4860,167; 1241,833;-5039,000
1081,20; 4233,167; 1186,833;-6151,000
1081,75; 3602,167; 1125,833;-6039,000
1082,29; 3148,167; 1128,833; -139,000
1082,84; 2729,167; 1184,833;-2678,000
1083,39; 2567,167; 1294,833;-5061,000
1083,93; 2381,167; 1335,833;-5025,000
1084,48; 2140,167; 1196,833;-5961,000
1085,02; 1897,167; 1082,833;-5783,000
1085,57; 1879,167; 1074,833;-5994,000
1086,11; 1668,167; 1079,833;-5968,000
1086,66; 1597,167;  925,833;-5584,000
1087,21; 1611,167; 1060,833;-5802,000
1087,75; 1435,167;  939,833;-6125,000
1088,30; 1354,167;  815,833;-5040,000
1088,84; 1275,167;  783,833;-5963,000
1089,39; 1183,167;  656,833;-5965,000
1089,93; 1048,167;  664,833;-6100,000
1090,48;  930,167;  649,833;-4394,000
1091,02;  880,167;  733,833;-5181,000
1091,57;  752,167;  629,833;-5479,000
1092,11;  712,167;  642,833;-4094,000
1092,66;  691,167;  624,833;-6031,000
1093,20;  614,167;  580,833;-5180,000
1093,75;  615,167;  566,833;-4998,000
1094,29;  485,167;  486,833;-4979,000
1094,84;  493,167;  525,833;-5890,000
1095,38;  468,167;  528,833;-5097,000
1095,93;  428,167;  584,833;-5981,000
1096,47;  416,167;  615,833;-5612,000
1097,02;  411,167;  587,833;-4985,000
1097,56;  391,167;  614,833;-5772,000
1098,11;  361,167;  552,833;-5774,000
1098,65;  325,167;  508,833;-5992,000
1099,20;  265,167;  577,833;-5935,000
1099,74;  250,167;  487,833;-6002,000
1100,29;  246,167;  513,833;-4879,000
1100,83;  229,167;  496,833;-5934,000

