
Integration time [ms]:   1,000
Averaging Nr. [scans]: 1
Smoothing Nr. [pixels]: 0
Data measured with spectrometer [name]: 1703254U1
Wave   ;Sample   ;Dark     ;Reference;Scope
[nm]   ;[counts] ;[counts] ;[counts] 

 190,08;  -64,741; -370,119;11982,743
 190,69;  -45,139; -359,404;11603,049
 191,29;  -46,753; -311,651;11479,965
 191,90;  -57,015; -365,508;11440,717
 192,50;  -55,170; -379,511;10355,099
 193,10;  -33,262; -446,299;11244,381
 193,71;  -53,902; -367,888; 9821,736
 194,31;  -48,021; -399,273; 9436,327
 194,91;  -48,021; -382,273; 9291,327
 195,52;  -55,285; -338,386;10555,949
 196,12;  -29,803; -397,056; 8671,847
 196,72;  -50,673; -386,394; 8220,904
 197,32;  -53,902; -375,888; 8251,736
 197,93;  -35,914; -360,420; 8700,957
 198,53;  -49,981; -383,145; 7601,797
 199,13;  -57,361; -397,132; 8091,270
 199,74;  -41,449; -366,410; 7263,813
 200,34;  -37,528; -388,667; 7832,874
 200,94;  -34,876; -436,547; 6941,297
 201,55;  -45,139; -406,404; 7119,049
 202,15;  -48,482; -375,773; 6404,732
 202,75;  -80,307; -373,217; 6097,647
 203,36;  -39,373; -338,664; 6822,492
 203,96;  -93,452; -357,943; 6332,678
 204,56;  -43,063; -355,657;10275,729
 205,16;  -51,019; -363,018; 5478,458
 205,77;  -64,625; -360,244; 4767,892
 206,37;  -51,942; -409,017; 5556,267
 206,97;  -55,862; -363,760; 5129,205
 207,58;  -37,990; -364,166; 5927,278
 208,18;  -59,206; -337,129; 5129,889
 208,78;  -56,438; -404,134; 5295,461
 209,38;  -38,681; -469,415; 4958,385
 209,99;  -38,566; -356,540; 3837,534
 210,59;  -40,296; -361,662; 3890,301
 211,19;  -39,488; -364,538; 3938,343
 211,79;  -31,763; -366,927; 4499,316
 212,40;  -61,512; -373,625; 3368,911
 213,00;  -52,057; -388,891; 3903,118
 213,60;  -57,592; -386,882; 2992,972
 214,20;  -72,927; -401,230; 3081,175
 214,81;  -65,202; -422,618; 2884,148
 215,41;  -73,158; -376,979; 3235,877
 216,01;  -94,259; -373,067; 3109,636
 216,61;  -47,906; -367,399; 2814,476
 217,22;  -89,416; -381,326; 2358,888
 217,82; -105,213; -325,173; 2262,495
 218,42;  -83,535; -383,711; 2389,480
 219,02;  -88,494; -288,327; 3432,079
 219,63;  -70,852; -357,483; 2044,854
 220,23;  -74,426; -366,602; 2425,239
 220,83;  -72,466; -395,730; 1901,770
 221,43;  -92,299; -393,195; 1850,167
 222,03;  -95,297; -348,940; 2326,296
 222,64;  -76,502; -380,348; 1769,560
 223,24;  -80,537; -298,966; 1625,350
 223,84;  -96,796; -376,313; 2637,361
 224,44;  -92,760; -316,695; 2381,571
 225,05;  -88,840; -313,952; 1440,632
 225,65;  -95,181; -301,065; 1227,445
 226,25;  -83,305; -364,961; 1139,777
 226,85;  -98,641; -294,309;  995,979
 227,45;  -86,303; -335,706; 1083,907
 228,06;  -84,343; -365,834; 1945,438
 228,66;  -83,766; -349,460; 4049,182
 229,26;  -78,680; -313,438; 1131,510
 229,86;  -80,192; -396,342; 1760,797
 230,46;  -93,221; -358,194;  891,976
 231,06;  -92,991; -320,444;  757,273
 231,67;  -71,544; -346,732; 1228,961
 232,27; -110,171; -343,789;  778,094
 232,87;  -99,102; -308,808;  526,384
 233,47; -113,515; -321,158;  525,777
 234,07;  -60,007; -268,486; 9912,235
 234,67; -124,700; -291,013;  672,338
 235,28; -113,515; -319,158;   65,777
 235,88; -128,505; -316,882;  285,426
 236,48;  -87,722; -350,821;  165,911
 237,08; -103,519; -267,669;  448,518
 237,68; -130,811; -369,378; -267,552
 238,28; -118,473; -304,774; -106,624
 238,89; -128,620; -212,756; -205,723
 239,49; -119,165; -282,023; 1280,483
 240,09; -117,650; -284,608; -190,544
 240,69; -128,578; -251,373; -319,124
 241,29; -119,511; -289,647;  651,036
 241,89; -119,972; -330,147; -260,559
 242,49;  -99,075; -248,490; -358,930
 243,10; -120,385; -201,496; 3664,834
 243,70; -136,075; -284,490;  239,070
 244,30; -101,618; -275,501; -708,594
 244,90;  -86,409; -188,582; -568,598
 245,50; -143,725; -177,355; 3274,777
 246,10; -125,968; -307,636; -831,300
 246,70; -133,002; -300,999;   17,620
 247,30; -118,201; -251,641;  326,273
 247,91; -141,298; -208,218; 5781,292
 248,51;  -84,763; -270,228; -806,563
 249,11;  -76,239; -239,514;  417,933
 249,71;  -95,467; -303,008; -667,235
 250,31;  -89,765; -265,483; -567,693
 250,91;  -90,541; -238,500;   75,216
 251,51;  -74,608; -199,225; -822,945
 252,11; -119,248; -239,813;  367,410
 252,71; -110,576; -269,117;-1080,994
 253,31; -115,415; -222,348; 3228,013
 253,91;  -94,176; -236,578; -676,170
 254,52; -119,105; -237,342;-1063,750
 255,12; -123,765; -293,483;-1104,693
 255,72;  -52,268; -206,366;  557,112
 256,32; -140,862; -242,061; -966,674
 256,92;  -83,327; -190,070;-1147,529
 257,52;  -16,839; -173,974; -883,243
 258,12; -154,103; -201,087;  -91,621
 258,72;  -97,093; -210,810;-1232,972
 259,32;  -58,795; -211,335;-1169,514
 259,92;  -69,562; -199,330;-1343,086
 260,52;  -44,761; -192,973;-1077,433
 261,12;  -46,784; -202,059; -662,865
 261,72;  -85,292; -238,452;-1312,319
 262,32;  -16,262; -215,600;-1561,498
 262,92; -124,051; -238,426;  405,627
 263,53;  -42,828; -189,698;-1277,594
 264,13; -123,055; -262,937; -268,632
 264,73;  -92,522; -217,202;-1694,617
 265,33;  -69,942; -188,317;-1708,613
 265,93;  -69,321; -147,304;-1345,140
 266,53;  -46,164; -161,046;-1544,392
 267,13;  -88,583; -139,161; -857,388
 267,73;  -79,428; -185,158;  270,230
 268,33;  -56,848; -166,274;-1788,766
 268,93; -117,294; -213,708;-1702,449
 269,53;  -78,510; -204,670; -644,839
 270,13;  -63,472; -201,797;-1810,499
 270,73; -114,468; -245,287;-1891,239
 271,33;  -40,898; -200,678;-1778,884
 271,93;  -75,202; -242,919;-1867,732
 272,53;  -27,146; -121,748;    8,776
 273,13;  -45,820; -146,677;-1117,075
 273,73;  -81,378; -119,753;-1955,652
 274,33;  -57,128; -148,428;-2041,182
 274,93;  -98,303; -188,007;-1843,972
 275,53;  -98,146;  -68,748;-1881,224
 276,13; -121,287; -121,965;-2261,935
 276,73;  -88,949; -118,361;-1570,007
 277,33;  -74,540; -179,522;-1926,659
 277,93;  -25,975; -213,680;-1864,693
 278,53;  -45,695; -194,526;-2112,278
 279,13;  -86,764; -125,506;-2152,568
 279,73;  -65,376; -140,498;-1388,522
 280,33;  -65,533; -154,756;-2179,270
 280,93;  -53,682; -105,994;-2049,499
 281,53;  -67,190; -147,387;-2252,953
 282,13;  -56,026; -127,363;-2193,816
 282,73;  -98,108; -156,875; -385,885
 283,33;  -37,953; -137,872;-2307,266
 283,92;  -32,368;  -74,477;-2028,003
 284,52;   -8,102;  -94,109;-2365,496
 285,12;  -24,617; -138,524;-1425,469
 285,72;  -44,194; -126,898;-1041,213
 286,32;  -22,183;  -55,622;-1313,564
 286,92;  -51,462; -163,521;-2376,850
 287,52;  -10,384;  -89,519;-2170,041
 288,12;   -9,844;  -97,763;-2542,507
 288,72;  -34,585; -106,417;-1625,518
 289,32;  -31,058;  -54,470; 1692,233
 289,92;  -43,693; -106,270;-2344,148
 290,52;  -83,928;  -91,809;-2485,710
 291,12;  -10,760;  -57,996;-1570,308
 291,72;  -30,368;  -74,477;-1590,003
 292,32;   20,657;  -83,135;-2372,442
 292,92;  -20,603;   -2,737;-2481,560
 293,51;  -35,326;  -37,093;-2532,404
 294,11;    1,355;  -42,121;-1681,160
 294,71;   11,089;   -7,488;-2695,667
 295,31;    0,087;  -24,743;-1755,797
 295,91;   71,316;   46,751;-2713,629
 296,51;   27,904;   62,656;-1776,106
 297,11;    2,954;   35,061;-2900,988
 297,71;   31,202;    4,131;-2726,648
 298,31;   49,307;   38,730;-2329,148
 298,91;   86,548;   74,756;-2483,202
 299,50;   73,592;   41,395;-2689,473
 300,10;  111,743;  145,887;-2706,114
 300,70;   95,865;   95,528;-2492,576
 301,30;  108,932;   89,253;-2855,415
 301,90;  119,699;   96,248;-2004,843
 302,50;  156,129;  163,640;-2515,198
 303,10;  184,970;  124,126;-2530,076
 303,70;  208,059;  208,660;-3000,488
 304,29;  149,217;  189,918;-2658,740
 304,89;  144,684;  266,183;-1090,755
 305,49;  122,372;  163,922;-2773,122
 306,09;  238,280;  214,133;-2874,839
 306,69;  243,618;  262,736;-2915,911
 307,29;  244,657;  312,865;-2008,442
 307,89;  250,212;  303,408;-3029,000
 308,48;  281,401;  341,774;-2453,301
 309,08;  368,158;  369,492;-2743,377
 309,68;  504,938;  377,019;-3094,026
 310,28;  586,806;  371,102;-2576,213
 310,88;  580,916;  321,211;-2936,453
 311,48;  511,546;  447,500;-2875,331
 312,07;  688,274;  408,367;-2963,228
 312,67;  769,192;  497,855;-2128,297
 313,27;  670,065;  494,448;-1105,224
 313,87;  727,808;  583,357;-2164,083
 314,47;  755,836;  516,954;-3030,392
 315,06;  660,985;  620,191; 2713,837
 315,66;  531,465;  579,988;-3245,400
 316,26;  700,060;  632,938;-1844,483
 316,86;  804,534;  777,969;-3140,110
 317,46;  773,404;  720,307;-2115,167
 318,06;  739,176;  739,813; -825,335
 318,65;  886,633;  781,801;-2807,999
 319,25;  872,478;  821,798;-3195,617
 319,85;  843,128;  932,663;-2908,323
 320,45;  946,241;  986,283;-3213,304
 321,05; 1008,698;  901,271;-2761,968
 321,64; 1075,933;  889,531;-3219,411
 322,24; 1425,416; 1056,861;-3265,513
 322,84; 1850,644; 1080,356;-3261,345
 323,44; 2750,032; 1133,364;-3219,300
 324,03; 7405,761; 1194,486;-3072,067
 324,63; 9438,133; 1250,452;-2310,059
 325,23; 5269,508; 1241,928;-3097,792
 325,83; 2346,842; 1367,021;-2876,123
 326,42; 3920,102; 1442,622;-3285,005
 327,02; 7293,690; 1476,551;-3076,607
 327,62; 6902,326; 1439,629;-2505,221
 328,22; 3809,588; 1553,486;-3234,973
 328,82; 3225,444; 1577,037;-2229,938
 329,41; 2759,690; 1658,852;-3016,728
 330,01; 3101,804; 1652,750;-2961,704
 330,61; 3480,434; 1806,062;-2928,707
 331,20; 2947,824; 1778,325;-2868,531
 331,80; 2392,569; 1762,512;-2794,386
 332,40; 1944,286; 1752,102;-2896,932
 333,00; 1930,763; 1933,667;-2790,423
 333,59; 1895,639; 1748,771;-2855,091
 334,19; 1962,398; 1920,745;-1771,037
 334,79; 1871,281; 1712,615;-2861,316
 335,39; 1752,609; 1729,919;-2978,912
 335,98; 1773,012; 1726,714;-3126,958
 336,58; 1684,036; 1659,777;-3191,401
 337,18; 1741,114; 1720,779;-2958,592
 337,77; 1796,905; 1782,837;-2098,463
 338,37; 1714,452; 1806,359;-2021,540
 338,97; 1587,616; 1907,384;-2912,402
 339,57; 1605,092; 1862,948;-3044,894
 340,16; 1701,778; 1836,431;-2881,390
 340,76; 1617,021; 1962,712;-3053,314
 341,36; 1699,774; 1861,920;-3195,650
 341,95; 1607,259; 1934,506;-3027,623
 342,55; 1461,410; 1918,998;  703,736
 343,15; 1358,768; 2048,155;-3094,039
 343,74; 1443,764; 1924,644;-2382,298
 344,34; 1642,032; 1860,267;-3015,661
 344,94; 1833,422; 2068,530;-3069,485
 345,53; 1722,648; 2110,769;-2860,447
 346,13; 1647,227; 2174,398;-1283,573
 346,73; 1717,708; 1966,473;-2254,805
 347,32; 1820,996; 2268,649;-3080,871
 347,92; 1978,670; 2312,600;-2277,145
 348,52; 1814,112; 2270,523;-1878,722
 349,11; 1560,430; 2336,551;  975,034
 349,71; 1585,462; 2330,658;-3240,016
 350,31; 1727,684; 2441,387;-2672,237
 350,90; 1847,157; 2483,418;-2326,863
 351,50; 2135,517; 2390,852;-2105,634
 352,10; 2191,062; 2471,119;-3114,840
 352,69; 2216,342; 2532,273;-3182,424
 353,29; 2054,650; 2563,024;-3191,317
 353,89; 1857,267; 2645,527;-3255,104
 354,48; 1782,062; 2693,119;-3208,840
 355,08; 1701,556; 2871,980;-1117,164
 355,67; 1607,503; 2850,042;-2951,417
 356,27; 1685,527; 2839,128;-3232,985
 356,87; 1640,040; 3010,288;-3383,142
 357,46; 1526,778; 3049,431;-2351,390
 358,06; 1745,195; 3306,291;-3073,523
 358,66; 1864,181; 3337,504;-3109,432
 359,25; 2426,734; 3260,792;-2344,119
 359,85; 2869,849; 3365,667;-3215,970
 360,44; 2530,185; 3389,015;-3292,172
 361,04; 2248,768; 3567,155;-2367,039
 361,64; 2375,768; 3696,155;-2309,039
 362,23; 2328,801; 3772,517;-2932,958
 362,83; 2109,531; 3755,639;-2990,726
 363,42; 2069,648; 3938,769;-2836,447
 364,02; 1976,116; 3910,034;-2973,462
 364,62; 2042,227; 3816,398;-2486,573
 365,21; 1997,549; 3857,937;-1741,558
 365,81; 2012,975; 3935,818;-2792,173
 366,40; 1948,434; 3970,062;-2080,707
 367,00; 1974,352; 4021,550;-2952,776
 367,59; 1868,595; 4071,831;-2979,699
 368,19; 1989,392; 4221,678;-3237,306
 368,79; 2004,409; 4198,720;-3125,268
 369,38; 1961,939; 4107,200;-2250,383
 369,98; 2053,704; 4101,940;-2935,940
 370,57; 1930,214; 4188,588;-3331,356
 371,17; 1891,991; 4164,860;-3326,135
 371,76; 1855,415; 4277,486;-3442,879
 372,36; 1865,679; 4057,598;-3195,501
 372,95; 1851,073; 4115,372;  667,934
 373,55; 1959,496; 4105,998;-3393,811
 374,14; 2026,218; 4300,099;-3405,097
 374,74; 2057,733; 4256,514;-3224,124
 375,34; 2026,566; 4286,979;-3189,521
 375,93; 2022,104; 4295,479;-2706,116
 376,53; 2025,058; 4344,585;-3575,974
 377,12; 2035,004; 4405,670;-1465,352
 377,72; 2019,874; 4480,730;-3410,414
 378,31; 2033,805; 4511,027;-2274,699
 378,91; 1966,700; 4291,429;-3262,199
 379,50; 2070,473; 4588,213;-3331,363
 380,10; 2045,093; 4327,226;-3398,890
 380,69; 2058,678; 4094,621;-2343,626
 381,29; 2006,020; 4586,735;-2550,439
 381,88; 1953,105; 4518,758;-1605,111
 382,48; 1896,632; 4519,727;-3286,485
 383,07; 1906,288; 4495,358;-3457,802
 383,67; 1859,105; 4635,758;-1847,111
 384,26; 1804,561; 4667,491;-2467,905
 384,86; 1712,362; 4921,849;-3182,252
 385,45; 1790,376; 4932,636;-3325,344
 386,05; 1833,057; 5073,608;-3419,100
 386,64; 1773,529; 4911,384;-3524,855
 387,24; 1760,758; 5016,878;-2585,688
 387,83; 1758,569; 4993,512;-2489,386
 388,42; 1789,745; 5182,346;-2109,466
 389,02; 1723,640; 5423,748;-3235,966
 389,61; 1764,193; 5688,036;-3413,653
 390,21; 1734,758; 5729,878;-3463,688
 390,80; 1705,917; 5816,392;-3208,810
 391,40; 1751,766; 6137,899;-2293,168
 391,99; 1879,131; 5981,099;-3195,550
 392,59; 1834,334; 6435,252;-2416,943
 393,18; 1774,227; 6683,398;-2491,573
 393,77; 1766,862; 6883,198;-3238,192
 394,37; 1811,384; 7145,657;-2198,825
 394,96; 1783,460; 7098,403;-2296,146
 395,56; 1672,214; 7264,588;-2834,356
 396,15; 1793,967; 6867,797;-3125,692
 396,75; 1838,156; 7343,163;-2889,993
 397,34; 1780,704; 7669,940;-2620,940
 397,93; 1836,396; 7720,188;-3358,047
 398,53; 1923,799; 7595,262;-2525,088
 399,12; 2066,107; 8192,013;-2154,981
 399,72; 2094,062; 8013,119;-2274,840
 400,31; 2081,066; 8034,629;-3169,581
 400,91; 2169,030; 8446,012;-2959,791
 401,50; 2192,862; 8820,198;-2330,192
 402,09; 2309,901; 8550,327;-2894,722
 402,69; 2357,319; 8691,187;-3072,856
 403,28; 2286,694; 9052,663;-2983,588
 403,88; 2346,818; 9162,560; 1927,079
 404,47; 2402,595; 9689,831;  884,300
 405,06; 2407,543; 9684,171;  -68,947
 405,66; 2668,128; 9753,565;-2875,684
 406,25; 3033,408;10085,720;-3119,268
 406,84; 2779,854;10446,177;-2892,711
 407,44; 2477,914;10847,858;-2219,944
 408,03; 2218,653;10422,257;-2906,063
 408,63; 1971,520;10373,085;-3011,379
 409,22; 1996,981;10191,584;-1945,783
 409,81; 1990,884;10681,007;-1849,765
 410,41; 2074,209;11553,078;-2857,615
 411,00; 2033,607;11336,362;-1814,921
 411,59; 2040,226;11251,120;-2826,578
 412,19; 2004,987;11468,350;-2245,394
 412,78; 1870,180;11399,226;-2830,436
 413,37; 1903,844;12151,878;-2704,234
 413,97; 1881,655;12410,512;-2618,933
 414,56; 1891,345;12071,506;-2503,169
 415,15; 1874,081;12410,394;-2121,547
 415,75; 1927,618;12408,639;-2698,272
 416,34; 1862,498;12590,254;-1893,681
 416,93; 1938,823;12922,047;-2777,536
 417,53; 2097,552;12696,169;-1423,303
 418,12; 2125,510;12570,785;-2217,903
 418,71; 2005,455;12907,592;-2673,285
 419,31; 2071,332;13054,695;-1884,952
 419,90; 2015,290;13470,313;-2786,552
 420,49; 1997,592;13619,298;-1733,834
 421,08; 1973,592;14201,298;-1674,834
 421,68; 1982,399;14723,421;-1908,792
 422,27; 1964,760;14035,832;-2004,437
 422,86; 2113,063;13874,073; -437,590
 423,46; 2016,692;14080,107;-2575,598
 424,05; 2150,084;14376,626;-2928,293
 424,64; 2309,412;13888,953;-2640,014
 425,24; 2312,227;14092,098;-2903,453
 425,83; 2207,283;13992,269;-2680,945
 426,42; 2307,084;12987,626;-2760,293
 427,01; 3282,193;13424,734;-2674,533
 427,61; 3542,698;14347,873;-2609,209
 428,20; 2489,786;14036,151;-1764,751
 428,79; 2197,142;14414,052;-2859,656
 429,38; 2196,392;14092,377;-1781,186
 429,98; 2140,208;14922,521; -994,625
 430,57; 2237,698;15058,873;-2193,209
 431,16; 2116,935;14580,389;-2784,522
 431,75; 2216,404;14357,909; -561,407
 432,35; 2234,939;13435,899;-1951,262
 432,94; 2348,415;14429,186;-2324,759
 433,53; 2448,315;14560,375;-1152,995
 434,12; 2519,679;14431,298;-2267,381
 434,72; 2531,307;14188,331;-1413,389
 435,31; 2560,574;14167,699; 7395,119
 435,90; 2604,576;14308,954; 8338,249
 436,49; 2512,924;13427,834; -683,175
 437,08; 2826,421;13895,951; -675,370
 437,68; 2938,614;14442,827;-2987,412
 438,27; 2597,896;14610,237;-2610,866
 438,86; 2245,846;14612,832;-1147,984
 439,45; 2144,005;15313,346;-1937,106
 440,05; 2116,705;15955,616;-2982,694
 440,64; 1918,405;15054,886;-1902,282
 441,23; 1991,449;14152,525;-1415,553
 441,82; 1947,966;13700,218;-2631,576
 442,41; 1716,835;14351,277;-3014,637
 443,00; 1648,267;13625,925;-2724,863
 443,60; 1699,173;14373,881;-3136,710
 444,19; 1620,225;15026,541;-1440,462
 444,78; 1586,873;14960,151;-3012,298
 445,37; 1565,766;15728,297;-2522,928
 445,96; 1535,439;15331,249;-3116,202
 446,56; 1509,915;15596,535;-1144,698
 447,15; 1496,652;16225,678; -884,947
 447,74; 1572,185;17097,412;-2709,931
 448,33; 1504,927;16443,066;-1985,920
 448,92; 1508,503;15422,440;-2964,176
 449,51; 1537,235;15095,817;-2848,813
 450,10; 1921,470;15133,078;-3063,256
 450,70; 2428,965;14904,939;-1957,581
 451,29; 2028,889;15329,193;-1112,260
 451,88; 1701,342;15513,671;-2929,183
 452,47; 1625,384;16565,055;-2795,584
 453,06; 1975,295;16495,498;-2401,047
 453,65; 2158,949;16071,874;-2873,493
 454,24; 1969,448;17329,246;-2173,558
 454,84; 1570,665;17793,209;-1379,168
 455,43; 1524,140;18732,496;-2219,665
 456,02; 1457,442;18879,480;-2927,947
 456,61; 1428,356;17317,459;-2925,275
 457,20; 1486,945;16921,363;-2786,753
 457,79; 1695,029;17588,131;-2922,554
 458,38; 2476,224;18338,264;-2132,467
 458,97; 2369,955;18039,641;-2515,104
 459,56; 1738,287;18190,479;-2760,565
 460,16; 1542,991;17832,258;-2082,894
 460,75; 1571,148;18157,518;-2072,146
 461,34; 1509,570;18077,887;-2962,020
 461,93; 1474,588;18381,186;-2200,853
 462,52; 1540,844;19333,275;-2744,993
 463,11; 1625,204;20546,688;-1989,639
 463,70; 1880,033;19458,643;-2869,295
 464,29; 2582,789;19945,082;-3150,376
 464,88; 3923,779;20795,807;-2743,024
 465,47; 3346,310;19885,285;-2748,139
 466,06; 2009,445;20915,713;-3191,692
 466,65; 1918,785;21667,572;-3018,635
 467,24; 2283,795;22030,848;-2539,986
 467,84; 2158,580;22443,164;-2020,371
 468,43; 2006,238;22325,051;-2238,559
 469,02; 1810,890;23517,170;-2702,135
 469,61; 2124,819;24168,936;-2593,555
 470,20; 2416,858;23781,063;-2841,085
 470,79; 2040,642;22760,100;-3232,475
 471,38; 1676,676;25266,463;-2192,395
 471,97; 1506,376;26009,732; -666,983
 472,56; 1549,579;25472,887;-3035,376
 473,15; 1545,680;25296,975;-2825,135
 473,74; 1505,028;26395,854;-3106,559
 474,33; 1549,718;25866,848;-2957,796
 474,92; 1531,256;27630,348;-3146,391
 475,51; 1582,998;29609,002;-2873,380
 476,10; 1574,300;29847,986;-3011,662
 476,69; 1839,543;26101,268;-2855,586
 477,28; 1858,749;25846,955;-2956,845
 477,87; 1613,650;27035,121; -173,956
 478,46; 1795,964;28695,639;-3029,460
 479,05; 2095,564;30507,100;-2134,284
 479,64; 2091,461;31679,756;-2718,655
 480,23; 1797,770;29541,508;-2845,548
 480,82; 1845,766;28549,996;-2736,807
 481,41; 1827,925;29371,510;-1873,929
 482,00; 1822,501;29284,885;-1364,185
 482,59; 1805,843;29593,998;-2298,998
 483,18; 1808,380;31702,244;-2376,723
 483,77; 1702,426;31703,139;-2193,865
 484,36; 1781,998;32475,002;-1701,380
 484,95; 1796,203;32990,410; -788,643
 485,54; 1973,472;35331,031;-1371,006
 486,13; 2218,688;35762,996; -945,616
 486,72; 2312,348;34334,137;  148,326
 487,31; 2044,396;31046,285;-1109,686
 487,89; 2043,654;32608,633; -193,697
 488,48; 2036,589;33798,164;-1523,728
 489,07; 2197,138;32913,941;-1248,674
 489,66; 2293,275;33511,645;-1505,224
 490,25; 2678,017;31095,299; -660,212
 490,84; 3119,575;34127,375;-1683,635
 491,43; 3502,189;34965,621; -701,552
 492,02; 3471,585;36094,652;-1864,987
 492,61; 3613,277;35362,902;-1043,094
 493,20; 3483,056;33776,426;-2019,743
 493,79; 3568,366;32749,434; 4824,494
 494,38; 3429,015;33706,043;-1938,342
 494,97; 3251,828;32583,934; -629,911
 495,55; 3139,559;34690,309;-2325,548
 496,14; 2966,855;35087,531;-2403,220
 496,73; 2742,639;35451,566;-1952,609
 497,32; 2523,872;34211,570;-2587,182
 497,91; 2628,526;35005,949;-1921,629
 498,50; 2609,140;34165,195;-2912,544
 499,09; 2582,872;34554,570;-3088,182
 499,68; 2636,255;32403,070;-2405,396
 500,27; 2674,423;33321,605;-2490,999
 500,85; 2799,760;32655,207;-2604,071
 501,44; 2846,033;32478,342;-2576,175
 502,03; 2705,452;33194,457;-3368,178
 502,62; 2523,178;31275,068;-3438,205
 503,21; 2538,377;29432,711;-3532,858
 503,80; 2352,651;32028,100;-2976,831
 504,39; 2319,582;32451,119;-3458,121
 504,97; 2449,154;31774,982;-3577,636
 505,56; 2515,725;31537,590;-2979,281
 506,15; 2717,800;32302,336;-3991,602
 506,74; 2787,043;32557,617;-2945,526
 507,33; 2935,391;32185,498;-3165,949
 507,92; 2837,347;33952,859;-3871,678
 508,51; 2474,767;35926,973;-3735,682
 509,09; 2562,664;34536,629;-3921,053
 509,68; 3490,934;34318,508;-3748,286
 510,27; 5188,368;33667,410;-3799,381
 510,86; 4133,475;32572,264;-4081,751
 511,45; 2418,011;33677,512;-3843,476
 512,03; 2293,270;34524,855;-3829,488
 512,62; 2343,224;36240,961;-3780,346
 513,21; 2434,177;33870,789;-3186,209
 513,80; 3099,561;34644,289;-3501,423
 514,39; 5211,435;32752,137;-3905,221
 514,97; 8079,789;35347,781;-4095,255
 515,56; 5941,950;34167,551;-4198,248
 516,15; 2895,032;35428,063;-3955,179
 516,74; 2096,034;32584,318;-4420,049
 517,33; 1980,300;33459,688;-3549,542
 517,91; 1966,066;33935,426;-4188,099
 518,50; 2047,515;32563,393;-3264,282
 519,09; 2251,200;33942,875;-3157,778
 519,68; 2749,097;35231,531;-4286,148
 520,26; 3575,718;38679,547;-4232,675
 520,85; 6555,137;39452,660;-4352,679
 521,44;11790,729;40826,078;-4358,897
 522,03; 8789,407;39485,539;-4271,912
 522,61; 3231,730;36773,078;-4364,897
 523,20; 2102,273;33924,090;-4337,233
 523,79; 1944,811;32040,590;-4337,828
 524,38; 1718,072;32850,191;-4344,709
 524,96; 1624,382;35883,199;-4321,473
 525,55; 1490,151;36021,449;-4542,771
 526,14; 1429,084;34018,723;-4434,931
 526,73; 1367,575;32852,074;-4389,515
 527,31; 1358,267;32903,324;-4488,622
 527,90; 1337,151;33630,449;-4564,771
 528,49; 1603,070;34155,938;-2529,839
 529,08; 1983,275;34601,344;-3467,103
 529,66; 1780,996;34848,445;-3911,389
 530,25; 1313,193;35279,832;-4414,172
 530,84; 1228,430;35334,348;-4583,485
 531,42; 1208,126;38583,105;-4365,332
 532,01; 1118,702;37528,480;-4291,588
 532,60; 1044,901;34512,125;-4473,241
 533,18; 1026,195;35538,086;-4078,042
 533,77; 1018,319;34969,984;-4236,374
 534,36;  974,082;34459,469;-4374,061
 534,95; 1192,470;35483,477;-4088,015
 535,53; 1268,350;34236,090; -974,424
 536,12; 1184,931;36469,977;-2657,420
 536,71; 1144,855;36511,230;-3869,099
 537,29; 1115,285;36073,621;-3618,454
 537,88; 1134,730;33908,078;-3454,897
 538,47; 1217,822;32497,867;-2840,180
 539,05; 1273,243;36837,238;-2139,054
 539,64; 1175,373;40414,898;-1785,997
 540,22; 1100,828;37414,633; -764,790
 540,81; 1187,023;37501,766; 1008,297
 541,40; 1058,673;39018,629; 3425,591
 541,98;  960,010;38188,230; 4858,519
 542,57; 1104,931;39368,977; 4597,580
 543,16; 1105,897;38645,613; 4952,500
 543,74;  997,625;35774,480; 4083,603
 544,33; 1035,675;36297,883; 3620,721
 544,92; 1004,830;37217,887; 3973,339
 545,50; 1051,012;37338,488;11456,648
 546,09; 1122,388;40064,965;11359,916
 546,67; 1086,161;41948,727; 2857,878
 547,26; 1071,428;40050,094; -202,615
 547,85; 1027,687;39208,414; -567,501
 548,43;  957,440;38452,625; -849,836
 549,02; 1048,631;39427,246;-1040,008
 549,60;  942,633;40570,500; -984,878
 550,19; 1022,939;41166,996;-2192,901
 550,78;  933,287;42660,875;-2328,325
 551,36;  888,065;45349,148;-2432,104
 551,95;  998,511;45443,859; -585,416
 552,53;  989,406;43280,262; -296,916
 553,12; 1119,878;41420,035;-3431,672
 553,70; 1089,804;43188,547;-2878,222
 554,29; 1055,559;44058,008;-2869,428
 554,88; 1001,534;41831,668;-4247,989
 555,46;  916,490;43723,027;-3881,718
 556,05;  959,627;45007,734;-4207,268
 556,63;  955,639;45206,266;-3396,489
 557,22;  979,281;43875,109;-3394,714
 557,80;  931,868;41749,762;-3568,321
 558,39;  919,786;44188,250;-4145,390
 558,97;  863,752;47993,887;-3699,470
 559,56;  934,522;49889,137;-4544,768
 560,15;  938,985;50117,891;-3611,042
 560,73;  883,375;49814,152;-4287,867
 561,32;  987,820;47024,609;-3741,309
 561,90;  957,916;46041,910;-4382,333
 562,49; 1078,593;48487,371;-3786,348
 563,07; 1027,214;48074,387;-4783,875
 563,66; 1015,444;50064,133;-4352,577
 564,24; 1120,832;49228,145;-4763,531
 564,83; 1035,379;51344,664;-4603,607
 565,41;  963,671;53840,375;-4329,539
 566,00; 1042,840;52202,164;-2755,012
 566,58; 1006,748;56465,375;-3725,729
 567,17; 1155,943;56909,508;-4280,642
 567,75; 1068,977;52392,871;-4653,562
 568,34;  992,333;55893,770;-3216,466
 568,92;  999,341;55738,793;-3987,947
 569,51; 1271,140;54852,895; 2680,576
 570,09; 1425,524;58247,391;-4676,638
 570,68;  996,810;53188,313;-4788,833
 571,26;  894,553;50733,242;-3886,817
 571,85;  958,782;57347,738;-4822,649
 572,43;  919,903;57011,379;-4704,111
 573,01;  876,826;52662,375;-4873,920
 573,60;  883,714;53819,012;-3785,810
 574,18;  797,406;55122,262;-4514,917
 574,77;  820,104;53284,277;-4737,634
 575,35;  844,714;56113,012;-4452,810
 575,94;  841,255;57300,770;-4076,275
 576,52;  867,717;54049,270;-2249,680
 577,11; 1053,035;51620,297;-3244,924
 577,69; 2291,192;48685,555;-3183,176
 578,27; 2432,939;51008,996;-3447,901
 578,86; 1061,727;55198,543;-2994,031
 579,44;  861,327;60080,004;-2805,855
 580,03;  922,599;60164,137;-2493,958
 580,61;  877,872;60267,270;-3206,062
 581,19;  821,836;56429,652;-2538,271
 581,78;  827,272;55361,813;-2364,238
 582,36;  839,568;57656,031;-2911,909
 582,95;  820,150;56180,172;-1497,776
 583,53;  868,417;59586,539;-2319,268
 584,11;  935,597;61608,883;-2241,088
 584,70;  966,146;61691,660;-1948,035
 585,28;  944,911;62070,398;-1853,592
 585,87;  829,769;60436,930;-2889,432
 586,45;  756,727;63023,543;-2375,031
 587,03;  788,307;64945,430;-1150,027
 587,62;  803,216;61494,641;-1834,745
 588,20;  853,570;62236,285;-1020,779
 588,78;  913,668;58157,840;-3411,673
 589,37;  925,717;57765,270;-3360,680
 589,95;  829,410;62238,773;-3385,657
 590,54;  800,494;63633,539;-3461,459
 591,12;  831,268;62116,301;-3508,497
 591,70;  815,186;59586,789;-3331,565
 592,29;  740,884;62881,805;-2923,283
 592,87;  812,671;63542,375;-2394,538
 593,45;  842,806;63404,801; 1487,908
 594,04;  771,003;62800,188;-3676,875
 594,62;  832,916;59709,910;-3708,333
 595,20;  770,047;62066,828;-4371,146
 595,79;  861,492;62681,285;-4165,588
 596,37;  806,192;61108,555;-3657,176
 596,95;  772,918;56922,164;-4321,203
 597,53;  777,333;58806,770;-4226,466
 598,12;  753,458;61848,922;-3959,669
 598,70;  846,184;64932,531;-3776,695
 599,28;  813,671;64911,375;-3404,538
 599,87;  832,721;64929,777;-3061,420
 600,45;  816,880;64938,293;-3907,543
 601,03;  838,876;63145,781;-4100,802
 601,62;  775,003;61727,188;-4468,875
 602,20;  707,532;59786,414;-4541,119
 602,78;  756,506;64399,070;-4770,680
 603,36;  713,345;64783,301;-3166,688
 603,95;  710,104;58863,277;-4492,634
 604,53;  704,337;62401,281;-4574,207
 605,11;  844,251;59505,258;-2755,535
 605,69;  746,530;62362,156;-3365,249
 606,28;  757,884;62594,805;-4223,283
 606,86;  805,997;61629,422;-3946,264
 607,44;  753,804;60431,547;-3906,222
 608,02;  751,961;58047,805;-4037,474
 608,61;  786,534;60099,668;-2866,989
 609,19;  743,842;58582,418;-2582,882
 609,77;  816,920;57398,422; -710,073
 610,35;  760,108;55748,785; 5794,625
 610,94;  759,613;56509,926;14509,949
 611,52;  803,534;55803,668;12610,011
 612,10;  698,164;53026,957; 8432,133
 612,68;  678,699;56637,949; 2694,278
 613,26;  671,115;57037,551; 2032,015
 613,85;  679,691;61759,926; -599,241
 614,43;  719,226;62306,918;-1030,096
 615,01;  606,546;62272,199;-1215,211
 615,59;  683,663;64874,328; -972,932
 616,17;  670,681;59402,648;-2561,890
 616,76;  758,752;62178,887;-2993,470
 617,34;  767,629;62666,988;-2389,138
 617,92;  747,333;58547,770;-3399,466
 618,50;  788,836;61202,652;-2562,271
 619,08;  816,645;57928,031;-2514,100
 619,67;  802,840;55968,164;-3196,012
 620,25;  815,216;54290,641;-2743,745
 620,83;  725,880;50498,293;-3495,543
 621,41;  811,651;52314,797;-2800,711
 621,99;  785,689;54560,672;-2529,371
 622,57;  836,677;55529,141;-3707,149
 623,15;  789,213;56213,387;-3783,875
 623,74;  785,247;58266,746;-3892,794
 624,32;  782,635;59330,754;-2827,749
 624,90;  762,450;58625,898;-2311,188
 625,48;  720,188;57897,043;-3132,436
 626,06;  826,524;56898,391;-4006,638
 626,64;  794,327;57787,004;-4162,855
 627,22;  762,102;58993,020;-3409,764
 627,81;  725,591;58046,117;-4334,478
 628,39;  693,909;57121,145;-4560,722
 628,97;  761,957;56597,293;-4437,733
 629,55;  765,325;55377,750;-4219,985
 630,13;  721,872;55669,270;-2959,062
 630,71;  713,062;54162,891;-2747,233
 631,29;  738,104;53129,277;-3824,634
 631,87;  680,866;52776,504;-4223,451
 632,45;  712,681;52786,648;-4716,890
 633,03;  700,555;54183,500;-4191,688
 633,62;  714,337;55423,281;-4714,207
 634,20;  720,228;54882,172;-4089,966
 634,78;  649,094;56497,000;-4430,283
 635,36;  669,526;56701,648;-4449,508
 635,94;  728,136;55183,383;-5398,684
 636,52;  694,371;51027,645;-5422,126
 637,10;  618,918;52116,164;-5488,203
 637,68;  606,951;50694,527;-4702,123
 638,26;  679,402;47618,750;-5536,176
 638,84;  606,605;48688,902;-5421,569
 639,42;  557,918;49235,164;-3756,203
 640,00;  630,907;51366,148;-5405,726
 640,58;  640,673;54579,402;-4806,027
 641,16;  617,440;55521,656;-5571,328
 641,74;  624,206;53214,906;-5433,630
 642,32;  564,973;50106,160;-5620,931
 642,90;  589,739;50434,414;-5856,232
 643,48;  576,506;49231,668;-5786,534
 644,06;  600,272;49280,922;-5796,835
 644,64;  594,039;49595,176;-5842,137
 645,22;  471,805;50513,430;-5562,438
 645,80;  578,572;50547,684;-4957,740
 646,39;  563,338;48107,938;-5515,041
 646,97;  563,105;49773,191;-5850,342
 647,54;  501,871;52328,441;-5717,644
 648,12;  532,638;54879,695;-5865,945
 648,70;  536,404;58954,949;-5885,247
 649,28;  554,171;56421,203;-6090,548
 649,86;  497,938;51091,457;-5609,850
 650,44;  503,704;48619,711;-5452,151
 651,02;  484,471;49970,965;-5474,452
 651,60;  504,237;51793,219;-5803,753
 652,18;  519,004;51320,473;-4735,055
 652,76;  490,770;53277,723;-5934,356
 653,34;  497,537;54817,977;-5939,658
 653,92;  500,303;57729,230;-5784,959
 654,50;  522,070;59042,484;-5818,261
 655,08;  510,836;58048,738;-5841,562
 655,66;  540,603;55058,992;-5115,863
 656,24;  522,369;56743,246;-5200,165
 656,82;  555,136;58989,500;-4979,466
 657,40;  549,902;58967,754;-5667,768
 657,98;  502,669;60169,008;-5486,069
 658,56;  469,435;61114,258;-5717,371
 659,14;  484,202;61380,512;-5913,672
 659,72;  493,969;63381,766;-5916,973
 660,29;  445,735;62437,020;-5907,275
 660,87;  403,502;59738,273;-5212,576
 661,45;  487,268;58590,527;-5664,877
 662,03;  492,035;57513,781;-4971,179
 662,61;  502,801;54945,035;-5638,480
 663,19;  456,568;54618,289;-5657,782
 663,77;  443,334;53917,543;-5939,083
 664,35;  379,101;56689,793;-5887,384
 664,93;  439,867;62595,047;-4922,686
 665,51;  428,634;61993,301;-6033,987
 666,08;  441,400;57747,555;-5652,289
 666,66;  425,167;51859,809;-4400,590
 667,24;  430,933;49420,063;-5952,892
 667,82;  416,700;50250,316;-5849,193
 668,40;  419,466;50723,570;-5932,494
 668,98;  427,233;51952,824;-5097,796
 669,56;  404,999;57957,078;-6096,097
 670,13;  443,766;61797,328;-6222,398
 670,71;  412,533;59698,582;-5900,700
 671,29;  444,299;57209,836;-6139,001
 671,87;  406,066;56814,090;-6051,303
 672,45;  368,832;51822,344;-6050,604
 673,03;  503,599;52592,598;-4769,906
 673,60;  576,365;58431,852;-3503,207
 674,18;  662,132;63679,105;-5938,508
 674,76;  514,898;61159,359;-6226,810
 675,34;  455,665;56361,613;-5251,111
 675,92;  417,431;55284,863;-6338,413
 676,50;  459,198;55051,117;-6085,714
 677,07;  423,964;56952,371;-6095,016
 677,65;  398,731;56680,625;-6163,317
 678,23;  400,497;55997,879;-5057,618
 678,81;  415,264;58016,133;-5299,919
 679,38;  392,030;56669,387;-5969,221
 679,96;  350,797;53267,641;-5846,522
 680,54;  397,564;55171,895;-5308,824
 681,12;  348,330;52485,148;-6126,125
 681,70;  354,097;54786,398;-4413,427
 682,27;  361,863;54740,652;-5851,728
 682,85;  339,630;58265,906;-5991,029
 683,43;  346,396;64943,160;-6140,331
 684,01;  352,163;64943,414;-5172,632
 684,58;  342,929;64307,668;-5138,934
 685,16;  346,696;64236,922;-4494,235
 685,74;  363,462;62790,176;-3853,536
 686,32;  360,229;59009,430;-6012,838
 686,89;  388,995;59552,684;-6015,139
 687,47;  326,762;59534,934;-6076,441
 688,05;  366,528;56416,188;-6019,742
 688,63;  374,295;59626,441;-6102,043
 689,20;  377,061;62884,695;-5971,345
 689,78;  350,828;58427,949;-5530,646
 690,36;  415,595;54291,203;-5381,948
 690,93;  403,361;54968,457;-6355,249
 691,51;  389,128;61453,711;-6326,550
 692,09;  358,894;64946,965;-6223,852
 692,67;  335,661;64947,219;-6047,153
 693,24;  321,427;60968,469;-5803,455
 693,82;  309,194;59538,723;-6235,756
 694,40;  387,960;58049,977;-3570,058
 694,97;  280,727;57456,230;-6046,359
 695,55;  331,493;59820,484;-5464,660
 696,13;  350,260;61729,738;-4454,962
 696,70;  368,026;58594,992;-6029,263
 697,28;  294,793;59108,246;-6266,564
 697,86;  311,559;60837,500;-6030,866
 698,43;  330,326;58827,754;-6198,167
 699,01;  308,092;55595,004;-6051,469
 699,59;  306,859;55751,258;-6402,770
 700,16;  285,625;54174,512;-5257,072
 700,74;  338,392;57040,766;-5497,373
 701,32;  287,159;56440,020;-6233,674
 701,89;  315,925;55792,273;-6049,976
 702,47;  313,692;60296,527;-6466,277
 703,05;  334,458;64951,781;-6309,579
 703,62;  281,225;64952,035;-6227,880
 704,20;  284,991;64952,285;-5306,182
 704,77;  279,758;64952,539;-6118,483
 705,35;  260,524;64213,793;-6006,784
 705,93;  232,291;64327,047;-4922,085
 706,50;  230,057;63796,301;-5267,387
 707,08;  277,824;60606,555;-5284,688
 707,65;  282,590;60046,809;-5620,990
 708,23;  271,357;64881,063;-5431,292
 708,81;  249,123;64954,316;-5019,593
 709,38;  261,890;64954,570;-5001,894
 709,96;  313,656;64954,820;-6025,195
 710,53;  267,423;64955,074;-6007,497
 711,11;  282,190;61503,328;-5752,798
 711,69;  342,956;61913,582;-3821,100
 712,26;  304,723;59012,836;-4642,401
 712,84;  252,489;63346,090;-5947,703
 713,41;  295,256;64411,344;-6153,004
 713,99;  255,022;64924,598;-6068,305
 714,56;  282,789;62057,852;-6326,607
 715,14;  287,555;60312,105;-6198,908
 715,71;  251,322;60246,355;-6210,209
 716,29;  265,088;62893,609;-6648,511
 716,86;  218,855;63573,863;-6510,813
 717,44;  320,621;63263,117;-6424,114
 718,02;  270,388;62110,371;-6462,415
 718,59;  254,154;61013,625;-5121,716
 719,17;  260,921;63488,879;-5649,018
 719,74;  299,687;62907,133;-5756,319
 720,32;  186,454;63502,387;-6451,621
 720,89;  295,221;64959,641;-6422,922
 721,47;  216,987;64959,891;-6388,224
 722,04;  252,754;64960,145;-5502,525
 722,62;  241,520;64252,398;-3979,826
 723,19;  281,287;60250,652;-4938,128
 723,77;  253,053;57638,906;-5673,429
 724,34;  317,820;60150,160;-5576,730
 724,92;  293,586;63789,414;-6558,032
 725,49;  248,353;64961,668;-5666,333
 726,07;  288,119;64961,922;-6491,635
 726,64;  269,886;64627,176;-6587,936
 727,21;  281,652;60249,426;-5627,238
 727,79;  213,419;63706,680;-6444,539
 728,36;  297,185;64962,934;-6722,840
 728,94;  278,952;64963,188;-6535,142
 729,51;  257,718;64963,441;-6365,443
 730,09;  235,485;64963,695;-5545,745
 730,66;  263,251;64963,949;-6358,046
 731,24;  237,018;64964,203;-6577,348
 731,81;  317,785;64964,457;-5151,649
 732,38;  274,551;64964,711;-6492,950
 732,96;  269,318;64964,961;-6263,251
 733,53;  313,084;60347,215;-6389,553
 734,11;  253,851;61575,469;-6617,854
 734,68;  276,617;64965,723;-6211,156
 735,26;  254,384;64965,977;-6389,458
 735,83;  260,150;64966,230;-6498,759
 736,40;  259,917;62243,484;-6516,060
 736,98;  325,683;61999,738;-6374,361
 737,55;  253,450;59236,992;-5827,663
 738,13;  242,216;57707,246;-5702,964
 738,70;  280,983;60991,496;-5529,266
 739,27;  294,749;62504,750;-6452,567
 739,85;  271,516;62745,004;-6283,869
 740,42;  311,282;64968,258;-6464,170
 740,99;  309,049;64968,512;-5618,471
 741,57;  306,816;64968,766;-4867,773
 742,14;  287,582;64969,020;-5349,074
 742,72;  289,349;64969,273;-4751,375
 743,29;  275,115;64969,527;-6563,677
 743,86;  323,882;64969,781;-6538,979
 744,44;  330,648;64970,031;-6113,280
 745,01;  323,415;64970,285;-5760,581
 745,58;  320,181;64970,539;-6259,882
 746,16;  350,948;64970,793;-6188,184
 746,73;  382,714;64971,047;-6479,485
 747,30;  318,481;61139,301;-6536,787
 747,88;  320,247;59621,555;-5621,088
 748,45;  313,014;64971,809;-5668,390
 749,02;  301,780;64972,063;-6384,691
 749,60;  249,547;62401,313;-6212,992
 750,17;  275,313;61766,566;-5269,294
 750,74;  238,080;62801,820;-6479,595
 751,31;  256,847;63306,074;-6347,896
 751,89;  254,613;64232,328;-6546,198
 752,46;  318,380;64973,582;-6282,500
 753,03;  297,146;64973,836;-6160,801
 753,61;  340,913;63755,090;-4858,102
 754,18;  239,679;64573,344;-6434,404
 754,75;  292,446;63888,598;-5191,705
 755,32;  308,212;60715,848;-6332,006
 755,90;  287,979;64975,102;-6493,308
 756,47;  353,745;64975,355;-4809,609
 757,04;  368,512;64975,609;-6457,911
 757,61;  297,278;64975,863;-5553,212
 758,19;  311,045;64976,117;-5253,514
 758,76;  280,811;64976,371;-6603,815
 759,33;  277,578;64976,625;-6664,116
 759,90;  278,344;64976,879;-5714,417
 760,48;  255,111;64977,133;-6778,719
 761,05;  207,878;64977,383;-6083,021
 761,62;  236,644;62082,637;-4888,322
 762,19;  226,411;58992,891;-6144,624
 762,77;  285,177;61730,145;-5963,925
 763,34;  240,944;64978,398;-6610,226
 763,91;  295,710;64978,652;-5818,527
 764,48;  267,477;64978,906;-6756,829
 765,05;  282,243;64979,160;-6543,130
 765,63;  252,010;63215,414;-6417,432
 766,20;  293,776;59753,668;-6004,733
 766,77;  268,543;57105,918;-5921,035
 767,34;  282,309;58807,172;-6640,336
 767,91;  234,076;59176,426;-6689,637
 768,49;  230,842;61368,680;-6772,939
 769,06;  243,609;64980,934;-5832,240
 769,63;  212,375;62272,188;-6636,542
 770,20;  231,142;59567,441;-5868,843
 770,77;  230,908;57921,695;-5645,145
 771,34;  189,675;60065,949;-6615,446
 771,91;  227,442;60549,203;-6102,747
 772,49;  248,208;58558,453;-6369,048
 773,06;  220,975;57687,707;-6203,350
 773,63;  258,741;60204,961;-6639,651
 774,20;  280,508;58197,215;-5918,953
 774,77;  287,274;56475,469;-6631,254
 775,34;  317,041;56707,723;-6214,556
 775,91;  379,807;57056,977;-6417,857
 776,49;  476,574;58787,230;-6590,158
 777,06;  747,340;60761,484;-6015,460
 777,63;  564,107;64224,738;-6367,761
 778,20;  378,873;62572,988;-6250,063
 778,77;  312,640;63316,242;-5763,364
 779,34;  262,406;64985,496;-6585,666
 779,91;  290,173;64985,750;-6534,967
 780,48;  295,939;59144,004;-5853,268
 781,05;  323,706;50716,258;-6586,570
 781,62;  338,473;52124,512;-6604,871
 782,20;  351,239;58813,766;-6500,172
 782,77;  319,006;64987,020;-6529,474
 783,34;  259,772;64052,273;-6522,775
 783,91;  265,539;61362,523;-6509,077
 784,48;  228,305;60480,777;-2126,378
 785,05;  253,072;59144,031;-6540,680
 785,62;  226,838;58221,285;-6452,981
 786,19;  238,605;58149,539;-5100,282
 786,76;  239,371;55130,793;-6677,583
 787,33;  235,138;56202,047;-6515,885
 787,90;  250,904;59491,301;-6591,187
 788,47;  269,671;60148,555;-5075,488
 789,04;  323,437;58988,809;-5763,790
 789,61;  268,204;58863,059;-5066,091
 790,18;  227,970;55747,313;-6561,392
 790,75;  279,737;50841,566;-6671,693
 791,32;  250,504;52056,820;-6577,995
 791,89;  311,270;55205,074;-6068,296
 792,46;  544,037;60806,328;-5763,598
 793,03; 1071,803;62404,582;-6702,899
 793,60;  949,570;55699,836;-6440,201
 794,17;  466,336;52257,090;-5569,502
 794,74;  363,103;47273,344;-5886,803
 795,31;  290,869;50096,594;-6099,105
 795,88;  224,636;52579,848;-5572,406
 796,45;  199,402;53365,102;-6529,708
 797,02;  200,169;56004,355;-5046,009
 797,59;  167,935;57922,609;-6675,311
 798,16;  203,702;54563,863;-5861,612
 798,73;  170,468;53534,117;-6761,913
 799,30;  112,235;55088,371;-6611,214
 799,87;   50,001;55650,625;-6713,516
 800,44;  133,768;55353,875;-6729,817
 801,01;  109,535;56836,129;-6807,119
 801,58;  175,301;58477,383;-6537,420
 802,15;  174,068;52086,637;-6658,722
 802,72;  150,834;48849,891;-6694,023
 803,28;  140,601;52000,145;-6076,324
 803,85;  168,367;57179,398;-6728,626
 804,42;  139,134;55235,652;-5999,927
 804,99;  117,900;53752,906;-6539,229
 805,56;  152,667;52472,160;-6770,530
 806,13;  123,433;53387,410;-6075,832
 806,70;  209,200;52719,664;-6748,133
 807,27;  201,966;54477,918;-6672,434
 807,84;  239,733;52786,172;-6693,736
 808,41;  634,499;49728,426;-6022,037
 808,98; 1434,266;50479,680;-5986,338
 809,54; 1243,032;52469,934;-4958,640
 810,11;  532,799;48281,188;-6782,941
 810,68;  279,565;43021,441;-6680,243
 811,25;  203,332;41394,695;-6760,544
 811,82;  169,099;40374,945;-6886,846
 812,39;  146,865;37710,199;-3331,147
 812,96;  147,632;38779,453;-6767,448
 813,52;  149,398;41291,707;-6937,750
 814,09;   97,165;44522,961;-6766,051
 814,66;   97,931;50325,215;-6827,353
 815,23;  120,698;51240,469;-6669,654
 815,80;   80,464;50439,723;-5853,956
 816,37;  133,231;50917,977;-6801,257
 816,93;  116,997;49487,230;-6731,558
 817,50;   95,764;46790,480;-6102,859
 818,07;  172,530;46034,734;-6960,161
 818,64;  182,297;46919,988;-6856,462
 819,21;  225,063;46261,242;-6053,764
 819,77;  206,830;42742,496;-6571,065
 820,34;  155,596;42053,750;-6677,367
 820,91;  210,363;43276,004;-6469,668
 821,48;  261,130;43873,258;-6689,969
 822,05;  279,896;45571,512;-5875,271
 822,61;  192,663;44296,766;-5631,572
 823,18;  209,429;41860,016;-6620,874
 823,75;  184,196;42585,270;-6957,175
 824,32;  171,962;45286,523;-6923,477
 824,88;  158,729;45073,777;-6882,778
 825,45;  105,495;44018,031;-6899,079
 826,02;  117,262;43798,285;-6643,380
 826,59;  131,028;43974,539;-6639,682
 827,15;   64,795;46077,793;-6906,983
 827,72;  113,561;49519,047;-6723,285
 828,29;   85,328;51523,301;-6895,586
 828,86;   57,094;48827,551;-6791,888
 829,42;   57,861;40797,805;-6812,189
 829,99;  100,627;36802,059;-6647,490
 830,56;  100,394;36252,313;-6869,792
 831,13;   42,161;37220,566;-6060,093
 831,69;   89,927;38022,820;-6506,395
 832,26;   72,694;38832,074;-5062,696
 832,83;   81,460;40408,328;-5452,998
 833,39;   77,227;40187,582;-6904,299
 833,96;   77,993;39167,836;-6687,600
 834,53;   33,760;40039,086;-6928,902
 835,10;   21,526;39930,340;-6529,203
 835,66;   65,293;38972,594;-6920,504
 836,23;   35,059;39801,848;-6803,806
 836,80;   25,826;39428,102;-6790,107
 837,36;   63,592;37086,355;-6810,409
 837,93;   71,359;34475,609;-6902,710
 838,50;   67,125;35084,863;-6789,012
 839,06;   45,892;37684,117;-6288,313
 839,63;   44,658;37191,371;-6895,614
 840,19;   63,425;35132,621;-6607,916
 840,76;   49,191;35364,875;-6404,217
 841,33;   34,958;35892,129;-6509,519
 841,89;   84,725;36779,383;-6949,820
 842,46;    7,491;37103,637;-6751,122
 843,03;   59,258;35389,891;-6089,423
 843,59;   54,024;34224,145;-6403,724
 844,16;  100,791;34994,398;-6181,025
 844,73;  159,557;34249,652;-6067,327
 845,29;  110,324;32937,902;-5695,628
 845,86;   62,090;35699,156;-6800,930
 846,42;   47,857;36940,410;-7004,231
 846,99;   30,623;36477,664;-6967,533
 847,56;   10,390;36265,918;-5840,834
 848,12;   57,156;36240,172;-6745,135
 848,69;   58,923;35710,426;-6715,437
 849,25;   23,689;34401,680;-6845,738
 849,82;   21,456;34081,934;-3247,040
 850,38;   35,222;35064,188;-6840,341
 850,95;    5,989;32489,439;-6324,643
 851,52;   54,756;32520,693;-6565,944
 852,08;   57,522;32548,947;-6691,245
 852,65;    8,289;30323,199;-7005,546
 853,21;   19,055;27698,453;-6958,848
 853,78;   25,822;27362,707;-6363,149
 854,34;  -11,412;28860,961;-6871,451
 854,91;   -8,645;29081,215;-5086,752
 855,47;   33,121;29942,467;-5108,054
 856,04;   87,888;32027,721;-6746,355
 856,60;   47,654;33961,973;-6104,656
 857,17;   42,421;34979,227;-6840,958
 857,73;   12,187;33553,480;-6811,259
 858,30;  -13,046;32532,734;-6985,561
 858,86;   27,720;31110,988;-5926,862
 859,43;    5,487;31430,242;-6226,164
 859,99;   13,253;32011,496;-6852,465
 860,56;    2,020;33126,750;-6903,766
 861,12;   26,787;35190,004;-6737,068
 861,69;  -26,447;33669,258;-5924,369
 862,25;   72,320;34731,508;-6821,670
 862,82;   44,086;34419,762;-5972,972
 863,38;   43,853;31196,018;-6843,273
 863,95;   12,619;29305,270;-6239,575
 864,51;   35,386;30403,523;-5287,876
 865,08;   45,152;29284,777;-6090,178
 865,64;   64,919;26795,031;-7018,479
 866,21;   22,685;26131,285;-6745,780
 866,77;   48,452;26051,537;-5552,082
 867,34;  114,218;25734,791;-6672,383
 867,90;  160,985;24632,045;-6303,685
 868,46;  116,751;23835,299;-6041,986
 869,03;   55,518;24389,551;-6929,288
 869,59;   34,284;26353,805;-6884,589
 870,16;   37,051;27647,059;-6052,890
 870,72;   43,817;30060,313;-6657,191
 871,28;   57,584;32915,566;-5992,493
 871,85;   49,351;33142,820;-6907,794
 872,41;   -9,883;31569,072;-6004,096
 872,98;   -8,116;32738,326;-6050,397
 873,54;  -11,350;33876,578;-5920,699
 874,10;   61,417;32768,832;-5876,000
 874,67;   37,417;32987,832;-6904,000
 875,23;   -3,583;31068,834;-7032,000
 875,80;   29,417;28009,834;-6641,000
 876,36;   -6,583;25058,834;-6642,000
 876,92;    2,417;22832,834;-6189,000
 877,49;   -3,583;23923,834;-6517,000
 878,05;   27,417;24896,834;-6797,000
 878,61;  -13,583;26938,834;-6812,000
 879,18;  -45,583;27553,834;-6252,000
 879,74;   -7,583;28076,834;-6720,000
 880,30;  -28,583;28679,834;-5926,000
 880,87;  -46,583;28852,834;-6326,000
 881,43;  -15,583;29533,834;-6871,000
 881,99;  -11,583;27306,834;-6879,000
 882,56;   -4,583;27610,834;-6661,000
 883,12;   -6,583;29049,834;-5740,000
 883,68;   -5,583;29120,834;-6518,000
 884,25;   21,417;28300,834;-6949,000
 884,81;   -2,583;26343,834;-6701,000
 885,37;   -6,583;24221,834;-6786,000
 885,94;   -1,583;22940,834;-6851,000
 886,50;   14,417;23098,834;-6886,000
 887,06;  -19,583;24358,834;-6796,000
 887,62;  -17,583;25019,834;-6866,000
 888,19;  -33,583;25774,834;-5986,000
 888,75;  -37,583;26542,834;-6821,000
 889,31;    0,417;29043,834;-6778,000
 889,87;    3,417;30537,834;-6723,000
 890,44;   12,417;30349,834;-6696,000
 891,00;  -29,583;28757,834;-6786,000
 891,56;  -35,583;26457,834;-6998,000
 892,12;   29,417;24463,834;-6754,000
 892,69;   19,417;25310,834;-6373,000
 893,25;   -6,583;28798,834;-6877,000
 893,81;  -21,583;31774,834;-6696,000
 894,37;   33,417;31330,834;-6342,000
 894,94;  -11,583;28713,834;-6772,000
 895,50;    3,417;26035,834; -212,000
 896,06;   24,417;24749,834;-6810,000
 896,62;   44,417;23405,834;-6707,000
 897,18;   18,417;24661,834;-6518,000
 897,75;    1,417;27406,834;-6895,000
 898,31;   45,417;27887,834;-6849,000
 898,87;    1,417;26274,834;-6860,000
 899,43;   -4,583;25164,834;-6469,000
 899,99;  -29,583;26592,834;-6866,000
 900,56;   14,417;25515,834;-6791,000
 901,12;   -3,583;24875,834;-6890,000
 901,68;   24,417;27903,834;-6267,000
 902,24;    7,417;31800,834;-5930,000
 902,80;   12,417;32652,834;-6794,000
 903,36;   28,417;31893,834;-6691,000
 903,93;   37,417;32139,834;-6646,000
 904,49;   87,417;32761,834;-6913,000
 905,05;  147,417;30952,834;-6732,000
 905,61;  407,417;28208,834;-6832,000
 906,17;  733,417;28086,834;-6901,000
 906,73; 1080,417;25975,834;-5380,000
 907,29; 1519,417;24960,834;-6910,000
 907,86; 1875,417;25118,834;-6827,000
 908,42; 1875,417;28092,834;-6795,000
 908,98; 1610,417;31123,834;-5908,000
 909,54;  895,417;38813,832;-6885,000
 910,10;  363,417;48220,832;-6634,000
 910,66;   95,417;57581,832;-6781,000
 911,22;   57,417;65027,832;-6761,000
 911,78;  -19,583;62593,832;-6841,000
 912,34;  -38,583;53256,832;-6080,000
 912,90;   17,417;44610,832;-5232,000
 913,46;  -22,583;37052,832;-6876,000
 914,03;  -23,583;30620,834;-5746,000
 914,59;   23,417;27452,834;-6682,000
 915,15;    2,417;24908,834;-6891,000
 915,71;   -1,583;24217,834;-6863,000
 916,27;  -15,583;23800,834;-6723,000
 916,83;   17,417;23006,834;-5824,000
 917,39;  -22,583;21742,834;-3512,000
 917,95;  -15,583;20224,834;-6009,000
 918,51;  -35,583;19972,834;-6583,000
 919,07;   -2,583;21780,834;-6791,000
 919,63;  -61,583;23295,834;-6661,000
 920,19;  -63,583;23935,834;-6865,000
 920,75;   -2,583;23112,834;-6640,000
 921,31;  -32,583;21484,834;-4837,000
 921,87;   -1,583;20216,834;-6845,000
 922,43;  -37,583;18019,834;-5626,000
 922,99;   -8,583;17321,834;-6706,000
 923,55;  -11,583;18674,834;-6655,000
 924,11;   17,417;19094,834;-6976,000
 924,67;    0,417;19310,834;-6962,000
 925,23;    2,417;19485,834;-6778,000
 925,79;   11,417;20122,834;-6710,000
 926,35;    3,417;20219,834;-6573,000
 926,91;   -3,583;19401,834;-6909,000
 927,47;  -86,583;19367,834;-6660,000
 928,03;   40,417;20294,834;-6786,000
 928,59;   33,417;20503,834;-6678,000
 929,15;   33,417;20781,834;-6792,000
 929,71;   13,417;22016,834;-6840,000
 930,27;   58,417;23587,834;-6537,000
 930,82;   23,417;25573,834;-6728,000
 931,38;  -17,583;24317,834;-5852,000
 931,94;  -15,583;22672,834;-6843,000
 932,50;   -5,583;21252,834;-6481,000
 933,06;   -5,583;20895,834;-6768,000
 933,62;   -4,583;21092,834;-6443,000
 934,18;   28,417;20632,834;-6727,000
 934,74;  -14,583;21320,834;-6709,000
 935,30;   18,417;22030,834;-6484,000
 935,86;   12,417;21213,834;-6505,000
 936,42;  -18,583;20702,834;-6873,000
 936,97;  -22,583;21656,834;-6563,000
 937,53;   -3,583;20552,834;-6826,000
 938,09;   48,417;21087,834;  123,000
 938,65;    5,417;21186,834;-6268,000
 939,21;   32,417;20179,834;-6708,000
 939,77;   -7,583;18946,834;-6213,000
 940,33;  -22,583;18602,834;-6748,000
 940,88;   -0,583;19429,834;-5908,000
 941,44;   -5,583;21301,834;-6983,000
 942,00;  -24,583;23225,834;-6697,000
 942,56;    5,417;24231,834;-6604,000
 943,12;   24,417;23427,834;-5907,000
 943,68;    5,417;22950,834;-5679,000
 944,23;  -23,583;23124,834;-6749,000
 944,79;  -32,583;22674,834;-6102,000
 945,35;  -37,583;20741,834;-6599,000
 945,91;   45,417;19519,834;-6767,000
 946,47;   -7,583;19827,834;-3353,000
 947,03;   -2,583;19896,834;-6850,000
 947,58;  -36,583;19661,834;-6840,000
 948,14;   50,417;20790,834;-5897,000
 948,70;    6,417;19573,834;-5855,000
 949,26;   37,417;18881,834;-6616,000
 949,81;  -29,583;18342,834;-6644,000
 950,37;  -20,583;18686,834;-6695,000
 950,93;   -5,583;17993,834;-6224,000
 951,49;  -21,583;17568,834;-6057,000
 952,05;  -13,583;17926,834;-6571,000
 952,60;   -9,583;17299,834;-6951,000
 953,16;  -10,583;16933,834;-5783,000
 953,72;  -39,583;15628,833;-5813,000
 954,27;  -23,583;15524,833;-6566,000
 954,83;   -7,583;15317,833;-6703,000
 955,39;  -31,583;14917,833;-6691,000
 955,95;  -43,583;14456,833;-6849,000
 956,50;  -36,583;14272,833;-6698,000
 957,06;  -42,583;14126,833;-5922,000
 957,62;  -22,583;13780,833;-6559,000
 958,18;  -20,583;13872,833;-6741,000
 958,73;  -74,583;13326,833;-6820,000
 959,29;  -34,583;13518,833;-6106,000
 959,85;  -35,583;14785,833;-6864,000
 960,40;  -19,583;16746,834;-4263,000
 960,96;  -10,583;16386,834;-6738,000
 961,52;   32,417;14755,833;-6643,000
 962,07;   -5,583;13711,833;-6742,000
 962,63;    3,417;13208,833;-6723,000
 963,19;  -62,583;13435,833;-5779,000
 963,74;   14,417;13877,833;-6582,000
 964,30;  -48,583;14475,833;-6595,000
 964,86;    6,417;14281,833;-6484,000
 965,41;  -18,583;14290,833;-6705,000
 965,97;  -59,583;14185,833;-6569,000
 966,53;  -23,583;14792,833;-6750,000
 967,08;   27,417;15311,833;-6611,000
 967,64;   14,417;15082,833;-6705,000
 968,19;  -17,583;14471,833;-6684,000
 968,75;  -34,583;14662,833;-6566,000
 969,31;   -8,583;14880,833;-5626,000
 969,86;  -48,583;14995,833;-6505,000
 970,42;   -9,583;13195,833;-6620,000
 970,97;   -9,583;11567,833;-6437,000
 971,53;   -1,583;11625,833;-6490,000
 972,09;  -54,583;12998,833;-6646,000
 972,64;  -12,583;13523,833;-5812,000
 973,20;   14,417;13815,833;-6599,000
 973,75;   -5,583;14605,833;-5760,000
 974,31;  -19,583;14826,833;-6578,000
 974,87;   -7,583;14921,833;-6674,000
 975,42;  -64,583;14507,833;-6727,000
 975,98;  -57,583;13201,833;-6651,000
 976,53;  -21,583;12100,833;-6555,000
 977,09;  -70,583;11353,833;-4624,000
 977,64;  -54,583;11164,833;-6532,000
 978,20;  -14,583;10649,833;-6585,000
 978,75;  -27,583;10482,833;-6429,000
 979,31;  -35,583;10950,833;-6513,000
 979,86;  -55,583;12220,833;-6739,000
 980,42;  -31,583;12828,833;-5813,000
 980,97;  -23,583;13290,833;-6642,000
 981,53;   27,417;14285,833;-6636,000
 982,08;  -40,583;13803,833;-5046,000
 982,64;    1,417;12278,833;-6237,000
 983,19;  -48,583;11308,833;-6760,000
 983,75;   -4,583;10993,833;-6576,000
 984,30;  -50,583;10430,833;-5581,000
 984,86;  -36,583; 9867,833;-5898,000
 985,41;  -17,583; 9457,833;-6634,000
 985,97;  -34,583; 9632,833;-4797,000
 986,52;  -26,583; 9894,833;-5853,000
 987,08;    4,417; 9953,833;-6174,000
 987,63;  -24,583;10165,833;-5608,000
 988,19;   -3,583;11252,833;-6266,000
 988,74;  -15,583;11710,833;-5682,000
 989,30;   -3,583;11529,833;-6568,000
 989,85;  -10,583;11470,833; -276,000
 990,40;   -2,583;11314,833;-6617,000
 990,96;    7,417;11060,833;-6482,000
 991,51;  -16,583;11149,833;-6578,000
 992,07;  -56,583;10742,833;-6605,000
 992,62;  -45,583;10285,833;-6519,000
 993,18;  -41,583;10035,833;-6504,000
 993,73;    1,417; 9986,833;-6440,000
 994,28;  -38,583; 9800,833;-6464,000
 994,84;    3,417; 9019,833;-6240,000
 995,39;   -5,583; 8474,833;-2971,000
 995,94;   -5,583; 7953,833;-5673,000
 996,50;  -17,583; 7647,833;-6543,000
 997,05;  -33,583; 7872,833;-3481,000
 997,61;    3,417; 8363,833;-6489,000
 998,16;  -21,583; 8581,833;-6555,000
 998,71;  -31,583; 8850,833;-6340,000
 999,27;  -79,583; 9115,833;-5223,000
 999,82;  -19,583; 8706,833;-4778,000
1000,37;   -0,583; 8661,833;-6520,000
1000,93;  -21,583; 8920,833;-6107,000
1001,48;   -2,583; 8799,833;-6543,000
1002,03;  -36,583; 8477,833;-6469,000
1002,59;   -0,583; 8715,833;-5972,000
1003,14;   -2,583; 8758,833;-6113,000
1003,69;  -27,583; 8484,833;-6513,000
1004,25;  -63,583; 8299,833;-6507,000
1004,80;  -20,583; 8322,833;-6266,000
1005,35;  -40,583; 8313,833;-6361,000
1005,91;   -7,583; 8515,833;-6558,000
1006,46;  -30,583; 8426,833;-6084,000
1007,01;  -24,583; 8227,833;-5479,000
1007,56;    5,417; 8599,833;-6440,000
1008,12;  -58,583; 8342,833;-6178,000
1008,67;  -36,583; 7867,833;-6312,000
1009,22;  -25,583; 7509,833;-6481,000
1009,78;  -40,583; 7205,833;-6163,000
1010,33;  -33,583; 6649,833;-6443,000
1010,88;  -59,583; 6413,833;-5618,000
1011,43;  -42,583; 5995,833;-6433,000
1011,99;  -11,583; 5972,833;-6198,000
1012,54;  -38,583; 6320,833;-6387,000
1013,09;  -11,583; 6048,833;-6299,000
1013,64;  -12,583; 5802,833;-6362,000
1014,19;  -41,583; 5823,833;-6442,000
1014,75;   -8,583; 5928,833;-6408,000
1015,30;   -1,583; 6394,833;-6425,000
1015,85;    1,417; 6370,833;-6367,000
1016,40;  -46,583; 6247,833;-5436,000
1016,96;   52,417; 6235,833;-6268,000
1017,51;  -10,583; 6150,833;-6351,000
1018,06;  -33,583; 6095,833;-6310,000
1018,61;  -43,583; 5695,833;-6665,000
1019,16;  -77,583; 5609,833;-6697,000
1019,71;   15,417; 5663,833;-6373,000
1020,27;   -9,583; 5567,833;-6353,000
1020,82;   -1,583; 5375,833;-3700,000
1021,37;  -14,583; 5405,833;-4798,000
1021,92;  -43,583; 5984,833;-6454,000
1022,47;  -24,583; 5965,833;-6548,000
1023,02;  -23,583; 5463,833;-6512,000
1023,58;  -27,583; 5045,833;-6573,000
1024,13;    0,417; 4730,833;-6258,000
1024,68;  -36,583; 4434,833;-6298,000
1025,23;  -16,583; 4324,833;-5525,000
1025,78;   17,417; 4613,833;-6475,000
1026,33;  -14,583; 4932,833;-5510,000
1026,88;    5,417; 4843,833;-6236,000
1027,43;   -8,583; 5167,833;-6276,000
1027,99;   -2,583; 5134,833;-6002,000
1028,54;  -11,583; 4732,833;-6395,000
1029,09;   -3,583; 4106,833;-2478,000
1029,64;   18,417; 3919,833;-6303,000
1030,19;    5,417; 4147,833;-3821,000
1030,74;   14,417; 4243,833;-5134,000
1031,29;   93,417; 4284,833;-4765,000
1031,84;   51,417; 4491,833;-6300,000
1032,39;   40,417; 4563,833;-5403,000
1032,94;   22,417; 4617,833;-4326,000
1033,49;   88,417; 4361,833;-5476,000
1034,04;   84,417; 4236,833;-6312,000
1034,59;  171,417; 4205,833;-6507,000
1035,14;   67,417; 4117,833;-6145,000
1035,69;  134,417; 4318,833;-6224,000
1036,24;  149,417; 4104,833;-4477,000
1036,80;  161,417; 3986,833;-5453,000
1037,35;  133,417; 4138,833;-6347,000
1037,90;  171,417; 4172,833;-6274,000
1038,45;  156,417; 4201,833;-6419,000
1039,00;  172,417; 4340,833;-5490,000
1039,55;  208,417; 4229,833;-6284,000
1040,10;  278,417; 3977,833;-5615,000
1040,65;  295,417; 3916,833;-5576,000
1041,20;  285,417; 3850,833;-6325,000
1041,75;  313,417; 4030,833;-4522,000
1042,30;  359,417; 4164,833;-3585,000
1042,84;  408,417; 4338,833;-4439,000
1043,39;  485,417; 4248,833;-6313,000
1043,94;  512,417; 4175,833;-5342,000
1044,49;  552,417; 3887,833;-6246,000
1045,04;  669,417; 3710,833;-5800,000
1045,59;  717,417; 3809,833;-6299,000
1046,14;  758,417; 3732,833;-6392,000
1046,69;  887,417; 3591,833;-6294,000
1047,24;  949,417; 3623,833;-5510,000
1047,79; 1144,417; 3737,833;-6139,000
1048,34; 1236,417; 4002,833;-5961,000
1048,89; 1428,417; 3948,833;-6259,000
1049,44; 1665,417; 3935,833;-5172,000
1049,99; 1960,417; 3855,833;-4844,000
1050,54; 2279,417; 3876,833;-6249,000
1051,08; 2879,417; 3961,833;-6178,000
1051,63; 3785,417; 4050,833;-5285,000
1052,18; 5432,417; 5051,833;-6127,000
1052,73; 8049,417; 7151,833;-6173,000
1053,28;11771,417;10516,833;-6386,000
1053,83;16369,417;15224,833;-6214,000
1054,38;20994,416;19203,834;-6254,000
1054,93;25499,416;21243,834;-6285,000
1055,47;28002,416;23825,834;-5328,000
1056,02;29605,416;26212,834;-5832,000
1056,57;31194,416;27830,834;-6198,000
1057,12;31822,416;30497,834;-6378,000
1057,67;33963,418;33805,832;-6078,000
1058,22;34812,418;36084,832;-6313,000
1058,76;38216,418;38542,832;-6093,000
1059,31;41398,418;44129,832;-3514,000
1059,86;44360,418;48778,832;-6204,000
1060,41;46581,418;49718,832;-6152,000
1060,96;48239,418;51396,832;-6226,000
1061,51;47415,418;53649,832;-5344,000
1062,05;46810,418;54082,832;-6122,000
1062,60;48589,418;50555,832;-6061,000
1063,15;55088,418;45221,832;-6149,000
1063,70;58811,418;41550,832;-6250,000
1064,24;57597,418;43676,832;-6169,000
1064,79;56832,418;45461,832;-6144,000
1065,34;52136,418;43989,832;-6064,000
1065,89;50491,418;41776,832;-6202,000
1066,44;51397,418;37631,832;-6120,000
1066,98;54970,418;32612,834;-6224,000
1067,53;56385,418;30790,834;-5953,000
1068,08;53473,418;30368,834;-4845,000
1068,63;49807,418;27618,834;-6096,000
1069,17;45738,418;24647,834;-5893,000
1069,72;45524,418;22350,834;-5857,000
1070,27;42120,418;20529,834;-6040,000
1070,81;40864,418;20388,834;-5996,000
1071,36;36483,418;20367,834;-3883,000
1071,91;33426,418;18745,834;  966,000
1072,46;29947,416;16791,834;-5058,000
1073,00;24947,416;14646,833;-5239,000
1073,55;19917,416;11404,833;-5935,000
1074,10;13885,417; 7803,833;-5981,000
1074,64; 9660,417; 5240,833;-5860,000
1075,19; 6677,417; 3535,833;-4958,000
1075,74; 5031,417; 2551,833;-6091,000
1076,28; 3942,417; 2312,833;-6075,000
1076,83; 3294,417; 1951,833;-5286,000
1077,38; 2805,417; 1820,833;-5653,000
1077,92; 2344,417; 1783,833;-6332,000
1078,47; 2023,417; 1629,833;-5507,000
1079,02; 1704,417; 1578,833;-5959,000
1079,56; 1528,417; 1557,833;-5328,000
1080,11; 1210,417; 1304,833;-6094,000
1080,65; 1047,417; 1241,833;-5039,000
1081,20;  909,417; 1186,833;-6151,000
1081,75;  823,417; 1125,833;-6039,000
1082,29;  705,417; 1128,833; -139,000
1082,84;  592,417; 1184,833;-2678,000
1083,39;  545,417; 1294,833;-5061,000
1083,93;  476,417; 1335,833;-5025,000
1084,48;  441,417; 1196,833;-5961,000
1085,02;  394,417; 1082,833;-5783,000
1085,57;  393,417; 1074,833;-5994,000
1086,11;  340,417; 1079,833;-5968,000
1086,66;  265,417;  925,833;-5584,000
1087,21;  318,417; 1060,833;-5802,000
1087,75;  232,417;  939,833;-6125,000
1088,30;  268,417;  815,833;-5040,000
1088,84;  245,417;  783,833;-5963,000
1089,39;  204,417;  656,833;-5965,000
1089,93;  164,417;  664,833;-6100,000
1090,48;  119,417;  649,833;-4394,000
1091,02;  155,417;  733,833;-5181,000
1091,57;  118,417;  629,833;-5479,000
1092,11;  123,417;  642,833;-4094,000
1092,66;  105,417;  624,833;-6031,000
1093,20;   87,417;  580,833;-5180,000
1093,75;   87,417;  566,833;-4998,000
1094,29;   52,417;  486,833;-4979,000
1094,84;   91,417;  525,833;-5890,000
1095,38;   36,417;  528,833;-5097,000
1095,93;   27,417;  584,833;-5981,000
1096,47;   43,417;  615,833;-5612,000
1097,02;   21,417;  587,833;-4985,000
1097,56;   -0,583;  614,833;-5772,000
1098,11;   11,417;  552,833;-5774,000
1098,65;   29,417;  508,833;-5992,000
1099,20;   45,417;  577,833;-5935,000
1099,74;   -1,583;  487,833;-6002,000
1100,29;   -0,583;  513,833;-4879,000
1100,83;  -18,583;  496,833;-5934,000

