
Integration time [ms]:   1,000
Averaging Nr. [scans]: 1
Smoothing Nr. [pixels]: 0
Data measured with spectrometer [name]: 1703254U1
Wave   ;Sample   ;Dark     ;Reference;Scope
[nm]   ;[counts] ;[counts] ;[counts] 

 190,08;  -32,414; -370,119;11982,743
 190,69;  -11,188; -359,404;11603,049
 191,29;  -12,936; -311,651;11479,965
 191,90;  -24,048; -365,508;11440,717
 192,50;  -22,051; -379,511;10355,099
 193,10;    1,672; -446,299;11244,381
 193,71;  -20,677; -367,888; 9821,736
 194,31;  -14,309; -399,273; 9436,327
 194,91;  -14,309; -382,273; 9291,327
 195,52;  -22,175; -338,386;10555,949
 196,12;    5,418; -397,056; 8671,847
 196,72;  -17,181; -386,394; 8220,904
 197,32;  -20,677; -375,888; 8251,736
 197,93;   -1,200; -360,420; 8700,957
 198,53;  -16,432; -383,145; 7601,797
 199,13;  -24,423; -397,132; 8091,270
 199,74;   -7,193; -366,410; 7263,813
 200,34;   -2,948; -388,667; 7832,874
 200,94;   -0,076; -436,547; 6941,297
 201,55;  -11,188; -406,404; 7119,049
 202,15;  -14,809; -375,773; 6404,732
 202,75;  -49,269; -373,217; 6097,647
 203,36;   -4,945; -338,664; 6822,492
 203,96;  -63,503; -357,943; 6332,678
 204,56;   -8,941; -355,657;10275,729
 205,16;  -17,556; -363,018; 5478,458
 205,77;  -32,289; -360,244; 4767,892
 206,37;  -18,555; -409,017; 5556,267
 206,97;  -22,800; -363,760; 5129,205
 207,58;   -3,447; -364,166; 5927,278
 208,18;  -26,421; -337,129; 5129,889
 208,78;  -23,424; -404,134; 5295,461
 209,38;   -4,196; -469,415; 4958,385
 209,99;   -4,071; -356,540; 3837,534
 210,59;   -5,944; -361,662; 3890,301
 211,19;   -5,070; -364,538; 3938,343
 211,79;    3,295; -366,927; 4499,316
 212,40;  -28,918; -373,625; 3368,911
 213,00;  -18,679; -388,891; 3903,118
 213,60;  -24,673; -386,882; 2992,972
 214,20;  -41,278; -401,230; 3081,175
 214,81;  -32,913; -422,618; 2884,148
 215,41;  -41,528; -376,979; 3235,877
 216,01;  -64,377; -373,067; 3109,636
 216,61;  -14,185; -367,399; 2814,476
 217,22;  -59,133; -381,326; 2358,888
 217,82;  -76,238; -325,173; 2262,495
 218,42;  -52,765; -383,711; 2389,480
 219,02;  -58,134; -288,327; 3432,079
 219,63;  -39,031; -357,483; 2044,854
 220,23;  -42,902; -366,602; 2425,239
 220,83;  -40,779; -395,730; 1901,770
 221,43;  -62,254; -393,195; 1850,167
 222,03;  -65,501; -348,940; 2326,296
 222,64;  -45,149; -380,348; 1769,560
 223,24;  -49,519; -298,966; 1625,350
 223,84;  -67,124; -376,313; 2637,361
 224,44;  -62,754; -316,695; 2381,571
 225,05;  -58,509; -313,952; 1440,632
 225,65;  -65,376; -301,065; 1227,445
 226,25;  -52,516; -364,961; 1139,777
 226,85;  -69,121; -294,309;  995,979
 227,45;  -55,762; -335,706; 1083,907
 228,06;  -53,639; -365,834; 1945,438
 228,66;  -53,015; -349,460; 4049,182
 229,26;  -66,999; -313,438; 1131,510
 229,86;  -49,144; -396,342; 1760,797
 230,46;  -63,253; -358,194;  891,976
 231,06;  -63,004; -320,444;  757,273
 231,67;  -39,780; -346,732; 1228,961
 232,27;  -81,607; -343,789;  778,094
 232,87;  -69,621; -308,808;  526,384
 233,47;  -85,228; -321,158;  525,777
 234,07;  -37,033; -268,486; 9912,235
 234,67;  -97,339; -291,013;  672,338
 235,28;  -85,228; -319,158;   65,777
 235,88; -101,459; -316,882;  285,426
 236,48;  -61,630; -350,821;  165,911
 237,08;  -74,735; -267,669;  448,518
 237,68; -103,956; -369,378; -267,552
 238,28;  -90,597; -304,774; -106,624
 238,89;  -97,584; -212,756; -205,723
 239,49;  -80,346; -282,023; 1280,483
 240,09; -115,693; -284,608; -190,544
 240,69; -106,953; -251,373; -319,124
 241,29;  -74,721; -289,647;  651,036
 241,89;  -92,220; -330,147; -260,559
 242,49;  -74,822; -248,490; -358,930
 243,10; -107,827; -201,496; 3664,834
 243,70;  -98,822; -284,490;  239,070
 244,30;  -98,830; -275,501; -708,594
 244,90;  -72,675; -188,582; -568,598
 245,50; -117,940; -177,355; 3274,777
 246,10;  -98,713; -307,636; -831,300
 246,70; -106,329; -300,999;   17,620
 247,30;  -82,716; -251,641;  326,273
 247,91; -125,057; -208,218; 5781,292
 248,51; -119,064; -270,228; -806,563
 249,11;  -57,840; -239,514;  417,933
 249,71;  -92,336; -303,008; -667,235
 250,31;  -43,818; -265,483; -567,693
 250,91;  -53,829; -238,500;   75,216
 251,51;  -74,062; -199,225; -822,945
 252,11;  -56,411; -239,813;  367,410
 252,71;  -88,199; -269,117;-1080,994
 253,31;  -67,936; -222,348; 3228,013
 253,91;  -74,671; -236,578; -676,170
 254,52; -116,931; -237,342;-1063,750
 255,12;  -76,818; -293,483;-1104,693
 255,72;   -9,948; -206,366;  557,112
 256,32;  -90,159; -242,061; -966,674
 256,92;  -55,166; -190,070;-1147,529
 257,52;  -25,312; -173,974; -883,243
 258,12; -116,178; -201,087;  -91,621
 258,72;  -75,409; -210,810;-1232,972
 259,32;  -22,927; -211,335;-1169,514
 259,92;  -36,923; -199,330;-1343,086
 260,52;  -36,310; -192,973;-1077,433
 261,12;  -42,158; -202,059; -662,865
 261,72;  -65,796; -238,452;-1312,319
 262,32;  -63,687; -215,600;-1561,498
 262,92; -108,778; -238,426;  405,627
 263,53;  -16,543; -189,698;-1277,594
 264,13; -108,285; -262,937; -268,632
 264,73;  -67,046; -217,202;-1694,617
 265,33;  -40,914; -188,317;-1708,613
 265,93;  -31,905; -147,304;-1345,140
 266,53;  -60,149; -161,046;-1544,392
 267,13; -116,017; -139,161; -857,388
 267,73;  -46,015; -185,158;  270,230
 268,33;  -53,883; -166,274;-1788,766
 268,93;  -49,550; -213,708;-1702,449
 269,53;  -65,523; -204,670; -644,839
 270,13;  -85,400; -201,797;-1810,499
 270,73;  -45,892; -245,287;-1891,239
 271,33;  -44,529; -200,678;-1778,884
 271,93;  -38,273; -242,919;-1867,732
 272,53;  -43,365; -121,748;    8,776
 273,13;  -16,528; -146,677;-1117,075
 273,73; -101,369; -119,753;-1955,652
 274,33;  -41,779; -148,428;-2041,182
 274,93;  -72,121; -188,007;-1843,972
 275,53;  -43,365;  -68,748;-1881,224
 276,13;  -99,091; -121,965;-2261,935
 276,73;  -91,732; -118,361;-1570,007
 277,33;  -62,632; -179,522;-1926,659
 277,93;   16,470; -213,680;-1864,693
 278,53;   -8,635; -194,526;-2112,278
 279,13;  -40,621; -125,506;-2152,568
 279,73;  -74,615; -140,498;-1388,522
 280,33;  -51,371; -154,756;-2179,270
 280,93;   -8,112; -105,994;-2049,499
 281,53;  -59,750; -147,387;-2252,953
 282,13;  -48,733; -127,363;-2193,816
 282,73;  -84,242; -156,875; -385,885
 283,33;  -47,239; -137,872;-2307,266
 283,92;  -17,600;  -74,477;-2028,003
 284,52;  -24,980;  -94,109;-2365,496
 285,12;  -53,633; -138,524;-1425,469
 285,72;  -39,258; -126,898;-1041,213
 286,32;  -32,489;  -55,622;-1313,564
 286,92;  -28,631; -163,521;-2376,850
 287,52;  -39,630;  -89,519;-2170,041
 288,12;  -35,376;  -97,763;-2542,507
 288,72;  -28,771; -106,417;-1625,518
 289,32;  -14,595;  -54,470; 1692,233
 289,92;  -47,881; -106,270;-2344,148
 290,52;  -90,195;  -91,809;-2485,710
 291,12;  -46,113;  -57,996;-1570,308
 291,72;  -62,600;  -74,477;-1590,003
 292,32;  -20,999;  -83,135;-2372,442
 292,92;  -15,357;   -2,737;-2481,560
 293,51;  -51,969;  -37,093;-2532,404
 294,11;  -29,988;  -42,121;-1681,160
 294,71;   15,392;   -7,488;-2695,667
 295,31;  -77,362;  -24,743;-1755,797
 295,91;   52,134;   46,751;-2713,629
 296,51;   35,281;   62,656;-1776,106
 297,11;  -11,073;   35,061;-2900,988
 297,71;  -52,237;    4,131;-2726,648
 298,31;   62,119;   38,730;-2329,148
 298,91;  -20,862;   74,756;-2483,202
 299,50;  -54,478;   41,395;-2689,473
 300,10;    6,017;  145,887;-2706,114
 300,70;  -14,597;   95,528;-2492,576
 301,30;   19,636;   89,253;-2855,415
 301,90;  -35,368;   96,248;-2004,843
 302,50;   22,269;  163,640;-2515,198
 303,10;   34,760;  124,126;-2530,076
 303,70;  -13,717;  208,660;-3000,488
 304,29;  -38,961;  189,918;-2658,740
 304,89;  -19,200;  266,183;-1090,755
 305,49;  -13,959;  163,922;-2773,122
 306,09;  -20,236;  214,133;-2874,839
 306,69;   17,124;  262,736;-2915,911
 307,29;   39,001;  312,865;-2008,442
 307,89;    2,532;  303,408;-3029,000
 308,48;   35,150;  341,774;-2453,301
 309,08;   53,378;  369,492;-2743,377
 309,68;   12,897;  377,019;-3094,026
 310,28;   70,742;  371,102;-2576,213
 310,88;   39,606;  321,211;-2936,453
 311,48;   51,384;  447,500;-2875,331
 312,07;   45,503;  408,367;-2963,228
 312,67;   94,994;  497,855;-2128,297
 313,27;   12,347;  494,448;-1105,224
 313,87;    7,496;  583,357;-2164,083
 314,47;   40,851;  516,954;-3030,392
 315,06;  118,592;  620,191; 2713,837
 315,66;    4,875;  579,988;-3245,400
 316,26;   80,840;  632,938;-1844,483
 316,86;  103,861;  777,969;-3140,110
 317,46;   98,461;  720,307;-2115,167
 318,06;   61,965;  739,813; -825,335
 318,65;   98,957;  781,801;-2807,999
 319,25;  114,954;  821,798;-3195,617
 319,85;  106,072;  932,663;-2908,323
 320,45;  135,443;  986,283;-3213,304
 321,05;  166,435;  901,271;-2761,968
 321,64;   91,192;  889,531;-3219,411
 322,24;  185,786; 1056,861;-3265,513
 322,84;  155,282; 1080,356;-3261,345
 323,44;  177,287; 1133,364;-3219,300
 324,03;  165,160; 1194,486;-3072,067
 324,63;  178,136; 1250,452;-2310,059
 325,23;  177,620; 1241,928;-3097,792
 325,83;  210,472; 1367,021;-2876,123
 326,42;  246,830; 1442,622;-3285,005
 327,02;  275,780; 1476,551;-3076,607
 327,62;  322,622; 1439,629;-2505,221
 328,22;  329,734; 1553,486;-3234,973
 328,82;  318,057; 1577,037;-2229,938
 329,41;  412,139; 1658,852;-3016,728
 330,01;  479,067; 1652,750;-2961,704
 330,61;  484,648; 1806,062;-2928,707
 331,20;  476,407; 1778,325;-2868,531
 331,80;  499,113; 1762,512;-2794,386
 332,40;  574,463; 1752,102;-2896,932
 333,00;  619,795; 1933,667;-2790,423
 333,59;  552,656; 1748,771;-2855,091
 334,19;  646,637; 1920,745;-1771,037
 334,79;  597,759; 1712,615;-2861,316
 335,39;  573,547; 1729,919;-2978,912
 335,98;  595,829; 1726,714;-3126,958
 336,58;  512,873; 1659,777;-3191,401
 337,18;  518,874; 1720,779;-2958,592
 337,77;  488,916; 1782,837;-2098,463
 338,37;  483,431; 1806,359;-2021,540
 338,97;  469,449; 1907,384;-2912,402
 339,57;  512,781; 1862,948;-3044,894
 340,16;  515,268; 1836,431;-2881,390
 340,76;  499,041; 1962,712;-3053,314
 341,36;  522,761; 1861,920;-3195,650
 341,95;  543,108; 1934,506;-3027,623
 342,55;  546,603; 1918,998;  703,736
 343,15;  551,500; 2048,155;-3094,039
 343,74;  529,992; 1924,644;-2382,298
 344,34;  478,366; 1860,267;-3015,661
 344,94;  506,125; 2068,530;-3069,485
 345,53;  547,868; 2110,769;-2860,447
 346,13;  549,246; 2174,398;-1283,573
 346,73;  576,085; 1966,473;-2254,805
 347,32;  580,996; 2268,649;-3080,871
 347,92;  590,961; 2312,600;-2277,145
 348,52;  512,121; 2270,523;-1878,722
 349,11;  463,140; 2336,551;  975,034
 349,71;  538,003; 2330,658;-3240,016
 350,31;  555,237; 2441,387;-2672,237
 350,90;  576,259; 2483,418;-2326,863
 351,50;  536,713; 2390,852;-2105,634
 352,10;  534,475; 2471,119;-3114,840
 352,69;  588,370; 2532,273;-3182,424
 353,29;  575,621; 2563,024;-3191,317
 353,89;  570,123; 2645,527;-3255,104
 354,48;  594,475; 2693,119;-3208,840
 355,08;  610,590; 2871,980;-1117,164
 355,67;  546,634; 2850,042;-2951,417
 356,27;  532,482; 2839,128;-3232,985
 356,87;  555,381; 3010,288;-3383,142
 357,46;  518,268; 3049,431;-2351,390
 358,06;  579,383; 3306,291;-3073,523
 358,66;  585,107; 3337,504;-3109,432
 359,25;  544,884; 3260,792;-2344,119
 359,85;  545,008; 3365,667;-3215,970
 360,44;  576,614; 3389,015;-3292,172
 361,04;  595,500; 3567,155;-2367,039
 361,64;  562,500; 3696,155;-2309,039
 362,23;  570,116; 3772,517;-2932,958
 362,83;  583,989; 3755,639;-2990,726
 363,42;  589,868; 3938,769;-2836,447
 364,02;  604,628; 3910,034;-2973,462
 364,62;  611,246; 3816,398;-2486,573
 365,21;  595,773; 3857,937;-1741,558
 365,81;  583,902; 3935,818;-2792,173
 366,40;  559,648; 3970,062;-2080,707
 367,00;  579,139; 4021,550;-2952,776
 367,59;  579,911; 4071,831;-2979,699
 368,19;  569,016; 4221,678;-3237,306
 368,79;  553,046; 4198,720;-3125,268
 369,38;  515,532; 4107,200;-2250,383
 369,98;  521,775; 4101,940;-2935,940
 370,57;  551,167; 4188,588;-3331,356
 371,17;  587,932; 4164,860;-3326,135
 371,76;  556,308; 4277,486;-3442,879
 372,36;  583,173; 4057,598;-3195,501
 372,95;  556,440; 4115,372;  667,934
 373,55;  547,816; 4105,998;-3393,811
 374,14;  573,674; 4300,099;-3405,097
 374,74;  558,327; 4256,514;-3224,124
 375,34;  540,802; 4286,979;-3189,521
 375,93;  560,303; 4295,479;-2706,116
 376,53;  564,164; 4344,585;-3575,974
 377,12;  613,011; 4405,670;-1465,352
 377,72;  560,053; 4480,730;-3410,414
 378,31;  652,624; 4511,027;-2274,699
 378,91;  584,267; 4291,429;-3262,199
 379,50;  640,328; 4588,213;-3331,363
 380,10;  620,337; 4327,226;-3398,890
 380,69;  643,976; 4094,621;-2343,626
 381,29;  642,844; 4586,735;-2550,439
 381,88;  614,859; 4518,758;-1605,111
 382,48;  635,838; 4519,727;-3286,485
 383,07;  636,217; 4495,358;-3457,802
 383,67;  658,859; 4635,758;-1847,111
 384,26;  609,098; 4667,491;-2467,905
 384,86;  660,711; 4921,849;-3182,252
 385,45;  644,987; 4932,636;-3325,344
 386,05;  631,967; 5073,608;-3419,100
 386,64;  653,235; 4911,384;-3524,855
 387,24;  630,731; 5016,878;-2585,688
 387,83;  658,113; 4993,512;-2489,386
 388,42;  656,209; 5182,346;-2109,466
 389,02;  652,853; 5423,748;-3235,966
 389,61;  612,629; 5688,036;-3413,653
 390,21;  615,731; 5729,878;-3463,688
 390,80;  635,241; 5816,392;-3208,810
 391,40;  625,746; 6137,899;-2293,168
 391,99;  672,461; 5981,099;-3195,550
 392,59;  683,355; 6435,252;-2416,943
 393,18;  647,246; 6683,398;-2491,573
 393,77;  636,531; 6883,198;-3238,192
 394,37;  622,002; 7145,657;-2198,825
 394,96;  650,249; 7098,403;-2296,146
 395,56;  571,167; 7264,588;-2834,356
 396,15;  584,887; 6867,797;-3125,692
 396,75;  618,506; 7343,163;-2889,993
 397,34;  607,775; 7669,940;-2620,940
 397,93;  621,524; 7720,188;-3358,047
 398,53;  610,362; 7595,262;-2525,088
 399,12;  659,613; 8192,013;-2154,981
 399,72;  639,475; 8013,119;-2274,840
 400,31;  675,982; 8034,629;-3169,581
 400,91;  638,612; 8446,012;-2959,791
 401,50;  612,531; 8820,198;-2330,192
 402,09;  627,408; 8550,327;-2894,722
 402,69;  624,523; 8691,187;-3072,856
 403,28;  619,006; 9052,663;-2983,588
 403,88;  627,146; 9162,560; 1927,079
 404,47;  609,911; 9689,831;  884,300
 405,06;  648,511; 9684,171;  -68,947
 405,66;  632,151; 9753,565;-2875,684
 406,25;  610,046;10085,720;-3119,268
 406,84;  628,516;10446,177;-2892,711
 407,44;  593,931;10847,858;-2219,944
 408,03;  578,572;10422,257;-2906,063
 408,63;  589,664;10373,085;-3011,379
 409,22;  602,163;10191,584;-1945,783
 409,81;  586,822;10681,007;-1849,765
 410,41;  635,659;11553,078;-2857,615
 411,00;  559,434;11336,362;-1814,921
 411,59;  575,689;11251,120;-2826,578
 412,19;  664,424;11468,350;-2245,394
 412,78;  604,550;11399,226;-2830,436
 413,37;  571,944;12151,878;-2704,234
 413,97;  583,326;12410,512;-2618,933
 414,56;  623,321;12071,506;-2503,169
 415,15;  581,455;12410,394;-2121,547
 415,75;  589,202;12408,639;-2698,272
 416,34;  563,570;12590,254;-1893,681
 416,93;  562,851;12922,047;-2777,536
 417,53;  600,723;12696,169;-1423,303
 418,12;  573,092;12570,785;-2217,903
 418,71;  521,382;12907,592;-2673,285
 419,31;  558,242;13054,695;-1884,952
 419,90;  578,611;13470,313;-2786,552
 420,49;  575,601;13619,298;-1733,834
 421,08;  560,601;14201,298;-1674,834
 421,68;  567,475;14723,421;-1908,792
 422,27;  569,125;14035,832;-2004,437
 422,86;  559,869;13874,073; -437,590
 423,46;  556,893;14080,107;-2575,598
 424,05;  518,406;14376,626;-2928,293
 424,64;  570,997;13888,953;-2640,014
 425,24;  522,886;14092,098;-2903,453
 425,83;  530,793;13992,269;-2680,945
 426,42;  508,406;12987,626;-2760,293
 427,01;  539,270;13424,734;-2674,533
 427,61;  504,154;14347,873;-2609,209
 428,20;  500,924;14036,151;-1764,751
 428,79;  451,067;14414,052;-2859,656
 429,38;  573,657;14092,377;-1781,186
 429,98;  525,546;14922,521; -994,625
 430,57;  539,154;15058,873;-2193,209
 431,16;  582,665;14580,389;-2784,522
 431,75;  521,179;14357,909; -561,407
 432,35;  555,173;13435,899;-1951,262
 432,94;  544,948;14429,186;-2324,759
 433,53;  564,656;14560,375;-1152,995
 434,12;  518,814;14431,298;-2267,381
 434,72;  488,838;14188,331;-1413,389
 435,31;  489,458;14167,699; 7395,119
 435,90;  532,212;14308,954; 8338,249
 436,49;  497,340;13427,834; -683,175
 437,08;  473,209;13895,951; -675,370
 437,68;  462,335;14442,827;-2987,412
 438,27;  466,985;14610,237;-2610,866
 438,86;  478,339;14612,832;-1147,984
 439,45;  475,848;15313,346;-1937,106
 440,05;  456,613;15955,616;-2982,694
 440,64;  473,377;15054,886;-1902,282
 441,23;  427,762;14152,525;-1415,553
 441,82;  491,971;13700,218;-2631,576
 442,41;  414,013;14351,277;-3014,637
 443,00;  414,404;13625,925;-2724,863
 443,60;  460,373;14373,881;-3136,710
 444,19;  373,773;15026,541;-1440,462
 444,78;  444,137;14960,151;-3012,298
 445,37;  414,027;15728,297;-2522,928
 445,96;  432,993;15331,249;-3116,202
 446,56;  432,768;15596,535;-1144,698
 447,15;  444,656;16225,678; -884,947
 447,74;  400,896;17097,412;-2709,931
 448,33;  416,291;16443,066;-1985,920
 448,92;  423,915;15422,440;-2964,176
 449,51;  403,542;15095,817;-2848,813
 450,10;  390,299;15133,078;-3063,256
 450,70;  390,414;14904,939;-1957,581
 451,29;  390,167;15329,193;-1112,260
 451,88;  443,652;15513,671;-2929,183
 452,47;  422,283;16565,055;-2795,584
 453,06;  318,956;16495,498;-2401,047
 453,65;  354,582;16071,874;-2873,493
 454,24;  383,205;17329,246;-2173,558
 454,84;  392,179;17793,209;-1379,168
 455,43;  361,954;18732,496;-2219,665
 456,02;  367,944;18879,480;-2927,947
 456,61;  411,928;17317,459;-2925,275
 457,20;  409,074;16921,363;-2786,753
 457,79;  361,337;17588,131;-2922,554
 458,38;  359,216;18338,264;-2132,467
 458,97;  397,843;18039,641;-2515,104
 459,56;  417,941;18190,479;-2760,565
 460,16;  351,213;17832,258;-2082,894
 460,75;  399,969;18157,518;-2072,146
 461,34;  339,591;18077,887;-2962,020
 461,93;  360,374;18381,186;-2200,853
 462,52;  385,226;19333,275;-2744,993
 463,11;  356,876;20546,688;-1989,639
 463,70;  381,844;19458,643;-2869,295
 464,29;  354,515;19945,082;-3150,376
 464,88;  333,747;20795,807;-2743,024
 465,47;  346,232;19885,285;-2748,139
 466,06;  336,895;20915,713;-3191,692
 466,65;  315,008;21667,572;-3018,635
 467,24;  359,777;22030,848;-2539,986
 467,84;  375,360;22443,164;-2020,371
 468,43;  376,492;22325,051;-2238,559
 469,02;  379,364;23517,170;-2702,135
 469,61;  334,624;24168,936;-2593,555
 470,20;  384,502;23781,063;-2841,085
 470,79;  341,528;22760,100;-3232,475
 471,38;  345,144;25266,463;-2192,395
 471,97;  308,908;26009,732; -666,983
 472,56;  303,803;25472,887;-3035,376
 473,15;  284,652;25296,975;-2825,135
 473,74;  271,780;26395,854;-3106,559
 474,33;  313,775;25866,848;-2957,796
 474,92;  319,276;27630,348;-3146,391
 475,51;  287,671;29609,002;-2873,380
 476,10;  305,661;29847,986;-3011,662
 476,69;  287,433;26101,268;-2855,586
 477,28;  345,638;25846,955;-2956,845
 477,87;  314,543;27035,121; -173,956
 478,46;  325,055;28695,639;-3029,460
 479,05;  347,527;30507,100;-2134,284
 479,64;  316,924;31679,756;-2718,655
 480,23;  317,175;29541,508;-2845,548
 480,82;  287,668;28549,996;-2736,807
 481,41;  299,178;29371,510;-1873,929
 482,00;  338,802;29284,885;-1364,185
 482,59;  302,669;29593,998;-2298,998
 483,18;  289,416;31702,244;-2376,723
 483,77;  297,554;31703,139;-2193,865
 484,36;  328,671;32475,002;-1701,380
 484,95;  280,320;32990,410; -788,643
 485,54;  301,693;35331,031;-1371,006
 486,13;  322,667;35762,996; -945,616
 486,72;  318,553;34334,137;  148,326
 487,31;  261,446;31046,285;-1109,686
 487,89;  291,050;32608,633; -193,697
 488,48;  284,572;33798,164;-1523,728
 489,07;  312,841;32913,941;-1248,674
 489,66;  285,060;33511,645;-1505,224
 490,25;  266,455;31095,299; -660,212
 490,84;  320,296;34127,375;-1683,635
 491,43;  304,044;34965,621; -701,552
 492,02;  263,064;36094,652;-1864,987
 492,61;  317,813;35362,902;-1043,094
 493,20;  317,332;33776,426;-2019,743
 493,79;  291,337;32749,434; 4824,494
 494,38;  285,701;33706,043;-1938,342
 494,97;  328,836;32583,934; -629,911
 495,55;  256,463;34690,309;-2325,548
 496,14;  267,191;35087,531;-2403,220
 496,73;  267,218;35451,566;-1952,609
 497,32;  241,221;34211,570;-2587,182
 497,91;  268,847;35005,949;-1921,629
 498,50;  282,595;34165,195;-2912,544
 499,09;  227,221;34554,570;-3088,182
 499,68;  206,719;32403,070;-2405,396
 500,27;  271,244;33321,605;-2490,999
 500,85;  246,604;32655,207;-2604,071
 501,44;  227,485;32478,342;-2576,175
 502,03;  256,353;33194,457;-3368,178
 502,62;  269,718;31275,068;-3438,205
 503,21;  270,105;29432,711;-3532,858
 503,80;  240,740;32028,100;-2976,831
 504,39;  205,754;32451,119;-3458,121
 504,97;  252,871;31774,982;-3577,636
 505,56;  229,234;31537,590;-2979,281
 506,15;  233,481;32302,336;-3991,602
 506,74;  253,253;32557,617;-2945,526
 507,33;  253,382;32185,498;-3165,949
 507,92;  245,997;33952,859;-3871,678
 508,51;  230,865;35926,973;-3735,682
 509,09;  224,262;34536,629;-3921,053
 509,68;  235,390;34318,508;-3748,286
 510,27;  246,534;33667,410;-3799,381
 510,86;  223,644;32572,264;-4081,751
 511,45;  237,391;33677,512;-3843,476
 512,03;  261,996;34524,855;-3829,488
 512,62;  255,857;36240,961;-3780,346
 513,21;  202,162;33870,789;-3186,209
 513,80;  207,660;34644,289;-3501,423
 514,39;  211,766;32752,137;-3905,221
 514,97;  172,156;35347,781;-4095,255
 515,56;  167,419;34167,551;-4198,248
 516,15;  196,928;35428,063;-3955,179
 516,74;  207,682;32584,318;-4420,049
 517,33;  190,301;33459,688;-3549,542
 517,91;  205,544;33935,426;-4188,099
 518,50;  188,521;32563,393;-3264,282
 519,09;  196,009;33942,875;-3157,778
 519,68;  221,407;35231,531;-4286,148
 520,26;  236,416;38679,547;-4232,675
 520,85;  184,284;39452,660;-4352,679
 521,44;  126,938;40826,078;-4358,897
 522,03;  200,411;39485,539;-4271,912
 522,61;  179,938;36773,078;-4364,897
 523,20;  175,946;33924,090;-4337,233
 523,79;  172,447;32040,590;-4337,828
 524,38;  178,805;32850,191;-4344,709
 524,96;  165,810;35883,199;-4321,473
 525,55;  179,560;36021,449;-4542,771
 526,14;  137,328;34018,723;-4434,931
 526,73;  162,936;32852,074;-4389,515
 527,31;  205,685;32903,324;-4488,622
 527,90;  204,560;33630,449;-4564,771
 528,49;  203,052;34155,938;-2529,839
 529,08;  167,700;34601,344;-3467,103
 529,66;  175,558;34848,445;-3911,389
 530,25;  171,191;35279,832;-4414,172
 530,84;  119,702;35334,348;-4583,485
 531,42;  168,959;38583,105;-4365,332
 532,01;  134,583;37528,480;-4291,588
 532,60;  109,970;34512,125;-4473,241
 533,18;   81,945;35538,086;-4078,042
 533,77;  136,085;34969,984;-4236,374
 534,36;  162,574;34459,469;-4374,061
 534,95;  162,580;35483,477;-4088,015
 535,53;  173,948;34236,090; -974,424
 536,12;  143,079;36469,977;-2657,420
 536,71;  159,832;36511,230;-3869,099
 537,29;  130,469;36073,621;-3618,454
 537,88;  180,938;33908,078;-3454,897
 538,47;  120,216;32497,867;-2840,180
 539,05;  165,838;36837,238;-2139,054
 539,64;  123,239;40414,898;-1785,997
 540,22;  141,477;37414,633; -764,790
 540,81;  143,357;37501,766; 1008,297
 541,40;  153,474;39018,629; 3425,591
 541,98;  133,834;38188,230; 4858,519
 542,57;  190,079;39368,977; 4597,580
 543,16;  136,463;38645,613; 4952,500
 543,74;  150,582;35774,480; 4083,603
 544,33;  134,228;36297,883; 3620,721
 544,92;  110,231;37217,887; 3973,339
 545,50;  153,588;37338,488;11456,648
 546,09;  187,071;40064,965;11359,916
 546,67;  204,329;41948,727; 2857,878
 547,26;  197,949;40050,094; -202,615
 547,85;  137,751;39208,414; -567,501
 548,43;  131,471;38452,625; -849,836
 549,02;  133,843;39427,246;-1040,008
 549,60;  150,597;40570,500; -984,878
 550,19;  163,094;41166,996;-2192,901
 550,78;  119,222;42660,875;-2328,325
 551,36;   97,988;45349,148;-2432,104
 551,95;  139,211;45443,859; -585,416
 552,53;  122,855;43280,262; -296,916
 553,12;  154,123;41420,035;-3431,672
 553,70;  105,629;43188,547;-2878,222
 554,29;   96,103;44058,008;-2869,428
 554,88;   82,502;41831,668;-4247,989
 555,46;   77,117;43723,027;-3881,718
 556,05;   98,336;45007,734;-4207,268
 556,63;  138,858;45206,266;-3396,489
 557,22;  127,961;43875,109;-3394,714
 557,80;   92,354;41749,762;-3568,321
 558,39;   92,846;44188,250;-4145,390
 558,97;   50,229;47993,887;-3699,470
 559,56;   51,980;49889,137;-4544,768
 560,15;   58,233;50117,891;-3611,042
 560,73;   51,992;49814,152;-4287,867
 561,32;  106,462;47024,609;-3741,309
 561,90;   43,247;46041,910;-4382,333
 562,49;  129,720;48487,371;-3786,348
 563,07;   79,729;48074,387;-4783,875
 563,66;   80,979;50064,133;-4352,577
 564,24;   67,984;49228,145;-4763,531
 564,83;   50,500;51344,664;-4603,607
 565,41;   78,721;53840,375;-4329,539
 566,00;   44,999;52202,164;-2755,012
 566,58;  107,722;56465,375;-3725,729
 567,17;   83,602;56909,508;-4280,642
 567,75;   95,218;52392,871;-4653,562
 568,34;   80,361;55893,770;-3216,466
 568,92;   41,376;55738,793;-3987,947
 569,51;   60,235;54852,895; 2680,576
 570,09;   85,733;58247,391;-4676,638
 570,68;   23,890;53188,313;-4788,833
 571,26;  108,842;50733,242;-3886,817
 571,85;  101,338;57347,738;-4822,649
 572,43;  113,724;57011,379;-4704,111
 573,01;   30,723;52662,375;-4873,920
 573,60;   91,106;53819,012;-3785,810
 574,18;   89,855;55122,262;-4514,917
 574,77;   84,865;53284,277;-4737,634
 575,35;   90,106;56113,012;-4452,810
 575,94;  108,360;57300,770;-4076,275
 576,52;  102,859;54049,270;-2249,680
 577,11;   34,879;51620,297;-3244,924
 577,69;   79,635;48685,555;-3183,176
 578,27;   99,094;51008,996;-3447,901
 578,86;   78,628;55198,543;-2994,031
 579,44;   56,100;60080,004;-2805,855
 580,03;  117,981;60164,137;-2493,958
 580,61;  115,862;60267,270;-3206,062
 581,19;   83,492;56429,652;-2538,271
 581,78;   69,390;55361,813;-2364,238
 582,36;   57,118;57656,031;-2911,909
 582,95;  117,004;56180,172;-1497,776
 583,53;   77,623;59586,539;-2319,268
 584,11;   80,227;61608,883;-2241,088
 584,70;  120,496;61691,660;-1948,035
 585,28;   62,739;62070,398;-1853,592
 585,87;   56,259;60436,930;-2889,432
 586,45;  133,628;63023,543;-2375,031
 587,03;   71,760;64945,430;-1150,027
 587,62;   67,483;61494,641;-1834,745
 588,20;   82,872;62236,285;-1020,779
 588,78;   93,410;58157,840;-3411,673
 589,37;   83,859;57765,270;-3360,680
 589,95;  115,362;62238,773;-3385,657
 590,54;   72,625;63633,539;-3461,459
 591,12;  119,882;62116,301;-3508,497
 591,70;  121,374;59586,789;-3331,565
 592,29;  105,384;62881,805;-2923,283
 592,87;  107,721;63542,375;-2394,538
 593,45;  103,383;63404,801; 1487,908
 594,04;   91,016;62800,188;-3676,875
 594,62;  111,247;59709,910;-3708,333
 595,20;   65,401;62066,828;-4371,146
 595,79;  110,871;62681,285;-4165,588
 596,37;  116,635;61108,555;-3657,176
 596,95;   88,000;56922,164;-4321,203
 597,53;  102,361;58806,770;-4226,466
 598,12;   86,255;61848,922;-3959,669
 598,70;   87,620;64932,531;-3776,695
 599,28;  159,721;64911,375;-3404,538
 599,87;  105,367;64929,777;-3061,420
 600,45;  101,877;64938,293;-3907,543
 601,03;   88,369;63145,781;-4100,802
 601,62;   97,016;61727,188;-4468,875
 602,20;   86,748;59786,414;-4541,119
 602,78;   92,147;64399,070;-4770,680
 603,36;   67,883;64783,301;-3166,688
 603,95;  131,865;58863,277;-4492,634
 604,53;   48,869;62401,281;-4574,207
 605,11;  113,853;59505,258;-2755,535
 605,69;  115,995;62362,156;-3365,249
 606,28;   77,384;62594,805;-4223,283
 606,86;  122,755;61629,422;-3946,264
 607,44;   81,629;60431,547;-3906,222
 608,02;   52,385;58047,805;-4037,474
 608,61;   95,502;60099,668;-2866,989
 609,19;   79,753;58582,418;-2582,882
 609,77;  139,754;57398,422; -710,073
 610,35;   68,373;55748,785; 5794,625
 610,94;   90,257;56509,926;14509,949
 611,52;  110,502;55803,668;12610,011
 612,10;   37,280;53026,957; 8432,133
 612,68;   27,273;56637,949; 2694,278
 613,26;   55,634;57037,551; 2032,015
 613,85;   59,258;61759,926; -599,241
 614,43;  101,251;62306,918;-1030,096
 615,01;   36,024;62272,199;-1215,211
 615,59;    6,903;64874,328; -972,932
 616,17;   56,489;59402,648;-2561,890
 616,76;   87,229;62178,887;-2993,470
 617,34;  178,090;62666,988;-2389,138
 617,92;   90,361;58547,770;-3399,466
 618,50;   90,492;61202,652;-2562,271
 619,08;   98,119;57928,031;-2514,100
 619,67;   82,999;55968,164;-3196,012
 620,25;  100,483;54290,641;-2743,745
 620,83;  101,877;50498,293;-3495,543
 621,41;   92,381;52314,797;-2800,711
 621,99;   92,504;54560,672;-2529,371
 622,57;   92,982;55529,141;-3707,149
 623,15;   86,729;56213,387;-3783,875
 623,74;   95,345;58266,746;-3892,794
 624,32;   77,351;59330,754;-2827,749
 624,90;   67,240;58625,898;-2311,188
 625,48;   50,127;57897,043;-3132,436
 626,06;   54,733;56898,391;-4006,638
 626,64;   28,100;57787,004;-4162,855
 627,22;    2,111;58993,020;-3409,764
 627,81;    2,966;58046,117;-4334,478
 628,39;  -21,015;57121,145;-4560,722
 628,97;   15,878;56597,293;-4437,733
 629,55;   20,346;55377,750;-4219,985
 630,13;   22,862;55669,270;-2959,062
 630,71;    4,234;54162,891;-2747,233
 631,29;   25,865;53129,277;-3824,634
 631,87;   46,600;52776,504;-4223,451
 632,45;   16,489;52786,648;-4716,890
 633,03;   50,596;54183,500;-4191,688
 633,62;   62,869;55423,281;-4714,207
 634,20;   24,005;54882,172;-4089,966
 634,78;   51,096;56497,000;-4430,283
 635,36;   36,487;56701,648;-4449,508
 635,94;   69,728;55183,383;-5398,684
 636,52;  111,485;51027,645;-5422,126
 637,10;   74,000;52116,164;-5488,203
 637,68;   84,617;50694,527;-4702,123
 638,26;   82,347;47618,750;-5536,176
 638,84;   58,242;48688,902;-5421,569
 639,42;    3,000;49235,164;-3756,203
 640,00;   25,982;51366,148;-5405,726
 640,58;   94,729;54579,402;-4806,027
 641,16;   51,477;55521,656;-5571,328
 641,74;   55,224;53214,906;-5433,630
 642,32;   32,971;50106,160;-5620,931
 642,90;   37,718;50434,414;-5856,232
 643,48;   78,465;49231,668;-5786,534
 644,06;   76,213;49280,922;-5796,835
 644,64;   79,960;49595,176;-5842,137
 645,22;   16,707;50513,430;-5562,438
 645,80;   57,454;50547,684;-4957,740
 646,39;   21,201;48107,938;-5515,041
 646,97;  -18,051;49773,191;-5850,342
 647,54;   17,696;52328,441;-5717,644
 648,12;   -7,557;54879,695;-5865,945
 648,70;   30,190;58954,949;-5885,247
 649,28;   59,937;56421,203;-6090,548
 649,86;   28,685;51091,457;-5609,850
 650,44;    0,432;48619,711;-5452,151
 651,02;   63,179;49970,965;-5474,452
 651,60;    5,926;51793,219;-5803,753
 652,18;   44,673;51320,473;-4735,055
 652,76;    7,420;53277,723;-5934,356
 653,34;   21,168;54817,977;-5939,658
 653,92;  -22,085;57729,230;-5784,959
 654,50;   55,662;59042,484;-5818,261
 655,08;   74,409;58048,738;-5841,562
 655,66;   40,156;55058,992;-5115,863
 656,24;   24,904;56743,246;-5200,165
 656,82;   72,651;58989,500;-4979,466
 657,40;   13,398;58967,754;-5667,768
 657,98;   23,145;60169,008;-5486,069
 658,56;   37,892;61114,258;-5717,371
 659,14;   37,640;61380,512;-5913,672
 659,72;   61,387;63381,766;-5916,973
 660,29;   20,134;62437,020;-5907,275
 660,87;   18,881;59738,273;-5212,576
 661,45;   17,628;58590,527;-5664,877
 662,03;   35,376;57513,781;-4971,179
 662,61;  -32,877;54945,035;-5638,480
 663,19;    0,870;54618,289;-5657,782
 663,77;   37,617;53917,543;-5939,083
 664,35;   27,364;56689,793;-5887,384
 664,93;   24,112;62595,047;-4922,686
 665,51;   -2,141;61993,301;-6033,987
 666,08;    8,606;57747,555;-5652,289
 666,66;    6,353;51859,809;-4400,590
 667,24;   31,100;49420,063;-5952,892
 667,82;   33,847;50250,316;-5849,193
 668,40;   42,595;50723,570;-5932,494
 668,98;   41,342;51952,824;-5097,796
 669,56;    0,089;57957,078;-6096,097
 670,13;   24,836;61797,328;-6222,398
 670,71;   13,583;59698,582;-5900,700
 671,29;   44,331;57209,836;-6139,001
 671,87;   25,078;56814,090;-6051,303
 672,45;  -13,175;51822,344;-6050,604
 673,03;   84,572;52592,598;-4769,906
 673,60;   59,319;58431,852;-3503,207
 674,18;   54,067;63679,105;-5938,508
 674,76;   44,814;61159,359;-6226,810
 675,34;   77,561;56361,613;-5251,111
 675,92;   20,308;55284,863;-6338,413
 676,50;   17,055;55051,117;-6085,714
 677,07;    2,803;56952,371;-6095,016
 677,65;   51,550;56680,625;-6163,317
 678,23;   -3,703;55997,879;-5057,618
 678,81;   77,044;58016,133;-5299,919
 679,38;   43,791;56669,387;-5969,221
 679,96;   40,538;53267,641;-5846,522
 680,54;   32,286;55171,895;-5308,824
 681,12;   23,033;52485,148;-6126,125
 681,70;   14,780;54786,398;-4413,427
 682,27;   12,527;54740,652;-5851,728
 682,85;   14,274;58265,906;-5991,029
 683,43;   -9,978;64943,160;-6140,331
 684,01;   15,769;64943,414;-5172,632
 684,58;   25,516;64307,668;-5138,934
 685,16;   34,263;64236,922;-4494,235
 685,74;    5,010;62790,176;-3853,536
 686,32;    4,758;59009,430;-6012,838
 686,89;   27,505;59552,684;-6015,139
 687,47;   -9,748;59534,934;-6076,441
 688,05;    5,999;56416,188;-6019,742
 688,63;  -32,254;59626,441;-6102,043
 689,20;    7,494;62884,695;-5971,345
 689,78;   -7,759;58427,949;-5530,646
 690,36;    1,988;54291,203;-5381,948
 690,93;  -50,265;54968,457;-6355,249
 691,51;   70,482;61453,711;-6326,550
 692,09;   50,229;64946,965;-6223,852
 692,67;   -4,023;64947,219;-6047,153
 693,24;    4,724;60968,469;-5803,455
 693,82;   20,471;59538,723;-6235,756
 694,40;   43,218;58049,977;-3570,058
 694,97;  -19,035;57456,230;-6046,359
 695,55;   -8,287;59820,484;-5464,660
 696,13;   39,460;61729,738;-4454,962
 696,70;  -16,793;58594,992;-6029,263
 697,28;   -5,046;59108,246;-6266,564
 697,86;   21,701;60837,500;-6030,866
 698,43;   12,449;58827,754;-6198,167
 699,01;   10,196;55595,004;-6051,469
 699,59;   27,943;55751,258;-6402,770
 700,16;   23,690;54174,512;-5257,072
 700,74;   -0,563;57040,766;-5497,373
 701,32;  -25,815;56440,020;-6233,674
 701,89;   -1,068;55792,273;-6049,976
 702,47;   49,679;60296,527;-6466,277
 703,05;   33,426;64951,781;-6309,579
 703,62;  -18,827;64952,035;-6227,880
 704,20;   10,920;64952,285;-5306,182
 704,77;    8,668;64952,539;-6118,483
 705,35;   -5,585;64213,793;-6006,784
 705,93;    0,162;64327,047;-4922,085
 706,50;    7,909;63796,301;-5267,387
 707,08;   -5,344;60606,555;-5284,688
 707,65;  -36,596;60046,809;-5620,990
 708,23;   46,151;64881,063;-5431,292
 708,81;  -11,102;64954,316;-5019,593
 709,38;   26,645;64954,570;-5001,894
 709,96;   57,392;64954,820;-6025,195
 710,53;   20,140;64955,074;-6007,497
 711,11;    2,887;61503,328;-5752,798
 711,69;    8,634;61913,582;-3821,100
 712,26;   21,381;59012,836;-4642,401
 712,84;  -19,872;63346,090;-5947,703
 713,41;   21,876;64411,344;-6153,004
 713,99;  -33,377;64924,598;-6068,305
 714,56;    3,370;62057,852;-6326,607
 715,14;   22,117;60312,105;-6198,908
 715,71;  -25,136;60246,355;-6210,209
 716,29;    1,611;62893,609;-6648,511
 716,86;  -35,641;63573,863;-6510,813
 717,44;   10,106;63263,117;-6424,114
 718,02;   27,853;62110,371;-6462,415
 718,59;   -8,400;61013,625;-5121,716
 719,17;  -10,653;63488,879;-5649,018
 719,74;   28,095;62907,133;-5756,319
 720,32;  -11,158;63502,387;-6451,621
 720,89;   -2,411;64959,641;-6422,922
 721,47;   15,336;64959,891;-6388,224
 722,04;    8,083;64960,145;-5502,525
 722,62;    7,831;64252,398;-3979,826
 723,19;   23,578;60250,652;-4938,128
 723,77;  -13,675;57638,906;-5673,429
 724,34;   19,072;60150,160;-5576,730
 724,92;   24,819;63789,414;-6558,032
 725,49;    0,567;64961,668;-5666,333
 726,07;   32,314;64961,922;-6491,635
 726,64;   56,061;64627,176;-6587,936
 727,21;   -2,192;60249,426;-5627,238
 727,79;  -25,445;63706,680;-6444,539
 728,36;   16,302;64962,934;-6722,840
 728,94;   28,050;64963,188;-6535,142
 729,51;  -14,203;64963,441;-6365,443
 730,09;    0,544;64963,695;-5545,745
 730,66;   -2,709;64963,949;-6358,046
 731,24;   -7,962;64964,203;-6577,348
 731,81;   15,786;64964,457;-5151,649
 732,38;   56,533;64964,711;-6492,950
 732,96;   -2,720;64964,961;-6263,251
 733,53;   48,027;60347,215;-6389,553
 734,11;    2,774;61575,469;-6617,854
 734,68;   -9,478;64965,723;-6211,156
 735,26;   27,269;64965,977;-6389,458
 735,83;  -22,984;64966,230;-6498,759
 736,40;  -23,237;62243,484;-6516,060
 736,98;    9,510;61999,738;-6374,361
 737,55;  -20,742;59236,992;-5827,663
 738,13;  -33,995;57707,246;-5702,964
 738,70;   -1,248;60991,496;-5529,266
 739,27;    0,499;62504,750;-6452,567
 739,85;  -21,754;62745,004;-6283,869
 740,42;    6,993;64968,258;-6464,170
 740,99;   -3,259;64968,512;-5618,471
 741,57;   10,488;64968,766;-4867,773
 742,14;  -48,765;64969,020;-5349,074
 742,72;  -26,018;64969,273;-4751,375
 743,29;  -19,271;64969,527;-6563,677
 743,86;  -60,523;64969,781;-6538,979
 744,44;   -1,776;64970,031;-6113,280
 745,01;  -10,029;64970,285;-5760,581
 745,58;   -0,282;64970,539;-6259,882
 746,16;   -5,535;64970,793;-6188,184
 746,73;   34,213;64971,047;-6479,485
 747,30;  -33,040;61139,301;-6536,787
 747,88;   44,707;59621,555;-5621,088
 748,45;   -8,546;64971,809;-5668,390
 749,02;   39,201;64972,063;-6384,691
 749,60;   32,949;62401,313;-6212,992
 750,17;   16,696;61766,566;-5269,294
 750,74;    1,443;62801,820;-6479,595
 751,31;  -14,810;63306,074;-6347,896
 751,89;  -31,063;64232,328;-6546,198
 752,46;   -2,315;64973,582;-6282,500
 753,03;   -0,568;64973,836;-6160,801
 753,61;  -20,821;63755,090;-4858,102
 754,18;  -61,074;64573,344;-6434,404
 754,75;  -27,327;63888,598;-5191,705
 755,32;   -0,580;60715,848;-6332,006
 755,90;  -13,832;64975,102;-6493,308
 756,47;    1,915;64975,355;-4809,609
 757,04;   11,662;64975,609;-6457,911
 757,61;   -5,591;64975,863;-5553,212
 758,19;   19,156;64976,117;-5253,514
 758,76;    0,904;64976,371;-6603,815
 759,33;    8,651;64976,625;-6664,116
 759,90;   11,398;64976,879;-5714,417
 760,48;  -55,855;64977,133;-6778,719
 761,05;   12,892;64977,383;-6083,021
 761,62;    3,640;62082,637;-4888,322
 762,19;   -0,613;58992,891;-6144,624
 762,77;   -3,866;61730,145;-5963,925
 763,34;  -21,119;64978,398;-6610,226
 763,91;   -7,372;64978,652;-5818,527
 764,48;   48,376;64978,906;-6756,829
 765,05;   18,123;64979,160;-6543,130
 765,63;  -12,130;63215,414;-6417,432
 766,20;   -4,383;59753,668;-6004,733
 766,77;   18,364;57105,918;-5921,035
 767,34;    6,111;58807,172;-6640,336
 767,91;  -25,141;59176,426;-6689,637
 768,49;  -12,394;61368,680;-6772,939
 769,06;  -10,647;64980,934;-5832,240
 769,63;  -31,900;62272,188;-6636,542
 770,20;    5,847;59567,441;-5868,843
 770,77;  -47,405;57921,695;-5645,145
 771,34;  -43,658;60065,949;-6615,446
 771,91;  -18,911;60549,203;-6102,747
 772,49;  -11,164;58558,453;-6369,048
 773,06;  -22,417;57687,707;-6203,350
 773,63;  -23,669;60204,961;-6639,651
 774,20;   -9,922;58197,215;-5918,953
 774,77;   24,825;56475,469;-6631,254
 775,34;  -31,428;56707,723;-6214,556
 775,91;  -27,681;57056,977;-6417,857
 776,49;  -13,933;58787,230;-6590,158
 777,06;  -23,186;60761,484;-6015,460
 777,63;  -40,439;64224,738;-6367,761
 778,20;  -48,692;62572,988;-6250,063
 778,77;   -4,945;63316,242;-5763,364
 779,34;  -46,198;64985,496;-6585,666
 779,91;    7,550;64985,750;-6534,967
 780,48;  -17,703;59144,004;-5853,268
 781,05;  -11,956;50716,258;-6586,570
 781,62;  -10,209;52124,512;-6604,871
 782,20;   23,538;58813,766;-6500,172
 782,77;    4,286;64987,020;-6529,474
 783,34;  -22,967;64052,273;-6522,775
 783,91;    3,780;61362,523;-6509,077
 784,48;  -11,473;60480,777;-2126,378
 785,05;   -6,726;59144,031;-6540,680
 785,62;  -45,978;58221,285;-6452,981
 786,19;  -24,231;58149,539;-5100,282
 786,76;  -10,484;55130,793;-6677,583
 787,33;    7,263;56202,047;-6515,885
 787,90;   -5,990;59491,301;-6591,187
 788,47;  -36,242;60148,555;-5075,488
 789,04;  -15,495;58988,809;-5763,790
 789,61;  -20,748;58863,059;-5066,091
 790,18;  -18,001;55747,313;-6561,392
 790,75;    3,746;50841,566;-6671,693
 791,32;   38,493;52056,820;-6577,995
 791,89;  -15,759;55205,074;-6068,296
 792,46;    5,988;60806,328;-5763,598
 793,03;   -3,265;62404,582;-6702,899
 793,60;   -6,518;55699,836;-6440,201
 794,17;  -22,771;52257,090;-5569,502
 794,74;  -18,023;47273,344;-5886,803
 795,31;   -7,276;50096,594;-6099,105
 795,88;  -68,529;52579,848;-5572,406
 796,45;  -51,782;53365,102;-6529,708
 797,02;  -34,035;56004,355;-5046,009
 797,59;   -8,287;57922,609;-6675,311
 798,16;   -4,540;54563,863;-5861,612
 798,73;  -17,793;53534,117;-6761,913
 799,30;  -39,046;55088,371;-6611,214
 799,87;  -84,299;55650,625;-6713,516
 800,44;  -35,551;55353,875;-6729,817
 801,01;  -63,804;56836,129;-6807,119
 801,58;   46,943;58477,383;-6537,420
 802,15;   14,690;52086,637;-6658,722
 802,72;   -2,563;48849,891;-6694,023
 803,28;  -19,816;52000,145;-6076,324
 803,85;   11,932;57179,398;-6728,626
 804,42;   18,679;55235,652;-5999,927
 804,99;  -49,574;53752,906;-6539,229
 805,56;  -59,827;52472,160;-6770,530
 806,13;  -39,080;53387,410;-6075,832
 806,70;  -41,332;52719,664;-6748,133
 807,27;  -23,585;54477,918;-6672,434
 807,84;  -81,838;52786,172;-6693,736
 808,41;  -29,091;49728,426;-6022,037
 808,98;   -3,344;50479,680;-5986,338
 809,54;  -44,596;52469,934;-4958,640
 810,11;  -29,849;48281,188;-6782,941
 810,68;  -67,102;43021,441;-6680,243
 811,25;  -40,355;41394,695;-6760,544
 811,82;  -13,608;40374,945;-6886,846
 812,39;  -32,860;37710,199;-3331,147
 812,96;   -1,113;38779,453;-6767,448
 813,52;   -4,366;41291,707;-6937,750
 814,09;  -60,619;44522,961;-6766,051
 814,66;  -63,872;50325,215;-6827,353
 815,23;  -27,125;51240,469;-6669,654
 815,80;  -55,377;50439,723;-5853,956
 816,37;  -15,630;50917,977;-6801,257
 816,93;  -75,883;49487,230;-6731,558
 817,50;  -27,136;46790,480;-6102,859
 818,07;   -5,389;46034,734;-6960,161
 818,64;  -61,641;46919,988;-6856,462
 819,21;  -39,894;46261,242;-6053,764
 819,77;   -0,147;42742,496;-6571,065
 820,34;  -53,400;42053,750;-6677,367
 820,91;   21,347;43276,004;-6469,668
 821,48;  -54,905;43873,258;-6689,969
 822,05;  -46,158;45571,512;-5875,271
 822,61;  -96,411;44296,766;-5631,572
 823,18;  -33,664;41860,016;-6620,874
 823,75;  -55,917;42585,270;-6957,175
 824,32;  -58,169;45286,523;-6923,477
 824,88;  -30,422;45073,777;-6882,778
 825,45;  -57,675;44018,031;-6899,079
 826,02;  -55,928;43798,285;-6643,380
 826,59;  -23,181;43974,539;-6639,682
 827,15;  -56,434;46077,793;-6906,983
 827,72;  -40,686;49519,047;-6723,285
 828,29;  -36,939;51523,301;-6895,586
 828,86;  -44,192;48827,551;-6791,888
 829,42;  -51,445;40797,805;-6812,189
 829,99;  -18,698;36802,059;-6647,490
 830,56;  -48,950;36252,313;-6869,792
 831,13;  -37,203;37220,566;-6060,093
 831,69;  -16,456;38022,820;-6506,395
 832,26;  -34,709;38832,074;-5062,696
 832,83;  -45,962;40408,328;-5452,998
 833,39;  -51,214;40187,582;-6904,299
 833,96;    8,533;39167,836;-6687,600
 834,53;  -77,720;40039,086;-6928,902
 835,10;  -72,973;39930,340;-6529,203
 835,66;  -12,226;38972,594;-6920,504
 836,23;  -35,478;39801,848;-6803,806
 836,80;  -71,731;39428,102;-6790,107
 837,36;  -30,984;37086,355;-6810,409
 837,93;  -58,237;34475,609;-6902,710
 838,50;  -22,490;35084,863;-6789,012
 839,06;  -63,742;37684,117;-6288,313
 839,63;  -45,995;37191,371;-6895,614
 840,19;  -28,248;35132,621;-6607,916
 840,76;  -63,501;35364,875;-6404,217
 841,33;  -39,754;35892,129;-6509,519
 841,89;  -11,007;36779,383;-6949,820
 842,46;  -70,259;37103,637;-6751,122
 843,03;    2,488;35389,891;-6089,423
 843,59;  -50,765;34224,145;-6403,724
 844,16;  -81,018;34994,398;-6181,025
 844,73;  -25,271;34249,652;-6067,327
 845,29;  -66,523;32937,902;-5695,628
 845,86;  -52,776;35699,156;-6800,930
 846,42;  -83,029;36940,410;-7004,231
 846,99;  -48,282;36477,664;-6967,533
 847,56;  -48,535;36265,918;-5840,834
 848,12;  -75,787;36240,172;-6745,135
 848,69;  -61,040;35710,426;-6715,437
 849,25;  -74,293;34401,680;-6845,738
 849,82;  -94,546;34081,934;-3247,040
 850,38;  -50,799;35064,188;-6840,341
 850,95;  -47,051;32489,439;-6324,643
 851,52;  -69,304;32520,693;-6565,944
 852,08;  -66,557;32548,947;-6691,245
 852,65;  -84,810;30323,199;-7005,546
 853,21;  -77,063;27698,453;-6958,848
 853,78;  -83,316;27362,707;-6363,149
 854,34;  -40,568;28860,961;-6871,451
 854,91;  -60,821;29081,215;-5086,752
 855,47;  -82,074;29942,467;-5108,054
 856,04;  -18,327;32027,721;-6746,355
 856,60;  -85,580;33961,973;-6104,656
 857,17;  -62,832;34979,227;-6840,958
 857,73;  -65,085;33553,480;-6811,259
 858,30;  -73,338;32532,734;-6985,561
 858,86;  -83,591;31110,988;-5926,862
 859,43;  -49,844;31430,242;-6226,164
 859,99;  -76,096;32011,496;-6852,465
 860,56; -105,349;33126,750;-6903,766
 861,12;  -73,602;35190,004;-6737,068
 861,69;  -80,855;33669,258;-5924,369
 862,25;  -48,108;34731,508;-6821,670
 862,82;  -77,360;34419,762;-5972,972
 863,38;  -66,613;31196,018;-6843,273
 863,95;  -72,866;29305,270;-6239,575
 864,51;  -46,119;30403,523;-5287,876
 865,08;  -36,372;29284,777;-6090,178
 865,64;  -82,625;26795,031;-7018,479
 866,21;  -67,877;26131,285;-6745,780
 866,77;  -65,130;26051,537;-5552,082
 867,34;  -45,383;25734,791;-6672,383
 867,90; -102,636;24632,045;-6303,685
 868,46;  -73,889;23835,299;-6041,986
 869,03; -141,141;24389,551;-6929,288
 869,59;  -77,394;26353,805;-6884,589
 870,16;  -59,647;27647,059;-6052,890
 870,72;  -64,900;30060,313;-6657,191
 871,28;  -54,153;32915,566;-5992,493
 871,85;  -42,405;33142,820;-6907,794
 872,41;  -80,658;31569,072;-6004,096
 872,98;  -73,911;32738,326;-6050,397
 873,54;  -68,164;33876,578;-5920,699
 874,10;  -35,417;32768,832;-5876,000
 874,67;  -49,417;32987,832;-6904,000
 875,23;  -38,417;31068,834;-7032,000
 875,80;  -54,417;28009,834;-6641,000
 876,36;  -67,417;25058,834;-6642,000
 876,92;  -39,417;22832,834;-6189,000
 877,49;  -88,417;23923,834;-6517,000
 878,05;  -60,417;24896,834;-6797,000
 878,61;  -58,417;26938,834;-6812,000
 879,18;  -55,417;27553,834;-6252,000
 879,74;  -65,417;28076,834;-6720,000
 880,30;  -49,417;28679,834;-5926,000
 880,87; -115,417;28852,834;-6326,000
 881,43;  -52,417;29533,834;-6871,000
 881,99;  -65,417;27306,834;-6879,000
 882,56;  -70,417;27610,834;-6661,000
 883,12;  -74,417;29049,834;-5740,000
 883,68; -111,417;29120,834;-6518,000
 884,25;  -65,417;28300,834;-6949,000
 884,81;  -84,417;26343,834;-6701,000
 885,37;  -78,417;24221,834;-6786,000
 885,94;  -76,417;22940,834;-6851,000
 886,50;  -65,417;23098,834;-6886,000
 887,06;  -72,417;24358,834;-6796,000
 887,62;  -77,417;25019,834;-6866,000
 888,19;  -78,417;25774,834;-5986,000
 888,75;  -89,417;26542,834;-6821,000
 889,31;   -2,417;29043,834;-6778,000
 889,87;  -57,417;30537,834;-6723,000
 890,44;  -16,417;30349,834;-6696,000
 891,00;  -70,417;28757,834;-6786,000
 891,56;  -68,417;26457,834;-6998,000
 892,12;  -30,417;24463,834;-6754,000
 892,69;  -36,417;25310,834;-6373,000
 893,25;  -75,417;28798,834;-6877,000
 893,81;  -30,417;31774,834;-6696,000
 894,37;  -55,417;31330,834;-6342,000
 894,94;   -6,417;28713,834;-6772,000
 895,50;  -69,417;26035,834; -212,000
 896,06;   10,583;24749,834;-6810,000
 896,62;  -28,417;23405,834;-6707,000
 897,18;  -53,417;24661,834;-6518,000
 897,75;  -50,417;27406,834;-6895,000
 898,31;  -26,417;27887,834;-6849,000
 898,87;  -18,417;26274,834;-6860,000
 899,43;  -57,417;25164,834;-6469,000
 899,99;  -46,417;26592,834;-6866,000
 900,56;  -48,417;25515,834;-6791,000
 901,12;  -50,417;24875,834;-6890,000
 901,68;  -40,417;27903,834;-6267,000
 902,24;  -56,417;31800,834;-5930,000
 902,80;  -50,417;32652,834;-6794,000
 903,36;  -11,417;31893,834;-6691,000
 903,93;  -22,417;32139,834;-6646,000
 904,49;    2,583;32761,834;-6913,000
 905,05;  -61,417;30952,834;-6732,000
 905,61;  -64,417;28208,834;-6832,000
 906,17;  -39,417;28086,834;-6901,000
 906,73;  -20,417;25975,834;-5380,000
 907,29;  -30,417;24960,834;-6910,000
 907,86;  -28,417;25118,834;-6827,000
 908,42;  -13,417;28092,834;-6795,000
 908,98;  -57,417;31123,834;-5908,000
 909,54;  -79,417;38813,832;-6885,000
 910,10;   -0,417;48220,832;-6634,000
 910,66;  -45,417;57581,832;-6781,000
 911,22;  -72,417;65027,832;-6761,000
 911,78;  -56,417;62593,832;-6841,000
 912,34;  -79,417;53256,832;-6080,000
 912,90;   -1,417;44610,832;-5232,000
 913,46; -112,417;37052,832;-6876,000
 914,03;  -93,417;30620,834;-5746,000
 914,59;  -59,417;27452,834;-6682,000
 915,15;  -39,417;24908,834;-6891,000
 915,71;  -72,417;24217,834;-6863,000
 916,27;  -77,417;23800,834;-6723,000
 916,83;  -36,417;23006,834;-5824,000
 917,39;  -73,417;21742,834;-3512,000
 917,95;  -41,417;20224,834;-6009,000
 918,51;  -45,417;19972,834;-6583,000
 919,07;  -38,417;21780,834;-6791,000
 919,63;  -65,417;23295,834;-6661,000
 920,19; -128,417;23935,834;-6865,000
 920,75;  -62,417;23112,834;-6640,000
 921,31;  -80,417;21484,834;-4837,000
 921,87;  -68,417;20216,834;-6845,000
 922,43;  -74,417;18019,834;-5626,000
 922,99;    4,583;17321,834;-6706,000
 923,55;  -32,417;18674,834;-6655,000
 924,11;  -47,417;19094,834;-6976,000
 924,67;  -49,417;19310,834;-6962,000
 925,23;  -50,417;19485,834;-6778,000
 925,79;  -35,417;20122,834;-6710,000
 926,35;  -45,417;20219,834;-6573,000
 926,91;  -57,417;19401,834;-6909,000
 927,47;  -76,417;19367,834;-6660,000
 928,03;  -22,417;20294,834;-6786,000
 928,59;  -41,417;20503,834;-6678,000
 929,15;  -12,417;20781,834;-6792,000
 929,71;  -54,417;22016,834;-6840,000
 930,27;   -3,417;23587,834;-6537,000
 930,82;  -14,417;25573,834;-6728,000
 931,38;  -80,417;24317,834;-5852,000
 931,94;  -39,417;22672,834;-6843,000
 932,50;  -18,417;21252,834;-6481,000
 933,06;  -43,417;20895,834;-6768,000
 933,62;  -34,417;21092,834;-6443,000
 934,18;  -11,417;20632,834;-6727,000
 934,74;  -19,417;21320,834;-6709,000
 935,30;   -0,417;22030,834;-6484,000
 935,86;  -27,417;21213,834;-6505,000
 936,42;  -62,417;20702,834;-6873,000
 936,97;  -45,417;21656,834;-6563,000
 937,53;  -73,417;20552,834;-6826,000
 938,09;  -43,417;21087,834;  123,000
 938,65;  -67,417;21186,834;-6268,000
 939,21;  -56,417;20179,834;-6708,000
 939,77;  -64,417;18946,834;-6213,000
 940,33;  -68,417;18602,834;-6748,000
 940,88;  -27,417;19429,834;-5908,000
 941,44;  -11,417;21301,834;-6983,000
 942,00;  -63,417;23225,834;-6697,000
 942,56;  -45,417;24231,834;-6604,000
 943,12;  -45,417;23427,834;-5907,000
 943,68;  -29,417;22950,834;-5679,000
 944,23;  -35,417;23124,834;-6749,000
 944,79;  -63,417;22674,834;-6102,000
 945,35;  -48,417;20741,834;-6599,000
 945,91;   -2,417;19519,834;-6767,000
 946,47;  -26,417;19827,834;-3353,000
 947,03;  -47,417;19896,834;-6850,000
 947,58;  -69,417;19661,834;-6840,000
 948,14;  -63,417;20790,834;-5897,000
 948,70;  -70,417;19573,834;-5855,000
 949,26;  -22,417;18881,834;-6616,000
 949,81;  -81,417;18342,834;-6644,000
 950,37;  -22,417;18686,834;-6695,000
 950,93;  -29,417;17993,834;-6224,000
 951,49;  -42,417;17568,834;-6057,000
 952,05;  -56,417;17926,834;-6571,000
 952,60;  -40,417;17299,834;-6951,000
 953,16;  -36,417;16933,834;-5783,000
 953,72;  -44,417;15628,833;-5813,000
 954,27;  -68,417;15524,833;-6566,000
 954,83;  -41,417;15317,833;-6703,000
 955,39;  -45,417;14917,833;-6691,000
 955,95;  -13,417;14456,833;-6849,000
 956,50;  -61,417;14272,833;-6698,000
 957,06;  -89,417;14126,833;-5922,000
 957,62;  -58,417;13780,833;-6559,000
 958,18;  -58,417;13872,833;-6741,000
 958,73;  -58,417;13326,833;-6820,000
 959,29;  -44,417;13518,833;-6106,000
 959,85;  -84,417;14785,833;-6864,000
 960,40;  -34,417;16746,834;-4263,000
 960,96;  -42,417;16386,834;-6738,000
 961,52;  -68,417;14755,833;-6643,000
 962,07;  -29,417;13711,833;-6742,000
 962,63;  -63,417;13208,833;-6723,000
 963,19;  -60,417;13435,833;-5779,000
 963,74;  -24,417;13877,833;-6582,000
 964,30;  -77,417;14475,833;-6595,000
 964,86;  -14,417;14281,833;-6484,000
 965,41;    6,583;14290,833;-6705,000
 965,97;  -63,417;14185,833;-6569,000
 966,53;  -55,417;14792,833;-6750,000
 967,08;  -50,417;15311,833;-6611,000
 967,64;  -18,417;15082,833;-6705,000
 968,19;  -54,417;14471,833;-6684,000
 968,75;  -47,417;14662,833;-6566,000
 969,31;  -63,417;14880,833;-5626,000
 969,86;  -56,417;14995,833;-6505,000
 970,42;  -52,417;13195,833;-6620,000
 970,97;  -48,417;11567,833;-6437,000
 971,53;  -85,417;11625,833;-6490,000
 972,09;  -77,417;12998,833;-6646,000
 972,64;  -19,417;13523,833;-5812,000
 973,20;  -53,417;13815,833;-6599,000
 973,75;  -55,417;14605,833;-5760,000
 974,31;    3,583;14826,833;-6578,000
 974,87;  -50,417;14921,833;-6674,000
 975,42;  -55,417;14507,833;-6727,000
 975,98;  -70,417;13201,833;-6651,000
 976,53;  -73,417;12100,833;-6555,000
 977,09;  -61,417;11353,833;-4624,000
 977,64;  -50,417;11164,833;-6532,000
 978,20;  -25,417;10649,833;-6585,000
 978,75;  -42,417;10482,833;-6429,000
 979,31;  -36,417;10950,833;-6513,000
 979,86;  -38,417;12220,833;-6739,000
 980,42;  -82,417;12828,833;-5813,000
 980,97;  -78,417;13290,833;-6642,000
 981,53;    9,583;14285,833;-6636,000
 982,08;  -69,417;13803,833;-5046,000
 982,64;  -76,417;12278,833;-6237,000
 983,19;  -64,417;11308,833;-6760,000
 983,75;  -38,417;10993,833;-6576,000
 984,30;  -66,417;10430,833;-5581,000
 984,86;  -28,417; 9867,833;-5898,000
 985,41;  -51,417; 9457,833;-6634,000
 985,97;  -81,417; 9632,833;-4797,000
 986,52;  -32,417; 9894,833;-5853,000
 987,08;  -52,417; 9953,833;-6174,000
 987,63;  -35,417;10165,833;-5608,000
 988,19;  -57,417;11252,833;-6266,000
 988,74;  -80,417;11710,833;-5682,000
 989,30;  -57,417;11529,833;-6568,000
 989,85;  -27,417;11470,833; -276,000
 990,40;  -63,417;11314,833;-6617,000
 990,96;  -36,417;11060,833;-6482,000
 991,51;  -61,417;11149,833;-6578,000
 992,07;  -60,417;10742,833;-6605,000
 992,62;  -27,417;10285,833;-6519,000
 993,18;  -65,417;10035,833;-6504,000
 993,73;  -27,417; 9986,833;-6440,000
 994,28;  -48,417; 9800,833;-6464,000
 994,84;  -45,417; 9019,833;-6240,000
 995,39;  -61,417; 8474,833;-2971,000
 995,94;  -12,417; 7953,833;-5673,000
 996,50;  -69,417; 7647,833;-6543,000
 997,05;  -55,417; 7872,833;-3481,000
 997,61;  -82,417; 8363,833;-6489,000
 998,16;  -72,417; 8581,833;-6555,000
 998,71;  -51,417; 8850,833;-6340,000
 999,27;  -84,417; 9115,833;-5223,000
 999,82;  -53,417; 8706,833;-4778,000
1000,37;  -74,417; 8661,833;-6520,000
1000,93;  -59,417; 8920,833;-6107,000
1001,48;  -37,417; 8799,833;-6543,000
1002,03;  -73,417; 8477,833;-6469,000
1002,59;  -56,417; 8715,833;-5972,000
1003,14;  -50,417; 8758,833;-6113,000
1003,69;  -49,417; 8484,833;-6513,000
1004,25;  -64,417; 8299,833;-6507,000
1004,80;  -76,417; 8322,833;-6266,000
1005,35;  -51,417; 8313,833;-6361,000
1005,91;  -32,417; 8515,833;-6558,000
1006,46;  -60,417; 8426,833;-6084,000
1007,01;  -39,417; 8227,833;-5479,000
1007,56;  -61,417; 8599,833;-6440,000
1008,12;  -71,417; 8342,833;-6178,000
1008,67;  -47,417; 7867,833;-6312,000
1009,22;  -85,417; 7509,833;-6481,000
1009,78;  -85,417; 7205,833;-6163,000
1010,33;  -58,417; 6649,833;-6443,000
1010,88;  -51,417; 6413,833;-5618,000
1011,43;  -37,417; 5995,833;-6433,000
1011,99;  -30,417; 5972,833;-6198,000
1012,54;  -50,417; 6320,833;-6387,000
1013,09;  -40,417; 6048,833;-6299,000
1013,64;  -63,417; 5802,833;-6362,000
1014,19;  -96,417; 5823,833;-6442,000
1014,75;  -56,417; 5928,833;-6408,000
1015,30;  -52,417; 6394,833;-6425,000
1015,85;  -31,417; 6370,833;-6367,000
1016,40;  -83,417; 6247,833;-5436,000
1016,96;  -37,417; 6235,833;-6268,000
1017,51;  -61,417; 6150,833;-6351,000
1018,06;  -43,417; 6095,833;-6310,000
1018,61;  -95,417; 5695,833;-6665,000
1019,16;  -67,417; 5609,833;-6697,000
1019,71;   -6,417; 5663,833;-6373,000
1020,27;  -52,417; 5567,833;-6353,000
1020,82;  -91,417; 5375,833;-3700,000
1021,37;   -3,417; 5405,833;-4798,000
1021,92;  -61,417; 5984,833;-6454,000
1022,47;  -70,417; 5965,833;-6548,000
1023,02;  -89,417; 5463,833;-6512,000
1023,58;  -31,417; 5045,833;-6573,000
1024,13;  -15,417; 4730,833;-6258,000
1024,68;  -50,417; 4434,833;-6298,000
1025,23;  -66,417; 4324,833;-5525,000
1025,78;  -46,417; 4613,833;-6475,000
1026,33;  -77,417; 4932,833;-5510,000
1026,88;  -23,417; 4843,833;-6236,000
1027,43;  -48,417; 5167,833;-6276,000
1027,99;  -60,417; 5134,833;-6002,000
1028,54;  -40,417; 4732,833;-6395,000
1029,09;  -26,417; 4106,833;-2478,000
1029,64;  -29,417; 3919,833;-6303,000
1030,19;  -51,417; 4147,833;-3821,000
1030,74;  -37,417; 4243,833;-5134,000
1031,29;  -77,417; 4284,833;-4765,000
1031,84;  -30,417; 4491,833;-6300,000
1032,39;  -84,417; 4563,833;-5403,000
1032,94;  -39,417; 4617,833;-4326,000
1033,49;   -2,417; 4361,833;-5476,000
1034,04;  -30,417; 4236,833;-6312,000
1034,59;    5,583; 4205,833;-6507,000
1035,14;  -49,417; 4117,833;-6145,000
1035,69;  -37,417; 4318,833;-6224,000
1036,24;  -26,417; 4104,833;-4477,000
1036,80;  -80,417; 3986,833;-5453,000
1037,35;  -74,417; 4138,833;-6347,000
1037,90;  -54,417; 4172,833;-6274,000
1038,45;  -56,417; 4201,833;-6419,000
1039,00;  -58,417; 4340,833;-5490,000
1039,55;  -81,417; 4229,833;-6284,000
1040,10;  -62,417; 3977,833;-5615,000
1040,65;  -52,417; 3916,833;-5576,000
1041,20;  -81,417; 3850,833;-6325,000
1041,75;  -34,417; 4030,833;-4522,000
1042,30;  -72,417; 4164,833;-3585,000
1042,84;  -48,417; 4338,833;-4439,000
1043,39;  -55,417; 4248,833;-6313,000
1043,94;  -30,417; 4175,833;-5342,000
1044,49;   -6,417; 3887,833;-6246,000
1045,04;  -57,417; 3710,833;-5800,000
1045,59;  -39,417; 3809,833;-6299,000
1046,14;  -57,417; 3732,833;-6392,000
1046,69;  -82,417; 3591,833;-6294,000
1047,24;  -68,417; 3623,833;-5510,000
1047,79;  -24,417; 3737,833;-6139,000
1048,34;  -63,417; 4002,833;-5961,000
1048,89;  -86,417; 3948,833;-6259,000
1049,44;  -44,417; 3935,833;-5172,000
1049,99;  -35,417; 3855,833;-4844,000
1050,54;  -43,417; 3876,833;-6249,000
1051,08;   20,583; 3961,833;-6178,000
1051,63;  -32,417; 4050,833;-5285,000
1052,18;  -57,417; 5051,833;-6127,000
1052,73;  -17,417; 7151,833;-6173,000
1053,28;  -35,417;10516,833;-6386,000
1053,83;  -43,417;15224,833;-6214,000
1054,38;  -31,417;19203,834;-6254,000
1054,93;  -18,417;21243,834;-6285,000
1055,47;  -30,417;23825,834;-5328,000
1056,02;  -69,417;26212,834;-5832,000
1056,57;  -33,417;27830,834;-6198,000
1057,12;  -53,417;30497,834;-6378,000
1057,67;  -50,417;33805,832;-6078,000
1058,22;  -72,417;36084,832;-6313,000
1058,76;   35,583;38542,832;-6093,000
1059,31;  -24,417;44129,832;-3514,000
1059,86;   29,583;48778,832;-6204,000
1060,41;  -46,417;49718,832;-6152,000
1060,96;   -5,417;51396,832;-6226,000
1061,51;  -27,417;53649,832;-5344,000
1062,05;  -59,417;54082,832;-6122,000
1062,60;  -46,417;50555,832;-6061,000
1063,15;   -8,417;45221,832;-6149,000
1063,70;  -72,417;41550,832;-6250,000
1064,24;  -69,417;43676,832;-6169,000
1064,79;  -57,417;45461,832;-6144,000
1065,34;  -16,417;43989,832;-6064,000
1065,89;    2,583;41776,832;-6202,000
1066,44;   -9,417;37631,832;-6120,000
1066,98;  -70,417;32612,834;-6224,000
1067,53;   -6,417;30790,834;-5953,000
1068,08;  -33,417;30368,834;-4845,000
1068,63;  -32,417;27618,834;-6096,000
1069,17;  -72,417;24647,834;-5893,000
1069,72;  -12,417;22350,834;-5857,000
1070,27;  -50,417;20529,834;-6040,000
1070,81;  -46,417;20388,834;-5996,000
1071,36;  -97,417;20367,834;-3883,000
1071,91;  -13,417;18745,834;  966,000
1072,46;  -53,417;16791,834;-5058,000
1073,00;  -34,417;14646,833;-5239,000
1073,55;  -50,417;11404,833;-5935,000
1074,10;  -58,417; 7803,833;-5981,000
1074,64;  -36,417; 5240,833;-5860,000
1075,19;  -32,417; 3535,833;-4958,000
1075,74;  -28,417; 2551,833;-6091,000
1076,28;  -48,417; 2312,833;-6075,000
1076,83;  -66,417; 1951,833;-5286,000
1077,38;  -15,417; 1820,833;-5653,000
1077,92;  -55,417; 1783,833;-6332,000
1078,47;  -67,417; 1629,833;-5507,000
1079,02;  -45,417; 1578,833;-5959,000
1079,56;  -44,417; 1557,833;-5328,000
1080,11;  -23,417; 1304,833;-6094,000
1080,65;  -37,417; 1241,833;-5039,000
1081,20;  -49,417; 1186,833;-6151,000
1081,75;  -26,417; 1125,833;-6039,000
1082,29;  -81,417; 1128,833; -139,000
1082,84;  -29,417; 1184,833;-2678,000
1083,39;  -54,417; 1294,833;-5061,000
1083,93;  -40,417; 1335,833;-5025,000
1084,48;  -72,417; 1196,833;-5961,000
1085,02;  -88,417; 1082,833;-5783,000
1085,57;  -88,417; 1074,833;-5994,000
1086,11;  -96,417; 1079,833;-5968,000
1086,66;  -73,417;  925,833;-5584,000
1087,21;  -25,417; 1060,833;-5802,000
1087,75;  -41,417;  939,833;-6125,000
1088,30;  -47,417;  815,833;-5040,000
1088,84;  -33,417;  783,833;-5963,000
1089,39;  -60,417;  656,833;-5965,000
1089,93;  -48,417;  664,833;-6100,000
1090,48;  -86,417;  649,833;-4394,000
1091,02;  -33,417;  733,833;-5181,000
1091,57;  -28,417;  629,833;-5479,000
1092,11;  -27,417;  642,833;-4094,000
1092,66;  -19,417;  624,833;-6031,000
1093,20;  -62,417;  580,833;-5180,000
1093,75;  -58,417;  566,833;-4998,000
1094,29;  -27,417;  486,833;-4979,000
1094,84;  -27,417;  525,833;-5890,000
1095,38;  -51,417;  528,833;-5097,000
1095,93;  -18,417;  584,833;-5981,000
1096,47;  -62,417;  615,833;-5612,000
1097,02;  -53,417;  587,833;-4985,000
1097,56;  -47,417;  614,833;-5772,000
1098,11;   -3,417;  552,833;-5774,000
1098,65;  -38,417;  508,833;-5992,000
1099,20;  -26,417;  577,833;-5935,000
1099,74;  -46,417;  487,833;-6002,000
1100,29;  -29,417;  513,833;-4879,000
1100,83;  -55,417;  496,833;-5934,000

