
Integration time [ms]:   1,000
Averaging Nr. [scans]: 1
Smoothing Nr. [pixels]: 0
Data measured with spectrometer [name]: 1703254U1
Wave   ;Sample   ;Dark     ;Reference;Scope
[nm]   ;[counts] ;[counts] ;[counts] 

 190,08;  -82,104; -370,119;11982,743
 190,69;  -63,889; -359,404;11603,049
 191,29;  -65,389; -311,651;11479,965
 191,90;  -74,925; -365,508;11440,717
 192,50;  -73,211; -379,511;10355,099
 193,10;  -52,854; -446,299;11244,381
 193,71;  -72,032; -367,888; 9821,736
 194,31;  -66,568; -399,273; 9436,327
 194,91;  -66,568; -382,273; 9291,327
 195,52;  -73,318; -338,386;10555,949
 196,12;  -49,639; -397,056; 8671,847
 196,72;  -69,032; -386,394; 8220,904
 197,32;  -72,032; -375,888; 8251,736
 197,93;  -55,318; -360,420; 8700,957
 198,53;  -68,389; -383,145; 7601,797
 199,13;  -75,246; -397,132; 8091,270
 199,74;  -60,461; -366,410; 7263,813
 200,34;  -56,818; -388,667; 7832,874
 200,94;  -54,354; -436,547; 6941,297
 201,55;  -63,889; -406,404; 7119,049
 202,15;  -66,996; -375,773; 6404,732
 202,75;  -96,568; -373,217; 6097,647
 203,36;  -58,532; -338,664; 6822,492
 203,96; -108,782; -357,943; 6332,678
 204,56;  -61,961; -355,657;10275,729
 205,16;  -69,354; -363,018; 5478,458
 205,77;  -81,996; -360,244; 4767,892
 206,37;  -70,211; -409,017; 5556,267
 206,97;  -73,854; -363,760; 5129,205
 207,58;  -57,247; -364,166; 5927,278
 208,18;  -76,961; -337,129; 5129,889
 208,78;  -74,389; -404,134; 5295,461
 209,38;  -57,889; -469,415; 4958,385
 209,99;  -57,782; -356,540; 3837,534
 210,59;  -59,389; -361,662; 3890,301
 211,19;  -58,639; -364,538; 3938,343
 211,79;  -50,461; -366,927; 4499,316
 212,40;  -79,104; -373,625; 3368,911
 213,00;  -70,318; -388,891; 3903,118
 213,60;  -75,461; -386,882; 2992,972
 214,20;  -89,711; -401,230; 3081,175
 214,81;  -82,532; -422,618; 2884,148
 215,41;  -89,925; -376,979; 3235,877
 216,01; -109,532; -373,067; 3109,636
 216,61;  -66,461; -367,399; 2814,476
 217,22; -105,032; -381,326; 2358,888
 217,82; -111,710; -325,173; 2262,495
 218,42;  -99,568; -383,711; 2389,480
 219,02; -104,175; -288,327; 3432,079
 219,63;  -87,782; -357,483; 2044,854
 220,23;  -91,103; -366,602; 2425,239
 220,83;  -89,282; -395,730; 1901,770
 221,43; -107,710; -393,195; 1850,167
 222,03; -110,496; -348,940; 2326,296
 222,64;  -93,032; -380,348; 1769,560
 223,24;  -96,782; -298,966; 1625,350
 223,84; -111,889; -376,313; 2637,361
 224,44; -108,139; -316,695; 2381,571
 225,05;  -95,496; -313,952; 1440,632
 225,65; -110,389; -301,065; 1227,445
 226,25;  -99,353; -364,961; 1139,777
 226,85; -113,603; -294,309;  995,979
 227,45; -102,139; -335,706; 1083,907
 228,06; -100,318; -365,834; 1945,438
 228,66;  -95,782; -349,460; 4049,182
 229,26;  -77,782; -313,438; 1131,510
 229,86;  -96,461; -396,342; 1760,797
 230,46; -108,568; -358,194;  891,976
 231,06;  -97,353; -320,444;  757,273
 231,67;  -76,425; -346,732; 1228,961
 232,27; -124,317; -343,789;  778,094
 232,87; -114,032; -308,808;  526,384
 233,47; -123,425; -321,158;  525,777
 234,07;  -86,068; -268,486; 9912,235
 234,67; -117,817; -291,013;  672,338
 235,28; -127,425; -319,158;   65,777
 235,88; -109,353; -316,882;  285,426
 236,48;  -99,175; -350,821;  165,911
 237,08;  -83,853; -267,669;  448,518
 237,68; -143,496; -369,378; -267,552
 238,28; -100,032; -304,774; -106,624
 238,89; -141,460; -212,756; -205,723
 239,49; -122,675; -282,023; 1280,483
 240,09; -150,567; -284,608; -190,544
 240,69; -146,067; -251,373; -319,124
 241,29; -112,996; -289,647;  651,036
 241,89; -133,424; -330,147; -260,559
 242,49; -119,246; -248,490; -358,930
 243,10; -146,817; -201,496; 3664,834
 243,70; -104,246; -284,490;  239,070
 244,30;  -86,246; -275,501; -708,594
 244,90; -102,281; -188,582; -568,598
 245,50;  -94,496; -177,355; 3274,777
 246,10; -125,996; -307,636; -831,300
 246,70; -106,532; -300,999;   17,620
 247,30;  -91,424; -251,641;  326,273
 247,91; -123,603; -208,218; 5781,292
 248,51; -102,460; -270,228; -806,563
 249,11;  -79,389; -239,514;  417,933
 249,71;  -89,389; -303,008; -667,235
 250,31;  -41,674; -265,483; -567,693
 250,91;  -78,103; -238,500;   75,216
 251,51;  -91,174; -199,225; -822,945
 252,11; -116,353; -239,813;  367,410
 252,71;  -79,853; -269,117;-1080,994
 253,31;  -82,924; -222,348; 3228,013
 253,91; -114,853; -236,578; -676,170
 254,52;  -93,353; -237,342;-1063,750
 255,12;  -95,674; -293,483;-1104,693
 255,72;  -17,496; -206,366;  557,112
 256,32; -102,853; -242,061; -966,674
 256,92;  -94,710; -190,070;-1147,529
 257,52;  -40,389; -173,974; -883,243
 258,12;  -88,139; -201,087;  -91,621
 258,72;  -83,067; -210,810;-1232,972
 259,32;  -37,781; -211,335;-1169,514
 259,92;    4,647; -199,330;-1343,086
 260,52;   -0,246; -192,973;-1077,433
 261,12;  -55,710; -202,059; -662,865
 261,72;  -87,960; -238,452;-1312,319
 262,32;  -25,853; -215,600;-1561,498
 262,92;  -89,674; -238,426;  405,627
 263,53;  -47,317; -189,698;-1277,594
 264,13; -104,103; -262,937; -268,632
 264,73;  -59,174; -217,202;-1694,617
 265,33;  -53,210; -188,317;-1708,613
 265,93;  -41,067; -147,304;-1345,140
 266,53;  -66,567; -161,046;-1544,392
 267,13;  -86,603; -139,161; -857,388
 267,73;  -82,317; -185,158;  270,230
 268,33; -109,353; -166,274;-1788,766
 268,93;  -59,174; -213,708;-1702,449
 269,53;  -64,888; -204,670; -644,839
 270,13;  -31,924; -201,797;-1810,499
 270,73;  -46,495; -245,287;-1891,239
 271,33;  -68,603; -200,678;-1778,884
 271,93;  -63,531; -242,919;-1867,732
 272,53;  -22,638; -121,748;    8,776
 273,13;  -32,460; -146,677;-1117,075
 273,73;  -61,067; -119,753;-1955,652
 274,33;   20,183; -148,428;-2041,182
 274,93;  -67,138; -188,007;-1843,972
 275,53;  -67,638;  -68,748;-1881,224
 276,13; -100,424; -121,965;-2261,935
 276,73;  -69,960; -118,361;-1570,007
 277,33;  -73,995; -179,522;-1926,659
 277,93;  -27,746; -213,680;-1864,693
 278,53;  -21,281; -194,526;-2112,278
 279,13;  -47,567; -125,506;-2152,568
 279,73;  -47,852; -140,498;-1388,522
 280,33;  -47,353; -154,756;-2179,270
 280,93;   -0,995; -105,994;-2049,499
 281,53;  -54,245; -147,387;-2252,953
 282,13;  -63,102; -127,363;-2193,816
 282,73;  -64,674; -156,875; -385,885
 283,33;  -20,388; -137,872;-2307,266
 283,92;   -8,995;  -74,477;-2028,003
 284,52;  -28,031;  -94,109;-2365,496
 285,12;   14,862; -138,524;-1425,469
 285,72;    0,326; -126,898;-1041,213
 286,32;   17,398;  -55,622;-1313,564
 286,92;  -24,853; -163,521;-2376,850
 287,52;    4,290;  -89,519;-2170,041
 288,12;   60,076;  -97,763;-2542,507
 288,72;   30,183; -106,417;-1625,518
 289,32;   14,576;  -54,470; 1692,233
 289,92;   34,933; -106,270;-2344,148
 290,52;  -35,816;  -91,809;-2485,710
 291,12;   18,862;  -57,996;-1570,308
 291,72;   44,005;  -74,477;-1590,003
 292,32;  104,683;  -83,135;-2372,442
 292,92;  143,362;   -2,737;-2481,560
 293,51;   95,398;  -37,093;-2532,404
 294,11;  244,969;  -42,121;-1681,160
 294,71;  300,005;   -7,488;-2695,667
 295,31;  310,790;  -24,743;-1755,797
 295,91;  380,790;   46,751;-2713,629
 296,51;  437,612;   62,656;-1776,106
 297,11;  407,862;   35,061;-2900,988
 297,71;  523,898;    4,131;-2726,648
 298,31;  757,933;   38,730;-2329,148
 298,91;  544,219;   74,756;-2483,202
 299,50;  628,826;   41,395;-2689,473
 300,10;  859,683;  145,887;-2706,114
 300,70;  731,433;   95,528;-2492,576
 301,30;  756,505;   89,253;-2855,415
 301,90;  929,076;   96,248;-2004,843
 302,50;  848,183;  163,640;-2515,198
 303,10;  680,469;  124,126;-2530,076
 303,70;  668,898;  208,660;-3000,488
 304,29;  684,398;  189,918;-2658,740
 304,89;  713,469;  266,183;-1090,755
 305,49;  867,683;  163,922;-2773,122
 306,09; 1003,040;  214,133;-2874,839
 306,69;  935,505;  262,736;-2915,911
 307,29;  957,683;  312,865;-2008,442
 307,89;  914,969;  303,408;-3029,000
 308,48;  789,790;  341,774;-2453,301
 309,08;  826,290;  369,492;-2743,377
 309,68; 1146,148;  377,019;-3094,026
 310,28; 1022,326;  371,102;-2576,213
 310,88;  754,790;  321,211;-2936,453
 311,48;  833,005;  447,500;-2875,331
 312,07;  919,397;  408,367;-2963,228
 312,67;  974,826;  497,855;-2128,297
 313,27;  940,433;  494,448;-1105,224
 313,87;  998,540;  583,357;-2164,083
 314,47; 1201,433;  516,954;-3030,392
 315,06; 1489,076;  620,191; 2713,837
 315,66; 1592,433;  579,988;-3245,400
 316,26; 1548,004;  632,938;-1844,483
 316,86; 1635,719;  777,969;-3140,110
 317,46; 1935,112;  720,307;-2115,167
 318,06; 1978,112;  739,813; -825,335
 318,65; 2282,112;  781,801;-2807,999
 319,25; 2704,826;  821,798;-3195,617
 319,85; 2626,076;  932,663;-2908,323
 320,45; 3092,969;  986,283;-3213,304
 321,05; 4157,969;  901,271;-2761,968
 321,64; 4403,611;  889,531;-3219,411
 322,24; 4363,290; 1056,861;-3265,513
 322,84; 3840,290; 1080,356;-3261,345
 323,44; 2884,004; 1133,364;-3219,300
 324,03; 2513,611; 1194,486;-3072,067
 324,63; 2516,611; 1250,452;-2310,059
 325,23; 2353,040; 1241,928;-3097,792
 325,83; 2219,075; 1367,021;-2876,123
 326,42; 2221,396; 1442,622;-3285,005
 327,02; 2181,111; 1476,551;-3076,607
 327,62; 2212,860; 1439,629;-2505,221
 328,22; 2640,396; 1553,486;-3234,973
 328,82; 2575,289; 1577,037;-2229,938
 329,41; 2198,110; 1658,852;-3016,728
 330,01; 2643,109; 1652,750;-2961,704
 330,61; 2824,216; 1806,062;-2928,707
 331,20; 2290,145; 1778,325;-2868,531
 331,80; 2233,359; 1762,512;-2794,386
 332,40; 2222,680; 1752,102;-2896,932
 333,00; 2204,716; 1933,667;-2790,423
 333,59; 2173,751; 1748,771;-2855,091
 334,19; 2307,465; 1920,745;-1771,037
 334,79; 2209,144; 1712,615;-2861,316
 335,39; 2152,644; 1729,919;-2978,912
 335,98; 2137,859; 1726,714;-3126,958
 336,58; 2255,430; 1659,777;-3191,401
 337,18; 2418,573; 1720,779;-2958,592
 337,77; 2294,716; 1782,837;-2098,463
 338,37; 2351,145; 1806,359;-2021,540
 338,97; 2459,288; 1907,384;-2912,402
 339,57; 2742,323; 1862,948;-3044,894
 340,16; 3333,323; 1836,431;-2881,390
 340,76; 3388,823; 1962,712;-3053,314
 341,36; 3086,895; 1861,920;-3195,650
 341,95; 3561,787; 1934,506;-3027,623
 342,55; 3747,645; 1918,998;  703,736
 343,15; 3566,252; 2048,155;-3094,039
 343,74; 4211,823; 1924,644;-2382,298
 344,34; 4143,001; 1860,267;-3015,661
 344,94; 3152,930; 2068,530;-3069,485
 345,53; 2979,716; 2110,769;-2860,447
 346,13; 3142,466; 2174,398;-1283,573
 346,73; 3416,930; 1966,473;-2254,805
 347,32; 3723,252; 2268,649;-3080,871
 347,92; 3323,966; 2312,600;-2277,145
 348,52; 3296,359; 2270,523;-1878,722
 349,11; 3540,788; 2336,551;  975,034
 349,71; 3134,109; 2330,658;-3240,016
 350,31; 2857,466; 2441,387;-2672,237
 350,90; 2999,180; 2483,418;-2326,863
 351,50; 3478,894; 2390,852;-2105,634
 352,10; 4331,109; 2471,119;-3114,840
 352,69; 4907,573; 2532,273;-3182,424
 353,29; 5048,930; 2563,024;-3191,317
 353,89; 5138,645; 2645,527;-3255,104
 354,48; 5005,109; 2693,119;-3208,840
 355,08; 5848,073; 2871,980;-1117,164
 355,67; 6465,502; 2850,042;-2951,417
 356,27; 7922,966; 2839,128;-3232,985
 356,87; 8662,858; 3010,288;-3383,142
 357,46; 9017,323; 3049,431;-2351,390
 358,06;10161,145; 3306,291;-3073,523
 358,66; 8365,645; 3337,504;-3109,432
 359,25; 5500,716; 3260,792;-2344,119
 359,85; 6167,823; 3365,667;-3215,970
 360,44; 8018,073; 3389,015;-3292,172
 361,04; 8072,251; 3567,155;-2367,039
 361,64; 7890,251; 3696,155;-2309,039
 362,23; 7602,787; 3772,517;-2932,958
 362,83; 7179,395; 3755,639;-2990,726
 363,42; 6806,716; 3938,769;-2836,447
 364,02; 6607,788; 3910,034;-2973,462
 364,62; 7118,466; 3816,398;-2486,573
 365,21; 5443,323; 3857,937;-1741,558
 365,81; 4066,002; 3935,818;-2792,173
 366,40; 4060,216; 3970,062;-2080,707
 367,00; 4506,645; 4021,550;-2952,776
 367,59; 5067,145; 4071,831;-2979,699
 368,19; 5795,823; 4221,678;-3237,306
 368,79; 5518,538; 4198,720;-3125,268
 369,38; 4875,252; 4107,200;-2250,383
 369,98; 5398,609; 4101,940;-2935,940
 370,57; 6080,073; 4188,588;-3331,356
 371,17; 5891,716; 4164,860;-3326,135
 371,76; 6412,181; 4277,486;-3442,879
 372,36; 7203,931; 4057,598;-3195,501
 372,95; 9040,288; 4115,372;  667,934
 373,55;10056,752; 4105,998;-3393,811
 374,14; 9822,502; 4300,099;-3405,097
 374,74; 9522,609; 4256,514;-3224,124
 375,34; 8391,038; 4286,979;-3189,521
 375,93; 8275,609; 4295,479;-2706,116
 376,53; 7257,788; 4344,585;-3575,974
 377,12; 4926,109; 4405,670;-1465,352
 377,72; 3832,395; 4480,730;-3410,414
 378,31; 4246,216; 4511,027;-2274,699
 378,91; 4703,180; 4291,429;-3262,199
 379,50; 5389,287; 4588,213;-3331,363
 380,10; 5349,430; 4327,226;-3398,890
 380,69; 5469,823; 4094,621;-2343,626
 381,29; 7536,716; 4586,735;-2550,439
 381,88; 9743,716; 4518,758;-1605,111
 382,48; 9509,002; 4519,727;-3286,485
 383,07; 8185,895; 4495,358;-3457,802
 383,67; 7601,716; 4635,758;-1847,111
 384,26; 7113,501; 4667,491;-2467,905
 384,86; 5587,608; 4921,849;-3182,252
 385,45; 5445,109; 4932,636;-3325,344
 386,05; 5259,680; 5073,608;-3419,100
 386,64; 4636,180; 4911,384;-3524,855
 387,24; 4781,180; 5016,878;-2585,688
 387,83; 5010,359; 4993,512;-2489,386
 388,42; 5382,895; 5182,346;-2109,466
 389,02; 4936,859; 5423,748;-3235,966
 389,61; 4835,930; 5688,036;-3413,653
 390,21; 4534,180; 5729,878;-3463,688
 390,80; 3657,895; 5816,392;-3208,810
 391,40; 3681,037; 6137,899;-2293,168
 391,99; 4307,395; 5981,099;-3195,550
 392,59; 4528,716; 6435,252;-2416,943
 393,18; 3955,466; 6683,398;-2491,573
 393,77; 3233,109; 6883,198;-3238,192
 394,37; 3513,966; 7145,657;-2198,825
 394,96; 4129,895; 7098,403;-2296,146
 395,56; 3874,073; 7264,588;-2834,356
 396,15; 4515,145; 6867,797;-3125,692
 396,75; 4909,966; 7343,163;-2889,993
 397,34; 3837,609; 7669,940;-2620,940
 397,93; 3205,252; 7720,188;-3358,047
 398,53; 3082,573; 7595,262;-2525,088
 399,12; 3350,930; 8192,013;-2154,981
 399,72; 3850,109; 8013,119;-2274,840
 400,31; 4145,537; 8034,629;-3169,581
 400,91; 3727,787; 8446,012;-2959,791
 401,50; 3138,109; 8820,198;-2330,192
 402,09; 3242,288; 8550,327;-2894,722
 402,69; 3389,109; 8691,187;-3072,856
 403,28; 3655,537; 9052,663;-2983,588
 403,88; 5919,502; 9162,560; 1927,079
 404,47; 7294,145; 9689,831;  884,300
 405,06; 4905,680; 9684,171;  -68,947
 405,66; 5566,073; 9753,565;-2875,684
 406,25; 7487,538;10085,720;-3119,268
 406,84; 7430,252;10446,177;-2892,711
 407,44; 5607,573;10847,858;-2219,944
 408,03; 3727,252;10422,257;-2906,063
 408,63; 3180,216;10373,085;-3011,379
 409,22; 3206,645;10191,584;-1945,783
 409,81; 3357,466;10681,007;-1849,765
 410,41; 3467,645;11553,078;-2857,615
 411,00; 3807,431;11336,362;-1814,921
 411,59; 4347,359;11251,120;-2826,578
 412,19; 4373,288;11468,350;-2245,394
 412,78; 5150,538;11399,226;-2830,436
 413,37; 5501,288;12151,878;-2704,234
 413,97; 5667,466;12410,512;-2618,933
 414,56; 5588,895;12071,506;-2503,169
 415,15; 4803,145;12410,394;-2121,547
 415,75; 4410,502;12408,639;-2698,272
 416,34; 3836,966;12590,254;-1893,681
 416,93; 4205,038;12922,047;-2777,536
 417,53; 4873,645;12696,169;-1423,303
 418,12; 5593,252;12570,785;-2217,903
 418,71; 5815,467;12907,592;-2673,285
 419,31; 6583,502;13054,695;-1884,952
 419,90; 6929,109;13470,313;-2786,552
 420,49; 5088,824;13619,298;-1733,834
 421,08; 4071,824;14201,298;-1674,834
 421,68; 4704,574;14723,421;-1908,792
 422,27; 5584,396;14035,832;-2004,437
 422,86; 5917,324;13874,073; -437,590
 423,46; 5673,324;14080,107;-2575,598
 424,05; 5083,467;14376,626;-2928,293
 424,64; 5720,859;13888,953;-2640,014
 425,24; 5937,467;14092,098;-2903,453
 425,83; 5761,360;13992,269;-2680,945
 426,42; 6465,467;12987,626;-2760,293
 427,01; 6733,931;13424,734;-2674,533
 427,61; 4782,967;14347,873;-2609,209
 428,20; 3656,181;14036,151;-1764,751
 428,79; 3744,574;14414,052;-2859,656
 429,38; 4525,824;14092,377;-1781,186
 429,98; 5359,431;14922,521; -994,625
 430,57; 6359,967;15058,873;-2193,209
 431,16; 4943,824;14580,389;-2784,522
 431,75; 4812,110;14357,909; -561,407
 432,35; 5979,253;13435,899;-1951,262
 432,94; 4818,182;14429,186;-2324,759
 433,53; 3357,681;14560,375;-1152,995
 434,12; 3194,931;14431,298;-2267,381
 434,72; 3043,932;14188,331;-1413,389
 435,31; 3090,896;14167,699; 7395,119
 435,90; 2855,110;14308,954; 8338,249
 436,49; 2850,646;13427,834; -683,175
 437,08; 3061,824;13895,951; -675,370
 437,68; 5061,074;14442,827;-2987,412
 438,27; 6343,753;14610,237;-2610,866
 438,86; 3747,503;14612,832;-1147,984
 439,45; 3011,217;15313,346;-1937,106
 440,05; 4555,717;15955,616;-2982,694
 440,64; 4565,217;15054,886;-1902,282
 441,23; 3668,825;14152,525;-1415,553
 441,82; 2917,039;13700,218;-2631,576
 442,41; 2256,325;14351,277;-3014,637
 443,00; 2292,646;13625,925;-2724,863
 443,60; 2205,789;14373,881;-3136,710
 444,19; 2472,253;15026,541;-1440,462
 444,78; 2253,289;14960,151;-3012,298
 445,37; 2260,039;15728,297;-2522,928
 445,96; 2479,753;15331,249;-3116,202
 446,56; 2371,682;15596,535;-1144,698
 447,15; 2370,146;16225,678; -884,947
 447,74; 2279,075;17097,412;-2709,931
 448,33; 2086,968;16443,066;-1985,920
 448,92; 2072,503;15422,440;-2964,176
 449,51; 1922,325;15095,817;-2848,813
 450,10; 1688,968;15133,078;-3063,256
 450,70; 1702,932;14904,939;-1957,581
 451,29; 1654,003;15329,193;-1112,260
 451,88; 1882,575;15513,671;-2929,183
 452,47; 2288,968;16565,055;-2795,584
 453,06; 2022,646;16495,498;-2401,047
 453,65; 1622,325;16071,874;-2873,493
 454,24; 1655,718;17329,246;-2173,558
 454,84; 1828,432;17793,209;-1379,168
 455,43; 1622,361;18732,496;-2219,665
 456,02; 1591,075;18879,480;-2927,947
 456,61; 1547,075;17317,459;-2925,275
 457,20; 1578,896;16921,363;-2786,753
 457,79; 1704,682;17588,131;-2922,554
 458,38; 1697,146;18338,264;-2132,467
 458,97; 1668,968;18039,641;-2515,104
 459,56; 1668,789;18190,479;-2760,565
 460,16; 1762,718;17832,258;-2082,894
 460,75; 1699,218;18157,518;-2072,146
 461,34; 1665,468;18077,887;-2962,020
 461,93; 1629,397;18381,186;-2200,853
 462,52; 1699,289;19333,275;-2744,993
 463,11; 1819,111;20546,688;-1989,639
 463,70; 1993,111;19458,643;-2869,295
 464,29; 1980,504;19945,082;-3150,376
 464,88; 1867,432;20795,807;-2743,024
 465,47; 1672,147;19885,285;-2748,139
 466,06; 1763,397;20915,713;-3191,692
 466,65; 1905,075;21667,572;-3018,635
 467,24; 2026,147;22030,848;-2539,986
 467,84; 1912,540;22443,164;-2020,371
 468,43; 1883,647;22325,051;-2238,559
 469,02; 1899,111;23517,170;-2702,135
 469,61; 1858,611;24168,936;-2593,555
 470,20; 1947,790;23781,063;-2841,085
 470,79; 1904,075;22760,100;-3232,475
 471,38; 1702,611;25266,463;-2192,395
 471,97; 1667,111;26009,732; -666,983
 472,56; 1825,433;25472,887;-3035,376
 473,15; 1899,040;25296,975;-2825,135
 473,74; 1898,575;26395,854;-3106,559
 474,33; 1858,004;25866,848;-2957,796
 474,92; 1798,575;27630,348;-3146,391
 475,51; 1738,468;29609,002;-2873,380
 476,10; 1741,183;29847,986;-3011,662
 476,69; 1771,683;26101,268;-2855,586
 477,28; 1787,325;25846,955;-2956,845
 477,87; 1696,933;27035,121; -173,956
 478,46; 1703,933;28695,639;-3029,460
 479,05; 1733,933;30507,100;-2134,284
 479,64; 1661,111;31679,756;-2718,655
 480,23; 1631,469;29541,508;-2845,548
 480,82; 1579,040;28549,996;-2736,807
 481,41; 1681,754;29371,510;-1873,929
 482,00; 1598,290;29284,885;-1364,185
 482,59; 1670,183;29593,998;-2298,998
 483,18; 1720,540;31702,244;-2376,723
 483,77; 1669,361;31703,139;-2193,865
 484,36; 1732,468;32475,002;-1701,380
 484,95; 1789,004;32990,410; -788,643
 485,54; 2113,183;35331,031;-1371,006
 486,13; 2358,897;35762,996; -945,616
 486,72; 2957,219;34334,137;  148,326
 487,31; 3123,254;31046,285;-1109,686
 487,89; 2483,361;32608,633; -193,697
 488,48; 3350,504;33798,164;-1523,728
 489,07; 3921,147;32913,941;-1248,674
 489,66; 2676,504;33511,645;-1505,224
 490,25; 2312,397;31095,299; -660,212
 490,84; 2399,004;34127,375;-1683,635
 491,43; 3933,504;34965,621; -701,552
 492,02; 4751,076;36094,652;-1864,987
 492,61; 3095,719;35362,902;-1043,094
 493,20; 2334,576;33776,426;-2019,743
 493,79; 2372,147;32749,434; 4824,494
 494,38; 2222,183;33706,043;-1938,342
 494,97; 3499,576;32583,934; -629,911
 495,55; 4862,397;34690,309;-2325,548
 496,14; 3896,469;35087,531;-2403,220
 496,73; 2497,754;35451,566;-1952,609
 497,32; 2340,183;34211,570;-2587,182
 497,91; 2585,862;35005,949;-1921,629
 498,50; 2691,362;34165,195;-2912,544
 499,09; 2385,183;34554,570;-3088,182
 499,68; 2749,469;32403,070;-2405,396
 500,27; 3287,040;33321,605;-2490,999
 500,85; 3257,504;32655,207;-2604,071
 501,44; 2983,112;32478,342;-2576,175
 502,03; 2668,147;33194,457;-3368,178
 502,62; 2398,326;31275,068;-3438,205
 503,21; 2217,219;29432,711;-3532,858
 503,80; 2162,040;32028,100;-2976,831
 504,39; 2226,755;32451,119;-3458,121
 504,97; 2208,862;31774,982;-3577,636
 505,56; 2056,755;31537,590;-2979,281
 506,15; 2194,683;32302,336;-3991,602
 506,74; 2366,183;32557,617;-2945,526
 507,33; 2277,719;32185,498;-3165,949
 507,92; 2269,112;33952,859;-3871,678
 508,51; 2015,147;35926,973;-3735,682
 509,09; 2126,326;34536,629;-3921,053
 509,68; 2190,719;34318,508;-3748,286
 510,27; 2249,255;33667,410;-3799,381
 510,86; 2236,505;32572,264;-4081,751
 511,45; 2151,862;33677,512;-3843,476
 512,03; 2394,969;34524,855;-3829,488
 512,62; 2550,147;36240,961;-3780,346
 513,21; 2945,219;33870,789;-3186,209
 513,80; 3322,505;34644,289;-3501,423
 514,39; 2911,326;32752,137;-3905,221
 514,97; 2672,505;35347,781;-4095,255
 515,56; 2816,433;34167,551;-4198,248
 516,15; 3564,005;35428,063;-3955,179
 516,74; 3977,219;32584,318;-4420,049
 517,33; 2963,184;33459,688;-3549,542
 517,91; 2532,541;33935,426;-4188,099
 518,50; 2852,683;32563,393;-3264,282
 519,09; 3392,683;33942,875;-3157,778
 519,68; 3039,862;35231,531;-4286,148
 520,26; 2822,005;38679,547;-4232,675
 520,85; 2691,041;39452,660;-4352,679
 521,44; 2718,291;40826,078;-4358,897
 522,03; 3128,433;39485,539;-4271,912
 522,61; 3814,291;36773,078;-4364,897
 523,20; 3674,291;33924,090;-4337,233
 523,79; 2949,862;32040,590;-4337,828
 524,38; 2559,184;32850,191;-4344,709
 524,96; 2362,755;35883,199;-4321,473
 525,55; 2375,541;36021,449;-4542,771
 526,14; 2991,469;34018,723;-4434,931
 526,73; 3656,005;32852,074;-4389,515
 527,31; 3016,648;32903,324;-4488,622
 527,90; 2616,541;33630,449;-4564,771
 528,49; 2304,969;34155,938;-2529,839
 529,08; 1998,505;34601,344;-3467,103
 529,66; 2091,255;34848,445;-3911,389
 530,25; 1944,934;35279,832;-4414,172
 530,84; 1894,791;35334,348;-4583,485
 531,42; 2042,862;38583,105;-4365,332
 532,01; 2626,398;37528,480;-4291,588
 532,60; 2853,291;34512,125;-4473,241
 533,18; 2138,148;35538,086;-4078,042
 533,77; 1942,112;34969,984;-4236,374
 534,36; 1897,255;34459,469;-4374,061
 534,95; 1785,969;35483,477;-4088,015
 535,53; 1933,434;34236,090; -974,424
 536,12; 2445,398;36469,977;-2657,420
 536,71; 2825,469;36511,230;-3869,099
 537,29; 2493,577;36073,621;-3618,454
 537,88; 2315,291;33908,078;-3454,897
 538,47; 2269,934;32497,867;-2840,180
 539,05; 2358,184;36837,238;-2139,054
 539,64; 2611,791;40414,898;-1785,997
 540,22; 2803,577;37414,633; -764,790
 540,81; 2695,041;37501,766; 1008,297
 541,40; 2410,291;39018,629; 3425,591
 541,98; 2266,755;38188,230; 4858,519
 542,57; 2250,398;39368,977; 4597,580
 543,16; 2041,862;38645,613; 4952,500
 543,74; 1903,255;35774,480; 4083,603
 544,33; 1916,505;36297,883; 3620,721
 544,92; 1989,791;37217,887; 3973,339
 545,50; 1832,969;37338,488;11456,648
 546,09; 1736,398;40064,965;11359,916
 546,67; 1628,612;41948,727; 2857,878
 547,26; 1723,576;40050,094; -202,615
 547,85; 1575,791;39208,414; -567,501
 548,43; 1520,862;38452,625; -849,836
 549,02; 1404,898;39427,246;-1040,008
 549,60; 1569,112;40570,500; -984,878
 550,19; 1444,255;41166,996;-2192,901
 550,78; 1455,791;42660,875;-2328,325
 551,36; 1405,434;45349,148;-2432,104
 551,95; 1258,362;45443,859; -585,416
 552,53; 1370,327;43280,262; -296,916
 553,12; 1292,827;41420,035;-3431,672
 553,70; 1331,113;43188,547;-2878,222
 554,29; 1369,398;44058,008;-2869,428
 554,88; 1313,720;41831,668;-4247,989
 555,46; 1278,112;43723,027;-3881,718
 556,05; 1437,469;45007,734;-4207,268
 556,63; 1626,755;45206,266;-3396,489
 557,22; 1822,148;43875,109;-3394,714
 557,80; 1647,755;41749,762;-3568,321
 558,39; 1769,184;44188,250;-4145,390
 558,97; 1484,648;47993,887;-3699,470
 559,56; 1383,434;49889,137;-4544,768
 560,15; 1306,077;50117,891;-3611,042
 560,73; 1447,005;49814,152;-4287,867
 561,32; 1916,719;47024,609;-3741,309
 561,90; 1647,791;46041,910;-4382,333
 562,49; 1403,934;48487,371;-3786,348
 563,07; 1227,077;48074,387;-4783,875
 563,66; 1279,291;50064,133;-4352,577
 564,24; 1265,005;49228,145;-4763,531
 564,83; 1161,434;51344,664;-4603,607
 565,41; 1307,077;53840,375;-4329,539
 566,00; 1362,862;52202,164;-2755,012
 566,58; 1279,219;56465,375;-3725,729
 567,17; 1172,684;56909,508;-4280,642
 567,75; 1133,219;52392,871;-4653,562
 568,34; 1201,612;55893,770;-3216,466
 568,92; 1083,470;55738,793;-3987,947
 569,51; 1103,362;54852,895; 2680,576
 570,09; 1244,648;58247,391;-4676,638
 570,68; 1137,755;53188,313;-4788,833
 571,26; 1172,755;50733,242;-3886,817
 571,85; 1176,755;57347,738;-4822,649
 572,43; 1112,505;57011,379;-4704,111
 573,01; 1003,362;52662,375;-4873,920
 573,60; 1003,684;53819,012;-3785,810
 574,18; 1104,327;55122,262;-4514,917
 574,77; 1148,612;53284,277;-4737,634
 575,35; 1147,684;56113,012;-4452,810
 575,94; 1177,470;57300,770;-4076,275
 576,52; 1122,898;54049,270;-2249,680
 577,11; 1046,327;51620,297;-3244,924
 577,69; 1087,827;48685,555;-3183,176
 578,27; 1126,255;51008,996;-3447,901
 578,86; 1079,970;55198,543;-2994,031
 579,44; 1148,969;60080,004;-2805,855
 580,03; 1165,577;60164,137;-2493,958
 580,61; 1164,184;60267,270;-3206,062
 581,19; 1166,434;56429,652;-2538,271
 581,78; 1127,184;55361,813;-2364,238
 582,36; 1077,255;57656,031;-2911,909
 582,95; 1115,434;56180,172;-1497,776
 583,53; 1189,398;59586,539;-2319,268
 584,11; 1198,362;61608,883;-2241,088
 584,70; 1151,005;61691,660;-1948,035
 585,28; 1245,362;62070,398;-1853,592
 585,87; 1191,363;60436,930;-2889,432
 586,45; 1194,970;63023,543;-2375,031
 587,03; 1117,934;64945,430;-1150,027
 587,62; 1200,291;61494,641;-1834,745
 588,20; 1355,470;62236,285;-1020,779
 588,78; 1459,755;58157,840;-3411,673
 589,37; 1502,898;57765,270;-3360,680
 589,95; 1318,755;62238,773;-3385,657
 590,54; 1264,541;63633,539;-3461,459
 591,12; 1283,755;62116,301;-3508,497
 591,70; 1267,184;59586,789;-3331,565
 592,29; 1257,470;62881,805;-2923,283
 592,87; 1295,077;63542,375;-2394,538
 593,45; 1175,327;63404,801; 1487,908
 594,04; 1111,005;62800,188;-3676,875
 594,62; 1182,791;59709,910;-3708,333
 595,20; 1195,613;62066,828;-4371,146
 595,79; 1190,327;62681,285;-4165,588
 596,37; 1183,827;61108,555;-3657,176
 596,95; 1220,005;56922,164;-4321,203
 597,53; 1213,612;58806,770;-4226,466
 598,12; 1188,791;61848,922;-3959,669
 598,70; 1201,970;64932,531;-3776,695
 599,28; 1158,077;64911,375;-3404,538
 599,87; 1223,327;64929,777;-3061,420
 600,45; 1167,041;64938,293;-3907,543
 601,03; 1165,612;63145,781;-4100,802
 601,62; 1186,005;61727,188;-4468,875
 602,20; 1282,505;59786,414;-4541,119
 602,78; 1120,827;64399,070;-4770,680
 603,36; 1096,898;64783,301;-3166,688
 603,95; 1066,612;58863,277;-4492,634
 604,53; 1027,041;62401,281;-4574,207
 605,11; 1114,041;59505,258;-2755,535
 605,69; 1065,291;62362,156;-3365,249
 606,28; 1035,470;62594,805;-4223,283
 606,86; 1034,363;61629,422;-3946,264
 607,44;  993,112;60431,547;-3906,222
 608,02;  939,613;58047,805;-4037,474
 608,61;  951,720;60099,668;-2866,989
 609,19;  940,077;58582,418;-2582,882
 609,77; 1091,220;57398,422; -710,073
 610,35;  871,041;55748,785; 5794,625
 610,94;  845,077;56509,926;14509,949
 611,52;  873,720;55803,668;12610,011
 612,10;  795,934;53026,957; 8432,133
 612,68;  819,077;56637,949; 2694,278
 613,26;  928,684;57037,551; 2032,015
 613,85;  914,220;61759,926; -599,241
 614,43;  785,362;62306,918;-1030,096
 615,01;  714,005;62272,199;-1215,211
 615,59;  720,327;64874,328; -972,932
 616,17;  752,148;59402,648;-2561,890
 616,76;  858,648;62178,887;-2993,470
 617,34;  892,684;62666,988;-2389,138
 617,92;  825,612;58547,770;-3399,466
 618,50;  901,434;61202,652;-2562,271
 619,08;  877,398;57928,031;-2514,100
 619,67;  786,862;55968,164;-3196,012
 620,25;  829,291;54290,641;-2743,745
 620,83;  751,041;50498,293;-3495,543
 621,41;  770,041;52314,797;-2800,711
 621,99;  764,005;54560,672;-2529,371
 622,57;  869,720;55529,141;-3707,149
 623,15;  821,077;56213,387;-3783,875
 623,74;  791,612;58266,746;-3892,794
 624,32;  794,327;59330,754;-2827,749
 624,90;  765,934;58625,898;-2311,188
 625,48;  761,398;57897,043;-3132,436
 626,06;  757,648;56898,391;-4006,638
 626,64;  701,969;57787,004;-4162,855
 627,22;  621,398;58993,020;-3409,764
 627,81;  583,719;58046,117;-4334,478
 628,39;  583,148;57121,145;-4560,722
 628,97;  697,184;56597,293;-4437,733
 629,55;  679,755;55377,750;-4219,985
 630,13;  740,184;55669,270;-2959,062
 630,71;  654,220;54162,891;-2747,233
 631,29;  704,612;53129,277;-3824,634
 631,87;  684,541;52776,504;-4223,451
 632,45;  584,148;52786,648;-4716,890
 633,03;  635,969;54183,500;-4191,688
 633,62;  609,041;55423,281;-4714,207
 634,20;  601,577;54882,172;-4089,966
 634,78;  659,541;56497,000;-4430,283
 635,36;  654,862;56701,648;-4449,508
 635,94;  674,934;55183,383;-5398,684
 636,52;  654,577;51027,645;-5422,126
 637,10;  609,005;52116,164;-5488,203
 637,68;  600,541;50694,527;-4702,123
 638,26;  607,898;47618,750;-5536,176
 638,84;  634,220;48688,902;-5421,569
 639,42;  660,005;49235,164;-3756,203
 640,00;  780,145;51366,148;-5405,726
 640,58;  804,929;54579,402;-4806,027
 641,16;  736,712;55521,656;-5571,328
 641,74;  683,495;53214,906;-5433,630
 642,32;  659,278;50106,160;-5620,931
 642,90;  645,061;50434,414;-5856,232
 643,48;  605,844;49231,668;-5786,534
 644,06;  615,627;49280,922;-5796,835
 644,64;  586,410;49595,176;-5842,137
 645,22;  468,193;50513,430;-5562,438
 645,80;  598,976;50547,684;-4957,740
 646,39;  527,759;48107,938;-5515,041
 646,97;  488,542;49773,191;-5850,342
 647,54;  505,325;52328,441;-5717,644
 648,12;  508,108;54879,695;-5865,945
 648,70;  609,891;58954,949;-5885,247
 649,28;  643,674;56421,203;-6090,548
 649,86;  596,457;51091,457;-5609,850
 650,44;  548,241;48619,711;-5452,151
 651,02;  564,024;49970,965;-5474,452
 651,60;  466,807;51793,219;-5803,753
 652,18;  625,590;51320,473;-4735,055
 652,76;  521,373;53277,723;-5934,356
 653,34;  533,156;54817,977;-5939,658
 653,92;  576,939;57729,230;-5784,959
 654,50;  678,722;59042,484;-5818,261
 655,08;  703,505;58048,738;-5841,562
 655,66;  673,288;55058,992;-5115,863
 656,24;  689,071;56743,246;-5200,165
 656,82;  722,854;58989,500;-4979,466
 657,40;  703,637;58967,754;-5667,768
 657,98;  590,420;60169,008;-5486,069
 658,56;  637,203;61114,258;-5717,371
 659,14;  658,986;61380,512;-5913,672
 659,72;  621,769;63381,766;-5916,973
 660,29;  537,553;62437,020;-5907,275
 660,87;  553,336;59738,273;-5212,576
 661,45;  514,119;58590,527;-5664,877
 662,03;  522,902;57513,781;-4971,179
 662,61;  482,685;54945,035;-5638,480
 663,19;  448,468;54618,289;-5657,782
 663,77;  438,251;53917,543;-5939,083
 664,35;  450,034;56689,793;-5887,384
 664,93;  440,817;62595,047;-4922,686
 665,51;  424,600;61993,301;-6033,987
 666,08;  479,383;57747,555;-5652,289
 666,66;  438,166;51859,809;-4400,590
 667,24;  503,949;49420,063;-5952,892
 667,82;  492,732;50250,316;-5849,193
 668,40;  446,515;50723,570;-5932,494
 668,98;  468,298;51952,824;-5097,796
 669,56;  449,081;57957,078;-6096,097
 670,13;  561,865;61797,328;-6222,398
 670,71;  614,648;59698,582;-5900,700
 671,29;  525,431;57209,836;-6139,001
 671,87;  440,214;56814,090;-6051,303
 672,45;  411,997;51822,344;-6050,604
 673,03;  492,780;52592,598;-4769,906
 673,60;  446,563;58431,852;-3503,207
 674,18;  466,346;63679,105;-5938,508
 674,76;  529,129;61159,359;-6226,810
 675,34;  440,912;56361,613;-5251,111
 675,92;  397,695;55284,863;-6338,413
 676,50;  418,478;55051,117;-6085,714
 677,07;  374,261;56952,371;-6095,016
 677,65;  373,044;56680,625;-6163,317
 678,23;  458,827;55997,879;-5057,618
 678,81;  431,610;58016,133;-5299,919
 679,38;  487,393;56669,387;-5969,221
 679,96;  361,177;53267,641;-5846,522
 680,54;  438,960;55171,895;-5308,824
 681,12;  421,743;52485,148;-6126,125
 681,70;  393,526;54786,398;-4413,427
 682,27;  427,309;54740,652;-5851,728
 682,85;  404,092;58265,906;-5991,029
 683,43;  372,875;64943,160;-6140,331
 684,01;  412,658;64943,414;-5172,632
 684,58;  460,441;64307,668;-5138,934
 685,16;  485,224;64236,922;-4494,235
 685,74;  479,007;62790,176;-3853,536
 686,32;  405,790;59009,430;-6012,838
 686,89;  417,573;59552,684;-6015,139
 687,47;  417,356;59534,934;-6076,441
 688,05;  459,139;56416,188;-6019,742
 688,63;  389,922;59626,441;-6102,043
 689,20;  427,706;62884,695;-5971,345
 689,78;  379,489;58427,949;-5530,646
 690,36;  365,272;54291,203;-5381,948
 690,93;  366,055;54968,457;-6355,249
 691,51;  398,838;61453,711;-6326,550
 692,09;  377,621;64946,965;-6223,852
 692,67;  361,404;64947,219;-6047,153
 693,24;  352,187;60968,469;-5803,455
 693,82;  358,970;59538,723;-6235,756
 694,40;  424,753;58049,977;-3570,058
 694,97;  368,536;57456,230;-6046,359
 695,55;  364,319;59820,484;-5464,660
 696,13;  419,102;61729,738;-4454,962
 696,70;  356,885;58594,992;-6029,263
 697,28;  391,668;59108,246;-6266,564
 697,86;  389,451;60837,500;-6030,866
 698,43;  399,234;58827,754;-6198,167
 699,01;  344,017;55595,004;-6051,469
 699,59;  366,801;55751,258;-6402,770
 700,16;  372,584;54174,512;-5257,072
 700,74;  391,367;57040,766;-5497,373
 701,32;  352,150;56440,020;-6233,674
 701,89;  357,933;55792,273;-6049,976
 702,47;  343,716;60296,527;-6466,277
 703,05;  380,499;64951,781;-6309,579
 703,62;  339,282;64952,035;-6227,880
 704,20;  360,065;64952,285;-5306,182
 704,77;  316,848;64952,539;-6118,483
 705,35;  323,631;64213,793;-6006,784
 705,93;  341,414;64327,047;-4922,085
 706,50;  313,197;63796,301;-5267,387
 707,08;  326,980;60606,555;-5284,688
 707,65;  291,763;60046,809;-5620,990
 708,23;  292,546;64881,063;-5431,292
 708,81;  291,329;64954,316;-5019,593
 709,38;  309,113;64954,570;-5001,894
 709,96;  333,896;64954,820;-6025,195
 710,53;  340,679;64955,074;-6007,497
 711,11;  308,462;61503,328;-5752,798
 711,69;  364,245;61913,582;-3821,100
 712,26;  391,028;59012,836;-4642,401
 712,84;  314,811;63346,090;-5947,703
 713,41;  364,594;64411,344;-6153,004
 713,99;  282,377;64924,598;-6068,305
 714,56;  330,160;62057,852;-6326,607
 715,14;  336,943;60312,105;-6198,908
 715,71;  310,726;60246,355;-6210,209
 716,29;  353,509;62893,609;-6648,511
 716,86;  286,292;63573,863;-6510,813
 717,44;  320,075;63263,117;-6424,114
 718,02;  353,858;62110,371;-6462,415
 718,59;  428,642;61013,625;-5121,716
 719,17;  341,425;63488,879;-5649,018
 719,74;  346,208;62907,133;-5756,319
 720,32;  296,991;63502,387;-6451,621
 720,89;  337,774;64959,641;-6422,922
 721,47;  274,557;64959,891;-6388,224
 722,04;  311,340;64960,145;-5502,525
 722,62;  299,123;64252,398;-3979,826
 723,19;  314,906;60250,652;-4938,128
 723,77;  256,689;57638,906;-5673,429
 724,34;  307,472;60150,160;-5576,730
 724,92;  305,255;63789,414;-6558,032
 725,49;  301,038;64961,668;-5666,333
 726,07;  290,821;64961,922;-6491,635
 726,64;  303,604;64627,176;-6587,936
 727,21;  283,387;60249,426;-5627,238
 727,79;  276,170;63706,680;-6444,539
 728,36;  311,954;64962,934;-6722,840
 728,94;  354,737;64963,188;-6535,142
 729,51;  344,520;64963,441;-6365,443
 730,09;  320,303;64963,695;-5545,745
 730,66;  315,086;64963,949;-6358,046
 731,24;  338,869;64964,203;-6577,348
 731,81;  311,652;64964,457;-5151,649
 732,38;  332,435;64964,711;-6492,950
 732,96;  334,218;64964,961;-6263,251
 733,53;  320,001;60347,215;-6389,553
 734,11;  309,784;61575,469;-6617,854
 734,68;  369,567;64965,723;-6211,156
 735,26;  346,350;64965,977;-6389,458
 735,83;  323,133;64966,230;-6498,759
 736,40;  329,916;62243,484;-6516,060
 736,98;  336,699;61999,738;-6374,361
 737,55;  346,482;59236,992;-5827,663
 738,13;  340,266;57707,246;-5702,964
 738,70;  399,049;60991,496;-5529,266
 739,27;  399,832;62504,750;-6452,567
 739,85;  343,615;62745,004;-6283,869
 740,42;  408,398;64968,258;-6464,170
 740,99;  419,181;64968,512;-5618,471
 741,57;  429,964;64968,766;-4867,773
 742,14;  424,747;64969,020;-5349,074
 742,72;  428,530;64969,273;-4751,375
 743,29;  430,313;64969,527;-6563,677
 743,86;  432,096;64969,781;-6538,979
 744,44;  480,879;64970,031;-6113,280
 745,01;  426,662;64970,285;-5760,581
 745,58;  448,445;64970,539;-6259,882
 746,16;  381,228;64970,793;-6188,184
 746,73;  386,011;64971,047;-6479,485
 747,30;  399,794;61139,301;-6536,787
 747,88;  448,578;59621,555;-5621,088
 748,45;  425,361;64971,809;-5668,390
 749,02;  538,144;64972,063;-6384,691
 749,60;  513,927;62401,313;-6212,992
 750,17;  602,710;61766,566;-5269,294
 750,74;  577,493;62801,820;-6479,595
 751,31;  611,276;63306,074;-6347,896
 751,89;  532,059;64232,328;-6546,198
 752,46;  549,842;64973,582;-6282,500
 753,03;  539,625;64973,836;-6160,801
 753,61;  489,408;63755,090;-4858,102
 754,18;  466,191;64573,344;-6434,404
 754,75;  397,974;63888,598;-5191,705
 755,32;  426,757;60715,848;-6332,006
 755,90;  397,540;64975,102;-6493,308
 756,47;  444,323;64975,355;-4809,609
 757,04;  391,106;64975,609;-6457,911
 757,61;  422,890;64975,863;-5553,212
 758,19;  454,673;64976,117;-5253,514
 758,76;  356,456;64976,371;-6603,815
 759,33;  351,239;64976,625;-6664,116
 759,90;  355,022;64976,879;-5714,417
 760,48;  338,805;64977,133;-6778,719
 761,05;  314,588;64977,383;-6083,021
 761,62;  325,371;62082,637;-4888,322
 762,19;  304,154;58992,891;-6144,624
 762,77;  291,937;61730,145;-5963,925
 763,34;  273,720;64978,398;-6610,226
 763,91;  287,503;64978,652;-5818,527
 764,48;  275,286;64978,906;-6756,829
 765,05;  272,069;64979,160;-6543,130
 765,63;  311,852;63215,414;-6417,432
 766,20;  330,635;59753,668;-6004,733
 766,77;  321,418;57105,918;-5921,035
 767,34;  295,202;58807,172;-6640,336
 767,91;  245,985;59176,426;-6689,637
 768,49;  291,768;61368,680;-6772,939
 769,06;  252,551;64980,934;-5832,240
 769,63;  292,334;62272,188;-6636,542
 770,20;  257,117;59567,441;-5868,843
 770,77;  229,900;57921,695;-5645,145
 771,34;  176,683;60065,949;-6615,446
 771,91;  217,466;60549,203;-6102,747
 772,49;  221,249;58558,453;-6369,048
 773,06;  243,032;57687,707;-6203,350
 773,63;  245,815;60204,961;-6639,651
 774,20;  272,598;58197,215;-5918,953
 774,77;  267,381;56475,469;-6631,254
 775,34;  203,164;56707,723;-6214,556
 775,91;  315,947;57056,977;-6417,857
 776,49;  304,730;58787,230;-6590,158
 777,06;  388,514;60761,484;-6015,460
 777,63;  351,297;64224,738;-6367,761
 778,20;  221,080;62572,988;-6250,063
 778,77;  243,863;63316,242;-5763,364
 779,34;  205,646;64985,496;-6585,666
 779,91;  195,429;64985,750;-6534,967
 780,48;  167,212;59144,004;-5853,268
 781,05;  159,995;50716,258;-6586,570
 781,62;  224,778;52124,512;-6604,871
 782,20;  249,561;58813,766;-6500,172
 782,77;  256,344;64987,020;-6529,474
 783,34;  260,127;64052,273;-6522,775
 783,91;  216,910;61362,523;-6509,077
 784,48;  174,693;60480,777;-2126,378
 785,05;  181,476;59144,031;-6540,680
 785,62;  172,259;58221,285;-6452,981
 786,19;  216,042;58149,539;-5100,282
 786,76;  196,826;55130,793;-6677,583
 787,33;  187,609;56202,047;-6515,885
 787,90;  210,392;59491,301;-6591,187
 788,47;  192,175;60148,555;-5075,488
 789,04;  237,958;58988,809;-5763,790
 789,61;  153,741;58863,059;-5066,091
 790,18;  179,524;55747,313;-6561,392
 790,75;  196,307;50841,566;-6671,693
 791,32;  215,090;52056,820;-6577,995
 791,89;  167,873;55205,074;-6068,296
 792,46;  199,656;60806,328;-5763,598
 793,03;  230,439;62404,582;-6702,899
 793,60;  273,222;55699,836;-6440,201
 794,17;  292,005;52257,090;-5569,502
 794,74;  300,788;47273,344;-5886,803
 795,31;  208,571;50096,594;-6099,105
 795,88;  197,354;52579,848;-5572,406
 796,45;  177,138;53365,102;-6529,708
 797,02;  123,921;56004,355;-5046,009
 797,59;  126,704;57922,609;-6675,311
 798,16;  140,487;54563,863;-5861,612
 798,73;  130,270;53534,117;-6761,913
 799,30;  168,053;55088,371;-6611,214
 799,87;  151,836;55650,625;-6713,516
 800,44;  160,619;55353,875;-6729,817
 801,01;  159,402;56836,129;-6807,119
 801,58;  220,185;58477,383;-6537,420
 802,15;  206,968;52086,637;-6658,722
 802,72;  126,751;48849,891;-6694,023
 803,28;  181,534;52000,145;-6076,324
 803,85;  136,317;57179,398;-6728,626
 804,42;  199,100;55235,652;-5999,927
 804,99;  149,883;53752,906;-6539,229
 805,56;   97,667;52472,160;-6770,530
 806,13;  135,450;53387,410;-6075,832
 806,70;  128,233;52719,664;-6748,133
 807,27;  156,016;54477,918;-6672,434
 807,84;  116,799;52786,172;-6693,736
 808,41;  186,582;49728,426;-6022,037
 808,98;  187,365;50479,680;-5986,338
 809,54;  132,148;52469,934;-4958,640
 810,11;  109,931;48281,188;-6782,941
 810,68;   95,714;43021,441;-6680,243
 811,25;  120,497;41394,695;-6760,544
 811,82;  113,280;40374,945;-6886,846
 812,39;  111,063;37710,199;-3331,147
 812,96;  145,846;38779,453;-6767,448
 813,52;  114,629;41291,707;-6937,750
 814,09;  111,412;44522,961;-6766,051
 814,66;  111,195;50325,215;-6827,353
 815,23;  145,979;51240,469;-6669,654
 815,80;  115,762;50439,723;-5853,956
 816,37;  143,545;50917,977;-6801,257
 816,93;  106,328;49487,230;-6731,558
 817,50;  140,111;46790,480;-6102,859
 818,07;  126,894;46034,734;-6960,161
 818,64;  139,677;46919,988;-6856,462
 819,21;  139,460;46261,242;-6053,764
 819,77;  219,243;42742,496;-6571,065
 820,34;  186,026;42053,750;-6677,367
 820,91;  268,809;43276,004;-6469,668
 821,48;  239,592;43873,258;-6689,969
 822,05;  275,375;45571,512;-5875,271
 822,61;  223,158;44296,766;-5631,572
 823,18;  177,941;41860,016;-6620,874
 823,75;  151,724;42585,270;-6957,175
 824,32;  182,507;45286,523;-6923,477
 824,88;  174,291;45073,777;-6882,778
 825,45;  112,074;44018,031;-6899,079
 826,02;  139,857;43798,285;-6643,380
 826,59;  134,640;43974,539;-6639,682
 827,15;  171,423;46077,793;-6906,983
 827,72;  133,206;49519,047;-6723,285
 828,29;   95,989;51523,301;-6895,586
 828,86;  111,772;48827,551;-6791,888
 829,42;  105,555;40797,805;-6812,189
 829,99;   77,338;36802,059;-6647,490
 830,56;   92,121;36252,313;-6869,792
 831,13;  101,904;37220,566;-6060,093
 831,69;  155,687;38022,820;-6506,395
 832,26;  156,470;38832,074;-5062,696
 832,83;  156,253;40408,328;-5452,998
 833,39;  125,036;40187,582;-6904,299
 833,96;  113,819;39167,836;-6687,600
 834,53;   52,603;40039,086;-6928,902
 835,10;  115,386;39930,340;-6529,203
 835,66;   65,169;38972,594;-6920,504
 836,23;   78,952;39801,848;-6803,806
 836,80;   61,735;39428,102;-6790,107
 837,36;   56,518;37086,355;-6810,409
 837,93;  112,301;34475,609;-6902,710
 838,50;  135,084;35084,863;-6789,012
 839,06;   89,867;37684,117;-6288,313
 839,63;   80,650;37191,371;-6895,614
 840,19;   62,433;35132,621;-6607,916
 840,76;   74,216;35364,875;-6404,217
 841,33;   80,999;35892,129;-6509,519
 841,89;  112,782;36779,383;-6949,820
 842,46;   61,565;37103,637;-6751,122
 843,03;  118,348;35389,891;-6089,423
 843,59;   42,131;34224,145;-6403,724
 844,16;  115,915;34994,398;-6181,025
 844,73;  103,698;34249,652;-6067,327
 845,29;  113,481;32937,902;-5695,628
 845,86;  116,264;35699,156;-6800,930
 846,42;   36,047;36940,410;-7004,231
 846,99;   68,830;36477,664;-6967,533
 847,56;   48,613;36265,918;-5840,834
 848,12;   41,396;36240,172;-6745,135
 848,69;   88,179;35710,426;-6715,437
 849,25;   69,962;34401,680;-6845,738
 849,82;   76,745;34081,934;-3247,040
 850,38;   54,528;35064,188;-6840,341
 850,95;   70,311;32489,439;-6324,643
 851,52;    6,094;32520,693;-6565,944
 852,08;   42,877;32548,947;-6691,245
 852,65;   39,660;30323,199;-7005,546
 853,21;   50,443;27698,453;-6958,848
 853,78;   48,227;27362,707;-6363,149
 854,34;   46,010;28860,961;-6871,451
 854,91;   18,793;29081,215;-5086,752
 855,47;   88,576;29942,467;-5108,054
 856,04;  100,359;32027,721;-6746,355
 856,60;   49,142;33961,973;-6104,656
 857,17;   79,925;34979,227;-6840,958
 857,73;   17,708;33553,480;-6811,259
 858,30;   52,491;32532,734;-6985,561
 858,86;   28,274;31110,988;-5926,862
 859,43;   57,057;31430,242;-6226,164
 859,99;   53,840;32011,496;-6852,465
 860,56;   22,623;33126,750;-6903,766
 861,12;    8,406;35190,004;-6737,068
 861,69;   34,189;33669,258;-5924,369
 862,25;   47,972;34731,508;-6821,670
 862,82;   76,755;34419,762;-5972,972
 863,38;   66,539;31196,018;-6843,273
 863,95;   29,322;29305,270;-6239,575
 864,51;   76,105;30403,523;-5287,876
 865,08;   44,888;29284,777;-6090,178
 865,64;   35,671;26795,031;-7018,479
 866,21;   60,454;26131,285;-6745,780
 866,77;   93,237;26051,537;-5552,082
 867,34;   81,020;25734,791;-6672,383
 867,90;   92,803;24632,045;-6303,685
 868,46;  134,586;23835,299;-6041,986
 869,03;   28,369;24389,551;-6929,288
 869,59;   69,152;26353,805;-6884,589
 870,16;   26,935;27647,059;-6052,890
 870,72;   36,718;30060,313;-6657,191
 871,28;   73,501;32915,566;-5992,493
 871,85;   96,284;33142,820;-6907,794
 872,41;   42,067;31569,072;-6004,096
 872,98;   28,851;32738,326;-6050,397
 873,54;   27,634;33876,578;-5920,699
 874,10;   94,417;32768,832;-5876,000
 874,67;    5,417;32987,832;-6904,000
 875,23;   56,417;31068,834;-7032,000
 875,80;   76,417;28009,834;-6641,000
 876,36;  -22,583;25058,834;-6642,000
 876,92;   63,417;22832,834;-6189,000
 877,49;    4,417;23923,834;-6517,000
 878,05;   26,417;24896,834;-6797,000
 878,61;   62,417;26938,834;-6812,000
 879,18;   24,417;27553,834;-6252,000
 879,74;   25,417;28076,834;-6720,000
 880,30;   16,417;28679,834;-5926,000
 880,87;   13,417;28852,834;-6326,000
 881,43;   79,417;29533,834;-6871,000
 881,99;   66,417;27306,834;-6879,000
 882,56;   30,417;27610,834;-6661,000
 883,12;   18,417;29049,834;-5740,000
 883,68;  -27,583;29120,834;-6518,000
 884,25;   45,417;28300,834;-6949,000
 884,81;   29,417;26343,834;-6701,000
 885,37;   19,417;24221,834;-6786,000
 885,94;   19,417;22940,834;-6851,000
 886,50;   36,417;23098,834;-6886,000
 887,06;   54,417;24358,834;-6796,000
 887,62;   12,417;25019,834;-6866,000
 888,19;  -18,583;25774,834;-5986,000
 888,75;   35,417;26542,834;-6821,000
 889,31;   24,417;29043,834;-6778,000
 889,87;   55,417;30537,834;-6723,000
 890,44;   32,417;30349,834;-6696,000
 891,00;   34,417;28757,834;-6786,000
 891,56;    7,417;26457,834;-6998,000
 892,12;   68,417;24463,834;-6754,000
 892,69;   37,417;25310,834;-6373,000
 893,25;   30,417;28798,834;-6877,000
 893,81;   69,417;31774,834;-6696,000
 894,37;  133,417;31330,834;-6342,000
 894,94;   72,417;28713,834;-6772,000
 895,50;   38,417;26035,834; -212,000
 896,06;   49,417;24749,834;-6810,000
 896,62;   88,417;23405,834;-6707,000
 897,18;  112,417;24661,834;-6518,000
 897,75;   96,417;27406,834;-6895,000
 898,31;  109,417;27887,834;-6849,000
 898,87;   74,417;26274,834;-6860,000
 899,43;   74,417;25164,834;-6469,000
 899,99;  128,417;26592,834;-6866,000
 900,56;  118,417;25515,834;-6791,000
 901,12;   90,417;24875,834;-6890,000
 901,68;  127,417;27903,834;-6267,000
 902,24;  133,417;31800,834;-5930,000
 902,80;   92,417;32652,834;-6794,000
 903,36;  221,417;31893,834;-6691,000
 903,93;  279,417;32139,834;-6646,000
 904,49;  619,417;32761,834;-6913,000
 905,05; 1736,417;30952,834;-6732,000
 905,61; 4434,417;28208,834;-6832,000
 906,17; 8250,417;28086,834;-6901,000
 906,73;12591,417;25975,834;-5380,000
 907,29;16837,416;24960,834;-6910,000
 907,86;19524,416;25118,834;-6827,000
 908,42;19711,416;28092,834;-6795,000
 908,98;16787,416;31123,834;-5908,000
 909,54;10577,417;38813,832;-6885,000
 910,10; 4138,417;48220,832;-6634,000
 910,66; 1290,417;57581,832;-6781,000
 911,22;  461,417;65027,832;-6761,000
 911,78;  209,417;62593,832;-6841,000
 912,34;  138,417;53256,832;-6080,000
 912,90;  155,417;44610,832;-5232,000
 913,46;   99,417;37052,832;-6876,000
 914,03;   68,417;30620,834;-5746,000
 914,59;   84,417;27452,834;-6682,000
 915,15;   69,417;24908,834;-6891,000
 915,71;   61,417;24217,834;-6863,000
 916,27;   -6,583;23800,834;-6723,000
 916,83;   52,417;23006,834;-5824,000
 917,39;   66,417;21742,834;-3512,000
 917,95;   66,417;20224,834;-6009,000
 918,51;   54,417;19972,834;-6583,000
 919,07;   72,417;21780,834;-6791,000
 919,63;  -31,583;23295,834;-6661,000
 920,19;    9,417;23935,834;-6865,000
 920,75;   15,417;23112,834;-6640,000
 921,31;   17,417;21484,834;-4837,000
 921,87;    2,417;20216,834;-6845,000
 922,43;   18,417;18019,834;-5626,000
 922,99;   58,417;17321,834;-6706,000
 923,55;   55,417;18674,834;-6655,000
 924,11;   40,417;19094,834;-6976,000
 924,67;   -0,583;19310,834;-6962,000
 925,23;   13,417;19485,834;-6778,000
 925,79;   45,417;20122,834;-6710,000
 926,35;   93,417;20219,834;-6573,000
 926,91;  -11,583;19401,834;-6909,000
 927,47;   17,417;19367,834;-6660,000
 928,03;   66,417;20294,834;-6786,000
 928,59;   38,417;20503,834;-6678,000
 929,15;   46,417;20781,834;-6792,000
 929,71;   40,417;22016,834;-6840,000
 930,27;   56,417;23587,834;-6537,000
 930,82;   65,417;25573,834;-6728,000
 931,38;    1,417;24317,834;-5852,000
 931,94;   25,417;22672,834;-6843,000
 932,50;   36,417;21252,834;-6481,000
 933,06;   44,417;20895,834;-6768,000
 933,62;   38,417;21092,834;-6443,000
 934,18;   -7,583;20632,834;-6727,000
 934,74;   -1,583;21320,834;-6709,000
 935,30;   24,417;22030,834;-6484,000
 935,86;   38,417;21213,834;-6505,000
 936,42;   33,417;20702,834;-6873,000
 936,97;    6,417;21656,834;-6563,000
 937,53;  -18,583;20552,834;-6826,000
 938,09;   38,417;21087,834;  123,000
 938,65;   25,417;21186,834;-6268,000
 939,21;  -17,583;20179,834;-6708,000
 939,77;   23,417;18946,834;-6213,000
 940,33;   28,417;18602,834;-6748,000
 940,88;   21,417;19429,834;-5908,000
 941,44;   68,417;21301,834;-6983,000
 942,00;    1,417;23225,834;-6697,000
 942,56;   45,417;24231,834;-6604,000
 943,12;   12,417;23427,834;-5907,000
 943,68;   30,417;22950,834;-5679,000
 944,23;   26,417;23124,834;-6749,000
 944,79;   10,417;22674,834;-6102,000
 945,35;   -1,583;20741,834;-6599,000
 945,91;   32,417;19519,834;-6767,000
 946,47;   11,417;19827,834;-3353,000
 947,03;   17,417;19896,834;-6850,000
 947,58;    9,417;19661,834;-6840,000
 948,14;   21,417;20790,834;-5897,000
 948,70;    8,417;19573,834;-5855,000
 949,26;   41,417;18881,834;-6616,000
 949,81;   28,417;18342,834;-6644,000
 950,37;   20,417;18686,834;-6695,000
 950,93;   -7,583;17993,834;-6224,000
 951,49;    4,417;17568,834;-6057,000
 952,05;   -5,583;17926,834;-6571,000
 952,60;   10,417;17299,834;-6951,000
 953,16;   16,417;16933,834;-5783,000
 953,72;  -23,583;15628,833;-5813,000
 954,27;  -25,583;15524,833;-6566,000
 954,83;  -24,583;15317,833;-6703,000
 955,39;  -32,583;14917,833;-6691,000
 955,95;   -7,583;14456,833;-6849,000
 956,50;   16,417;14272,833;-6698,000
 957,06;   13,417;14126,833;-5922,000
 957,62;   -8,583;13780,833;-6559,000
 958,18;    5,417;13872,833;-6741,000
 958,73;   10,417;13326,833;-6820,000
 959,29;    4,417;13518,833;-6106,000
 959,85;    2,417;14785,833;-6864,000
 960,40;   13,417;16746,834;-4263,000
 960,96;   14,417;16386,834;-6738,000
 961,52;  -24,583;14755,833;-6643,000
 962,07;   34,417;13711,833;-6742,000
 962,63;    3,417;13208,833;-6723,000
 963,19;  -33,583;13435,833;-5779,000
 963,74;   47,417;13877,833;-6582,000
 964,30;  -26,583;14475,833;-6595,000
 964,86;   17,417;14281,833;-6484,000
 965,41;   15,417;14290,833;-6705,000
 965,97;   17,417;14185,833;-6569,000
 966,53;   15,417;14792,833;-6750,000
 967,08;   36,417;15311,833;-6611,000
 967,64;   36,417;15082,833;-6705,000
 968,19;   -6,583;14471,833;-6684,000
 968,75;   20,417;14662,833;-6566,000
 969,31;   17,417;14880,833;-5626,000
 969,86;    8,417;14995,833;-6505,000
 970,42;   22,417;13195,833;-6620,000
 970,97;  -31,583;11567,833;-6437,000
 971,53;  -19,583;11625,833;-6490,000
 972,09;  -47,583;12998,833;-6646,000
 972,64;    8,417;13523,833;-5812,000
 973,20;   17,417;13815,833;-6599,000
 973,75;    2,417;14605,833;-5760,000
 974,31;   36,417;14826,833;-6578,000
 974,87;   30,417;14921,833;-6674,000
 975,42;  -21,583;14507,833;-6727,000
 975,98;   -5,583;13201,833;-6651,000
 976,53;   17,417;12100,833;-6555,000
 977,09;  -15,583;11353,833;-4624,000
 977,64;   -8,583;11164,833;-6532,000
 978,20;   15,417;10649,833;-6585,000
 978,75;   25,417;10482,833;-6429,000
 979,31;  -19,583;10950,833;-6513,000
 979,86;   38,417;12220,833;-6739,000
 980,42;   -2,583;12828,833;-5813,000
 980,97;  -12,583;13290,833;-6642,000
 981,53;   30,417;14285,833;-6636,000
 982,08;   30,417;13803,833;-5046,000
 982,64;   49,417;12278,833;-6237,000
 983,19;    2,417;11308,833;-6760,000
 983,75;    3,417;10993,833;-6576,000
 984,30;    1,417;10430,833;-5581,000
 984,86;   -4,583; 9867,833;-5898,000
 985,41;    6,417; 9457,833;-6634,000
 985,97;   29,417; 9632,833;-4797,000
 986,52;   31,417; 9894,833;-5853,000
 987,08;   36,417; 9953,833;-6174,000
 987,63;  -20,583;10165,833;-5608,000
 988,19;   13,417;11252,833;-6266,000
 988,74;  -23,583;11710,833;-5682,000
 989,30;   -6,583;11529,833;-6568,000
 989,85;   50,417;11470,833; -276,000
 990,40;   -2,583;11314,833;-6617,000
 990,96;   30,417;11060,833;-6482,000
 991,51;   28,417;11149,833;-6578,000
 992,07;  -17,583;10742,833;-6605,000
 992,62;   15,417;10285,833;-6519,000
 993,18;   12,417;10035,833;-6504,000
 993,73;   39,417; 9986,833;-6440,000
 994,28;   12,417; 9800,833;-6464,000
 994,84;   29,417; 9019,833;-6240,000
 995,39;   43,417; 8474,833;-2971,000
 995,94;   58,417; 7953,833;-5673,000
 996,50;   15,417; 7647,833;-6543,000
 997,05;   38,417; 7872,833;-3481,000
 997,61;   50,417; 8363,833;-6489,000
 998,16;    3,417; 8581,833;-6555,000
 998,71;   15,417; 8850,833;-6340,000
 999,27;  -10,583; 9115,833;-5223,000
 999,82;   -2,583; 8706,833;-4778,000
1000,37;   -2,583; 8661,833;-6520,000
1000,93;   35,417; 8920,833;-6107,000
1001,48;   13,417; 8799,833;-6543,000
1002,03;    4,417; 8477,833;-6469,000
1002,59;   18,417; 8715,833;-5972,000
1003,14;   32,417; 8758,833;-6113,000
1003,69;   29,417; 8484,833;-6513,000
1004,25;    8,417; 8299,833;-6507,000
1004,80;   10,417; 8322,833;-6266,000
1005,35;   27,417; 8313,833;-6361,000
1005,91;   30,417; 8515,833;-6558,000
1006,46;   -7,583; 8426,833;-6084,000
1007,01;   74,417; 8227,833;-5479,000
1007,56;   43,417; 8599,833;-6440,000
1008,12;    5,417; 8342,833;-6178,000
1008,67;   41,417; 7867,833;-6312,000
1009,22;    6,417; 7509,833;-6481,000
1009,78;   23,417; 7205,833;-6163,000
1010,33;   35,417; 6649,833;-6443,000
1010,88;   26,417; 6413,833;-5618,000
1011,43;   12,417; 5995,833;-6433,000
1011,99;   29,417; 5972,833;-6198,000
1012,54;   41,417; 6320,833;-6387,000
1013,09;   61,417; 6048,833;-6299,000
1013,64;   27,417; 5802,833;-6362,000
1014,19;   22,417; 5823,833;-6442,000
1014,75;   26,417; 5928,833;-6408,000
1015,30;   34,417; 6394,833;-6425,000
1015,85;   38,417; 6370,833;-6367,000
1016,40;   21,417; 6247,833;-5436,000
1016,96;   77,417; 6235,833;-6268,000
1017,51;   81,417; 6150,833;-6351,000
1018,06;   33,417; 6095,833;-6310,000
1018,61;   33,417; 5695,833;-6665,000
1019,16;   54,417; 5609,833;-6697,000
1019,71;  118,417; 5663,833;-6373,000
1020,27;   74,417; 5567,833;-6353,000
1020,82;   84,417; 5375,833;-3700,000
1021,37;   98,417; 5405,833;-4798,000
1021,92;   69,417; 5984,833;-6454,000
1022,47;   73,417; 5965,833;-6548,000
1023,02;  103,417; 5463,833;-6512,000
1023,58;   92,417; 5045,833;-6573,000
1024,13;  157,417; 4730,833;-6258,000
1024,68;   80,417; 4434,833;-6298,000
1025,23;  114,417; 4324,833;-5525,000
1025,78;  113,417; 4613,833;-6475,000
1026,33;  116,417; 4932,833;-5510,000
1026,88;  140,417; 4843,833;-6236,000
1027,43;  122,417; 5167,833;-6276,000
1027,99;  187,417; 5134,833;-6002,000
1028,54;  228,417; 4732,833;-6395,000
1029,09;  216,417; 4106,833;-2478,000
1029,64;  268,417; 3919,833;-6303,000
1030,19;  355,417; 4147,833;-3821,000
1030,74;  395,417; 4243,833;-5134,000
1031,29;  500,417; 4284,833;-4765,000
1031,84;  612,417; 4491,833;-6300,000
1032,39;  628,417; 4563,833;-5403,000
1032,94;  769,417; 4617,833;-4326,000
1033,49;  915,417; 4361,833;-5476,000
1034,04; 1016,417; 4236,833;-6312,000
1034,59; 1158,417; 4205,833;-6507,000
1035,14; 1210,417; 4117,833;-6145,000
1035,69; 1338,417; 4318,833;-6224,000
1036,24; 1371,417; 4104,833;-4477,000
1036,80; 1464,417; 3986,833;-5453,000
1037,35; 1613,417; 4138,833;-6347,000
1037,90; 1783,417; 4172,833;-6274,000
1038,45; 1811,417; 4201,833;-6419,000
1039,00; 1857,417; 4340,833;-5490,000
1039,55; 2008,417; 4229,833;-6284,000
1040,10; 2164,417; 3977,833;-5615,000
1040,65; 2179,417; 3916,833;-5576,000
1041,20; 2245,417; 3850,833;-6325,000
1041,75; 2440,417; 4030,833;-4522,000
1042,30; 2504,417; 4164,833;-3585,000
1042,84; 2752,417; 4338,833;-4439,000
1043,39; 2919,417; 4248,833;-6313,000
1043,94; 3032,417; 4175,833;-5342,000
1044,49; 3392,417; 3887,833;-6246,000
1045,04; 3634,417; 3710,833;-5800,000
1045,59; 3948,417; 3809,833;-6299,000
1046,14; 4467,417; 3732,833;-6392,000
1046,69; 5008,417; 3591,833;-6294,000
1047,24; 5406,417; 3623,833;-5510,000
1047,79; 6281,417; 3737,833;-6139,000
1048,34; 6986,417; 4002,833;-5961,000
1048,89; 7977,417; 3948,833;-6259,000
1049,44; 8888,417; 3935,833;-5172,000
1049,99;10535,417; 3855,833;-4844,000
1050,54;12316,417; 3876,833;-6249,000
1051,08;15007,417; 3961,833;-6178,000
1051,63;19016,416; 4050,833;-5285,000
1052,18;25324,416; 5051,833;-6127,000
1052,73;35581,418; 7151,833;-6173,000
1053,28;50866,418;10516,833;-6386,000
1053,83;65159,418;15224,833;-6214,000
1054,38;65159,418;19203,834;-6254,000
1054,93;65159,418;21243,834;-6285,000
1055,47;65159,418;23825,834;-5328,000
1056,02;65159,418;26212,834;-5832,000
1056,57;65159,418;27830,834;-6198,000
1057,12;65159,418;30497,834;-6378,000
1057,67;65159,418;33805,832;-6078,000
1058,22;65159,418;36084,832;-6313,000
1058,76;65159,418;38542,832;-6093,000
1059,31;65159,418;44129,832;-3514,000
1059,86;65159,418;48778,832;-6204,000
1060,41;65159,418;49718,832;-6152,000
1060,96;65159,418;51396,832;-6226,000
1061,51;65159,418;53649,832;-5344,000
1062,05;65159,418;54082,832;-6122,000
1062,60;65159,418;50555,832;-6061,000
1063,15;65159,418;45221,832;-6149,000
1063,70;65159,418;41550,832;-6250,000
1064,24;65159,418;43676,832;-6169,000
1064,79;65159,418;45461,832;-6144,000
1065,34;65159,418;43989,832;-6064,000
1065,89;65159,418;41776,832;-6202,000
1066,44;65159,418;37631,832;-6120,000
1066,98;65159,418;32612,834;-6224,000
1067,53;65159,418;30790,834;-5953,000
1068,08;65159,418;30368,834;-4845,000
1068,63;65159,418;27618,834;-6096,000
1069,17;65159,418;24647,834;-5893,000
1069,72;65159,418;22350,834;-5857,000
1070,27;65159,418;20529,834;-6040,000
1070,81;65159,418;20388,834;-5996,000
1071,36;65159,418;20367,834;-3883,000
1071,91;65159,418;18745,834;  966,000
1072,46;65159,418;16791,834;-5058,000
1073,00;65159,418;14646,833;-5239,000
1073,55;65159,418;11404,833;-5935,000
1074,10;65159,418; 7803,833;-5981,000
1074,64;48113,418; 5240,833;-5860,000
1075,19;34565,418; 3535,833;-4958,000
1075,74;26081,416; 2551,833;-6091,000
1076,28;20822,416; 2312,833;-6075,000
1076,83;17570,416; 1951,833;-5286,000
1077,38;15094,417; 1820,833;-5653,000
1077,92;12968,417; 1783,833;-6332,000
1078,47;11088,417; 1629,833;-5507,000
1079,02; 9553,417; 1578,833;-5959,000
1079,56; 8535,417; 1557,833;-5328,000
1080,11; 7337,417; 1304,833;-6094,000
1080,65; 6438,417; 1241,833;-5039,000
1081,20; 5618,417; 1186,833;-6151,000
1081,75; 4828,417; 1125,833;-6039,000
1082,29; 4189,417; 1128,833; -139,000
1082,84; 3610,417; 1184,833;-2678,000
1083,39; 3361,417; 1294,833;-5061,000
1083,93; 3189,417; 1335,833;-5025,000
1084,48; 2784,417; 1196,833;-5961,000
1085,02; 2444,417; 1082,833;-5783,000
1085,57; 2277,417; 1074,833;-5994,000
1086,11; 2108,417; 1079,833;-5968,000
1086,66; 1972,417;  925,833;-5584,000
1087,21; 1794,417; 1060,833;-5802,000
1087,75; 1718,417;  939,833;-6125,000
1088,30; 1624,417;  815,833;-5040,000
1088,84; 1484,417;  783,833;-5963,000
1089,39; 1308,417;  656,833;-5965,000
1089,93; 1181,417;  664,833;-6100,000
1090,48;  969,417;  649,833;-4394,000
1091,02;  832,417;  733,833;-5181,000
1091,57;  792,417;  629,833;-5479,000
1092,11;  766,417;  642,833;-4094,000
1092,66;  708,417;  624,833;-6031,000
1093,20;  610,417;  580,833;-5180,000
1093,75;  590,417;  566,833;-4998,000
1094,29;  528,417;  486,833;-4979,000
1094,84;  559,417;  525,833;-5890,000
1095,38;  494,417;  528,833;-5097,000
1095,93;  475,417;  584,833;-5981,000
1096,47;  409,417;  615,833;-5612,000
1097,02;  390,417;  587,833;-4985,000
1097,56;  359,417;  614,833;-5772,000
1098,11;  331,417;  552,833;-5774,000
1098,65;  339,417;  508,833;-5992,000
1099,20;  280,417;  577,833;-5935,000
1099,74;  245,417;  487,833;-6002,000
1100,29;  251,417;  513,833;-4879,000
1100,83;  205,417;  496,833;-5934,000

