
Integration time [ms]:   1,000
Averaging Nr. [scans]: 1
Smoothing Nr. [pixels]: 0
Data measured with spectrometer [name]: 1703254U1
Wave   ;Sample   ;Dark     ;Reference;Scope
[nm]   ;[counts] ;[counts] ;[counts] 

 190,08;  -70,556; -370,119;11982,743
 190,69;  -51,992; -359,404;11603,049
 191,29;  -53,521; -311,651;11479,965
 191,90;  -63,239; -365,508;11440,717
 192,50;  -61,492; -379,511;10355,099
 193,10;  -40,745; -446,299;11244,381
 193,71;  -60,291; -367,888; 9821,736
 194,31;  -54,722; -399,273; 9436,327
 194,91;  -54,722; -382,273; 9291,327
 195,52;  -61,601; -338,386;10555,949
 196,12;  -37,469; -397,056; 8671,847
 196,72;  -57,233; -386,394; 8220,904
 197,32;  -60,291; -375,888; 8251,736
 197,93;  -43,256; -360,420; 8700,957
 198,53;  -56,578; -383,145; 7601,797
 199,13;  -63,567; -397,132; 8091,270
 199,74;  -48,498; -366,410; 7263,813
 200,34;  -44,785; -388,667; 7832,874
 200,94;  -42,273; -436,547; 6941,297
 201,55;  -51,992; -406,404; 7119,049
 202,15;  -55,159; -375,773; 6404,732
 202,75;  -85,297; -373,217; 6097,647
 203,36;  -46,532; -338,664; 6822,492
 203,96;  -97,746; -357,943; 6332,678
 204,56;  -50,026; -355,657;10275,729
 205,16;  -57,561; -363,018; 5478,458
 205,77;  -70,446; -360,244; 4767,892
 206,37;  -58,435; -409,017; 5556,267
 206,97;  -62,147; -363,760; 5129,205
 207,58;  -45,222; -364,166; 5927,278
 208,18;  -65,314; -337,129; 5129,889
 208,78;  -62,693; -404,134; 5295,461
 209,38;  -45,877; -469,415; 4958,385
 209,99;  -45,768; -356,540; 3837,534
 210,59;  -47,406; -361,662; 3890,301
 211,19;  -46,641; -364,538; 3938,343
 211,79;  -39,325; -366,927; 4499,316
 212,40;  -67,498; -373,625; 3368,911
 213,00;  -58,544; -388,891; 3903,118
 213,60;  -63,785; -386,882; 2992,972
 214,20;  -78,309; -401,230; 3081,175
 214,81;  -70,992; -422,618; 2884,148
 215,41;  -78,527; -376,979; 3235,877
 216,01;  -98,510; -373,067; 3109,636
 216,61;  -54,613; -367,399; 2814,476
 217,22;  -93,924; -381,326; 2358,888
 217,82; -108,884; -325,173; 2262,495
 218,42;  -88,355; -383,711; 2389,480
 219,02;  -93,050; -288,327; 3432,079
 219,63;  -76,343; -357,483; 2044,854
 220,23;  -79,728; -366,602; 2425,239
 220,83;  -77,872; -395,730; 1901,770
 221,43;  -96,654; -393,195; 1850,167
 222,03;  -99,493; -348,940; 2326,296
 222,64;  -81,694; -380,348; 1769,560
 223,24;  -85,516; -298,966; 1625,350
 223,84; -100,913; -376,313; 2637,361
 224,44;  -97,091; -316,695; 2381,571
 225,05;  -93,378; -313,952; 1440,632
 225,65;  -99,384; -301,065; 1227,445
 226,25;  -88,136; -364,961; 1139,777
 226,85; -102,660; -294,309;  995,979
 227,45;  -90,976; -335,706; 1083,907
 228,06;  -89,119; -365,834; 1945,438
 228,66;  -88,573; -349,460; 4049,182
 229,26;  -91,803; -313,438; 1131,510
 229,86;  -85,188; -396,342; 1760,797
 230,46;  -97,528; -358,194;  891,976
 231,06;  -97,309; -320,444;  757,273
 231,67;  -76,998; -346,732; 1228,961
 232,27; -113,580; -343,789;  778,094
 232,87; -103,097; -308,808;  526,384
 233,47; -116,746; -321,158;  525,777
 234,07;  -72,596; -268,486; 9912,235
 234,67; -127,338; -291,013;  672,338
 235,28; -116,746; -319,158;   65,777
 235,88; -130,942; -316,882;  285,426
 236,48;  -96,108; -350,821;  165,911
 237,08; -111,068; -267,669;  448,518
 237,68; -133,126; -369,378; -267,552
 238,28; -121,442; -304,774; -106,624
 238,89; -123,051; -212,756; -205,723
 239,49; -122,097; -282,023; 1280,483
 240,09; -137,391; -284,608; -190,544
 240,69; -135,747; -251,373; -319,124
 241,29; -119,425; -289,647;  651,036
 241,89; -122,861; -330,147; -260,559
 242,49; -105,005; -248,490; -358,930
 243,10; -115,511; -201,496; 3664,834
 243,70; -140,005; -284,490;  239,070
 244,30; -122,890; -275,501; -708,594
 244,90; -135,368; -188,582; -568,598
 245,50; -110,356; -177,355; 3274,777
 246,10; -128,540; -307,636; -831,300
 246,70; -135,201; -300,999;   17,620
 247,30; -118,919; -251,641;  326,273
 247,91; -134,580; -208,218; 5781,292
 248,51;  -87,339; -270,228; -806,563
 249,11; -101,902; -239,514;  417,933
 249,71;  -89,959; -303,008; -667,235
 250,31;  -98,500; -265,483; -567,693
 250,91;  -58,764; -238,500;   75,216
 251,51;  -71,086; -199,225; -822,945
 252,11;  -73,632; -239,813;  367,410
 252,71; -138,586; -269,117;-1080,994
 253,31; -110,850; -222,348; 3228,013
 253,91;  -91,989; -236,578; -676,170
 254,52;  -98,345; -237,342;-1063,750
 255,12; -122,500; -293,483;-1104,693
 255,72;   -8,241; -206,366;  557,112
 256,32; -136,161; -242,061; -966,674
 256,92;  -57,920; -190,070;-1147,529
 257,52;  -41,304; -173,974; -883,243
 258,12; -119,184; -201,087;  -91,621
 258,72; -104,380; -210,810;-1232,972
 259,32;  -41,839; -211,335;-1169,514
 259,92;  -33,460; -199,330;-1343,086
 260,52;  -30,178; -192,973;-1077,433
 261,12;  -74,035; -202,059; -662,865
 261,72;  -52,098; -238,452;-1312,319
 262,32;  -18,758; -215,600;-1561,498
 262,92; -128,075; -238,426;  405,627
 263,53;  -57,500; -189,698;-1277,594
 264,13; -134,397; -262,937; -268,632
 264,73;  -90,316; -217,202;-1694,617
 265,33;  -65,449; -188,317;-1708,613
 265,93;  -47,437; -147,304;-1345,140
 266,53;  -49,024; -161,046;-1544,392
 267,13;  -97,156; -139,161; -857,388
 267,73;  -72,903; -185,158;  270,230
 268,33; -101,035; -166,274;-1788,766
 268,93;  -93,259; -213,708;-1702,449
 269,53;  -73,351; -204,670; -644,839
 270,13;  -68,368; -201,797;-1810,499
 270,73;  -91,047; -245,287;-1891,239
 271,33;  -82,983; -200,678;-1778,884
 271,93;  -74,006; -242,919;-1867,732
 272,53;  -20,576; -121,748;    8,776
 273,13;  -35,857; -146,677;-1117,075
 273,73;  -70,955; -119,753;-1955,652
 274,33;  -56,202; -148,428;-2041,182
 274,93;  -99,989; -188,007;-1843,972
 275,53;  -77,576;  -68,748;-1881,224
 276,13;  -95,703; -121,965;-2261,935
 276,73;  -75,018; -118,361;-1570,007
 277,33;  -69,690; -179,522;-1926,659
 277,93;  -33,110; -213,680;-1864,693
 278,53;  -53,943; -194,526;-2112,278
 279,13;  -54,426; -125,506;-2152,568
 279,73;  -53,794; -140,498;-1388,522
 280,33;  -24,208; -154,756;-2179,270
 280,93;  -15,978; -105,994;-2049,499
 281,53;  -72,041; -147,387;-2252,953
 282,13;  -62,145; -127,363;-2193,816
 282,73; -113,593; -156,875; -385,885
 283,33;  -64,340; -137,872;-2307,266
 283,92;  -26,151;  -74,477;-2028,003
 284,52;  -49,110;  -94,109;-2365,496
 285,12;  -37,817; -138,524;-1425,469
 285,72;  -31,363; -126,898;-1041,213
 286,32;   -4,559;  -55,622;-1313,564
 286,92;  -12,564; -163,521;-2376,850
 287,52;   28,562;  -89,519;-2170,041
 288,12;   32,286;  -97,763;-2542,507
 288,72;   -0,317; -106,417;-1625,518
 289,32;  -34,645;  -54,470; 1692,233
 289,92;   -3,782; -106,270;-2344,148
 290,52;  -87,410;  -91,809;-2485,710
 291,12;   24,895;  -57,996;-1570,308
 291,72;  -19,151;  -74,477;-1590,003
 292,32;   66,867;  -83,135;-2372,442
 292,92;   64,309;   -2,737;-2481,560
 293,51;   56,154;  -37,093;-2532,404
 294,11;  190,005;  -42,121;-1681,160
 294,71;  232,964;   -7,488;-2695,667
 295,31;  133,803;  -24,743;-1755,797
 295,91;  227,861;   46,751;-2713,629
 296,51;  312,372;   62,656;-1776,106
 297,11;  302,320;   35,061;-2900,988
 297,71;  340,913;    4,131;-2726,648
 298,31;  548,218;   38,730;-2329,148
 298,91;  392,240;   74,756;-2483,202
 299,50;  436,706;   41,395;-2689,473
 300,10;  605,637;  145,887;-2706,114
 300,70;  456,228;   95,528;-2492,576
 301,30;  543,551;   89,253;-2855,415
 301,90;  661,171;   96,248;-2004,843
 302,50;  586,108;  163,640;-2515,198
 303,10;  516,533;  124,126;-2530,076
 303,70;  457,625;  208,660;-3000,488
 304,29;  464,039;  189,918;-2658,740
 304,89;  473,958;  266,183;-1090,755
 305,49;  595,292;  163,922;-2773,122
 306,09;  701,039;  214,133;-2874,839
 306,69;  624,723;  262,736;-2915,911
 307,29;  649,867;  312,865;-2008,442
 307,89;  627,717;  303,408;-3029,000
 308,48;  588,631;  341,774;-2453,301
 309,08;  657,447;  369,492;-2743,377
 309,68;  785,033;  377,019;-3094,026
 310,28;  695,637;  371,102;-2576,213
 310,88;  534,264;  321,211;-2936,453
 311,48;  601,079;  447,500;-2875,331
 312,07;  657,557;  408,367;-2963,228
 312,67;  669,108;  497,855;-2128,297
 313,27;  732,034;  494,448;-1105,224
 313,87;  734,798;  583,357;-2164,083
 314,47;  851,977;  516,954;-3030,392
 315,06; 1100,747;  620,191; 2713,837
 315,66; 1134,631;  579,988;-3245,400
 316,26; 1178,712;  632,938;-1844,483
 316,86; 1190,114;  777,969;-3140,110
 317,46; 1372,879;  720,307;-2115,167
 318,06; 1506,822;  739,813; -825,335
 318,65; 1668,937;  781,801;-2807,999
 319,25; 1964,684;  821,798;-3195,617
 319,85; 1852,034;  932,663;-2908,323
 320,45; 2186,983;  986,283;-3213,304
 321,05; 2921,098;  901,271;-2761,968
 321,64; 3147,638;  889,531;-3219,411
 322,24; 3242,771; 1056,861;-3265,513
 322,84; 2800,828; 1080,356;-3261,345
 323,44; 1908,460; 1133,364;-3219,300
 324,03; 1876,098; 1194,486;-3072,067
 324,63; 1792,443; 1250,452;-2310,059
 325,23; 1701,110; 1241,928;-3097,792
 325,83; 1693,473; 1367,021;-2876,123
 326,42; 1616,031; 1442,622;-3285,005
 327,02; 1607,468; 1476,551;-3076,607
 327,62; 1583,693; 1439,629;-2505,221
 328,22; 1977,412; 1553,486;-3234,973
 328,82; 1809,050; 1577,037;-2229,938
 329,41; 1696,482; 1658,852;-3016,728
 330,01; 1969,518; 1652,750;-2961,704
 330,61; 2087,260; 1806,062;-2928,707
 331,20; 1668,053; 1778,325;-2868,531
 331,80; 1577,904; 1762,512;-2794,386
 332,40; 1689,577; 1752,102;-2896,932
 333,00; 1585,227; 1933,667;-2790,423
 333,59; 1616,475; 1748,771;-2855,091
 334,19; 1600,452; 1920,745;-1771,037
 334,79; 1637,182; 1712,615;-2861,316
 335,39; 1603,135; 1729,919;-2978,912
 335,98; 1573,893; 1726,714;-3126,958
 336,58; 1619,824; 1659,777;-3191,401
 337,18; 1731,950; 1720,779;-2958,592
 337,77; 1697,501; 1782,837;-2098,463
 338,37; 1721,708; 1806,359;-2021,540
 338,97; 1689,604; 1907,384;-2912,402
 339,57; 1946,254; 1862,948;-3044,894
 340,16; 2300,427; 1836,431;-2881,390
 340,76; 2547,610; 1962,712;-3053,314
 341,36; 2264,105; 1861,920;-3195,650
 341,95; 2620,399; 1934,506;-3027,623
 342,55; 2694,330; 1918,998;  703,736
 343,15; 2611,623; 2048,155;-3094,039
 343,74; 3221,301; 1924,644;-2382,298
 344,34; 3097,502; 1860,267;-3015,661
 344,94; 2368,295; 2068,530;-3069,485
 345,53; 2143,192; 2110,769;-2860,447
 346,13; 2363,898; 2174,398;-1283,573
 346,73; 2598,870; 1966,473;-2254,805
 347,32; 2698,680; 2268,649;-3080,871
 347,92; 2509,887; 2312,600;-2277,145
 348,52; 2466,789; 2270,523;-1878,722
 349,11; 2608,938; 2336,551;  975,034
 349,71; 2388,438; 2330,658;-3240,016
 350,31; 2194,013; 2441,387;-2672,237
 350,90; 2327,416; 2483,418;-2326,863
 351,50; 2578,795; 2390,852;-2105,634
 352,10; 3229,841; 2471,119;-3114,840
 352,69; 3541,008; 2532,273;-3182,424
 353,29; 3757,353; 2563,024;-3191,317
 353,89; 3825,042; 2645,527;-3255,104
 354,48; 3700,841; 2693,119;-3208,840
 355,08; 4343,939; 2871,980;-1117,164
 355,67; 4828,743; 2850,042;-2951,417
 356,27; 6029,600; 2839,128;-3232,985
 356,87; 6636,146; 3010,288;-3383,142
 357,46; 6905,427; 3049,431;-2351,390
 358,06; 7989,398; 3306,291;-3073,523
 358,66; 6348,272; 3337,504;-3109,432
 359,25; 4271,961; 3260,792;-2344,119
 359,85; 4682,071; 3365,667;-3215,970
 360,44; 6210,594; 3389,015;-3292,172
 361,04; 6224,623; 3567,155;-2367,039
 361,64; 6171,623; 3696,155;-2309,039
 362,23; 5890,284; 3772,517;-2932,958
 362,83; 5606,921; 3755,639;-2990,726
 363,42; 5381,191; 3938,769;-2836,447
 364,02; 5060,111; 3910,034;-2973,462
 364,62; 5467,898; 3816,398;-2486,573
 365,21; 4281,369; 3857,937;-1741,558
 365,81; 3094,984; 3935,818;-2792,173
 366,40; 3151,260; 3970,062;-2080,707
 367,00; 3330,812; 4021,550;-2952,776
 367,59; 3864,995; 4071,831;-2979,699
 368,19; 4410,956; 4221,678;-3237,306
 368,79; 4273,242; 4198,720;-3125,268
 369,38; 3698,162; 4107,200;-2250,383
 369,98; 4102,622; 4101,940;-2935,940
 370,57; 4652,846; 4188,588;-3331,356
 371,17; 4477,271; 4164,860;-3326,135
 371,76; 4954,725; 4277,486;-3442,879
 372,36; 5688,604; 4057,598;-3195,501
 372,95; 7153,719; 4115,372;  667,934
 373,55; 8146,173; 4105,998;-3393,811
 374,14; 7817,167; 4300,099;-3405,097
 374,74; 7660,874; 4256,514;-3224,124
 375,34; 6861,656; 4286,979;-3189,521
 375,93; 6542,219; 4295,479;-2706,116
 376,53; 5714,593; 4344,585;-3575,974
 377,12; 4001,323; 4405,670;-1465,352
 377,72; 3030,001; 4480,730;-3410,414
 378,31; 3258,605; 4511,027;-2274,699
 378,91; 3652,300; 4291,429;-3262,199
 379,50; 4228,330; 4588,213;-3331,363
 380,10; 4104,341; 4327,226;-3398,890
 380,69; 4141,531; 4094,621;-2343,626
 381,29; 5831,537; 4586,735;-2550,439
 381,88; 7721,307; 4518,758;-1605,111
 382,48; 7666,905; 4519,727;-3286,485
 383,07; 6427,738; 4495,358;-3457,802
 383,67; 6052,307; 4635,758;-1847,111
 384,26; 5507,261; 4667,491;-2467,905
 384,86; 4409,542; 4921,849;-3182,252
 385,45; 4359,668; 4932,636;-3325,344
 386,05; 4200,520; 5073,608;-3419,100
 386,64; 3513,761; 4911,384;-3524,855
 387,24; 3693,818; 5016,878;-2585,688
 387,83; 4045,904; 4993,512;-2489,386
 388,42; 4172,853; 5182,346;-2109,466
 389,02; 3949,548; 5423,748;-3235,966
 389,61; 3780,237; 5688,036;-3413,653
 390,21; 3618,818; 5729,878;-3463,688
 390,80; 3019,393; 5816,392;-3208,810
 391,40; 2972,462; 6137,899;-2293,168
 391,99; 3530,324; 5981,099;-3195,550
 392,59; 4053,364; 6435,252;-2416,943
 393,18; 3665,898; 6683,398;-2491,573
 393,77; 2943,036; 6883,198;-3238,192
 394,37; 2866,312; 7145,657;-2198,825
 394,96; 3243,278; 7098,403;-2296,146
 395,56; 3177,846; 7264,588;-2834,356
 396,15; 3876,341; 6867,797;-3125,692
 396,75; 4377,254; 7343,163;-2889,993
 397,34; 3309,622; 7669,940;-2620,940
 397,93; 2555,277; 7720,188;-3358,047
 398,53; 2399,123; 7595,262;-2525,088
 399,12; 2662,468; 8192,013;-2154,981
 399,72; 3052,841; 8013,119;-2274,840
 400,31; 3200,163; 8034,629;-3169,581
 400,91; 2865,341; 8446,012;-2959,791
 401,50; 2508,036; 8820,198;-2330,192
 402,09; 2546,179; 8550,327;-2894,722
 402,69; 2658,151; 8691,187;-3072,856
 403,28; 2688,818; 9052,663;-2983,588
 403,88; 4720,570; 9162,560; 1927,079
 404,47; 5790,996; 9689,831;  884,300
 405,06; 3903,887; 9684,171;  -68,947
 405,66; 4439,076; 9753,565;-2875,684
 406,25; 6096,242;10085,720;-3119,268
 406,84; 6278,392;10446,177;-2892,711
 407,44; 4839,145;10847,858;-2219,944
 408,03; 3301,587;10422,257;-2906,063
 408,63; 2802,030;10373,085;-3011,379
 409,22; 2693,467;10191,584;-1945,783
 409,81; 2696,805;10681,007;-1849,765
 410,41; 2951,524;11553,078;-2857,615
 411,00; 3135,960;11336,362;-1814,921
 411,59; 3535,811;11251,120;-2826,578
 412,19; 3571,949;11468,350;-2245,394
 412,78; 3966,185;11399,226;-2830,436
 413,37; 4122,662;12151,878;-2704,234
 413,97; 4396,748;12410,512;-2618,933
 414,56; 4280,242;12071,506;-2503,169
 415,15; 3788,363;12410,394;-2121,547
 415,75; 3369,765;12408,639;-2698,272
 416,34; 2789,334;12590,254;-1893,681
 416,93; 3194,966;12922,047;-2777,536
 417,53; 3478,604;12696,169;-1423,303
 418,12; 4179,299;12570,785;-2217,903
 418,71; 4333,942;12907,592;-2673,285
 419,31; 4916,189;13054,695;-1884,952
 419,90; 5133,885;13470,313;-2786,552
 420,49; 3778,747;13619,298;-1733,834
 421,08; 3194,747;14201,298;-1674,834
 421,68; 3549,511;14723,421;-1908,792
 422,27; 4415,965;14035,832;-2004,437
 422,86; 4608,988;13874,073; -437,590
 423,46; 4241,643;14080,107;-2575,598
 424,05; 3807,597;14376,626;-2928,293
 424,64; 4458,477;13888,953;-2640,014
 425,24; 4528,885;14092,098;-2903,453
 425,83; 4312,315;13992,269;-2680,945
 426,42; 4964,597;12987,626;-2760,293
 427,01; 5169,224;13424,734;-2674,533
 427,61; 3597,125;14347,873;-2609,209
 428,20; 2814,056;14036,151;-1764,751
 428,79; 2908,188;14414,052;-2859,656
 429,38; 3484,942;14092,377;-1781,186
 429,98; 4056,349;14922,521; -994,625
 430,57; 4916,125;15058,873;-2193,209
 431,16; 3921,827;14580,389;-2784,522
 431,75; 3804,907;14357,909; -561,407
 432,35; 4685,148;13435,899;-1951,262
 432,94; 3788,711;14429,186;-2324,759
 433,53; 2674,815;14560,375;-1152,995
 434,12; 2578,591;14431,298;-2267,381
 434,72; 2673,245;14188,331;-1413,389
 435,31; 2502,286;14167,699; 7395,119
 435,90; 2175,447;14308,954; 8338,249
 436,49; 2183,935;13427,834; -683,175
 437,08; 2358,194;13895,951; -675,370
 437,68; 4076,429;14442,827;-2987,412
 438,27; 4979,756;14610,237;-2610,866
 438,86; 2939,809;14612,832;-1147,984
 439,45; 2322,383;15313,346;-1937,106
 440,05; 3562,682;15955,616;-2982,694
 440,64; 3770,980;15054,886;-1902,282
 441,23; 2990,446;14152,525;-1415,553
 441,82; 2417,240;13700,218;-2631,576
 442,41; 1849,917;14351,277;-3014,637
 443,00; 1808,014;13625,925;-2724,863
 443,60; 1794,601;14373,881;-3136,710
 444,19; 1843,710;15026,541;-1440,462
 444,78; 1823,900;14960,151;-3012,298
 445,37; 1786,434;15728,297;-2522,928
 445,96; 2099,641;15331,249;-3116,202
 446,56; 1956,204;15596,535;-1144,698
 447,15; 1832,485;16225,678; -884,947
 447,74; 1746,566;17097,412;-2709,931
 448,33; 1632,169;16443,066;-1985,920
 448,92; 1549,715;15422,440;-2964,176
 449,51; 1510,514;15095,817;-2848,813
 450,10; 1358,054;15133,078;-3063,256
 450,70; 1316,152;14904,939;-1957,581
 451,29; 1347,187;15329,193;-1112,260
 451,88; 1492,980;15513,671;-2929,183
 452,47; 1733,284;16565,055;-2795,584
 453,06; 1609,266;16495,498;-2401,047
 453,65; 1287,939;16071,874;-2873,493
 454,24; 1334,358;17329,246;-2173,558
 454,84; 1403,451;17793,209;-1379,168
 455,43; 1298,013;18732,496;-2219,665
 456,02; 1230,876;18879,480;-2927,947
 456,61; 1256,106;17317,459;-2925,275
 457,20; 1270,617;16921,363;-2786,753
 457,79; 1355,226;17588,131;-2922,554
 458,38; 1370,622;18338,264;-2132,467
 458,97; 1454,421;18039,641;-2515,104
 459,56; 1478,623;18190,479;-2760,565
 460,16; 1466,243;17832,258;-2082,894
 460,75; 1410,657;18157,518;-2072,146
 461,34; 1309,950;18077,887;-2962,020
 461,93; 1307,398;18381,186;-2200,853
 462,52; 1369,634;19333,275;-2744,993
 463,11; 1498,087;20546,688;-1989,639
 463,70; 1744,548;19458,643;-2869,295
 464,29; 1816,277;19945,082;-3150,376
 464,88; 1723,473;20795,807;-2743,024
 465,47; 1536,392;19885,285;-2748,139
 466,06; 1516,110;20915,713;-3191,692
 466,65; 1627,955;21667,572;-3018,635
 467,24; 1603,759;22030,848;-2539,986
 467,84; 1553,754;22443,164;-2020,371
 468,43; 1516,748;22325,051;-2238,559
 469,02; 1623,260;23517,170;-2702,135
 469,61; 1551,616;24168,936;-2593,555
 470,20; 1762,760;23781,063;-2841,085
 470,79; 1651,667;22760,100;-3232,475
 471,38; 1436,328;25266,463;-2192,395
 471,97; 1327,627;26009,732; -666,983
 472,56; 1418,667;25472,887;-3035,376
 473,15; 1451,650;25296,975;-2825,135
 473,74; 1483,139;26395,854;-3106,559
 474,33; 1481,633;25866,848;-2957,796
 474,92; 1402,196;27630,348;-3146,391
 475,51; 1391,799;29609,002;-2873,380
 476,10; 1324,661;29847,986;-3011,662
 476,69; 1356,845;26101,268;-2855,586
 477,28; 1394,133;25846,955;-2956,845
 477,87; 1212,311;27035,121; -173,956
 478,46; 1287,138;28695,639;-3029,460
 479,05; 1351,541;30507,100;-2134,284
 479,64; 1278,397;31679,756;-2718,655
 480,23; 1285,742;29541,508;-2845,548
 480,82; 1217,420;28549,996;-2736,807
 481,41; 1229,995;29371,510;-1873,929
 482,00; 1248,541;29284,885;-1364,185
 482,59; 1232,546;29593,998;-2298,998
 483,18; 1272,949;31702,244;-2376,723
 483,77; 1323,575;31703,139;-2193,865
 484,36; 1311,799;32475,002;-1701,380
 484,95; 1381,000;32990,410; -788,643
 485,54; 1605,201;35331,031;-1371,006
 486,13; 1820,294;35762,996; -945,616
 486,72; 2255,448;34334,137;  148,326
 487,31; 2279,236;31046,285;-1109,686
 487,89; 1902,633;32608,633; -193,697
 488,48; 2455,471;33798,164;-1523,728
 489,07; 2800,839;32913,941;-1248,674
 489,66; 2090,644;33511,645;-1505,224
 490,25; 1703,247;31095,299; -660,212
 490,84; 1859,345;34127,375;-1683,635
 491,43; 2877,874;34965,621; -701,552
 492,02; 3542,149;36094,652;-1864,987
 492,61; 2473,805;35362,902;-1043,094
 493,20; 1855,391;33776,426;-2019,743
 493,79; 1814,896;32749,434; 4824,494
 494,38; 1755,086;33706,043;-1938,342
 494,97; 2541,333;32583,934; -629,911
 495,55; 3672,132;34690,309;-2325,548
 496,14; 2870,511;35087,531;-2403,220
 496,73; 1855,419;35451,566;-1952,609
 497,32; 1664,798;34211,570;-2587,182
 497,91; 1987,471;35005,949;-1921,629
 498,50; 2023,000;34165,195;-2912,544
 499,09; 1806,798;34554,570;-3088,182
 499,68; 1921,109;32403,070;-2405,396
 500,27; 2408,327;33321,605;-2490,999
 500,85; 2467,011;32655,207;-2604,071
 501,44; 2309,534;32478,342;-2576,175
 502,03; 1993,666;33194,457;-3368,178
 502,62; 1826,982;31275,068;-3438,205
 503,21; 1656,701;29432,711;-3532,858
 503,80; 1755,384;32028,100;-2976,831
 504,39; 1637,901;32451,119;-3458,121
 504,97; 1592,126;31774,982;-3577,636
 505,56; 1468,189;31537,590;-2979,281
 506,15; 1565,155;32302,336;-3991,602
 506,74; 1655,338;32557,617;-2945,526
 507,33; 1619,827;32185,498;-3165,949
 507,92; 1685,361;33952,859;-3871,678
 508,51; 1509,494;35926,973;-3735,682
 509,09; 1570,349;34536,629;-3921,053
 509,68; 1551,711;34318,508;-3748,286
 510,27; 1552,970;33667,410;-3799,381
 510,86; 1529,436;32572,264;-4081,751
 511,45; 1562,838;33677,512;-3843,476
 512,03; 1725,235;34524,855;-3829,488
 512,62; 1881,609;36240,961;-3780,346
 513,21; 2035,895;33870,789;-3186,209
 513,80; 2247,205;34644,289;-3501,423
 514,39; 2123,292;32752,137;-3905,221
 514,97; 1841,263;35347,781;-4095,255
 515,56; 1989,998;34167,551;-4198,248
 516,15; 2555,447;35428,063;-3955,179
 516,74; 2789,607;32584,318;-4420,049
 517,33; 2142,648;33459,688;-3549,542
 517,91; 1797,108;33935,426;-4188,099
 518,50; 2103,579;32563,393;-3264,282
 519,09; 2470,752;33942,875;-3157,778
 519,68; 2214,608;35231,531;-4286,148
 520,26; 1901,619;38679,547;-4232,675
 520,85; 1857,751;39452,660;-4352,679
 521,44; 1959,584;40826,078;-4358,897
 522,03; 2209,114;39485,539;-4271,912
 522,61; 2703,584;36773,078;-4364,897
 523,20; 2702,469;33924,090;-4337,233
 523,79; 2113,032;32040,590;-4337,828
 524,38; 1809,590;32850,191;-4344,709
 524,96; 1727,096;35883,199;-4321,473
 525,55; 1777,877;36021,449;-4542,771
 526,14; 2207,555;34018,723;-4434,931
 526,73; 2833,331;32852,074;-4389,515
 527,31; 2197,987;32903,324;-4488,622
 527,90; 1758,877;33630,449;-4564,771
 528,49; 1626,429;34155,938;-2529,839
 529,08; 1402,630;34601,344;-3467,103
 529,66; 1415,625;34848,445;-3911,389
 530,25; 1411,182;35279,832;-4414,172
 530,84; 1291,883;35334,348;-4583,485
 531,42; 1464,860;38583,105;-4365,332
 532,01; 1840,406;37528,480;-4291,588
 532,60; 2091,124;34512,125;-4473,241
 533,18; 1559,343;35538,086;-4078,042
 533,77; 1377,095;34969,984;-4236,374
 534,36; 1362,394;34459,469;-4374,061
 534,95; 1319,026;35483,477;-4088,015
 535,53; 1416,596;34236,090; -974,424
 536,12; 1652,463;36469,977;-2657,420
 536,71; 2066,498;36511,230;-3869,099
 537,29; 1796,434;36073,621;-3618,454
 537,88; 1707,584;33908,078;-3454,897
 538,47; 1574,837;32497,867;-2840,180
 539,05; 1608,130;36837,238;-2139,054
 539,64; 1874,365;40414,898;-1785,997
 540,22; 2066,319;37414,633; -764,790
 540,81; 1952,716;37501,766; 1008,297
 541,40; 1606,066;39018,629; 3425,591
 541,98; 1567,750;38188,230; 4858,519
 542,57; 1688,463;39368,977; 4597,580
 543,16; 1548,802;38645,613; 4952,500
 543,74; 1408,279;35774,480; 4083,603
 544,33; 1466,227;36297,883; 3620,721
 544,92; 1397,480;37217,887; 3973,339
 545,50; 1379,911;37338,488;11456,648
 546,09; 1297,578;40064,965;11359,916
 546,67; 1193,682;41948,727; 2857,878
 547,26; 1234,722;40050,094; -202,615
 547,85; 1181,192;39208,414; -567,501
 548,43; 1080,687;38452,625; -849,836
 549,02; 1106,762;39427,246;-1040,008
 549,60; 1126,923;40570,500; -984,878
 550,19; 1100,107;41166,996;-2192,901
 550,78;  990,595;42660,875;-2328,325
 551,36;  975,020;45349,148;-2432,104
 551,95;  933,331;45443,859; -585,416
 552,53;  921,026;43280,262; -296,916
 553,12; 1006,267;41420,035;-3431,672
 553,70;  942,462;43188,547;-2878,222
 554,29;  928,118;44058,008;-2869,428
 554,88; 1015,100;41831,668;-4247,989
 555,46;  905,635;43723,027;-3881,718
 556,05; 1048,440;45007,734;-4207,268
 556,63; 1168,405;45206,266;-3396,489
 557,22; 1278,113;43875,109;-3394,714
 557,80; 1142,463;41749,762;-3568,321
 558,39; 1279,015;44188,250;-4145,390
 558,97; 1089,354;47993,887;-3699,470
 559,56; 1084,135;49889,137;-4544,768
 560,15;  973,733;50117,891;-3611,042
 560,73;  987,526;49814,152;-4287,867
 561,32; 1397,676;47024,609;-3741,309
 561,90; 1188,250;46041,910;-4382,333
 562,49; 1055,779;48487,371;-3786,348
 563,07;  890,790;48074,387;-4783,875
 563,66;  888,009;50064,133;-4352,577
 564,24;  892,641;49228,145;-4763,531
 564,83;  887,848;51344,664;-4603,607
 565,41;  962,906;53840,375;-4329,539
 566,00;  930,284;52202,164;-2755,012
 566,58;  968,032;56465,375;-3725,729
 567,17;  908,428;56909,508;-4280,642
 567,75;  849,089;52392,871;-4653,562
 568,34;  849,221;55893,770;-3216,466
 568,92;  820,865;55738,793;-3987,947
 569,51;  814,986;54852,895; 2680,576
 570,09;  916,296;58247,391;-4676,638
 570,68;  860,945;53188,313;-4788,833
 571,26;  840,635;50733,242;-3886,817
 571,85;  841,693;57347,738;-4822,649
 572,43;  842,285;57011,379;-4704,111
 573,01;  713,158;52662,375;-4873,920
 573,60;  759,371;53819,012;-3785,810
 574,18;  816,026;55122,262;-4514,917
 574,77;  777,164;53284,277;-4737,634
 575,35;  832,371;56113,012;-4452,810
 575,94;  794,095;57300,770;-4076,275
 576,52;  834,532;54049,270;-2249,680
 577,11;  761,681;51620,297;-3244,924
 577,69;  834,094;48685,555;-3183,176
 578,27;  767,107;51008,996;-3447,901
 578,86;  795,336;55198,543;-2994,031
 579,44;  740,739;60080,004;-2805,855
 580,03;  853,262;60164,137;-2493,958
 580,61;  851,785;60267,270;-3206,062
 581,19;  826,963;56429,652;-2538,271
 581,78;  772,382;55361,813;-2364,238
 582,36;  796,761;57656,031;-2911,909
 582,95;  854,790;56180,172;-1497,776
 583,53;  794,830;59586,539;-2319,268
 584,11;  806,101;61608,883;-2241,088
 584,70;  833,468;61691,660;-1948,035
 585,28;  866,928;62070,398;-1853,592
 585,87;  832,641;60436,930;-2889,432
 586,45;  815,336;63023,543;-2375,031
 587,03;  867,204;64945,430;-1150,027
 587,62;  850,951;61494,641;-1834,745
 588,20;  999,922;62236,285;-1020,779
 588,78; 1131,657;58157,840;-3411,673
 589,37; 1199,532;57765,270;-3360,680
 589,95; 1011,348;62238,773;-3385,657
 590,54;  907,957;63633,539;-3461,459
 591,12;  984,060;62116,301;-3508,497
 591,70;  886,612;59586,789;-3331,565
 592,29;  925,750;62881,805;-2923,283
 592,87;  987,906;63542,375;-2394,538
 593,45;  862,623;63404,801; 1487,908
 594,04;  845,181;62800,188;-3676,875
 594,62;  856,250;59709,910;-3708,333
 595,20;  810,646;62066,828;-4371,146
 595,79;  812,796;62681,285;-4165,588
 596,37;  851,094;61108,555;-3657,176
 596,95;  799,411;56922,164;-4321,203
 597,53;  822,221;58806,770;-4226,466
 598,12;  824,135;61848,922;-3959,669
 598,70;  899,451;64932,531;-3776,695
 599,28;  877,906;64911,375;-3404,538
 599,87;  874,853;64929,777;-3061,420
 600,45;  893,428;64938,293;-3907,543
 601,03;  861,106;63145,781;-4100,802
 601,62;  848,181;61727,188;-4468,875
 602,20;  919,940;59786,414;-4541,119
 602,78;  823,922;64399,070;-4770,680
 603,36;  747,186;64783,301;-3166,688
 603,95;  822,164;58863,277;-4492,634
 604,53;  745,543;62401,281;-4574,207
 605,11;  780,773;59505,258;-2755,535
 605,69;  800,779;62362,156;-3365,249
 606,28;  846,750;62594,805;-4223,283
 606,86;  797,698;61629,422;-3946,264
 607,44;  753,462;60431,547;-3906,222
 608,02;  686,876;58047,805;-4037,474
 608,61;  711,100;60099,668;-2866,989
 609,19;  653,445;58582,418;-2582,882
 609,77;  774,572;57398,422; -710,073
 610,35;  660,486;55748,785; 5794,625
 610,94;  692,388;56509,926;14509,949
 611,52;  635,100;55803,668;12610,011
 612,10;  593,916;53026,957; 8432,133
 612,68;  562,157;56637,949; 2694,278
 613,26;  698,968;57037,551; 2032,015
 613,85;  757,514;61759,926; -599,241
 614,43;  599,756;62306,918;-1030,096
 615,01;  494,066;62272,199;-1215,211
 615,59;  495,336;64874,328; -972,932
 616,17;  605,710;59402,648;-2561,890
 616,76;  636,354;62178,887;-2993,470
 617,34;  671,601;62666,988;-2389,138
 617,92;  593,221;58547,770;-3399,466
 618,50;  668,963;61202,652;-2562,271
 619,08;  673,888;57928,031;-2514,100
 619,67;  631,284;55968,164;-3196,012
 620,25;  637,951;54290,641;-2743,745
 620,83;  570,428;50498,293;-3495,543
 621,41;  629,370;52314,797;-2800,711
 621,99;  556,353;54560,672;-2529,371
 622,57;  681,388;55529,141;-3707,149
 623,15;  654,790;56213,387;-3783,875
 623,74;  621,451;58266,746;-3892,794
 624,32;  652,084;59330,754;-2827,749
 624,90;  566,491;58625,898;-2311,188
 625,48;  620,773;57897,043;-3132,436
 626,06;  534,296;56898,391;-4006,638
 626,64;  482,739;57787,004;-4162,855
 627,22;  454,003;58993,020;-3409,764
 627,81;  455,618;58046,117;-4334,478
 628,39;  446,767;57121,145;-4560,722
 628,97;  447,554;56597,293;-4437,733
 629,55;  514,578;55377,750;-4219,985
 630,13;  494,785;55669,270;-2959,062
 630,71;  439,859;54162,891;-2747,233
 631,29;  498,164;53129,277;-3824,634
 631,87;  468,302;52776,504;-4223,451
 632,45;  416,710;52786,648;-4716,890
 633,03;  448,796;54183,500;-4191,688
 633,62;  487,543;55423,281;-4714,207
 634,20;  463,916;54882,172;-4089,966
 634,78;  485,360;56497,000;-4430,283
 635,36;  462,457;56701,648;-4449,508
 635,94;  520,664;55183,383;-5398,684
 636,52;  533,204;51027,645;-5422,126
 637,10;  406,411;52116,164;-5488,203
 637,68;  423,072;50694,527;-4702,123
 638,26;  457,704;47618,750;-5536,176
 638,84;  458,744;48688,902;-5421,569
 639,42;  473,411;49235,164;-3756,203
 640,00;  560,765;51366,148;-5405,726
 640,58;  579,544;54579,402;-4806,027
 641,16;  595,322;55521,656;-5571,328
 641,74;  549,101;53214,906;-5433,630
 642,32;  471,880;50106,160;-5620,931
 642,90;  453,659;50434,414;-5856,232
 643,48;  456,438;49231,668;-5786,534
 644,06;  412,217;49280,922;-5796,835
 644,64;  454,996;49595,176;-5842,137
 645,22;  384,775;50513,430;-5562,438
 645,80;  373,554;50547,684;-4957,740
 646,39;  384,332;48107,938;-5515,041
 646,97;  372,111;49773,191;-5850,342
 647,54;  345,890;52328,441;-5717,644
 648,12;  334,669;54879,695;-5865,945
 648,70;  416,448;58954,949;-5885,247
 649,28;  542,227;56421,203;-6090,548
 649,86;  446,006;51091,457;-5609,850
 650,44;  378,785;48619,711;-5452,151
 651,02;  404,564;49970,965;-5474,452
 651,60;  361,343;51793,219;-5803,753
 652,18;  420,121;51320,473;-4735,055
 652,76;  359,900;53277,723;-5934,356
 653,34;  406,679;54817,977;-5939,658
 653,92;  439,458;57729,230;-5784,959
 654,50;  517,237;59042,484;-5818,261
 655,08;  515,016;58048,738;-5841,562
 655,66;  480,795;55058,992;-5115,863
 656,24;  501,574;56743,246;-5200,165
 656,82;  504,353;58989,500;-4979,466
 657,40;  463,132;58967,754;-5667,768
 657,98;  409,910;60169,008;-5486,069
 658,56;  418,689;61114,258;-5717,371
 659,14;  414,468;61380,512;-5913,672
 659,72;  448,247;63381,766;-5916,973
 660,29;  409,026;62437,020;-5907,275
 660,87;  376,805;59738,273;-5212,576
 661,45;  362,584;58590,527;-5664,877
 662,03;  390,363;57513,781;-4971,179
 662,61;  339,142;54945,035;-5638,480
 663,19;  333,920;54618,289;-5657,782
 663,77;  317,699;53917,543;-5939,083
 664,35;  306,478;56689,793;-5887,384
 664,93;  276,257;62595,047;-4922,686
 665,51;  286,036;61993,301;-6033,987
 666,08;  283,815;57747,555;-5652,289
 666,66;  293,594;51859,809;-4400,590
 667,24;  355,373;49420,063;-5952,892
 667,82;  398,152;50250,316;-5849,193
 668,40;  330,931;50723,570;-5932,494
 668,98;  327,709;51952,824;-5097,796
 669,56;  298,488;57957,078;-6096,097
 670,13;  445,267;61797,328;-6222,398
 670,71;  469,046;59698,582;-5900,700
 671,29;  372,825;57209,836;-6139,001
 671,87;  295,604;56814,090;-6051,303
 672,45;  264,383;51822,344;-6050,604
 673,03;  322,162;52592,598;-4769,906
 673,60;  329,941;58431,852;-3503,207
 674,18;  309,720;63679,105;-5938,508
 674,76;  320,498;61159,359;-6226,810
 675,34;  339,277;56361,613;-5251,111
 675,92;  286,056;55284,863;-6338,413
 676,50;  329,835;55051,117;-6085,714
 677,07;  289,614;56952,371;-6095,016
 677,65;  322,393;56680,625;-6163,317
 678,23;  332,172;55997,879;-5057,618
 678,81;  306,951;58016,133;-5299,919
 679,38;  286,730;56669,387;-5969,221
 679,96;  306,508;53267,641;-5846,522
 680,54;  363,287;55171,895;-5308,824
 681,12;  274,066;52485,148;-6126,125
 681,70;  252,845;54786,398;-4413,427
 682,27;  318,624;54740,652;-5851,728
 682,85;  282,403;58265,906;-5991,029
 683,43;  321,182;64943,160;-6140,331
 684,01;  301,961;64943,414;-5172,632
 684,58;  347,740;64307,668;-5138,934
 685,16;  302,519;64236,922;-4494,235
 685,74;  344,297;62790,176;-3853,536
 686,32;  317,076;59009,430;-6012,838
 686,89;  291,855;59552,684;-6015,139
 687,47;  294,634;59534,934;-6076,441
 688,05;  291,413;56416,188;-6019,742
 688,63;  300,192;59626,441;-6102,043
 689,20;  266,971;62884,695;-5971,345
 689,78;  285,750;58427,949;-5530,646
 690,36;  265,529;54291,203;-5381,948
 690,93;  307,308;54968,457;-6355,249
 691,51;  302,086;61453,711;-6326,550
 692,09;  258,865;64946,965;-6223,852
 692,67;  300,644;64947,219;-6047,153
 693,24;  288,423;60968,469;-5803,455
 693,82;  291,202;59538,723;-6235,756
 694,40;  305,981;58049,977;-3570,058
 694,97;  282,760;57456,230;-6046,359
 695,55;  287,539;59820,484;-5464,660
 696,13;  305,318;61729,738;-4454,962
 696,70;  310,096;58594,992;-6029,263
 697,28;  291,875;59108,246;-6266,564
 697,86;  279,654;60837,500;-6030,866
 698,43;  282,433;58827,754;-6198,167
 699,01;  311,212;55595,004;-6051,469
 699,59;  266,991;55751,258;-6402,770
 700,16;  275,770;54174,512;-5257,072
 700,74;  253,549;57040,766;-5497,373
 701,32;  253,328;56440,020;-6233,674
 701,89;  251,107;55792,273;-6049,976
 702,47;  266,885;60296,527;-6466,277
 703,05;  225,664;64951,781;-6309,579
 703,62;  288,443;64952,035;-6227,880
 704,20;  246,222;64952,285;-5306,182
 704,77;  261,001;64952,539;-6118,483
 705,35;  260,780;64213,793;-6006,784
 705,93;  205,559;64327,047;-4922,085
 706,50;  229,338;63796,301;-5267,387
 707,08;  268,117;60606,555;-5284,688
 707,65;  206,896;60046,809;-5620,990
 708,23;  278,674;64881,063;-5431,292
 708,81;  221,453;64954,316;-5019,593
 709,38;  253,232;64954,570;-5001,894
 709,96;  224,011;64954,820;-6025,195
 710,53;  265,790;64955,074;-6007,497
 711,11;  285,569;61503,328;-5752,798
 711,69;  248,348;61913,582;-3821,100
 712,26;  240,127;59012,836;-4642,401
 712,84;  197,906;63346,090;-5947,703
 713,41;  302,684;64411,344;-6153,004
 713,99;  182,463;64924,598;-6068,305
 714,56;  259,242;62057,852;-6326,607
 715,14;  261,021;60312,105;-6198,908
 715,71;  297,800;60246,355;-6210,209
 716,29;  284,579;62893,609;-6648,511
 716,86;  206,358;63573,863;-6510,813
 717,44;  238,137;63263,117;-6424,114
 718,02;  268,916;62110,371;-6462,415
 718,59;  297,695;61013,625;-5121,716
 719,17;  214,473;63488,879;-5649,018
 719,74;  265,252;62907,133;-5756,319
 720,32;  255,031;63502,387;-6451,621
 720,89;  250,810;64959,641;-6422,922
 721,47;  194,589;64959,891;-6388,224
 722,04;  233,368;64960,145;-5502,525
 722,62;  242,147;64252,398;-3979,826
 723,19;  184,926;60250,652;-4938,128
 723,77;  196,705;57638,906;-5673,429
 724,34;  210,484;60150,160;-5576,730
 724,92;  252,262;63789,414;-6558,032
 725,49;  202,041;64961,668;-5666,333
 726,07;  245,820;64961,922;-6491,635
 726,64;  229,599;64627,176;-6587,936
 727,21;  236,378;60249,426;-5627,238
 727,79;  171,157;63706,680;-6444,539
 728,36;  273,936;64962,934;-6722,840
 728,94;  263,715;64963,188;-6535,142
 729,51;  255,494;64963,441;-6365,443
 730,09;  212,272;64963,695;-5545,745
 730,66;  218,051;64963,949;-6358,046
 731,24;  224,830;64964,203;-6577,348
 731,81;  241,609;64964,457;-5151,649
 732,38;  207,388;64964,711;-6492,950
 732,96;  226,167;64964,961;-6263,251
 733,53;  242,946;60347,215;-6389,553
 734,11;  221,725;61575,469;-6617,854
 734,68;  170,504;64965,723;-6211,156
 735,26;  239,283;64965,977;-6389,458
 735,83;  238,061;64966,230;-6498,759
 736,40;  222,840;62243,484;-6516,060
 736,98;  235,619;61999,738;-6374,361
 737,55;  250,398;59236,992;-5827,663
 738,13;  244,177;57707,246;-5702,964
 738,70;  249,956;60991,496;-5529,266
 739,27;  207,735;62504,750;-6452,567
 739,85;  226,514;62745,004;-6283,869
 740,42;  267,293;64968,258;-6464,170
 740,99;  252,072;64968,512;-5618,471
 741,57;  240,850;64968,766;-4867,773
 742,14;  227,629;64969,020;-5349,074
 742,72;  251,408;64969,273;-4751,375
 743,29;  231,187;64969,527;-6563,677
 743,86;  237,966;64969,781;-6538,979
 744,44;  301,745;64970,031;-6113,280
 745,01;  313,524;64970,285;-5760,581
 745,58;  225,303;64970,539;-6259,882
 746,16;  225,082;64970,793;-6188,184
 746,73;  311,861;64971,047;-6479,485
 747,30;  259,639;61139,301;-6536,787
 747,88;  317,418;59621,555;-5621,088
 748,45;  307,197;64971,809;-5668,390
 749,02;  332,976;64972,063;-6384,691
 749,60;  322,755;62401,313;-6212,992
 750,17;  324,534;61766,566;-5269,294
 750,74;  375,313;62801,820;-6479,595
 751,31;  386,092;63306,074;-6347,896
 751,89;  306,871;64232,328;-6546,198
 752,46;  295,649;64973,582;-6282,500
 753,03;  302,428;64973,836;-6160,801
 753,61;  281,207;63755,090;-4858,102
 754,18;  232,986;64573,344;-6434,404
 754,75;  252,765;63888,598;-5191,705
 755,32;  235,544;60715,848;-6332,006
 755,90;  254,323;64975,102;-6493,308
 756,47;  284,102;64975,355;-4809,609
 757,04;  235,881;64975,609;-6457,911
 757,61;  223,660;64975,863;-5553,212
 758,19;  314,438;64976,117;-5253,514
 758,76;  214,217;64976,371;-6603,815
 759,33;  188,996;64976,625;-6664,116
 759,90;  260,775;64976,879;-5714,417
 760,48;  234,554;64977,133;-6778,719
 761,05;  201,333;64977,383;-6083,021
 761,62;  219,112;62082,637;-4888,322
 762,19;  214,891;58992,891;-6144,624
 762,77;  198,670;61730,145;-5963,925
 763,34;  169,449;64978,398;-6610,226
 763,91;  176,227;64978,652;-5818,527
 764,48;  221,006;64978,906;-6756,829
 765,05;  192,785;64979,160;-6543,130
 765,63;  270,564;63215,414;-6417,432
 766,20;  254,343;59753,668;-6004,733
 766,77;  233,122;57105,918;-5921,035
 767,34;  177,901;58807,172;-6640,336
 767,91;  131,680;59176,426;-6689,637
 768,49;  180,459;61368,680;-6772,939
 769,06;  210,237;64980,934;-5832,240
 769,63;  219,016;62272,188;-6636,542
 770,20;  175,795;59567,441;-5868,843
 770,77;  134,574;57921,695;-5645,145
 771,34;  154,353;60065,949;-6615,446
 771,91;  223,132;60549,203;-6102,747
 772,49;  199,911;58558,453;-6369,048
 773,06;  185,690;57687,707;-6203,350
 773,63;  191,469;60204,961;-6639,651
 774,20;  225,248;58197,215;-5918,953
 774,77;  255,026;56475,469;-6631,254
 775,34;  209,805;56707,723;-6214,556
 775,91;  318,584;57056,977;-6417,857
 776,49;  533,363;58787,230;-6590,158
 777,06;  746,142;60761,484;-6015,460
 777,63;  642,921;64224,738;-6367,761
 778,20;  457,700;62572,988;-6250,063
 778,77;  284,479;63316,242;-5763,364
 779,34;  205,258;64985,496;-6585,666
 779,91;  222,036;64985,750;-6534,967
 780,48;  151,815;59144,004;-5853,268
 781,05;  149,594;50716,258;-6586,570
 781,62;  172,373;52124,512;-6604,871
 782,20;  205,152;58813,766;-6500,172
 782,77;  156,931;64987,020;-6529,474
 783,34;  177,710;64052,273;-6522,775
 783,91;  176,489;61362,523;-6509,077
 784,48;  136,268;60480,777;-2126,378
 785,05;  146,047;59144,031;-6540,680
 785,62;  103,825;58221,285;-6452,981
 786,19;  168,604;58149,539;-5100,282
 786,76;  133,383;55130,793;-6677,583
 787,33;  165,162;56202,047;-6515,885
 787,90;   87,941;59491,301;-6591,187
 788,47;   84,720;60148,555;-5075,488
 789,04;  131,499;58988,809;-5763,790
 789,61;  143,278;58863,059;-5066,091
 790,18;  145,057;55747,313;-6561,392
 790,75;  122,836;50841,566;-6671,693
 791,32;  126,614;52056,820;-6577,995
 791,89;  160,393;55205,074;-6068,296
 792,46;  120,172;60806,328;-5763,598
 793,03;  184,951;62404,582;-6702,899
 793,60;  191,730;55699,836;-6440,201
 794,17;  243,509;52257,090;-5569,502
 794,74;  230,288;47273,344;-5886,803
 795,31;  196,067;50096,594;-6099,105
 795,88;  181,846;52579,848;-5572,406
 796,45;   83,624;53365,102;-6529,708
 797,02;  119,403;56004,355;-5046,009
 797,59;  114,182;57922,609;-6675,311
 798,16;  106,961;54563,863;-5861,612
 798,73;  103,740;53534,117;-6761,913
 799,30;  130,519;55088,371;-6611,214
 799,87;   60,298;55650,625;-6713,516
 800,44;  142,077;55353,875;-6729,817
 801,01;   89,856;56836,129;-6807,119
 801,58;  124,635;58477,383;-6537,420
 802,15;  133,413;52086,637;-6658,722
 802,72;  110,192;48849,891;-6694,023
 803,28;   44,971;52000,145;-6076,324
 803,85;   88,750;57179,398;-6728,626
 804,42;  160,529;55235,652;-5999,927
 804,99;  102,308;53752,906;-6539,229
 805,56;   61,087;52472,160;-6770,530
 806,13;   71,866;53387,410;-6075,832
 806,70;   99,645;52719,664;-6748,133
 807,27;   93,424;54477,918;-6672,434
 807,84;   50,202;52786,172;-6693,736
 808,41;   95,981;49728,426;-6022,037
 808,98;   76,760;50479,680;-5986,338
 809,54;   62,539;52469,934;-4958,640
 810,11;   59,318;48281,188;-6782,941
 810,68;  110,097;43021,441;-6680,243
 811,25;   46,876;41394,695;-6760,544
 811,82;   88,655;40374,945;-6886,846
 812,39;   79,434;37710,199;-3331,147
 812,96;   86,213;38779,453;-6767,448
 813,52;  112,991;41291,707;-6937,750
 814,09;   61,770;44522,961;-6766,051
 814,66;   68,549;50325,215;-6827,353
 815,23;   45,328;51240,469;-6669,654
 815,80;   63,107;50439,723;-5853,956
 816,37;   87,886;50917,977;-6801,257
 816,93;   68,665;49487,230;-6731,558
 817,50;   29,444;46790,480;-6102,859
 818,07;   76,223;46034,734;-6960,161
 818,64;   91,001;46919,988;-6856,462
 819,21;  136,780;46261,242;-6053,764
 819,77;  181,559;42742,496;-6571,065
 820,34;   93,338;42053,750;-6677,367
 820,91;  151,117;43276,004;-6469,668
 821,48;  193,896;43873,258;-6689,969
 822,05;  204,675;45571,512;-5875,271
 822,61;  145,454;44296,766;-5631,572
 823,18;  147,233;41860,016;-6620,874
 823,75;  130,012;42585,270;-6957,175
 824,32;  134,790;45286,523;-6923,477
 824,88;  102,569;45073,777;-6882,778
 825,45;   76,348;44018,031;-6899,079
 826,02;   67,127;43798,285;-6643,380
 826,59;  150,906;43974,539;-6639,682
 827,15;   36,685;46077,793;-6906,983
 827,72;  104,464;49519,047;-6723,285
 828,29;   85,243;51523,301;-6895,586
 828,86;   75,022;48827,551;-6791,888
 829,42;   34,801;40797,805;-6812,189
 829,99;   59,579;36802,059;-6647,490
 830,56;   75,358;36252,313;-6869,792
 831,13;   67,137;37220,566;-6060,093
 831,69;  105,916;38022,820;-6506,395
 832,26;  115,695;38832,074;-5062,696
 832,83;  100,474;40408,328;-5452,998
 833,39;   76,253;40187,582;-6904,299
 833,96;   36,032;39167,836;-6687,600
 834,53;   64,811;40039,086;-6928,902
 835,10;   69,589;39930,340;-6529,203
 835,66;   62,368;38972,594;-6920,504
 836,23;   86,147;39801,848;-6803,806
 836,80;   29,926;39428,102;-6790,107
 837,36;   55,705;37086,355;-6810,409
 837,93;   36,484;34475,609;-6902,710
 838,50;   92,263;35084,863;-6789,012
 839,06;   56,042;37684,117;-6288,313
 839,63;   59,821;37191,371;-6895,614
 840,19;   32,600;35132,621;-6607,916
 840,76;   55,378;35364,875;-6404,217
 841,33;   39,157;35892,129;-6509,519
 841,89;   46,936;36779,383;-6949,820
 842,46;    8,715;37103,637;-6751,122
 843,03;   94,494;35389,891;-6089,423
 843,59;   46,273;34224,145;-6403,724
 844,16;  134,052;34994,398;-6181,025
 844,73;  183,831;34249,652;-6067,327
 845,29;  126,610;32937,902;-5695,628
 845,86;  107,389;35699,156;-6800,930
 846,42;   45,167;36940,410;-7004,231
 846,99;   66,946;36477,664;-6967,533
 847,56;   45,725;36265,918;-5840,834
 848,12;    8,504;36240,172;-6745,135
 848,69;   37,283;35710,426;-6715,437
 849,25;   74,062;34401,680;-6845,738
 849,82;   -7,159;34081,934;-3247,040
 850,38;   73,620;35064,188;-6840,341
 850,95;   13,399;32489,439;-6324,643
 851,52;   51,177;32520,693;-6565,944
 852,08;   45,956;32548,947;-6691,245
 852,65;   12,735;30323,199;-7005,546
 853,21;    5,514;27698,453;-6958,848
 853,78;   -2,707;27362,707;-6363,149
 854,34;   32,072;28860,961;-6871,451
 854,91;   -5,149;29081,215;-5086,752
 855,47;   44,630;29942,467;-5108,054
 856,04;   80,409;32027,721;-6746,355
 856,60;    6,188;33961,973;-6104,656
 857,17;   21,966;34979,227;-6840,958
 857,73;   14,745;33553,480;-6811,259
 858,30;    9,524;32532,734;-6985,561
 858,86;   17,303;31110,988;-5926,862
 859,43;   32,082;31430,242;-6226,164
 859,99;   11,861;32011,496;-6852,465
 860,56;  -29,360;33126,750;-6903,766
 861,12;   19,419;35190,004;-6737,068
 861,69;   11,198;33669,258;-5924,369
 862,25;   20,977;34731,508;-6821,670
 862,82;   22,755;34419,762;-5972,972
 863,38;   17,534;31196,018;-6843,273
 863,95;   32,313;29305,270;-6239,575
 864,51;   28,092;30403,523;-5287,876
 865,08;   52,871;29284,777;-6090,178
 865,64;   21,650;26795,031;-7018,479
 866,21;   12,429;26131,285;-6745,780
 866,77;   64,208;26051,537;-5552,082
 867,34;   89,987;25734,791;-6672,383
 867,90;   83,765;24632,045;-6303,685
 868,46;  106,544;23835,299;-6041,986
 869,03;   55,323;24389,551;-6929,288
 869,59;   41,102;26353,805;-6884,589
 870,16;   49,881;27647,059;-6052,890
 870,72;   -5,340;30060,313;-6657,191
 871,28;   -1,561;32915,566;-5992,493
 871,85;  -11,782;33142,820;-6907,794
 872,41;  -19,003;31569,072;-6004,096
 872,98;   15,776;32738,326;-6050,397
 873,54;  -14,446;33876,578;-5920,699
 874,10;   29,333;32768,832;-5876,000
 874,67;  -15,667;32987,832;-6904,000
 875,23;   29,333;31068,834;-7032,000
 875,80;   38,333;28009,834;-6641,000
 876,36;   25,333;25058,834;-6642,000
 876,92;  -20,667;22832,834;-6189,000
 877,49;  -18,667;23923,834;-6517,000
 878,05;  -24,667;24896,834;-6797,000
 878,61;   12,333;26938,834;-6812,000
 879,18;   61,333;27553,834;-6252,000
 879,74;    8,333;28076,834;-6720,000
 880,30;  -38,667;28679,834;-5926,000
 880,87;    0,333;28852,834;-6326,000
 881,43;   55,333;29533,834;-6871,000
 881,99;   15,333;27306,834;-6879,000
 882,56;    5,333;27610,834;-6661,000
 883,12;  -38,667;29049,834;-5740,000
 883,68;  -20,667;29120,834;-6518,000
 884,25;   22,333;28300,834;-6949,000
 884,81;   28,333;26343,834;-6701,000
 885,37;   -8,667;24221,834;-6786,000
 885,94;   11,333;22940,834;-6851,000
 886,50;   56,333;23098,834;-6886,000
 887,06;   22,333;24358,834;-6796,000
 887,62;   17,333;25019,834;-6866,000
 888,19;    6,333;25774,834;-5986,000
 888,75;   20,333;26542,834;-6821,000
 889,31;   -4,667;29043,834;-6778,000
 889,87;   26,333;30537,834;-6723,000
 890,44;   55,333;30349,834;-6696,000
 891,00;   14,333;28757,834;-6786,000
 891,56;   17,333;26457,834;-6998,000
 892,12;   54,333;24463,834;-6754,000
 892,69;   60,333;25310,834;-6373,000
 893,25;   24,333;28798,834;-6877,000
 893,81;   62,333;31774,834;-6696,000
 894,37;   79,333;31330,834;-6342,000
 894,94;   56,333;28713,834;-6772,000
 895,50;   43,333;26035,834; -212,000
 896,06;   73,333;24749,834;-6810,000
 896,62;   98,333;23405,834;-6707,000
 897,18;   52,333;24661,834;-6518,000
 897,75;   77,333;27406,834;-6895,000
 898,31;  132,333;27887,834;-6849,000
 898,87;  109,333;26274,834;-6860,000
 899,43;   84,333;25164,834;-6469,000
 899,99;  103,333;26592,834;-6866,000
 900,56;   95,333;25515,834;-6791,000
 901,12;   95,333;24875,834;-6890,000
 901,68;  119,333;27903,834;-6267,000
 902,24;  121,333;31800,834;-5930,000
 902,80;  122,333;32652,834;-6794,000
 903,36;  204,333;31893,834;-6691,000
 903,93;  334,333;32139,834;-6646,000
 904,49;  780,333;32761,834;-6913,000
 905,05; 2291,333;30952,834;-6732,000
 905,61; 5504,333;28208,834;-6832,000
 906,17;10029,333;28086,834;-6901,000
 906,73;15270,333;25975,834;-5380,000
 907,29;20153,334;24960,834;-6910,000
 907,86;23312,334;25118,834;-6827,000
 908,42;23307,334;28092,834;-6795,000
 908,98;18263,334;31123,834;-5908,000
 909,54; 9938,333;38813,832;-6885,000
 910,10; 3145,333;48220,832;-6634,000
 910,66;  659,333;57581,832;-6781,000
 911,22;  276,333;65027,832;-6761,000
 911,78;  136,333;62593,832;-6841,000
 912,34;  142,333;53256,832;-6080,000
 912,90;  123,333;44610,832;-5232,000
 913,46;  118,333;37052,832;-6876,000
 914,03;   85,333;30620,834;-5746,000
 914,59;   43,333;27452,834;-6682,000
 915,15;   72,333;24908,834;-6891,000
 915,71;   10,333;24217,834;-6863,000
 916,27;   22,333;23800,834;-6723,000
 916,83;   23,333;23006,834;-5824,000
 917,39;   10,333;21742,834;-3512,000
 917,95;   43,333;20224,834;-6009,000
 918,51;   68,333;19972,834;-6583,000
 919,07;   52,333;21780,834;-6791,000
 919,63;  -43,667;23295,834;-6661,000
 920,19;  -27,667;23935,834;-6865,000
 920,75;   24,333;23112,834;-6640,000
 921,31;  -24,667;21484,834;-4837,000
 921,87;   -0,667;20216,834;-6845,000
 922,43;   -8,667;18019,834;-5626,000
 922,99;   17,333;17321,834;-6706,000
 923,55;   23,333;18674,834;-6655,000
 924,11;    0,333;19094,834;-6976,000
 924,67;   36,333;19310,834;-6962,000
 925,23;   46,333;19485,834;-6778,000
 925,79;   23,333;20122,834;-6710,000
 926,35;   42,333;20219,834;-6573,000
 926,91;    1,333;19401,834;-6909,000
 927,47;    3,333;19367,834;-6660,000
 928,03;   74,333;20294,834;-6786,000
 928,59;   60,333;20503,834;-6678,000
 929,15;   42,333;20781,834;-6792,000
 929,71;   29,333;22016,834;-6840,000
 930,27;   52,333;23587,834;-6537,000
 930,82;   34,333;25573,834;-6728,000
 931,38;   -8,667;24317,834;-5852,000
 931,94;    2,333;22672,834;-6843,000
 932,50;    9,333;21252,834;-6481,000
 933,06;   17,333;20895,834;-6768,000
 933,62;    6,333;21092,834;-6443,000
 934,18;   34,333;20632,834;-6727,000
 934,74;   10,333;21320,834;-6709,000
 935,30;   23,333;22030,834;-6484,000
 935,86;   21,333;21213,834;-6505,000
 936,42;   -5,667;20702,834;-6873,000
 936,97;   -3,667;21656,834;-6563,000
 937,53;   16,333;20552,834;-6826,000
 938,09;   50,333;21087,834;  123,000
 938,65;  -16,667;21186,834;-6268,000
 939,21;   22,333;20179,834;-6708,000
 939,77;  -42,667;18946,834;-6213,000
 940,33;  -14,667;18602,834;-6748,000
 940,88;  -11,667;19429,834;-5908,000
 941,44;  -23,667;21301,834;-6983,000
 942,00;   -9,667;23225,834;-6697,000
 942,56;  -18,667;24231,834;-6604,000
 943,12;   25,333;23427,834;-5907,000
 943,68;    7,333;22950,834;-5679,000
 944,23;  -56,667;23124,834;-6749,000
 944,79;  -33,667;22674,834;-6102,000
 945,35;  -36,667;20741,834;-6599,000
 945,91;   17,333;19519,834;-6767,000
 946,47;   14,333;19827,834;-3353,000
 947,03;   22,333;19896,834;-6850,000
 947,58;   -7,667;19661,834;-6840,000
 948,14;   18,333;20790,834;-5897,000
 948,70;  -10,667;19573,834;-5855,000
 949,26;    6,333;18881,834;-6616,000
 949,81;   24,333;18342,834;-6644,000
 950,37;    9,333;18686,834;-6695,000
 950,93;  -17,667;17993,834;-6224,000
 951,49;  -20,667;17568,834;-6057,000
 952,05;  -17,667;17926,834;-6571,000
 952,60;  -16,667;17299,834;-6951,000
 953,16;   15,333;16933,834;-5783,000
 953,72;  -39,667;15628,833;-5813,000
 954,27;  -37,667;15524,833;-6566,000
 954,83;  -27,667;15317,833;-6703,000
 955,39;  -11,667;14917,833;-6691,000
 955,95;   -7,667;14456,833;-6849,000
 956,50;  -28,667;14272,833;-6698,000
 957,06;  -61,667;14126,833;-5922,000
 957,62;  -26,667;13780,833;-6559,000
 958,18;  -20,667;13872,833;-6741,000
 958,73;  -14,667;13326,833;-6820,000
 959,29;  -23,667;13518,833;-6106,000
 959,85;  -47,667;14785,833;-6864,000
 960,40;  -10,667;16746,834;-4263,000
 960,96;   -1,667;16386,834;-6738,000
 961,52;   -8,667;14755,833;-6643,000
 962,07;  -16,667;13711,833;-6742,000
 962,63;  -34,667;13208,833;-6723,000
 963,19;  -66,667;13435,833;-5779,000
 963,74;   -1,667;13877,833;-6582,000
 964,30;  -13,667;14475,833;-6595,000
 964,86;  -31,667;14281,833;-6484,000
 965,41;   13,333;14290,833;-6705,000
 965,97;  -28,667;14185,833;-6569,000
 966,53;    4,333;14792,833;-6750,000
 967,08;   -5,667;15311,833;-6611,000
 967,64;   13,333;15082,833;-6705,000
 968,19;  -16,667;14471,833;-6684,000
 968,75;  -17,667;14662,833;-6566,000
 969,31;  -12,667;14880,833;-5626,000
 969,86;    0,333;14995,833;-6505,000
 970,42;  -14,667;13195,833;-6620,000
 970,97;   10,333;11567,833;-6437,000
 971,53;    4,333;11625,833;-6490,000
 972,09;  -41,667;12998,833;-6646,000
 972,64;    1,333;13523,833;-5812,000
 973,20;  -24,667;13815,833;-6599,000
 973,75;    6,333;14605,833;-5760,000
 974,31;   15,333;14826,833;-6578,000
 974,87;   -5,667;14921,833;-6674,000
 975,42;  -40,667;14507,833;-6727,000
 975,98;  -23,667;13201,833;-6651,000
 976,53;  -17,667;12100,833;-6555,000
 977,09;  -19,667;11353,833;-4624,000
 977,64;  -25,667;11164,833;-6532,000
 978,20;   20,333;10649,833;-6585,000
 978,75;  -42,667;10482,833;-6429,000
 979,31;  -49,667;10950,833;-6513,000
 979,86;   -8,667;12220,833;-6739,000
 980,42;  -37,667;12828,833;-5813,000
 980,97;  -38,667;13290,833;-6642,000
 981,53;   -0,667;14285,833;-6636,000
 982,08;   -9,667;13803,833;-5046,000
 982,64;   26,333;12278,833;-6237,000
 983,19;  -27,667;11308,833;-6760,000
 983,75;  -10,667;10993,833;-6576,000
 984,30;  -29,667;10430,833;-5581,000
 984,86;  -53,667; 9867,833;-5898,000
 985,41;   14,333; 9457,833;-6634,000
 985,97;  -18,667; 9632,833;-4797,000
 986,52;  -24,667; 9894,833;-5853,000
 987,08;   -3,667; 9953,833;-6174,000
 987,63;    8,333;10165,833;-5608,000
 988,19;   -9,667;11252,833;-6266,000
 988,74;   -6,667;11710,833;-5682,000
 989,30;  -17,667;11529,833;-6568,000
 989,85;   15,333;11470,833; -276,000
 990,40;  -16,667;11314,833;-6617,000
 990,96;    0,333;11060,833;-6482,000
 991,51;  -18,667;11149,833;-6578,000
 992,07;  -29,667;10742,833;-6605,000
 992,62;  -41,667;10285,833;-6519,000
 993,18;  -53,667;10035,833;-6504,000
 993,73;   25,333; 9986,833;-6440,000
 994,28;  -26,667; 9800,833;-6464,000
 994,84;  -21,667; 9019,833;-6240,000
 995,39;  -13,667; 8474,833;-2971,000
 995,94;   -5,667; 7953,833;-5673,000
 996,50;  -10,667; 7647,833;-6543,000
 997,05;   -4,667; 7872,833;-3481,000
 997,61;  -21,667; 8363,833;-6489,000
 998,16;  -29,667; 8581,833;-6555,000
 998,71;  -11,667; 8850,833;-6340,000
 999,27;  -16,667; 9115,833;-5223,000
 999,82;    0,333; 8706,833;-4778,000
1000,37;  -43,667; 8661,833;-6520,000
1000,93;    8,333; 8920,833;-6107,000
1001,48;  -16,667; 8799,833;-6543,000
1002,03;  -43,667; 8477,833;-6469,000
1002,59;  -24,667; 8715,833;-5972,000
1003,14;  -12,667; 8758,833;-6113,000
1003,69;   -4,667; 8484,833;-6513,000
1004,25;  -75,667; 8299,833;-6507,000
1004,80;   -0,667; 8322,833;-6266,000
1005,35;  -37,667; 8313,833;-6361,000
1005,91;  -41,667; 8515,833;-6558,000
1006,46;  -29,667; 8426,833;-6084,000
1007,01;   -2,667; 8227,833;-5479,000
1007,56;  -21,667; 8599,833;-6440,000
1008,12;  -29,667; 8342,833;-6178,000
1008,67;   10,333; 7867,833;-6312,000
1009,22;  -31,667; 7509,833;-6481,000
1009,78;   -6,667; 7205,833;-6163,000
1010,33;   -9,667; 6649,833;-6443,000
1010,88;  -21,667; 6413,833;-5618,000
1011,43;  -35,667; 5995,833;-6433,000
1011,99;   15,333; 5972,833;-6198,000
1012,54;  -34,667; 6320,833;-6387,000
1013,09;   18,333; 6048,833;-6299,000
1013,64;  -17,667; 5802,833;-6362,000
1014,19;    9,333; 5823,833;-6442,000
1014,75;   -1,667; 5928,833;-6408,000
1015,30;  -14,667; 6394,833;-6425,000
1015,85;   -1,667; 6370,833;-6367,000
1016,40;  -13,667; 6247,833;-5436,000
1016,96;   65,333; 6235,833;-6268,000
1017,51;  -15,667; 6150,833;-6351,000
1018,06;   19,333; 6095,833;-6310,000
1018,61;  -31,667; 5695,833;-6665,000
1019,16;  -21,667; 5609,833;-6697,000
1019,71;   85,333; 5663,833;-6373,000
1020,27;  -14,667; 5567,833;-6353,000
1020,82;    6,333; 5375,833;-3700,000
1021,37;   23,333; 5405,833;-4798,000
1021,92;    6,333; 5984,833;-6454,000
1022,47;  -22,667; 5965,833;-6548,000
1023,02;   11,333; 5463,833;-6512,000
1023,58;   12,333; 5045,833;-6573,000
1024,13;   28,333; 4730,833;-6258,000
1024,68;   42,333; 4434,833;-6298,000
1025,23;   67,333; 4324,833;-5525,000
1025,78;    4,333; 4613,833;-6475,000
1026,33;   57,333; 4932,833;-5510,000
1026,88;   85,333; 4843,833;-6236,000
1027,43;   54,333; 5167,833;-6276,000
1027,99;   38,333; 5134,833;-6002,000
1028,54;   77,333; 4732,833;-6395,000
1029,09;   73,333; 4106,833;-2478,000
1029,64;  103,333; 3919,833;-6303,000
1030,19;  156,333; 4147,833;-3821,000
1030,74;  140,333; 4243,833;-5134,000
1031,29;  227,333; 4284,833;-4765,000
1031,84;  275,333; 4491,833;-6300,000
1032,39;  260,333; 4563,833;-5403,000
1032,94;  333,333; 4617,833;-4326,000
1033,49;  443,333; 4361,833;-5476,000
1034,04;  498,333; 4236,833;-6312,000
1034,59;  526,333; 4205,833;-6507,000
1035,14;  529,333; 4117,833;-6145,000
1035,69;  535,333; 4318,833;-6224,000
1036,24;  608,333; 4104,833;-4477,000
1036,80;  676,333; 3986,833;-5453,000
1037,35;  686,333; 4138,833;-6347,000
1037,90;  741,333; 4172,833;-6274,000
1038,45;  750,333; 4201,833;-6419,000
1039,00;  803,333; 4340,833;-5490,000
1039,55;  883,333; 4229,833;-6284,000
1040,10;  938,333; 3977,833;-5615,000
1040,65;  989,333; 3916,833;-5576,000
1041,20; 1018,333; 3850,833;-6325,000
1041,75; 1128,333; 4030,833;-4522,000
1042,30; 1156,333; 4164,833;-3585,000
1042,84; 1304,333; 4338,833;-4439,000
1043,39; 1409,333; 4248,833;-6313,000
1043,94; 1482,333; 4175,833;-5342,000
1044,49; 1589,333; 3887,833;-6246,000
1045,04; 1775,333; 3710,833;-5800,000
1045,59; 1965,333; 3809,833;-6299,000
1046,14; 2163,333; 3732,833;-6392,000
1046,69; 2430,333; 3591,833;-6294,000
1047,24; 2615,333; 3623,833;-5510,000
1047,79; 3004,333; 3737,833;-6139,000
1048,34; 3415,333; 4002,833;-5961,000
1048,89; 3960,333; 3948,833;-6259,000
1049,44; 4428,333; 3935,833;-5172,000
1049,99; 5272,333; 3855,833;-4844,000
1050,54; 5903,333; 3876,833;-6249,000
1051,08; 7280,333; 3961,833;-6178,000
1051,63; 9415,333; 4050,833;-5285,000
1052,18;12997,333; 5051,833;-6127,000
1052,73;18607,334; 7151,833;-6173,000
1053,28;27632,334;10516,833;-6386,000
1053,83;39095,332;15224,833;-6214,000
1054,38;49944,332;19203,834;-6254,000
1054,93;54859,332;21243,834;-6285,000
1055,47;60128,332;23825,834;-5328,000
1056,02;61723,332;26212,834;-5832,000
1056,57;65165,332;27830,834;-6198,000
1057,12;65165,332;30497,834;-6378,000
1057,67;65165,332;33805,832;-6078,000
1058,22;65165,332;36084,832;-6313,000
1058,76;65165,332;38542,832;-6093,000
1059,31;65165,332;44129,832;-3514,000
1059,86;65165,332;48778,832;-6204,000
1060,41;65165,332;49718,832;-6152,000
1060,96;65165,332;51396,832;-6226,000
1061,51;65165,332;53649,832;-5344,000
1062,05;65165,332;54082,832;-6122,000
1062,60;65165,332;50555,832;-6061,000
1063,15;65165,332;45221,832;-6149,000
1063,70;65165,332;41550,832;-6250,000
1064,24;65165,332;43676,832;-6169,000
1064,79;65165,332;45461,832;-6144,000
1065,34;65165,332;43989,832;-6064,000
1065,89;65165,332;41776,832;-6202,000
1066,44;65165,332;37631,832;-6120,000
1066,98;65165,332;32612,834;-6224,000
1067,53;65165,332;30790,834;-5953,000
1068,08;65165,332;30368,834;-4845,000
1068,63;65165,332;27618,834;-6096,000
1069,17;65165,332;24647,834;-5893,000
1069,72;65165,332;22350,834;-5857,000
1070,27;65165,332;20529,834;-6040,000
1070,81;65165,332;20388,834;-5996,000
1071,36;65165,332;20367,834;-3883,000
1071,91;65165,332;18745,834;  966,000
1072,46;65165,332;16791,834;-5058,000
1073,00;64812,332;14646,833;-5239,000
1073,55;54742,332;11404,833;-5935,000
1074,10;40379,332; 7803,833;-5981,000
1074,64;26805,334; 5240,833;-5860,000
1075,19;18117,334; 3535,833;-4958,000
1075,74;13129,333; 2551,833;-6091,000
1076,28;10512,333; 2312,833;-6075,000
1076,83; 8842,333; 1951,833;-5286,000
1077,38; 7497,333; 1820,833;-5653,000
1077,92; 6229,333; 1783,833;-6332,000
1078,47; 5561,333; 1629,833;-5507,000
1079,02; 4589,333; 1578,833;-5959,000
1079,56; 4004,333; 1557,833;-5328,000
1080,11; 3549,333; 1304,833;-6094,000
1080,65; 3077,333; 1241,833;-5039,000
1081,20; 2649,333; 1186,833;-6151,000
1081,75; 2367,333; 1125,833;-6039,000
1082,29; 1997,333; 1128,833; -139,000
1082,84; 1729,333; 1184,833;-2678,000
1083,39; 1573,333; 1294,833;-5061,000
1083,93; 1427,333; 1335,833;-5025,000
1084,48; 1238,333; 1196,833;-5961,000
1085,02; 1141,333; 1082,833;-5783,000
1085,57; 1031,333; 1074,833;-5994,000
1086,11;  927,333; 1079,833;-5968,000
1086,66;  916,333;  925,833;-5584,000
1087,21;  842,333; 1060,833;-5802,000
1087,75;  775,333;  939,833;-6125,000
1088,30;  720,333;  815,833;-5040,000
1088,84;  582,333;  783,833;-5963,000
1089,39;  565,333;  656,833;-5965,000
1089,93;  532,333;  664,833;-6100,000
1090,48;  390,333;  649,833;-4394,000
1091,02;  421,333;  733,833;-5181,000
1091,57;  332,333;  629,833;-5479,000
1092,11;  329,333;  642,833;-4094,000
1092,66;  293,333;  624,833;-6031,000
1093,20;  256,333;  580,833;-5180,000
1093,75;  255,333;  566,833;-4998,000
1094,29;  249,333;  486,833;-4979,000
1094,84;  273,333;  525,833;-5890,000
1095,38;  207,333;  528,833;-5097,000
1095,93;  175,333;  584,833;-5981,000
1096,47;  198,333;  615,833;-5612,000
1097,02;  185,333;  587,833;-4985,000
1097,56;  153,333;  614,833;-5772,000
1098,11;  172,333;  552,833;-5774,000
1098,65;  120,333;  508,833;-5992,000
1099,20;  116,333;  577,833;-5935,000
1099,74;  125,333;  487,833;-6002,000
1100,29;  133,333;  513,833;-4879,000
1100,83;   81,333;  496,833;-5934,000

