
Integration time [ms]:   1,000
Averaging Nr. [scans]: 1
Smoothing Nr. [pixels]: 0
Data measured with spectrometer [name]: 1703254U1
Wave   ;Sample   ;Dark     ;Reference;Scope
[nm]   ;[counts] ;[counts] ;[counts] 

 190,08;  -97,255; -370,119;11982,743
 190,69;  -79,050; -359,404;11603,049
 191,29;  -80,549; -311,651;11479,965
 191,90;  -90,080; -365,508;11440,717
 192,50;  -88,366; -379,511;10355,099
 193,10;  -68,020; -446,299;11244,381
 193,71;  -87,188; -367,888; 9821,736
 194,31;  -81,727; -399,273; 9436,327
 194,91;  -81,727; -382,273; 9291,327
 195,52;  -88,473; -338,386;10555,949
 196,12;  -64,807; -397,056; 8671,847
 196,72;  -84,190; -386,394; 8220,904
 197,32;  -87,188; -375,888; 8251,736
 197,93;  -70,483; -360,420; 8700,957
 198,53;  -83,547; -383,145; 7601,797
 199,13;  -90,401; -397,132; 8091,270
 199,74;  -75,623; -366,410; 7263,813
 200,34;  -71,982; -388,667; 7832,874
 200,94;  -69,519; -436,547; 6941,297
 201,55;  -79,050; -406,404; 7119,049
 202,15;  -80,155; -375,773; 6404,732
 202,75; -101,711; -373,217; 6097,647
 203,36;  -60,695; -338,664; 6822,492
 203,96; -116,919; -357,943; 6332,678
 204,56;  -58,122; -355,657;10275,729
 205,16;  -57,511; -363,018; 5478,458
 205,77;  -58,147; -360,244; 4767,892
 206,37;  -51,368; -409,017; 5556,267
 206,97;  -64,009; -363,760; 5129,205
 207,58;  -23,410; -364,166; 5927,278
 208,18;  -35,114; -337,129; 5129,889
 208,78;  -10,544; -404,134; 5295,461
 209,38;  -62,053; -469,415; 4958,385
 209,99;   -2,946; -356,540; 3837,534
 210,59;  -40,552; -361,662; 3890,301
 211,19;  -57,802; -364,538; 3938,343
 211,79;   12,372; -366,927; 4499,316
 212,40;  -67,256; -373,625; 3368,911
 213,00;  -38,475; -388,891; 3903,118
 213,60;  -65,615; -386,882; 2992,972
 214,20;  -84,858; -401,230; 3081,175
 214,81;  -96,683; -422,618; 2884,148
 215,41;  -70,072; -376,979; 3235,877
 216,01;  -81,669; -373,067; 3109,636
 216,61;  -49,620; -367,399; 2814,476
 217,22;  -42,171; -381,326; 2358,888
 217,82; -128,842; -325,173; 2262,495
 218,42;  -65,710; -383,711; 2389,480
 219,02;  -96,314; -288,327; 3432,079
 219,63; -102,930; -357,483; 2044,854
 220,23;  -29,250; -366,602; 2425,239
 220,83;  -71,429; -395,730; 1901,770
 221,43; -122,848; -393,195; 1850,167
 222,03;  -72,633; -348,940; 2326,296
 222,64;  -19,177; -380,348; 1769,560
 223,24;  -19,925; -298,966; 1625,350
 223,84; -101,025; -376,313; 2637,361
 224,44;  -55,277; -316,695; 2381,571
 225,05;  -77,636; -313,952; 1440,632
 225,65;  -79,525; -301,065; 1227,445
 226,25;  -50,495; -364,961; 1139,777
 226,85;  -47,738; -294,309;  995,979
 227,45;  -53,280; -335,706; 1083,907
 228,06;  -38,459; -365,834; 1945,438
 228,66; -101,924; -349,460; 4049,182
 229,26;  -38,918; -313,438; 1131,510
 229,86;  -81,604; -396,342; 1760,797
 230,46;  -73,705; -358,194;  891,976
 231,06;  -85,491; -320,444;  757,273
 231,67;  -69,573; -346,732; 1228,961
 232,27; -117,447; -343,789;  778,094
 232,87;  -90,166; -308,808;  526,384
 233,47; -139,552; -321,158;  525,777
 234,07;  -16,217; -268,486; 9912,235
 234,67;  -79,940; -291,013;  672,338
 235,28; -119,552; -319,158;   65,777
 235,88;  -81,474; -316,882;  285,426
 236,48;  -59,313; -350,821;  165,911
 237,08;  -52,984; -267,669;  448,518
 237,68; -148,615; -369,378; -267,552
 238,28;  -74,157; -304,774; -106,624
 238,89;  -85,581; -212,756; -205,723
 239,49;  -80,800; -282,023; 1280,483
 240,09; -108,681; -284,608; -190,544
 240,69; -124,185; -251,373; -319,124
 241,29;  -66,121; -289,647;  651,036
 241,89;  -81,549; -330,147; -260,559
 242,49;  -86,362; -248,490; -358,930
 243,10;  -81,935; -201,496; 3664,834
 243,70; -101,362; -284,490;  239,070
 244,30;  -78,365; -275,501; -708,594
 244,90; -119,389; -188,582; -568,598
 245,50;  -91,609; -177,355; 3274,777
 246,10; -100,118; -307,636; -831,300
 246,70; -118,650; -300,999;   17,620
 247,30;  -75,548; -251,641;  326,273
 247,91; -103,713; -208,218; 5781,292
 248,51;  -68,573; -270,228; -806,563
 249,11;  -23,511; -239,514;  417,933
 249,71;  -82,510; -303,008; -667,235
 250,31;  -24,789; -265,483; -567,693
 250,91;  -78,222; -238,500;   75,216
 251,51;  -64,286; -199,225; -822,945
 252,11;  -68,455; -239,813;  367,410
 252,71;  -53,970; -269,117;-1080,994
 253,31;  -68,036; -222,348; 3228,013
 253,91;  -71,959; -236,578; -676,170
 254,52;  -79,463; -237,342;-1063,750
 255,12;  -48,789; -293,483;-1104,693
 255,72;    0,388; -206,366;  557,112
 256,32;  -52,954; -242,061; -966,674
 256,92;  -36,814; -190,070;-1147,529
 257,52;  -24,500; -173,974; -883,243
 258,12;  -96,247; -201,087;  -91,621
 258,72;  -42,168; -210,810;-1232,972
 259,32;  -24,889; -211,335;-1169,514
 259,92;   -5,459; -199,330;-1343,086
 260,52;   17,643; -192,973;-1077,433
 261,12;  -50,811; -202,059; -662,865
 261,72;  -59,066; -238,452;-1312,319
 262,32;   -2,965; -215,600;-1561,498
 262,92;  -75,773; -238,426;  405,627
 263,53;   -3,422; -189,698;-1277,594
 264,13; -101,204; -262,937; -268,632
 264,73;  -50,280; -217,202;-1694,617
 265,33;  -35,313; -188,317;-1708,613
 265,93;  -34,167; -147,304;-1345,140
 266,53;  -61,664; -161,046;-1544,392
 267,13;  -84,697; -139,161; -857,388
 267,73;  -25,411; -185,158;  270,230
 268,33;  -64,444; -166,274;-1788,766
 268,93;  -51,281; -213,708;-1702,449
 269,53;  -33,985; -204,670; -644,839
 270,13;  -50,022; -201,797;-1810,499
 270,73;  -79,590; -245,287;-1891,239
 271,33;   -3,702; -200,678;-1778,884
 271,93;  -39,628; -242,919;-1867,732
 272,53;   -4,723; -121,748;    8,776
 273,13;    2,441; -146,677;-1117,075
 273,73;  -77,152; -119,753;-1955,652
 274,33;  -58,916; -148,428;-2041,182
 274,93;  -67,225; -188,007;-1843,972
 275,53;  -49,723;  -68,748;-1881,224
 276,13;  -92,499; -121,965;-2261,935
 276,73;  -68,041; -118,361;-1570,007
 277,33;  -61,086; -179,522;-1926,659
 277,93;    6,155; -213,680;-1864,693
 278,53;  -16,373; -194,526;-2112,278
 279,13;  -46,653; -125,506;-2152,568
 279,73;  -46,937; -140,498;-1388,522
 280,33;  -16,439; -154,756;-2179,270
 280,93;    9,922; -105,994;-2049,499
 281,53;  -17,334; -147,387;-2252,953
 282,13;  -46,184; -127,363;-2193,816
 282,73;  -97,759; -156,875; -385,885
 283,33;  -22,472; -137,872;-2307,266
 283,92;  -11,074;  -74,477;-2028,003
 284,52;  -21,112;  -94,109;-2365,496
 285,12;  -26,230; -138,524;-1425,469
 285,72;    4,235; -126,898;-1041,213
 286,32;   -7,686;  -55,622;-1313,564
 286,92;  -47,943; -163,521;-2376,850
 287,52;   62,200;  -89,519;-2170,041
 288,12;   17,988;  -97,763;-2542,507
 288,72;   13,087; -106,417;-1625,518
 289,32;   22,499;  -54,470; 1692,233
 289,92;  -30,157; -106,270;-2344,148
 290,52;  -41,883;  -91,809;-2485,710
 291,12;   43,778;  -57,996;-1570,308
 291,72;   -8,074;  -74,477;-1590,003
 292,32;   29,596;  -83,135;-2372,442
 292,92;   47,281;   -2,737;-2481,560
 293,51;   14,321;  -37,093;-2532,404
 294,11;   79,885;  -42,121;-1681,160
 294,71;   40,923;   -7,488;-2695,667
 295,31;   61,707;  -24,743;-1755,797
 295,91;  121,706;   46,751;-2713,629
 296,51;   69,536;   62,656;-1776,106
 297,11;   87,794;   35,061;-2900,988
 297,71;   64,814;    4,131;-2726,648
 298,31;   89,843;   38,730;-2329,148
 298,91;  145,136;   74,756;-2483,202
 299,50;  121,747;   41,395;-2689,473
 300,10;  190,602;  145,887;-2706,114
 300,70;  158,356;   95,528;-2492,576
 301,30;  198,421;   89,253;-2855,415
 301,90;  151,991;   96,248;-2004,843
 302,50;  175,103;  163,640;-2515,198
 303,10;  252,385;  124,126;-2530,076
 303,70;  200,822;  208,660;-3000,488
 304,29;  150,325;  189,918;-2658,740
 304,89;  151,400;  266,183;-1090,755
 305,49;  163,611;  163,922;-2773,122
 306,09;  284,958;  214,133;-2874,839
 306,69;  273,416;  262,736;-2915,911
 307,29;  256,596;  312,865;-2008,442
 307,89;  270,893;  303,408;-3029,000
 308,48;  302,712;  341,774;-2453,301
 309,08;  449,203;  369,492;-2743,377
 309,68;  518,068;  377,019;-3094,026
 310,28;  676,235;  371,102;-2576,213
 310,88;  675,695;  321,211;-2936,453
 311,48;  555,920;  447,500;-2875,331
 312,07;  801,311;  408,367;-2963,228
 312,67;  827,736;  497,855;-2128,297
 313,27;  714,334;  494,448;-1105,224
 313,87;  773,451;  583,357;-2164,083
 314,47;  753,336;  516,954;-3030,392
 315,06;  669,975;  620,191; 2713,837
 315,66;  565,345;  579,988;-3245,400
 316,26;  736,903;  632,938;-1844,483
 316,86;  837,625;  777,969;-3140,110
 317,46;  831,008;  720,307;-2115,167
 318,06;  727,010;  739,813; -825,335
 318,65;  869,007;  781,801;-2807,999
 319,25;  893,720;  821,798;-3195,617
 319,85;  958,967;  932,663;-2908,323
 320,45; 1034,859;  986,283;-3213,304
 321,05; 1102,856;  901,271;-2761,968
 321,64; 1125,501;  889,531;-3219,411
 322,24; 1540,167; 1056,861;-3265,513
 322,84; 1921,166; 1080,356;-3261,345
 323,44; 2933,882; 1133,364;-3219,300
 324,03; 7388,489; 1194,486;-3072,067
 324,63; 9376,479; 1250,452;-2310,059
 325,23; 5231,901; 1241,928;-3097,792
 325,83; 2491,928; 1367,021;-2876,123
 326,42; 3991,243; 1442,622;-3285,005
 327,02; 7210,938; 1476,551;-3076,607
 327,62; 6836,675; 1439,629;-2505,221
 328,22; 4086,206; 1553,486;-3234,973
 328,82; 3522,078; 1577,037;-2229,938
 329,41; 3083,883; 1658,852;-3016,728
 330,01; 3488,855; 1652,750;-2961,704
 330,61; 4007,945; 1806,062;-2928,707
 331,20; 3330,877; 1778,325;-2868,531
 331,80; 2795,074; 1762,512;-2794,386
 332,40; 2494,385; 1752,102;-2896,932
 333,00; 2469,405; 1933,667;-2790,423
 333,59; 2479,435; 1748,771;-2855,091
 334,19; 2552,142; 1920,745;-1771,037
 334,79; 2482,819; 1712,615;-2861,316
 335,39; 2398,334; 1729,919;-2978,912
 335,98; 2490,560; 1726,714;-3126,958
 336,58; 2212,149; 1659,777;-3191,401
 337,18; 2345,292; 1720,779;-2958,592
 337,77; 2354,452; 1782,837;-2098,463
 338,37; 2244,886; 1806,359;-2021,540
 338,97; 2034,036; 1907,384;-2912,402
 339,57; 2047,055; 1862,948;-3044,894
 340,16; 2115,050; 1836,431;-2881,390
 340,76; 2016,559; 1962,712;-3053,314
 341,36; 2037,619; 1861,920;-3195,650
 341,95; 1879,500; 1934,506;-3027,623
 342,55; 1876,356; 1918,998;  703,736
 343,15; 1798,971; 2048,155;-3094,039
 343,74; 1811,540; 1924,644;-2382,298
 344,34; 1956,718; 1860,267;-3015,661
 344,94; 2251,650; 2068,530;-3069,485
 345,53; 2116,433; 2110,769;-2860,447
 346,13; 1991,184; 2174,398;-1283,573
 346,73; 2043,634; 1966,473;-2254,805
 347,32; 2200,970; 2268,649;-3080,871
 347,92; 2279,671; 2312,600;-2277,145
 348,52; 2059,077; 2270,523;-1878,722
 349,11; 1797,513; 2336,551;  975,034
 349,71; 1819,830; 2330,658;-3240,016
 350,31; 1977,181; 2441,387;-2672,237
 350,90; 2168,904; 2483,418;-2326,863
 351,50; 2260,600; 2390,852;-2105,634
 352,10; 2407,819; 2471,119;-3114,840
 352,69; 2445,291; 2532,273;-3182,424
 353,29; 2185,648; 2563,024;-3191,317
 353,89; 2000,364; 2645,527;-3255,104
 354,48; 2059,819; 2693,119;-3208,840
 355,08; 1892,779; 2871,980;-1117,164
 355,67; 1799,225; 2850,042;-2951,417
 356,27; 1741,678; 2839,128;-3232,985
 356,87; 1763,581; 3010,288;-3383,142
 357,46; 1789,050; 3049,431;-2351,390
 358,06; 1923,867; 3306,291;-3073,523
 358,66; 1953,357; 3337,504;-3109,432
 359,25; 2484,439; 3260,792;-2344,119
 359,85; 2844,546; 3365,667;-3215,970
 360,44; 2543,789; 3389,015;-3292,172
 361,04; 2401,971; 3567,155;-2367,039
 361,64; 2370,971; 3696,155;-2309,039
 362,23; 2452,504; 3772,517;-2932,958
 362,83; 2164,110; 3755,639;-2990,726
 363,42; 2102,433; 3938,769;-2836,447
 364,02; 2165,508; 3910,034;-2973,462
 364,62; 2109,184; 3816,398;-2486,573
 365,21; 2115,052; 3857,937;-1741,558
 365,81; 2126,732; 3935,818;-2792,173
 366,40; 2001,944; 3970,062;-2080,707
 367,00; 1972,370; 4021,550;-2952,776
 367,59; 1998,878; 4071,831;-2979,699
 368,19; 2056,549; 4221,678;-3237,306
 368,79; 2077,275; 4198,720;-3125,268
 369,38; 1983,984; 4107,200;-2250,383
 369,98; 2099,338; 4101,940;-2935,940
 370,57; 2044,809; 4188,588;-3331,356
 371,17; 1884,458; 4164,860;-3326,135
 371,76; 1817,922; 4277,486;-3442,879
 372,36; 1876,669; 4057,598;-3195,501
 372,95; 1803,033; 4115,372;  667,934
 373,55; 1895,497; 4105,998;-3393,811
 374,14; 2055,240; 4300,099;-3405,097
 374,74; 1975,359; 4256,514;-3224,124
 375,34; 1915,777; 4286,979;-3189,521
 375,93; 2023,349; 4295,479;-2706,116
 376,53; 2001,522; 4344,585;-3575,974
 377,12; 2026,833; 4405,670;-1465,352
 377,72; 2007,135; 4480,730;-3410,414
 378,31; 2084,935; 4511,027;-2274,699
 378,91; 1968,907; 4291,429;-3262,199
 379,50; 2078,989; 4588,213;-3331,363
 380,10; 2038,135; 4327,226;-3398,890
 380,69; 1953,534; 4094,621;-2343,626
 381,29; 1990,423; 4586,735;-2550,439
 381,88; 2009,430; 4518,758;-1605,111
 382,48; 1834,707; 4519,727;-3286,485
 383,07; 1862,601; 4495,358;-3457,802
 383,67; 1792,430; 4635,758;-1847,111
 384,26; 1758,211; 4667,491;-2467,905
 384,86; 1767,313; 4921,849;-3182,252
 385,45; 1741,823; 4932,636;-3325,344
 386,05; 1806,387; 5073,608;-3419,100
 386,64; 1711,894; 4911,384;-3524,855
 387,24; 1685,893; 5016,878;-2585,688
 387,83; 1665,074; 4993,512;-2489,386
 388,42; 1721,598; 5182,346;-2109,466
 389,02; 1738,570; 5423,748;-3235,966
 389,61; 1735,652; 5688,036;-3413,653
 390,21; 1738,893; 5729,878;-3463,688
 390,80; 1655,611; 5816,392;-3208,810
 391,40; 1752,756; 6137,899;-2293,168
 391,99; 1693,099; 5981,099;-3195,550
 392,59; 1784,428; 6435,252;-2416,943
 393,18; 1754,184; 6683,398;-2491,573
 393,77; 1711,840; 6883,198;-3238,192
 394,37; 1796,686; 7145,657;-2198,825
 394,96; 1721,614; 7098,403;-2296,146
 395,56; 1698,809; 7264,588;-2834,356
 396,15; 1774,869; 6867,797;-3125,692
 396,75; 1709,688; 7343,163;-2889,993
 397,34; 1857,338; 7669,940;-2620,940
 397,93; 1814,981; 7720,188;-3358,047
 398,53; 1877,288; 7595,262;-2525,088
 399,12; 2021,645; 8192,013;-2154,981
 399,72; 2020,819; 8013,119;-2274,840
 400,31; 1986,250; 8034,629;-3169,581
 400,91; 2092,502; 8446,012;-2959,791
 401,50; 2127,841; 8820,198;-2330,192
 402,09; 2322,020; 8550,327;-2894,722
 402,69; 2252,837; 8691,187;-3072,856
 403,28; 2178,260; 9052,663;-2983,588
 403,88; 2286,229; 9162,560; 1927,079
 404,47; 2376,878; 9689,831;  884,300
 405,06; 2359,404; 9684,171;  -68,947
 405,66; 2622,803; 9753,565;-2875,684
 406,25; 2889,275;10085,720;-3119,268
 406,84; 2629,978;10446,177;-2892,711
 407,44; 2455,314;10847,858;-2219,944
 408,03; 2241,000;10422,257;-2906,063
 408,63; 1978,951;10373,085;-3011,379
 409,22; 1966,379;10191,584;-1945,783
 409,81; 1872,214;10681,007;-1849,765
 410,41; 1981,378;11553,078;-2857,615
 411,00; 1932,173;11336,362;-1814,921
 411,59; 1939,104;11251,120;-2826,578
 412,19; 1963,026;11468,350;-2245,394
 412,78; 1848,277;11399,226;-2830,436
 413,37; 1928,034;12151,878;-2704,234
 413,97; 1786,215;12410,512;-2618,933
 414,56; 1782,642;12071,506;-2503,169
 415,15; 1886,896;12410,394;-2121,547
 415,75; 1858,251;12408,639;-2698,272
 416,34; 1844,713;12590,254;-1893,681
 416,93; 1924,796;12922,047;-2777,536
 417,53; 1997,403;12696,169;-1423,303
 418,12; 1965,007;12570,785;-2217,903
 418,71; 1914,237;12907,592;-2673,285
 419,31; 1993,267;13054,695;-1884,952
 419,90; 1919,872;13470,313;-2786,552
 420,49; 1922,582;13619,298;-1733,834
 421,08; 1902,582;14201,298;-1674,834
 421,68; 1948,332;14723,421;-1908,792
 422,27; 1941,163;14035,832;-2004,437
 422,86; 2071,089;13874,073; -437,590
 423,46; 2003,099;14080,107;-2575,598
 424,05; 2029,247;14376,626;-2928,293
 424,64; 2180,626;13888,953;-2640,014
 425,24; 2308,239;14092,098;-2903,453
 425,83; 2113,144;13992,269;-2680,945
 426,42; 2153,247;12987,626;-2760,293
 427,01; 3265,707;13424,734;-2674,533
 427,61; 3375,746;14347,873;-2609,209
 428,20; 2395,968;14036,151;-1764,751
 428,79; 2126,368;14414,052;-2859,656
 429,38; 2154,604;14092,377;-1781,186
 429,98; 2094,217;14922,521; -994,625
 430,57; 2110,746;15058,873;-2193,209
 431,16; 2046,607;14580,389;-2784,522
 431,75; 2153,898;14357,909; -561,407
 432,35; 2214,039;13435,899;-1951,262
 432,94; 2211,977;14429,186;-2324,759
 433,53; 2325,461;14560,375;-1152,995
 434,12; 2472,724;14431,298;-2267,381
 434,72; 2469,733;14188,331;-1413,389
 435,31; 2524,695;14167,699; 7395,119
 435,90; 2528,911;14308,954; 8338,249
 436,49; 2407,448;13427,834; -683,175
 437,08; 2631,625;13895,951; -675,370
 437,68; 2787,875;14442,827;-2987,412
 438,27; 2565,563;14610,237;-2610,866
 438,86; 2216,305;14612,832;-1147,984
 439,45; 2120,023;15313,346;-1937,106
 440,05; 1931,528;15955,616;-2982,694
 440,64; 1893,034;15054,886;-1902,282
 441,23; 1933,645;14152,525;-1415,553
 441,82; 1867,843;13700,218;-2631,576
 442,41; 1649,146;14351,277;-3014,637
 443,00; 1512,473;13625,925;-2724,863
 443,60; 1551,604;14373,881;-3136,710
 444,19; 1591,078;15026,541;-1440,462
 444,78; 1543,109;14960,151;-3012,298
 445,37; 1500,865;15728,297;-2522,928
 445,96; 1461,566;15331,249;-3116,202
 446,56; 1486,505;15596,535;-1144,698
 447,15; 1473,974;16225,678; -884,947
 447,74; 1569,898;17097,412;-2709,931
 448,33; 1561,799;16443,066;-1985,920
 448,92; 1499,335;15422,440;-2964,176
 449,51; 1506,157;15095,817;-2848,813
 450,10; 1881,802;15133,078;-3063,256
 450,70; 2314,763;14904,939;-1957,581
 451,29; 2017,835;15329,193;-1112,260
 451,88; 1658,401;15513,671;-2929,183
 452,47; 1659,796;16565,055;-2795,584
 453,06; 1789,494;16495,498;-2401,047
 453,65; 2152,172;16071,874;-2873,493
 454,24; 1868,564;17329,246;-2173,558
 454,84; 1534,268;17793,209;-1379,168
 455,43; 1408,207;18732,496;-2219,665
 456,02; 1434,917;18879,480;-2927,947
 456,61; 1310,911;17317,459;-2925,275
 457,20; 1449,741;16921,363;-2786,753
 457,79; 1707,531;17588,131;-2922,554
 458,38; 2532,998;18338,264;-2132,467
 458,97; 2332,820;18039,641;-2515,104
 459,56; 1656,631;18190,479;-2760,565
 460,16; 1572,568;17832,258;-2082,894
 460,75; 1569,070;18157,518;-2072,146
 461,34; 1422,319;18077,887;-2962,020
 461,93; 1481,260;18381,186;-2200,853
 462,52; 1523,144;19333,275;-2744,993
 463,11; 1605,975;20546,688;-1989,639
 463,70; 1844,963;19458,643;-2869,295
 464,29; 2485,374;19945,082;-3150,376
 464,88; 3855,295;20795,807;-2743,024
 465,47; 3218,004;19885,285;-2748,139
 466,06; 1925,268;20915,713;-3191,692
 466,65; 1913,942;21667,572;-3018,635
 467,24; 2197,021;22030,848;-2539,986
 467,84; 2104,397;22443,164;-2020,371
 468,43; 1856,508;22325,051;-2238,559
 469,02; 1902,971;23517,170;-2702,135
 469,61; 2105,475;24168,936;-2593,555
 470,20; 2425,654;23781,063;-2841,085
 470,79; 2049,950;22760,100;-3232,475
 471,38; 1585,482;25266,463;-2192,395
 471,97; 1510,988;26009,732; -666,983
 472,56; 1439,317;25472,887;-3035,376
 473,15; 1483,914;25296,975;-2825,135
 473,74; 1371,451;26395,854;-3106,559
 474,33; 1469,878;25866,848;-2957,796
 474,92; 1445,449;27630,348;-3146,391
 475,51; 1567,350;29609,002;-2873,380
 476,10; 1688,060;29847,986;-3011,662
 476,69; 1754,569;26101,268;-2855,586
 477,28; 1839,194;25846,955;-2956,845
 477,87; 1542,813;27035,121; -173,956
 478,46; 1748,818;28695,639;-3029,460
 479,05; 2051,807;30507,100;-2134,284
 479,64; 2086,994;31679,756;-2718,655
 480,23; 1811,352;29541,508;-2845,548
 480,82; 1731,920;28549,996;-2736,807
 481,41; 1858,638;29371,510;-1873,929
 482,00; 1752,174;29284,885;-1364,185
 482,59; 1852,063;29593,998;-2298,998
 483,18; 1790,419;31702,244;-2376,723
 483,77; 1812,246;31703,139;-2193,865
 484,36; 1773,350;32475,002;-1701,380
 484,95; 1861,895;32990,410; -788,643
 485,54; 1994,073;35331,031;-1371,006
 486,13; 2245,777;35762,996; -945,616
 486,72; 2323,103;34334,137;  148,326
 487,31; 1986,145;31046,285;-1109,686
 487,89; 1958,245;32608,633; -193,697
 488,48; 2039,396;33798,164;-1523,728
 489,07; 2139,046;32913,941;-1248,674
 489,66; 2289,391;33511,645;-1505,224
 490,25; 2546,292;31095,299; -660,212
 490,84; 3002,885;34127,375;-1683,635
 491,43; 3420,385;34965,621; -701,552
 492,02; 3527,964;36094,652;-1864,987
 492,61; 3426,607;35362,902;-1043,094
 493,20; 3500,471;33776,426;-2019,743
 493,79; 3504,044;32749,434; 4824,494
 494,38; 3306,076;33706,043;-1938,342
 494,97; 3230,473;32583,934; -629,911
 495,55; 2898,295;34690,309;-2325,548
 496,14; 2832,358;35087,531;-2403,220
 496,73; 2673,654;35451,566;-1952,609
 497,32; 2504,084;34211,570;-2587,182
 497,91; 2513,762;35005,949;-1921,629
 498,50; 2478,262;34165,195;-2912,544
 499,09; 2436,084;34554,570;-3088,182
 499,68; 2529,369;32403,070;-2405,396
 500,27; 2573,950;33321,605;-2490,999
 500,85; 2642,408;32655,207;-2604,071
 501,44; 2777,018;32478,342;-2576,175
 502,03; 2596,051;33194,457;-3368,178
 502,62; 2469,226;31275,068;-3438,205
 503,21; 2527,123;29432,711;-3532,858
 503,80; 2300,948;32028,100;-2976,831
 504,39; 2209,668;32451,119;-3458,121
 504,97; 2380,772;31774,982;-3577,636
 505,56; 2508,660;31537,590;-2979,281
 506,15; 2610,588;32302,336;-3991,602
 506,74; 2764,096;32557,617;-2945,526
 507,33; 2865,633;32185,498;-3165,949
 507,92; 2745,022;33952,859;-3871,678
 508,51; 2434,055;35926,973;-3735,682
 509,09; 2505,243;34536,629;-3921,053
 509,68; 3340,636;34318,508;-3748,286
 510,27; 5122,180;33667,410;-3799,381
 510,86; 4041,424;32572,264;-4081,751
 511,45; 2245,780;33677,512;-3843,476
 512,03; 2250,879;34524,855;-3829,488
 512,62; 2227,052;36240,961;-3780,346
 513,21; 2374,145;33870,789;-3186,209
 513,80; 3041,430;34644,289;-3501,423
 514,39; 5240,244;32752,137;-3905,221
 514,97; 7878,429;35347,781;-4095,255
 515,56; 5875,362;34167,551;-4198,248
 516,15; 2718,937;35428,063;-3955,179
 516,74; 2179,153;32584,318;-4420,049
 517,33; 1984,115;33459,688;-3549,542
 517,91; 1877,469;33935,426;-4188,099
 518,50; 1946,603;32563,393;-3264,282
 519,09; 2224,599;33942,875;-3157,778
 519,68; 2596,786;35231,531;-4286,148
 520,26; 3402,932;38679,547;-4232,675
 520,85; 6471,966;39452,660;-4352,679
 521,44;11708,227;40826,078;-4358,897
 522,03; 8704,359;39485,539;-4271,912
 522,61; 3159,227;36773,078;-4364,897
 523,20; 2121,230;33924,090;-4337,233
 523,79; 1852,802;32040,590;-4337,828
 524,38; 1660,117;32850,191;-4344,709
 524,96; 1570,690;35883,199;-4321,473
 525,55; 1480,476;36021,449;-4542,771
 526,14; 1353,411;34018,723;-4434,931
 526,73; 1365,940;32852,074;-4389,515
 527,31; 1301,583;32903,324;-4488,622
 527,90; 1426,476;33630,449;-4564,771
 528,49; 1653,901;34155,938;-2529,839
 529,08; 2049,446;34601,344;-3467,103
 529,66; 1824,189;34848,445;-3911,389
 530,25; 1295,871;35279,832;-4414,172
 530,84; 1281,732;35334,348;-4583,485
 531,42; 1197,806;38583,105;-4365,332
 532,01; 1124,342;37528,480;-4291,588
 532,60; 1030,240;34512,125;-4473,241
 533,18; 1088,087;35538,086;-4078,042
 533,77; 1038,057;34969,984;-4236,374
 534,36; 1033,195;34459,469;-4374,061
 534,95; 1261,912;35483,477;-4088,015
 535,53; 1298,373;34236,090; -974,424
 536,12; 1215,340;36469,977;-2657,420
 536,71; 1089,413;36511,230;-3869,099
 537,29; 1194,525;36073,621;-3618,454
 537,88; 1131,227;33908,078;-3454,897
 538,47; 1164,880;32497,867;-2840,180
 539,05; 1200,129;36837,238;-2139,054
 539,64; 1154,747;40414,898;-1785,997
 540,22; 1140,528;37414,633; -764,790
 540,81; 1231,994;37501,766; 1008,297
 541,40; 1078,241;39018,629; 3425,591
 541,98; 1065,699;38188,230; 4858,519
 542,57; 1100,340;39368,977; 4597,580
 543,16; 1044,808;38645,613; 4952,500
 543,74; 1080,199;35774,480; 4083,603
 544,33; 1059,457;36297,883; 3620,721
 544,92; 1037,743;37217,887; 3973,339
 545,50; 1183,915;37338,488;11456,648
 546,09; 1190,337;40064,965;11359,916
 546,67; 1121,554;41948,727; 2857,878
 547,26; 1091,517;40050,094; -202,615
 547,85; 1060,751;39208,414; -567,501
 548,43; 1018,811;38452,625; -849,836
 549,02; 1011,846;39427,246;-1040,008
 549,60; 1016,062;40570,500; -984,878
 550,19; 1025,203;41166,996;-2192,901
 550,78;  946,740;42660,875;-2328,325
 551,36;  989,389;45349,148;-2432,104
 551,95;  998,307;45443,859; -585,416
 552,53; 1008,279;43280,262; -296,916
 553,12; 1115,786;41420,035;-3431,672
 553,70; 1053,074;43188,547;-2878,222
 554,29; 1031,350;44058,008;-2869,428
 554,88; 1056,680;41831,668;-4247,989
 555,46;  964,069;43723,027;-3881,718
 556,05;  949,414;45007,734;-4207,268
 556,63;  993,709;45206,266;-3396,489
 557,22;  944,093;43875,109;-3394,714
 557,80;  971,707;41749,762;-3568,321
 558,39;  956,132;44188,250;-4145,390
 558,97;  862,600;47993,887;-3699,470
 559,56;  997,386;49889,137;-4544,768
 560,15;  952,030;50117,891;-3611,042
 560,73;  950,962;49814,152;-4287,867
 561,32; 1056,665;47024,609;-3741,309
 561,90;  933,750;46041,910;-4382,333
 562,49; 1050,882;48487,371;-3786,348
 563,07; 1021,028;48074,387;-4783,875
 563,66; 1060,243;50064,133;-4352,577
 564,24; 1088,959;49228,145;-4763,531
 564,83; 1029,394;51344,664;-4603,607
 565,41; 1067,025;53840,375;-4329,539
 566,00; 1004,822;52202,164;-2755,012
 566,58; 1080,169;56465,375;-3725,729
 567,17; 1081,635;56909,508;-4280,642
 567,75; 1042,167;52392,871;-4653,562
 568,34;  974,567;55893,770;-3216,466
 568,92; 1012,430;55738,793;-3987,947
 569,51; 1376,317;54852,895; 2680,576
 570,09; 1391,602;58247,391;-4676,638
 570,68; 1038,721;53188,313;-4788,833
 571,26;  885,703;50733,242;-3886,817
 571,85;  965,701;57347,738;-4822,649
 572,43;  867,455;57011,379;-4704,111
 573,01;  843,312;52662,375;-4873,920
 573,60;  914,636;53819,012;-3785,810
 574,18;  879,279;55122,262;-4514,917
 574,77;  805,569;53284,277;-4737,634
 575,35;  885,636;56113,012;-4452,810
 575,94;  954,424;57300,770;-4076,275
 576,52;  896,852;54049,270;-2249,680
 577,11;  996,288;51620,297;-3244,924
 577,69; 2306,791;48685,555;-3183,176
 578,27; 2350,203;51008,996;-3447,901
 578,86; 1092,931;55198,543;-2994,031
 579,44;  882,920;60080,004;-2805,855
 580,03;  957,529;60164,137;-2493,958
 580,61;  886,139;60267,270;-3206,062
 581,19;  879,391;56429,652;-2538,271
 581,78;  868,150;55361,813;-2364,238
 582,36;  802,213;57656,031;-2911,909
 582,95;  890,395;56180,172;-1497,776
 583,53;  886,358;59586,539;-2319,268
 584,11;  915,313;61608,883;-2241,088
 584,70;  917,964;61691,660;-1948,035
 585,28;  936,318;62070,398;-1853,592
 585,87;  881,326;60436,930;-2889,432
 586,45;  809,931;63023,543;-2375,031
 587,03;  734,898;64945,430;-1150,027
 587,62;  776,244;61494,641;-1834,745
 588,20;  811,428;62236,285;-1020,779
 588,78;  786,729;58157,840;-3411,673
 589,37;  864,852;57765,270;-3360,680
 589,95;  839,710;62238,773;-3385,657
 590,54;  835,501;63633,539;-3461,459
 591,12;  866,718;62116,301;-3508,497
 591,70;  839,143;59586,789;-3331,565
 592,29;  825,433;62881,805;-2923,283
 592,87;  820,025;63542,375;-2394,538
 593,45;  879,290;63404,801; 1487,908
 594,04;  762,972;62800,188;-3676,875
 594,62;  820,750;59709,910;-3708,333
 595,20;  731,583;62066,828;-4371,146
 595,79;  849,285;62681,285;-4165,588
 596,37;  816,791;61108,555;-3657,176
 596,95;  768,965;56922,164;-4321,203
 597,53;  798,567;58806,770;-4226,466
 598,12;  811,753;61848,922;-3959,669
 598,70;  799,928;64932,531;-3776,695
 599,28;  867,025;64911,375;-3404,538
 599,87;  834,284;64929,777;-3061,420
 600,45;  840,002;64938,293;-3907,543
 601,03;  827,570;63145,781;-4100,802
 601,62;  848,972;61727,188;-4468,875
 602,20;  821,465;59786,414;-4541,119
 602,78;  784,795;64399,070;-4770,680
 603,36;  805,861;64783,301;-3166,688
 603,95;  762,569;58863,277;-4492,634
 604,53;  758,998;62401,281;-4574,207
 605,11;  781,992;59505,258;-2755,535
 605,69;  788,249;62362,156;-3365,249
 606,28;  778,433;62594,805;-4223,283
 606,86;  825,324;61629,422;-3946,264
 607,44;  819,074;60431,547;-3906,222
 608,02;  720,576;58047,805;-4037,474
 608,61;  777,680;60099,668;-2866,989
 609,19;  778,038;58582,418;-2582,882
 609,77;  893,181;57398,422; -710,073
 610,35;  838,000;55748,785; 5794,625
 610,94;  876,039;56509,926;14509,949
 611,52;  889,680;55803,668;12610,011
 612,10;  808,906;53026,957; 8432,133
 612,68;  720,046;56637,949; 2694,278
 613,26;  720,647;57037,551; 2032,015
 613,85;  714,183;61759,926; -599,241
 614,43;  706,323;62306,918;-1030,096
 615,01;  716,975;62272,199;-1215,211
 615,59;  751,298;64874,328; -972,932
 616,17;  759,104;59402,648;-2561,890
 616,76;  808,600;62178,887;-2993,470
 617,34;  907,630;62666,988;-2389,138
 617,92;  761,567;58547,770;-3399,466
 618,50;  823,391;61202,652;-2562,271
 619,08;  741,356;57928,031;-2514,100
 619,67;  766,822;55968,164;-3196,012
 620,25;  773,244;54290,641;-2743,745
 620,83;  810,002;50498,293;-3495,543
 621,41;  800,003;52314,797;-2800,711
 621,99;  780,967;54560,672;-2529,371
 622,57;  807,673;55529,141;-3707,149
 623,15;  845,028;56213,387;-3783,875
 623,74;  805,561;58266,746;-3892,794
 624,32;  819,277;59330,754;-2827,749
 624,90;  792,890;58625,898;-2311,188
 625,48;  832,359;57897,043;-3132,436
 626,06;  850,602;56898,391;-4006,638
 626,64;  827,920;57787,004;-4162,855
 627,22;  778,353;58993,020;-3409,764
 627,81;  727,666;58046,117;-4334,478
 628,39;  769,102;57121,145;-4560,722
 628,97;  776,145;56597,293;-4437,733
 629,55;  773,704;55377,750;-4219,985
 630,13;  805,139;55669,270;-2959,062
 630,71;  694,173;54162,891;-2747,233
 631,29;  705,569;53129,277;-3824,634
 631,87;  752,491;52776,504;-4223,451
 632,45;  699,104;52786,648;-4716,890
 633,03;  720,918;54183,500;-4191,688
 633,62;  732,998;55423,281;-4714,207
 634,20;  728,539;54882,172;-4089,966
 634,78;  739,490;56497,000;-4430,283
 635,36;  692,817;56701,648;-4449,508
 635,94;  719,885;55183,383;-5398,684
 636,52;  728,531;51027,645;-5422,126
 637,10;  668,965;52116,164;-5488,203
 637,68;  644,498;50694,527;-4702,123
 638,26;  643,847;47618,750;-5536,176
 638,84;  667,176;48688,902;-5421,569
 639,42;  625,965;49235,164;-3756,203
 640,00;  635,100;51366,148;-5405,726
 640,58;  688,883;54579,402;-4806,027
 641,16;  683,666;55521,656;-5571,328
 641,74;  622,449;53214,906;-5433,630
 642,32;  654,232;50106,160;-5620,931
 642,90;  625,016;50434,414;-5856,232
 643,48;  639,799;49231,668;-5786,534
 644,06;  641,582;49280,922;-5796,835
 644,64;  600,365;49595,176;-5842,137
 645,22;  568,148;50513,430;-5562,438
 645,80;  611,932;50547,684;-4957,740
 646,39;  544,715;48107,938;-5515,041
 646,97;  545,498;49773,191;-5850,342
 647,54;  543,281;52328,441;-5717,644
 648,12;  557,064;54879,695;-5865,945
 648,70;  556,847;58954,949;-5885,247
 649,28;  572,631;56421,203;-6090,548
 649,86;  535,414;51091,457;-5609,850
 650,44;  510,197;48619,711;-5452,151
 651,02;  594,980;49970,965;-5474,452
 651,60;  488,763;51793,219;-5803,753
 652,18;  496,546;51320,473;-4735,055
 652,76;  495,330;53277,723;-5934,356
 653,34;  495,113;54817,977;-5939,658
 653,92;  570,896;57729,230;-5784,959
 654,50;  551,679;59042,484;-5818,261
 655,08;  525,462;58048,738;-5841,562
 655,66;  561,245;55058,992;-5115,863
 656,24;  533,029;56743,246;-5200,165
 656,82;  634,812;58989,500;-4979,466
 657,40;  590,595;58967,754;-5667,768
 657,98;  559,378;60169,008;-5486,069
 658,56;  485,161;61114,258;-5717,371
 659,14;  520,944;61380,512;-5913,672
 659,72;  487,728;63381,766;-5916,973
 660,29;  461,511;62437,020;-5907,275
 660,87;  526,294;59738,273;-5212,576
 661,45;  517,077;58590,527;-5664,877
 662,03;  514,860;57513,781;-4971,179
 662,61;  477,643;54945,035;-5638,480
 663,19;  434,427;54618,289;-5657,782
 663,77;  449,210;53917,543;-5939,083
 664,35;  433,993;56689,793;-5887,384
 664,93;  448,776;62595,047;-4922,686
 665,51;  464,559;61993,301;-6033,987
 666,08;  458,342;57747,555;-5652,289
 666,66;  438,126;51859,809;-4400,590
 667,24;  469,909;49420,063;-5952,892
 667,82;  411,692;50250,316;-5849,193
 668,40;  463,475;50723,570;-5932,494
 668,98;  464,258;51952,824;-5097,796
 669,56;  396,042;57957,078;-6096,097
 670,13;  447,825;61797,328;-6222,398
 670,71;  424,608;59698,582;-5900,700
 671,29;  420,391;57209,836;-6139,001
 671,87;  472,174;56814,090;-6051,303
 672,45;  459,957;51822,344;-6050,604
 673,03;  539,741;52592,598;-4769,906
 673,60;  610,524;58431,852;-3503,207
 674,18;  682,307;63679,105;-5938,508
 674,76;  530,090;61159,359;-6226,810
 675,34;  535,873;56361,613;-5251,111
 675,92;  493,656;55284,863;-6338,413
 676,50;  514,440;55051,117;-6085,714
 677,07;  422,223;56952,371;-6095,016
 677,65;  442,006;56680,625;-6163,317
 678,23;  422,789;55997,879;-5057,618
 678,81;  427,572;58016,133;-5299,919
 679,38;  392,355;56669,387;-5969,221
 679,96;  368,139;53267,641;-5846,522
 680,54;  403,922;55171,895;-5308,824
 681,12;  363,705;52485,148;-6126,125
 681,70;  326,488;54786,398;-4413,427
 682,27;  364,271;54740,652;-5851,728
 682,85;  384,054;58265,906;-5991,029
 683,43;  345,838;64943,160;-6140,331
 684,01;  389,621;64943,414;-5172,632
 684,58;  397,404;64307,668;-5138,934
 685,16;  376,187;64236,922;-4494,235
 685,74;  359,970;62790,176;-3853,536
 686,32;  372,753;59009,430;-6012,838
 686,89;  376,537;59552,684;-6015,139
 687,47;  324,320;59534,934;-6076,441
 688,05;  393,103;56416,188;-6019,742
 688,63;  398,886;59626,441;-6102,043
 689,20;  355,669;62884,695;-5971,345
 689,78;  397,452;58427,949;-5530,646
 690,36;  459,236;54291,203;-5381,948
 690,93;  429,019;54968,457;-6355,249
 691,51;  487,802;61453,711;-6326,550
 692,09;  394,585;64946,965;-6223,852
 692,67;  379,368;64947,219;-6047,153
 693,24;  332,152;60968,469;-5803,455
 693,82;  352,935;59538,723;-6235,756
 694,40;  395,718;58049,977;-3570,058
 694,97;  405,501;57456,230;-6046,359
 695,55;  357,284;59820,484;-5464,660
 696,13;  380,067;61729,738;-4454,962
 696,70;  381,851;58594,992;-6029,263
 697,28;  409,634;59108,246;-6266,564
 697,86;  340,417;60837,500;-6030,866
 698,43;  368,200;58827,754;-6198,167
 699,01;  362,983;55595,004;-6051,469
 699,59;  367,766;55751,258;-6402,770
 700,16;  375,550;54174,512;-5257,072
 700,74;  329,333;57040,766;-5497,373
 701,32;  307,116;56440,020;-6233,674
 701,89;  325,899;55792,273;-6049,976
 702,47;  326,682;60296,527;-6466,277
 703,05;  366,465;64951,781;-6309,579
 703,62;  267,249;64952,035;-6227,880
 704,20;  358,032;64952,285;-5306,182
 704,77;  336,815;64952,539;-6118,483
 705,35;  273,598;64213,793;-6006,784
 705,93;  261,381;64327,047;-4922,085
 706,50;  277,164;63796,301;-5267,387
 707,08;  260,948;60606,555;-5284,688
 707,65;  289,731;60046,809;-5620,990
 708,23;  368,514;64881,063;-5431,292
 708,81;  290,297;64954,316;-5019,593
 709,38;  318,080;64954,570;-5001,894
 709,96;  345,863;64954,820;-6025,195
 710,53;  339,647;64955,074;-6007,497
 711,11;  313,430;61503,328;-5752,798
 711,69;  348,213;61913,582;-3821,100
 712,26;  361,996;59012,836;-4642,401
 712,84;  253,779;63346,090;-5947,703
 713,41;  324,563;64411,344;-6153,004
 713,99;  325,346;64924,598;-6068,305
 714,56;  298,129;62057,852;-6326,607
 715,14;  314,912;60312,105;-6198,908
 715,71;  304,695;60246,355;-6210,209
 716,29;  306,478;62893,609;-6648,511
 716,86;  268,262;63573,863;-6510,813
 717,44;  349,045;63263,117;-6424,114
 718,02;  262,828;62110,371;-6462,415
 718,59;  275,611;61013,625;-5121,716
 719,17;  244,394;63488,879;-5649,018
 719,74;  351,177;62907,133;-5756,319
 720,32;  289,961;63502,387;-6451,621
 720,89;  306,744;64959,641;-6422,922
 721,47;  280,527;64959,891;-6388,224
 722,04;  299,310;64960,145;-5502,525
 722,62;  320,093;64252,398;-3979,826
 723,19;  331,876;60250,652;-4938,128
 723,77;  309,660;57638,906;-5673,429
 724,34;  294,443;60150,160;-5576,730
 724,92;  310,226;63789,414;-6558,032
 725,49;  288,009;64961,668;-5666,333
 726,07;  337,792;64961,922;-6491,635
 726,64;  308,575;64627,176;-6587,936
 727,21;  317,359;60249,426;-5627,238
 727,79;  269,142;63706,680;-6444,539
 728,36;  319,925;64962,934;-6722,840
 728,94;  354,708;64963,188;-6535,142
 729,51;  337,491;64963,441;-6365,443
 730,09;  368,274;64963,695;-5545,745
 730,66;  288,058;64963,949;-6358,046
 731,24;  390,841;64964,203;-6577,348
 731,81;  386,624;64964,457;-5151,649
 732,38;  349,407;64964,711;-6492,950
 732,96;  373,190;64964,961;-6263,251
 733,53;  366,973;60347,215;-6389,553
 734,11;  423,757;61575,469;-6617,854
 734,68;  419,540;64965,723;-6211,156
 735,26;  459,323;64965,977;-6389,458
 735,83;  497,106;64966,230;-6498,759
 736,40;  493,889;62243,484;-6516,060
 736,98;  471,672;61999,738;-6374,361
 737,55;  511,456;59236,992;-5827,663
 738,13;  523,239;57707,246;-5702,964
 738,70;  528,022;60991,496;-5529,266
 739,27;  512,805;62504,750;-6452,567
 739,85;  569,588;62745,004;-6283,869
 740,42;  595,372;64968,258;-6464,170
 740,99;  591,155;64968,512;-5618,471
 741,57;  652,938;64968,766;-4867,773
 742,14;  597,721;64969,020;-5349,074
 742,72;  651,504;64969,273;-4751,375
 743,29;  676,287;64969,527;-6563,677
 743,86;  704,071;64969,781;-6538,979
 744,44;  662,854;64970,031;-6113,280
 745,01;  599,637;64970,285;-5760,581
 745,58;  668,420;64970,539;-6259,882
 746,16;  634,203;64970,793;-6188,184
 746,73;  717,986;64971,047;-6479,485
 747,30;  625,770;61139,301;-6536,787
 747,88;  663,553;59621,555;-5621,088
 748,45;  658,336;64971,809;-5668,390
 749,02;  755,119;64972,063;-6384,691
 749,60;  724,902;62401,313;-6212,992
 750,17;  730,685;61766,566;-5269,294
 750,74;  793,469;62801,820;-6479,595
 751,31;  810,252;63306,074;-6347,896
 751,89;  797,035;64232,328;-6546,198
 752,46;  915,818;64973,582;-6282,500
 753,03;  874,601;64973,836;-6160,801
 753,61;  851,384;63755,090;-4858,102
 754,18;  810,168;64573,344;-6434,404
 754,75;  784,951;63888,598;-5191,705
 755,32;  814,734;60715,848;-6332,006
 755,90;  801,517;64975,102;-6493,308
 756,47;  790,300;64975,355;-4809,609
 757,04;  737,083;64975,609;-6457,911
 757,61;  684,867;64975,863;-5553,212
 758,19;  653,650;64976,117;-5253,514
 758,76;  584,433;64976,371;-6603,815
 759,33;  591,216;64976,625;-6664,116
 759,90;  509,999;64976,879;-5714,417
 760,48;  473,783;64977,133;-6778,719
 761,05;  478,566;64977,383;-6083,021
 761,62;  453,349;62082,637;-4888,322
 762,19;  421,132;58992,891;-6144,624
 762,77;  395,915;61730,145;-5963,925
 763,34;  399,698;64978,398;-6610,226
 763,91;  404,482;64978,652;-5818,527
 764,48;  443,265;64978,906;-6756,829
 765,05;  349,048;64979,160;-6543,130
 765,63;  400,831;63215,414;-6417,432
 766,20;  332,614;59753,668;-6004,733
 766,77;  330,397;57105,918;-5921,035
 767,34;  328,181;58807,172;-6640,336
 767,91;  316,964;59176,426;-6689,637
 768,49;  300,747;61368,680;-6772,939
 769,06;  294,530;64980,934;-5832,240
 769,63;  293,313;62272,188;-6636,542
 770,20;  292,096;59567,441;-5868,843
 770,77;  267,880;57921,695;-5645,145
 771,34;  219,663;60065,949;-6615,446
 771,91;  330,446;60549,203;-6102,747
 772,49;  290,229;58558,453;-6369,048
 773,06;  293,012;57687,707;-6203,350
 773,63;  290,795;60204,961;-6639,651
 774,20;  274,579;58197,215;-5918,953
 774,77;  322,362;56475,469;-6631,254
 775,34;  312,145;56707,723;-6214,556
 775,91;  360,928;57056,977;-6417,857
 776,49;  581,711;58787,230;-6590,158
 777,06;  697,494;60761,484;-6015,460
 777,63;  675,278;64224,738;-6367,761
 778,20;  398,061;62572,988;-6250,063
 778,77;  338,844;63316,242;-5763,364
 779,34;  278,627;64985,496;-6585,666
 779,91;  348,410;64985,750;-6534,967
 780,48;  307,193;59144,004;-5853,268
 781,05;  328,977;50716,258;-6586,570
 781,62;  384,760;52124,512;-6604,871
 782,20;  364,543;58813,766;-6500,172
 782,77;  283,326;64987,020;-6529,474
 783,34;  321,109;64052,273;-6522,775
 783,91;  323,893;61362,523;-6509,077
 784,48;  277,676;60480,777;-2126,378
 785,05;  273,459;59144,031;-6540,680
 785,62;  276,242;58221,285;-6452,981
 786,19;  301,025;58149,539;-5100,282
 786,76;  244,808;55130,793;-6677,583
 787,33;  295,592;56202,047;-6515,885
 787,90;  327,375;59491,301;-6591,187
 788,47;  344,158;60148,555;-5075,488
 789,04;  324,941;58988,809;-5763,790
 789,61;  326,724;58863,059;-5066,091
 790,18;  277,507;55747,313;-6561,392
 790,75;  305,291;50841,566;-6671,693
 791,32;  290,074;52056,820;-6577,995
 791,89;  303,857;55205,074;-6068,296
 792,46;  616,640;60806,328;-5763,598
 793,03; 1132,423;62404,582;-6702,899
 793,60;  954,206;55699,836;-6440,201
 794,17;  575,990;52257,090;-5569,502
 794,74;  392,773;47273,344;-5886,803
 795,31;  323,556;50096,594;-6099,105
 795,88;  309,339;52579,848;-5572,406
 796,45;  234,122;53365,102;-6529,708
 797,02;  236,905;56004,355;-5046,009
 797,59;  238,689;57922,609;-6675,311
 798,16;  184,472;54563,863;-5861,612
 798,73;  197,255;53534,117;-6761,913
 799,30;  185,038;55088,371;-6611,214
 799,87;  140,821;55650,625;-6713,516
 800,44;  169,604;55353,875;-6729,817
 801,01;  188,388;56836,129;-6807,119
 801,58;  238,171;58477,383;-6537,420
 802,15;  211,954;52086,637;-6658,722
 802,72;  217,737;48849,891;-6694,023
 803,28;  176,520;52000,145;-6076,324
 803,85;  211,303;57179,398;-6728,626
 804,42;  280,087;55235,652;-5999,927
 804,99;  162,870;53752,906;-6539,229
 805,56;  205,653;52472,160;-6770,530
 806,13;  185,436;53387,410;-6075,832
 806,70;  206,219;52719,664;-6748,133
 807,27;  249,003;54477,918;-6672,434
 807,84;  279,786;52786,172;-6693,736
 808,41;  679,569;49728,426;-6022,037
 808,98; 1411,352;50479,680;-5986,338
 809,54; 1251,135;52469,934;-4958,640
 810,11;  542,918;48281,188;-6782,941
 810,68;  359,702;43021,441;-6680,243
 811,25;  175,485;41394,695;-6760,544
 811,82;  225,268;40374,945;-6886,846
 812,39;  191,051;37710,199;-3331,147
 812,96;  208,834;38779,453;-6767,448
 813,52;  231,617;41291,707;-6937,750
 814,09;  149,401;44522,961;-6766,051
 814,66;  132,184;50325,215;-6827,353
 815,23;  144,967;51240,469;-6669,654
 815,80;  137,750;50439,723;-5853,956
 816,37;  158,533;50917,977;-6801,257
 816,93;  117,316;49487,230;-6731,558
 817,50;  155,100;46790,480;-6102,859
 818,07;  216,883;46034,734;-6960,161
 818,64;  215,666;46919,988;-6856,462
 819,21;  185,449;46261,242;-6053,764
 819,77;  205,232;42742,496;-6571,065
 820,34;  178,015;42053,750;-6677,367
 820,91;  254,799;43276,004;-6469,668
 821,48;  309,582;43873,258;-6689,969
 822,05;  280,365;45571,512;-5875,271
 822,61;  236,148;44296,766;-5631,572
 823,18;  272,931;41860,016;-6620,874
 823,75;  208,714;42585,270;-6957,175
 824,32;  214,498;45286,523;-6923,477
 824,88;  175,281;45073,777;-6882,778
 825,45;  169,064;44018,031;-6899,079
 826,02;   99,847;43798,285;-6643,380
 826,59;  155,630;43974,539;-6639,682
 827,15;  138,413;46077,793;-6906,983
 827,72;  108,197;49519,047;-6723,285
 828,29;  102,980;51523,301;-6895,586
 828,86;   98,763;48827,551;-6791,888
 829,42;   98,546;40797,805;-6812,189
 829,99;   99,329;36802,059;-6647,490
 830,56;  124,113;36252,313;-6869,792
 831,13;  125,896;37220,566;-6060,093
 831,69;  109,679;38022,820;-6506,395
 832,26;  115,462;38832,074;-5062,696
 832,83;   99,245;40408,328;-5452,998
 833,39;  106,028;40187,582;-6904,299
 833,96;  120,812;39167,836;-6687,600
 834,53;   84,595;40039,086;-6928,902
 835,10;  117,378;39930,340;-6529,203
 835,66;  131,161;38972,594;-6920,504
 836,23;  119,944;39801,848;-6803,806
 836,80;   77,727;39428,102;-6790,107
 837,36;   47,511;37086,355;-6810,409
 837,93;   89,294;34475,609;-6902,710
 838,50;  112,077;35084,863;-6789,012
 839,06;   58,860;37684,117;-6288,313
 839,63;   63,643;37191,371;-6895,614
 840,19;   92,426;35132,621;-6607,916
 840,76;   53,210;35364,875;-6404,217
 841,33;   17,993;35892,129;-6509,519
 841,89;  115,776;36779,383;-6949,820
 842,46;   67,559;37103,637;-6751,122
 843,03;  102,342;35389,891;-6089,423
 843,59;  100,125;34224,145;-6403,724
 844,16;  142,909;34994,398;-6181,025
 844,73;  211,692;34249,652;-6067,327
 845,29;  145,475;32937,902;-5695,628
 845,86;  118,258;35699,156;-6800,930
 846,42;   49,041;36940,410;-7004,231
 846,99;   72,824;36477,664;-6967,533
 847,56;   66,608;36265,918;-5840,834
 848,12;   51,391;36240,172;-6745,135
 848,69;   78,174;35710,426;-6715,437
 849,25;   70,957;34401,680;-6845,738
 849,82;   50,740;34081,934;-3247,040
 850,38;   71,523;35064,188;-6840,341
 850,95;   70,307;32489,439;-6324,643
 851,52;   57,090;32520,693;-6565,944
 852,08;   69,873;32548,947;-6691,245
 852,65;   25,656;30323,199;-7005,546
 853,21;   61,439;27698,453;-6958,848
 853,78;   47,223;27362,707;-6363,149
 854,34;   48,006;28860,961;-6871,451
 854,91;   38,789;29081,215;-5086,752
 855,47;   30,572;29942,467;-5108,054
 856,04;   94,355;32027,721;-6746,355
 856,60;   35,138;33961,973;-6104,656
 857,17;   88,922;34979,227;-6840,958
 857,73;   80,705;33553,480;-6811,259
 858,30;   50,488;32532,734;-6985,561
 858,86;   80,271;31110,988;-5926,862
 859,43;   74,054;31430,242;-6226,164
 859,99;   52,837;32011,496;-6852,465
 860,56;  104,621;33126,750;-6903,766
 861,12;   23,404;35190,004;-6737,068
 861,69;   34,187;33669,258;-5924,369
 862,25;   88,970;34731,508;-6821,670
 862,82;   86,753;34419,762;-5972,972
 863,38;   88,536;31196,018;-6843,273
 863,95;   73,320;29305,270;-6239,575
 864,51;   71,103;30403,523;-5287,876
 865,08;   59,886;29284,777;-6090,178
 865,64;   24,669;26795,031;-7018,479
 866,21;   73,452;26131,285;-6745,780
 866,77;   88,235;26051,537;-5552,082
 867,34;  141,019;25734,791;-6672,383
 867,90;  178,802;24632,045;-6303,685
 868,46;  157,585;23835,299;-6041,986
 869,03;   73,368;24389,551;-6929,288
 869,59;   67,151;26353,805;-6884,589
 870,16;  110,934;27647,059;-6052,890
 870,72;  105,718;30060,313;-6657,191
 871,28;   77,501;32915,566;-5992,493
 871,85;   75,284;33142,820;-6907,794
 872,41;   32,067;31569,072;-6004,096
 872,98;   53,850;32738,326;-6050,397
 873,54;   70,633;33876,578;-5920,699
 874,10;   90,417;32768,832;-5876,000
 874,67;   19,417;32987,832;-6904,000
 875,23;   60,417;31068,834;-7032,000
 875,80;   61,417;28009,834;-6641,000
 876,36;   17,417;25058,834;-6642,000
 876,92;   33,417;22832,834;-6189,000
 877,49;   48,417;23923,834;-6517,000
 878,05;   20,417;24896,834;-6797,000
 878,61;   13,417;26938,834;-6812,000
 879,18;   33,417;27553,834;-6252,000
 879,74;   27,417;28076,834;-6720,000
 880,30;   14,417;28679,834;-5926,000
 880,87;  -65,583;28852,834;-6326,000
 881,43;   49,417;29533,834;-6871,000
 881,99;   -2,583;27306,834;-6879,000
 882,56;    2,417;27610,834;-6661,000
 883,12;    7,417;29049,834;-5740,000
 883,68;  -18,583;29120,834;-6518,000
 884,25;   -0,583;28300,834;-6949,000
 884,81;  -28,583;26343,834;-6701,000
 885,37;   13,417;24221,834;-6786,000
 885,94;   36,417;22940,834;-6851,000
 886,50;   21,417;23098,834;-6886,000
 887,06;   -5,583;24358,834;-6796,000
 887,62;    6,417;25019,834;-6866,000
 888,19;  -16,583;25774,834;-5986,000
 888,75;    2,417;26542,834;-6821,000
 889,31;   33,417;29043,834;-6778,000
 889,87;   49,417;30537,834;-6723,000
 890,44;   57,417;30349,834;-6696,000
 891,00;   28,417;28757,834;-6786,000
 891,56;  -14,583;26457,834;-6998,000
 892,12;   67,417;24463,834;-6754,000
 892,69;   39,417;25310,834;-6373,000
 893,25;    7,417;28798,834;-6877,000
 893,81;   18,417;31774,834;-6696,000
 894,37;   59,417;31330,834;-6342,000
 894,94;   20,417;28713,834;-6772,000
 895,50;   50,417;26035,834; -212,000
 896,06;   56,417;24749,834;-6810,000
 896,62;   81,417;23405,834;-6707,000
 897,18;   28,417;24661,834;-6518,000
 897,75;   32,417;27406,834;-6895,000
 898,31;   71,417;27887,834;-6849,000
 898,87;   86,417;26274,834;-6860,000
 899,43;   15,417;25164,834;-6469,000
 899,99;   18,417;26592,834;-6866,000
 900,56;   42,417;25515,834;-6791,000
 901,12;   88,417;24875,834;-6890,000
 901,68;   43,417;27903,834;-6267,000
 902,24;   50,417;31800,834;-5930,000
 902,80;   27,417;32652,834;-6794,000
 903,36;  109,417;31893,834;-6691,000
 903,93;  104,417;32139,834;-6646,000
 904,49;  158,417;32761,834;-6913,000
 905,05;  215,417;30952,834;-6732,000
 905,61;  462,417;28208,834;-6832,000
 906,17;  853,417;28086,834;-6901,000
 906,73; 1284,417;25975,834;-5380,000
 907,29; 1663,417;24960,834;-6910,000
 907,86; 1960,417;25118,834;-6827,000
 908,42; 1951,417;28092,834;-6795,000
 908,98; 1609,417;31123,834;-5908,000
 909,54; 1006,417;38813,832;-6885,000
 910,10;  484,417;48220,832;-6634,000
 910,66;  134,417;57581,832;-6781,000
 911,22;   38,417;65027,832;-6761,000
 911,78;   47,417;62593,832;-6841,000
 912,34;   -6,583;53256,832;-6080,000
 912,90;   24,417;44610,832;-5232,000
 913,46;   63,417;37052,832;-6876,000
 914,03;    9,417;30620,834;-5746,000
 914,59;   20,417;27452,834;-6682,000
 915,15;   39,417;24908,834;-6891,000
 915,71;   30,417;24217,834;-6863,000
 916,27;   46,417;23800,834;-6723,000
 916,83;   61,417;23006,834;-5824,000
 917,39;   30,417;21742,834;-3512,000
 917,95;   46,417;20224,834;-6009,000
 918,51;   63,417;19972,834;-6583,000
 919,07;   35,417;21780,834;-6791,000
 919,63;    1,417;23295,834;-6661,000
 920,19;   29,417;23935,834;-6865,000
 920,75;   47,417;23112,834;-6640,000
 921,31;   22,417;21484,834;-4837,000
 921,87;   14,417;20216,834;-6845,000
 922,43;    7,417;18019,834;-5626,000
 922,99;   83,417;17321,834;-6706,000
 923,55;   88,417;18674,834;-6655,000
 924,11;   39,417;19094,834;-6976,000
 924,67;   23,417;19310,834;-6962,000
 925,23;   46,417;19485,834;-6778,000
 925,79;   96,417;20122,834;-6710,000
 926,35;   76,417;20219,834;-6573,000
 926,91;   12,417;19401,834;-6909,000
 927,47;   48,417;19367,834;-6660,000
 928,03;   67,417;20294,834;-6786,000
 928,59;   38,417;20503,834;-6678,000
 929,15;   62,417;20781,834;-6792,000
 929,71;   60,417;22016,834;-6840,000
 930,27;   68,417;23587,834;-6537,000
 930,82;   90,417;25573,834;-6728,000
 931,38;   -6,583;24317,834;-5852,000
 931,94;   23,417;22672,834;-6843,000
 932,50;   34,417;21252,834;-6481,000
 933,06;   40,417;20895,834;-6768,000
 933,62;   51,417;21092,834;-6443,000
 934,18;   35,417;20632,834;-6727,000
 934,74;   56,417;21320,834;-6709,000
 935,30;   73,417;22030,834;-6484,000
 935,86;   58,417;21213,834;-6505,000
 936,42;   44,417;20702,834;-6873,000
 936,97;   32,417;21656,834;-6563,000
 937,53;   22,417;20552,834;-6826,000
 938,09;   63,417;21087,834;  123,000
 938,65;   59,417;21186,834;-6268,000
 939,21;   70,417;20179,834;-6708,000
 939,77;   28,417;18946,834;-6213,000
 940,33;   47,417;18602,834;-6748,000
 940,88;   14,417;19429,834;-5908,000
 941,44;   54,417;21301,834;-6983,000
 942,00;   43,417;23225,834;-6697,000
 942,56;   50,417;24231,834;-6604,000
 943,12;   60,417;23427,834;-5907,000
 943,68;   33,417;22950,834;-5679,000
 944,23;   47,417;23124,834;-6749,000
 944,79;   24,417;22674,834;-6102,000
 945,35;   29,417;20741,834;-6599,000
 945,91;   88,417;19519,834;-6767,000
 946,47;   29,417;19827,834;-3353,000
 947,03;   -3,583;19896,834;-6850,000
 947,58;    6,417;19661,834;-6840,000
 948,14;   33,417;20790,834;-5897,000
 948,70;   36,417;19573,834;-5855,000
 949,26;   69,417;18881,834;-6616,000
 949,81;   36,417;18342,834;-6644,000
 950,37;   23,417;18686,834;-6695,000
 950,93;   71,417;17993,834;-6224,000
 951,49;   16,417;17568,834;-6057,000
 952,05;   63,417;17926,834;-6571,000
 952,60;   28,417;17299,834;-6951,000
 953,16;   64,417;16933,834;-5783,000
 953,72;    2,417;15628,833;-5813,000
 954,27;    4,417;15524,833;-6566,000
 954,83;   44,417;15317,833;-6703,000
 955,39;   38,417;14917,833;-6691,000
 955,95;   22,417;14456,833;-6849,000
 956,50;   25,417;14272,833;-6698,000
 957,06;    8,417;14126,833;-5922,000
 957,62;   36,417;13780,833;-6559,000
 958,18;   51,417;13872,833;-6741,000
 958,73;   49,417;13326,833;-6820,000
 959,29;   21,417;13518,833;-6106,000
 959,85;   38,417;14785,833;-6864,000
 960,40;   32,417;16746,834;-4263,000
 960,96;   28,417;16386,834;-6738,000
 961,52;   43,417;14755,833;-6643,000
 962,07;   25,417;13711,833;-6742,000
 962,63;    3,417;13208,833;-6723,000
 963,19;   -1,583;13435,833;-5779,000
 963,74;   68,417;13877,833;-6582,000
 964,30;   16,417;14475,833;-6595,000
 964,86;   27,417;14281,833;-6484,000
 965,41;   44,417;14290,833;-6705,000
 965,97;   -2,583;14185,833;-6569,000
 966,53;   44,417;14792,833;-6750,000
 967,08;   68,417;15311,833;-6611,000
 967,64;   68,417;15082,833;-6705,000
 968,19;   62,417;14471,833;-6684,000
 968,75;   49,417;14662,833;-6566,000
 969,31;   78,417;14880,833;-5626,000
 969,86;   62,417;14995,833;-6505,000
 970,42;   58,417;13195,833;-6620,000
 970,97;   69,417;11567,833;-6437,000
 971,53;   61,417;11625,833;-6490,000
 972,09;   53,417;12998,833;-6646,000
 972,64;   53,417;13523,833;-5812,000
 973,20;   73,417;13815,833;-6599,000
 973,75;   69,417;14605,833;-5760,000
 974,31;  121,417;14826,833;-6578,000
 974,87;   63,417;14921,833;-6674,000
 975,42;   25,417;14507,833;-6727,000
 975,98;    9,417;13201,833;-6651,000
 976,53;   63,417;12100,833;-6555,000
 977,09;   61,417;11353,833;-4624,000
 977,64;   60,417;11164,833;-6532,000
 978,20;   57,417;10649,833;-6585,000
 978,75;   67,417;10482,833;-6429,000
 979,31;   72,417;10950,833;-6513,000
 979,86;   33,417;12220,833;-6739,000
 980,42;   18,417;12828,833;-5813,000
 980,97;   57,417;13290,833;-6642,000
 981,53;   62,417;14285,833;-6636,000
 982,08;   76,417;13803,833;-5046,000
 982,64;   83,417;12278,833;-6237,000
 983,19;   39,417;11308,833;-6760,000
 983,75;   83,417;10993,833;-6576,000
 984,30;   27,417;10430,833;-5581,000
 984,86;   44,417; 9867,833;-5898,000
 985,41;   80,417; 9457,833;-6634,000
 985,97;   44,417; 9632,833;-4797,000
 986,52;   36,417; 9894,833;-5853,000
 987,08;  102,417; 9953,833;-6174,000
 987,63;   56,417;10165,833;-5608,000
 988,19;   40,417;11252,833;-6266,000
 988,74;   84,417;11710,833;-5682,000
 989,30;   48,417;11529,833;-6568,000
 989,85;   73,417;11470,833; -276,000
 990,40;  110,417;11314,833;-6617,000
 990,96;   66,417;11060,833;-6482,000
 991,51;   48,417;11149,833;-6578,000
 992,07;   36,417;10742,833;-6605,000
 992,62;   81,417;10285,833;-6519,000
 993,18;   45,417;10035,833;-6504,000
 993,73;   59,417; 9986,833;-6440,000
 994,28;   54,417; 9800,833;-6464,000
 994,84;   50,417; 9019,833;-6240,000
 995,39;   73,417; 8474,833;-2971,000
 995,94;   99,417; 7953,833;-5673,000
 996,50;   80,417; 7647,833;-6543,000
 997,05;   35,417; 7872,833;-3481,000
 997,61;   47,417; 8363,833;-6489,000
 998,16;   47,417; 8581,833;-6555,000
 998,71;   44,417; 8850,833;-6340,000
 999,27;   90,417; 9115,833;-5223,000
 999,82;   88,417; 8706,833;-4778,000
1000,37;   80,417; 8661,833;-6520,000
1000,93;   78,417; 8920,833;-6107,000
1001,48;   68,417; 8799,833;-6543,000
1002,03;   77,417; 8477,833;-6469,000
1002,59;  110,417; 8715,833;-5972,000
1003,14;   62,417; 8758,833;-6113,000
1003,69;  117,417; 8484,833;-6513,000
1004,25;   54,417; 8299,833;-6507,000
1004,80;   79,417; 8322,833;-6266,000
1005,35;  117,417; 8313,833;-6361,000
1005,91;  123,417; 8515,833;-6558,000
1006,46;   87,417; 8426,833;-6084,000
1007,01;  123,417; 8227,833;-5479,000
1007,56;   98,417; 8599,833;-6440,000
1008,12;   65,417; 8342,833;-6178,000
1008,67;  114,417; 7867,833;-6312,000
1009,22;  130,417; 7509,833;-6481,000
1009,78;   88,417; 7205,833;-6163,000
1010,33;  107,417; 6649,833;-6443,000
1010,88;   79,417; 6413,833;-5618,000
1011,43;   93,417; 5995,833;-6433,000
1011,99;  119,417; 5972,833;-6198,000
1012,54;   64,417; 6320,833;-6387,000
1013,09;  148,417; 6048,833;-6299,000
1013,64;   92,417; 5802,833;-6362,000
1014,19;  133,417; 5823,833;-6442,000
1014,75;  144,417; 5928,833;-6408,000
1015,30;  186,417; 6394,833;-6425,000
1015,85;  148,417; 6370,833;-6367,000
1016,40;  116,417; 6247,833;-5436,000
1016,96;  193,417; 6235,833;-6268,000
1017,51;  152,417; 6150,833;-6351,000
1018,06;  141,417; 6095,833;-6310,000
1018,61;  152,417; 5695,833;-6665,000
1019,16;  150,417; 5609,833;-6697,000
1019,71;  249,417; 5663,833;-6373,000
1020,27;  198,417; 5567,833;-6353,000
1020,82;  229,417; 5375,833;-3700,000
1021,37;  220,417; 5405,833;-4798,000
1021,92;  169,417; 5984,833;-6454,000
1022,47;  189,417; 5965,833;-6548,000
1023,02;  233,417; 5463,833;-6512,000
1023,58;  249,417; 5045,833;-6573,000
1024,13;  284,417; 4730,833;-6258,000
1024,68;  191,417; 4434,833;-6298,000
1025,23;  285,417; 4324,833;-5525,000
1025,78;  287,417; 4613,833;-6475,000
1026,33;  273,417; 4932,833;-5510,000
1026,88;  364,417; 4843,833;-6236,000
1027,43;  322,417; 5167,833;-6276,000
1027,99;  365,417; 5134,833;-6002,000
1028,54;  348,417; 4732,833;-6395,000
1029,09;  407,417; 4106,833;-2478,000
1029,64;  428,417; 3919,833;-6303,000
1030,19;  489,417; 4147,833;-3821,000
1030,74;  525,417; 4243,833;-5134,000
1031,29;  582,417; 4284,833;-4765,000
1031,84;  556,417; 4491,833;-6300,000
1032,39;  610,417; 4563,833;-5403,000
1032,94;  715,417; 4617,833;-4326,000
1033,49;  809,417; 4361,833;-5476,000
1034,04;  899,417; 4236,833;-6312,000
1034,59;  924,417; 4205,833;-6507,000
1035,14; 1009,417; 4117,833;-6145,000
1035,69; 1176,417; 4318,833;-6224,000
1036,24; 1185,417; 4104,833;-4477,000
1036,80; 1302,417; 3986,833;-5453,000
1037,35; 1268,417; 4138,833;-6347,000
1037,90; 1451,417; 4172,833;-6274,000
1038,45; 1578,417; 4201,833;-6419,000
1039,00; 1577,417; 4340,833;-5490,000
1039,55; 1765,417; 4229,833;-6284,000
1040,10; 1840,417; 3977,833;-5615,000
1040,65; 1980,417; 3916,833;-5576,000
1041,20; 2061,417; 3850,833;-6325,000
1041,75; 2217,417; 4030,833;-4522,000
1042,30; 2521,417; 4164,833;-3585,000
1042,84; 2674,417; 4338,833;-4439,000
1043,39; 2918,417; 4248,833;-6313,000
1043,94; 3213,417; 4175,833;-5342,000
1044,49; 3491,417; 3887,833;-6246,000
1045,04; 3729,417; 3710,833;-5800,000
1045,59; 4097,417; 3809,833;-6299,000
1046,14; 4605,417; 3732,833;-6392,000
1046,69; 5087,417; 3591,833;-6294,000
1047,24; 5652,417; 3623,833;-5510,000
1047,79; 6299,417; 3737,833;-6139,000
1048,34; 7137,417; 4002,833;-5961,000
1048,89; 8367,417; 3948,833;-6259,000
1049,44; 9392,417; 3935,833;-5172,000
1049,99;11310,417; 3855,833;-4844,000
1050,54;14008,417; 3876,833;-6249,000
1051,08;18953,416; 3961,833;-6178,000
1051,63;28118,416; 4050,833;-5285,000
1052,18;43942,418; 5051,833;-6127,000
1052,73;65144,418; 7151,833;-6173,000
1053,28;65144,418;10516,833;-6386,000
1053,83;65144,418;15224,833;-6214,000
1054,38;65144,418;19203,834;-6254,000
1054,93;65144,418;21243,834;-6285,000
1055,47;65144,418;23825,834;-5328,000
1056,02;65144,418;26212,834;-5832,000
1056,57;65144,418;27830,834;-6198,000
1057,12;65144,418;30497,834;-6378,000
1057,67;65144,418;33805,832;-6078,000
1058,22;65144,418;36084,832;-6313,000
1058,76;65144,418;38542,832;-6093,000
1059,31;65144,418;44129,832;-3514,000
1059,86;65144,418;48778,832;-6204,000
1060,41;65144,418;49718,832;-6152,000
1060,96;65144,418;51396,832;-6226,000
1061,51;65144,418;53649,832;-5344,000
1062,05;65144,418;54082,832;-6122,000
1062,60;65144,418;50555,832;-6061,000
1063,15;65144,418;45221,832;-6149,000
1063,70;65144,418;41550,832;-6250,000
1064,24;65144,418;43676,832;-6169,000
1064,79;65144,418;45461,832;-6144,000
1065,34;65144,418;43989,832;-6064,000
1065,89;65144,418;41776,832;-6202,000
1066,44;65144,418;37631,832;-6120,000
1066,98;65144,418;32612,834;-6224,000
1067,53;65144,418;30790,834;-5953,000
1068,08;65144,418;30368,834;-4845,000
1068,63;65144,418;27618,834;-6096,000
1069,17;65144,418;24647,834;-5893,000
1069,72;65144,418;22350,834;-5857,000
1070,27;65144,418;20529,834;-6040,000
1070,81;65144,418;20388,834;-5996,000
1071,36;65144,418;20367,834;-3883,000
1071,91;65144,418;18745,834;  966,000
1072,46;65144,418;16791,834;-5058,000
1073,00;65144,418;14646,833;-5239,000
1073,55;65144,418;11404,833;-5935,000
1074,10;65144,418; 7803,833;-5981,000
1074,64;65144,418; 5240,833;-5860,000
1075,19;51986,418; 3535,833;-4958,000
1075,74;32303,416; 2551,833;-6091,000
1076,28;22417,416; 2312,833;-6075,000
1076,83;16645,416; 1951,833;-5286,000
1077,38;13146,417; 1820,833;-5653,000
1077,92;10441,417; 1783,833;-6332,000
1078,47; 8808,417; 1629,833;-5507,000
1079,02; 7265,417; 1578,833;-5959,000
1079,56; 6097,417; 1557,833;-5328,000
1080,11; 5017,417; 1304,833;-6094,000
1080,65; 4269,417; 1241,833;-5039,000
1081,20; 3522,417; 1186,833;-6151,000
1081,75; 2993,417; 1125,833;-6039,000
1082,29; 2561,417; 1128,833; -139,000
1082,84; 2117,417; 1184,833;-2678,000
1083,39; 1937,417; 1294,833;-5061,000
1083,93; 1763,417; 1335,833;-5025,000
1084,48; 1537,417; 1196,833;-5961,000
1085,02; 1367,417; 1082,833;-5783,000
1085,57; 1333,417; 1074,833;-5994,000
1086,11; 1217,417; 1079,833;-5968,000
1086,66; 1126,417;  925,833;-5584,000
1087,21; 1119,417; 1060,833;-5802,000
1087,75; 1042,417;  939,833;-6125,000
1088,30;  905,417;  815,833;-5040,000
1088,84;  991,417;  783,833;-5963,000
1089,39;  853,417;  656,833;-5965,000
1089,93;  748,417;  664,833;-6100,000
1090,48;  769,417;  649,833;-4394,000
1091,02;  767,417;  733,833;-5181,000
1091,57;  636,417;  629,833;-5479,000
1092,11;  669,417;  642,833;-4094,000
1092,66;  588,417;  624,833;-6031,000
1093,20;  519,417;  580,833;-5180,000
1093,75;  540,417;  566,833;-4998,000
1094,29;  492,417;  486,833;-4979,000
1094,84;  587,417;  525,833;-5890,000
1095,38;  468,417;  528,833;-5097,000
1095,93;  522,417;  584,833;-5981,000
1096,47;  468,417;  615,833;-5612,000
1097,02;  430,417;  587,833;-4985,000
1097,56;  418,417;  614,833;-5772,000
1098,11;  332,417;  552,833;-5774,000
1098,65;  369,417;  508,833;-5992,000
1099,20;  326,417;  577,833;-5935,000
1099,74;  295,417;  487,833;-6002,000
1100,29;  363,417;  513,833;-4879,000
1100,83;  300,417;  496,833;-5934,000

