
Integration time [ms]:   1,000
Averaging Nr. [scans]: 1
Smoothing Nr. [pixels]: 0
Data measured with spectrometer [name]: 1703254U1
Wave   ;Sample   ;Dark     ;Reference;Scope
[nm]   ;[counts] ;[counts] ;[counts] 

 190,08;  -64,291; -370,119;11982,743
 190,69;   -0,678; -359,404;11603,049
 191,29;  -15,128; -311,651;11479,965
 191,90;  -38,349; -365,508;11440,717
 192,50;  -56,692; -379,511;10355,099
 193,10;  -40,007; -446,299;11244,381
 193,71;   32,448; -367,888; 9821,736
 194,31;    2,732; -399,273; 9436,327
 194,91;   47,732; -382,273; 9291,327
 195,52;   49,205; -338,386;10555,949
 196,12;   59,102; -397,056; 8671,847
 196,72;   31,349; -386,394; 8220,904
 197,32;    9,448; -375,888; 8251,736
 197,93;   39,610; -360,420; 8700,957
 198,53;    4,971; -383,145; 7601,797
 199,13;   36,340; -397,132; 8091,270
 199,74;   43,637; -366,410; 7263,813
 200,34;   96,160; -388,667; 7832,874
 200,94;   37,543; -436,547; 6941,297
 201,55;   41,322; -406,404; 7119,049
 202,15;  111,317; -375,773; 6404,732
 202,75;   58,722; -373,217; 6097,647
 203,36;  170,502; -338,664; 6822,492
 203,96;   12,911; -357,943; 6332,678
 204,56;  131,187; -355,657;10275,729
 205,16;  168,038; -363,018; 5478,458
 205,77;  109,813; -360,244; 4767,892
 206,37;   93,209; -409,017; 5556,267
 206,97;   78,687; -363,760; 5129,205
 207,58;  131,746; -364,166; 5927,278
 208,18;  114,682; -337,129; 5129,889
 208,78;  116,169; -404,134; 5295,461
 209,38;  106,124; -469,415; 4958,385
 209,99;  144,228; -356,540; 3837,534
 210,59;   91,674; -361,662; 3890,301
 211,19;  111,399; -364,538; 3938,343
 211,79;  101,340; -366,927; 4499,316
 212,40;   59,610; -373,625; 3368,911
 213,00;   69,106; -388,891; 3903,118
 213,60;   77,133; -386,882; 2992,972
 214,20;  162,353; -401,230; 3081,175
 214,81;   39,295; -422,618; 2884,148
 215,41;   -1,854; -376,979; 3235,877
 216,01;   38,186; -373,067; 3109,636
 216,61;   81,836; -367,399; 2814,476
 217,22;   46,538; -381,326; 2358,888
 217,82;  121,344; -325,173; 2262,495
 218,42;   41,821; -383,711; 2389,480
 219,02;   52,366; -288,327; 3432,079
 219,63;   31,218; -357,483; 2044,854
 220,23;   75,006; -366,602; 2425,239
 220,83;   17,768; -395,730; 1901,770
 221,43;   33,947; -393,195; 1850,167
 222,03;   45,254; -348,940; 2326,296
 222,64;   29,141; -380,348; 1769,560
 223,24;   53,515; -298,966; 1625,350
 223,84;   22,907; -376,313; 2637,361
 224,44;   35,533; -316,695; 2381,571
 225,05;   36,056; -313,952; 1440,632
 225,65;   80,357; -301,065; 1227,445
 226,25;   71,029; -364,961; 1139,777
 226,85;   69,249; -294,309;  995,979
 227,45;   28,335; -335,706; 1083,907
 228,06;   19,096; -365,834; 1945,438
 228,66;  -27,386; -349,460; 4049,182
 229,26;   43,010; -313,438; 1131,510
 229,86;   -6,174; -396,342; 1760,797
 230,46;    6,119; -358,194;  891,976
 231,06;   30,326; -320,444;  757,273
 231,67;   44,596; -346,732; 1228,961
 232,27;  -33,111; -343,789;  778,094
 232,87;   12,835; -308,808;  526,384
 233,47;  -80,116; -321,158;  525,777
 234,07;   23,876; -268,486; 9912,235
 234,67;  -21,166; -291,013;  672,338
 235,28;   -6,116; -319,158;   65,777
 235,88;  -79,585; -316,882;  285,426
 236,48;   39,465; -350,821;  165,911
 237,08;   11,272; -267,669;  448,518
 237,68;  -85,657; -369,378; -267,552
 238,28;  -11,571; -304,774; -106,624
 238,89;  -30,688; -212,756; -205,723
 239,49;  -19,193; -282,023; 1280,483
 240,09;  -56,396; -284,608; -190,544
 240,69;  -59,143; -251,373; -319,124
 241,29;  -27,503; -289,647;  651,036
 241,89;  -24,918; -330,147; -260,559
 242,49;   -7,184; -248,490; -358,930
 243,10;  -40,869; -201,496; 3664,834
 243,70;  -65,184; -284,490;  239,070
 244,30;   -5,382; -275,501; -708,594
 244,90;  -10,657; -188,582; -568,598
 245,50;  -28,261; -177,355; 3274,777
 246,10;  -28,305; -307,636; -831,300
 246,70;  -53,625; -300,999;   17,620
 247,30;    2,181; -251,641;  326,273
 247,91;  -79,166; -208,218; 5781,292
 248,51;  -19,193; -270,228; -806,563
 249,11;  -12,751; -239,514;  417,933
 249,71;  -14,652; -303,008; -667,235
 250,31;  -10,499; -265,483; -567,693
 250,91;   13,789; -238,500;   75,216
 251,51;  -43,851; -199,225; -822,945
 252,11;  -58,396; -239,813;  367,410
 252,71;  -33,837; -269,117;-1080,994
 253,31;  -11,576; -222,348; 3228,013
 253,91;  -50,144; -236,578; -676,170
 254,52;  -22,891; -237,342;-1063,750
 255,12;  -30,499; -293,483;-1104,693
 255,72;   45,541; -206,366;  557,112
 256,32;  -78,847; -242,061; -966,674
 256,92;   18,127; -190,070;-1147,529
 257,52;    0,942; -173,974; -883,243
 258,12;  -55,585; -201,087;  -91,621
 258,72;  -13,054; -210,810;-1232,972
 259,32;   33,793; -211,335;-1169,514
 259,92;   35,307; -199,330;-1343,086
 260,52;   28,113; -192,973;-1077,433
 261,12;    3,325; -202,059; -662,865
 261,72;   -7,247; -238,452;-1312,319
 262,32;   43,460; -215,600;-1561,498
 262,92;  -67,509; -238,426;  405,627
 263,53;   -2,527; -189,698;-1277,594
 264,13;  -56,121; -262,937; -268,632
 264,73;    5,545; -217,202;-1694,617
 265,33;   23,676; -188,317;-1708,613
 265,93;   38,045; -147,304;-1345,140
 266,53;   20,694; -161,046;-1544,392
 267,13;    7,824; -139,161; -857,388
 267,73;   19,167; -185,158;  270,230
 268,33;  -25,703; -166,274;-1788,766
 268,93;   24,446; -213,708;-1702,449
 269,53;    1,383; -204,670; -644,839
 270,13;   14,316; -201,797;-1810,499
 270,73;   24,928; -245,287;-1891,239
 271,33;    3,527; -200,678;-1778,884
 271,93;  -45,239; -242,919;-1867,732
 272,53;   49,450; -121,748;    8,776
 273,13;    6,698; -146,677;-1117,075
 273,73;   -6,063; -119,753;-1955,652
 274,33;   16,320; -148,428;-2041,182
 274,93;  -35,198; -188,007;-1843,972
 275,53;   15,450;  -68,748;-1881,224
 276,13;  -56,748; -121,965;-2261,935
 276,73;  -15,663; -118,361;-1570,007
 277,33;   13,676; -179,522;-1926,659
 277,93;   50,356; -213,680;-1864,693
 278,53;   16,333; -194,526;-2112,278
 279,13;   11,387; -125,506;-2152,568
 279,73;    4,243; -140,498;-1388,522
 280,33;   37,594; -154,756;-2179,270
 280,93;   51,171; -105,994;-2049,499
 281,53;   11,599; -147,387;-2252,953
 282,13;  -12,834; -127,363;-2193,816
 282,73;  -25,617; -156,875; -385,885
 283,33;    8,725; -137,872;-2307,266
 283,92;    6,468;  -74,477;-2028,003
 284,52;   36,301;  -94,109;-2365,496
 285,12;   24,504; -138,524;-1425,469
 285,72;   33,986; -126,898;-1041,213
 286,32;   24,518;  -55,622;-1313,564
 286,92;   -7,153; -163,521;-2376,850
 287,52;   75,018;  -89,519;-2170,041
 288,12;   41,910;  -97,763;-2542,507
 288,72;   39,518; -106,417;-1625,518
 289,32;   39,153;  -54,470; 1692,233
 289,92;   14,640; -106,270;-2344,148
 290,52;    2,400;  -91,809;-2485,710
 291,12;   55,000;  -57,996;-1570,308
 291,72;    6,468;  -74,477;-1590,003
 292,32;   57,563;  -83,135;-2372,442
 292,92;   94,648;   -2,737;-2481,560
 293,51;   39,013;  -37,093;-2532,404
 294,11;   66,103;  -42,121;-1681,160
 294,71;  100,270;   -7,488;-2695,667
 295,31;   77,964;  -24,743;-1755,797
 295,91;  181,865;   46,751;-2713,629
 296,51;  105,220;   62,656;-1776,106
 297,11;   73,990;   35,061;-2900,988
 297,71;   89,067;    4,131;-2726,648
 298,31;  190,640;   38,730;-2329,148
 298,91;  163,378;   74,756;-2483,202
 299,50;  138,229;   41,395;-2689,473
 300,10;  193,959;  145,887;-2706,114
 300,70;  174,982;   95,528;-2492,576
 301,30;  205,621;   89,253;-2855,415
 301,90;  223,108;   96,248;-2004,843
 302,50;  189,509;  163,640;-2515,198
 303,10;  280,554;  124,126;-2530,076
 303,70;  266,563;  208,660;-3000,488
 304,29;  211,211;  189,918;-2658,740
 304,89;  214,544;  266,183;-1090,755
 305,49;  182,553;  163,922;-2773,122
 306,09;  262,238;  214,133;-2874,839
 306,69;  326,324;  262,736;-2915,911
 307,29;  251,563;  312,865;-2008,442
 307,89;  292,599;  303,408;-3029,000
 308,48;  396,261;  341,774;-2453,301
 309,08;  468,216;  369,492;-2743,377
 309,68;  611,540;  377,019;-3094,026
 310,28;  709,986;  371,102;-2576,213
 310,88;  760,171;  321,211;-2936,453
 311,48;  687,072;  447,500;-2875,331
 312,07;  801,320;  408,367;-2963,228
 312,67;  892,536;  497,855;-2128,297
 313,27;  716,595;  494,448;-1105,224
 313,87;  858,293;  583,357;-2164,083
 314,47;  768,694;  516,954;-3030,392
 315,06;  750,117;  620,191; 2713,837
 315,66;  708,288;  579,988;-3245,400
 316,26;  815,982;  632,938;-1844,483
 316,86;  976,234;  777,969;-3140,110
 317,46; 1008,987;  720,307;-2115,167
 318,06;  859,086;  739,813; -825,335
 318,65;  917,888;  781,801;-2807,999
 319,25; 1020,545;  821,798;-3195,617
 319,85; 1105,622;  932,663;-2908,323
 320,45; 1221,420;  986,283;-3213,304
 321,05; 1298,221;  901,271;-2761,968
 321,64; 1357,041;  889,531;-3219,411
 322,24; 1686,938; 1056,861;-3265,513
 322,84; 2147,839; 1080,356;-3261,345
 323,44; 3213,695; 1133,364;-3219,300
 324,03; 7729,249; 1194,486;-3072,067
 324,63; 9736,654; 1250,452;-2310,059
 325,23; 5513,673; 1241,928;-3097,792
 325,83; 2697,146; 1367,021;-2876,123
 326,42; 4372,061; 1442,622;-3285,005
 327,02; 8015,530; 1476,551;-3076,607
 327,62; 7262,462; 1439,629;-2505,221
 328,22; 4406,684; 1553,486;-3234,973
 328,82; 3977,292; 1577,037;-2229,938
 329,41; 3438,063; 1658,852;-3016,728
 330,01; 3965,280; 1652,750;-2961,704
 330,61; 4541,294; 1806,062;-2928,707
 331,20; 3765,456; 1778,325;-2868,531
 331,80; 3374,574; 1762,512;-2794,386
 332,40; 3083,290; 1752,102;-2896,932
 333,00; 3193,269; 1933,667;-2790,423
 333,59; 3107,940; 1748,771;-2855,091
 334,19; 3263,201; 1920,745;-1771,037
 334,79; 3225,792; 1712,615;-2861,316
 335,39; 3136,232; 1729,919;-2978,912
 335,98; 3106,232; 1726,714;-3126,958
 336,58; 3059,907; 1659,777;-3191,401
 337,18; 3020,078; 1720,779;-2958,592
 337,77; 2982,240; 1782,837;-2098,463
 338,37; 2778,051; 1806,359;-2021,540
 338,97; 2694,618; 1907,384;-2912,402
 339,57; 2682,596; 1862,948;-3044,894
 340,16; 2743,299; 1836,431;-2881,390
 340,76; 2457,344; 1962,712;-3053,314
 341,36; 2484,686; 1861,920;-3195,650
 341,95; 2412,889; 1934,506;-3027,623
 342,55; 2283,619; 1918,998;  703,736
 343,15; 2163,767; 2048,155;-3094,039
 343,74; 2250,155; 1924,644;-2382,298
 344,34; 2538,294; 1860,267;-3015,661
 344,94; 2677,457; 2068,530;-3069,485
 345,53; 2566,051; 2110,769;-2860,447
 346,13; 2505,875; 2174,398;-1283,573
 346,73; 2476,466; 1966,473;-2254,805
 347,32; 2735,668; 2268,649;-3080,871
 347,92; 2659,534; 2312,600;-2277,145
 348,52; 2456,772; 2270,523;-1878,722
 349,11; 2133,682; 2336,551;  975,034
 349,71; 2116,695; 2330,658;-3240,016
 350,31; 2262,677; 2441,387;-2672,237
 350,90; 2519,929; 2483,418;-2326,863
 351,50; 2696,498; 2390,852;-2105,634
 352,10; 2856,002; 2471,119;-3114,840
 352,69; 2793,979; 2532,273;-3182,424
 353,29; 2586,358; 2563,024;-3191,317
 353,89; 2338,114; 2645,527;-3255,104
 354,48; 2240,002; 2693,119;-3208,840
 355,08; 2146,736; 2871,980;-1117,164
 355,67; 2054,240; 2850,042;-2951,417
 356,27; 2012,029; 2839,128;-3232,985
 356,87; 1989,520; 3010,288;-3383,142
 357,46; 2008,299; 3049,431;-2351,390
 358,06; 2125,862; 3306,291;-3073,523
 358,66; 2222,718; 3337,504;-3109,432
 359,25; 2730,448; 3260,792;-2344,119
 359,85; 3181,551; 3365,667;-3215,970
 360,44; 2845,331; 3389,015;-3292,172
 361,04; 2628,767; 3567,155;-2367,039
 361,64; 2647,767; 3696,155;-2309,039
 362,23; 2684,087; 3772,517;-2932,958
 362,83; 2440,641; 3755,639;-2990,726
 363,42; 2307,051; 3938,769;-2836,447
 364,02; 2353,385; 3910,034;-2973,462
 364,62; 2253,875; 3816,398;-2486,573
 365,21; 2313,398; 3857,937;-1741,558
 365,81; 2286,186; 3935,818;-2792,173
 366,40; 2123,294; 3970,062;-2080,707
 367,00; 2250,510; 4021,550;-2952,776
 367,59; 2148,555; 4071,831;-2979,699
 368,19; 2187,749; 4221,678;-3237,306
 368,79; 2204,199; 4198,720;-3125,268
 369,38; 2131,560; 4107,200;-2250,383
 369,98; 2183,740; 4101,940;-2935,940
 370,57; 2114,618; 4188,588;-3331,356
 371,17; 2015,636; 4164,860;-3326,135
 371,76; 1980,118; 4277,486;-3442,879
 372,36; 2037,645; 4057,598;-3195,501
 372,95; 1922,420; 4115,372;  667,934
 373,55; 2045,902; 4105,998;-3393,811
 374,14; 2178,231; 4300,099;-3405,097
 374,74; 2134,028; 4256,514;-3224,124
 375,34; 2151,848; 4286,979;-3189,521
 375,93; 2163,433; 4295,479;-2706,116
 376,53; 2135,276; 4344,585;-3575,974
 377,12; 2191,893; 4405,670;-1465,352
 377,72; 2105,226; 4480,730;-3410,414
 378,31; 2170,700; 4511,027;-2274,699
 378,91; 2131,128; 4291,429;-3262,199
 379,50; 2198,646; 4588,213;-3331,363
 380,10; 2248,016; 4327,226;-3398,890
 380,69; 2183,759; 4094,621;-2343,626
 381,29; 2092,457; 4586,735;-2550,439
 381,88; 2031,853; 4518,758;-1605,111
 382,48; 1968,601; 4519,727;-3286,485
 383,07; 1959,597; 4495,358;-3457,802
 383,67; 1875,853; 4635,758;-1847,111
 384,26; 1831,349; 4667,491;-2467,905
 384,86; 1826,155; 4921,849;-3182,252
 385,45; 1811,299; 4932,636;-3325,344
 386,05; 1948,389; 5073,608;-3419,100
 386,64; 1820,335; 4911,384;-3524,855
 387,24; 1818,236; 5016,878;-2585,688
 387,83; 1734,574; 4993,512;-2489,386
 388,42; 1811,399; 5182,346;-2109,466
 389,02; 1777,826; 5423,748;-3235,966
 389,61; 1812,556; 5688,036;-3413,653
 390,21; 1829,236; 5729,878;-3463,688
 390,80; 1754,191; 5816,392;-3208,810
 391,40; 1802,461; 6137,899;-2293,168
 391,99; 1869,948; 5981,099;-3195,550
 392,59; 1852,754; 6435,252;-2416,943
 393,18; 1867,876; 6683,398;-2491,573
 393,77; 1842,389; 6883,198;-3238,192
 394,37; 1743,524; 7145,657;-2198,825
 394,96; 1802,389; 7098,403;-2296,146
 395,56; 1760,618; 7264,588;-2834,356
 396,15; 1878,961; 6867,797;-3125,692
 396,75; 1873,623; 7343,163;-2889,993
 397,34; 1857,740; 7669,940;-2620,940
 397,93; 1870,362; 7720,188;-3358,047
 398,53; 2005,781; 7595,262;-2525,088
 399,12; 2031,159; 8192,013;-2154,981
 399,72; 2112,002; 8013,119;-2274,840
 400,31; 2117,615; 8034,629;-3169,581
 400,91; 2133,988; 8446,012;-2959,791
 401,50; 2199,389; 8820,198;-2330,192
 402,09; 2464,627; 8550,327;-2894,722
 402,69; 2307,191; 8691,187;-3072,856
 403,28; 2283,209; 9052,663;-2983,588
 403,88; 2372,537; 9162,560; 1927,079
 404,47; 2439,555; 9689,831;  884,300
 405,06; 2507,479; 9684,171;  -68,947
 405,66; 2798,222; 9753,565;-2875,684
 406,25; 3013,199;10085,720;-3119,268
 406,84; 2833,164;10446,177;-2892,711
 407,44; 2507,465;10847,858;-2219,944
 408,03; 2308,550;10422,257;-2906,063
 408,63; 2035,690;10373,085;-3011,379
 409,22; 2163,105;10191,584;-1945,783
 409,81; 1981,758;10681,007;-1849,765
 410,41; 2116,006;11553,078;-2857,615
 411,00; 1995,393;11336,362;-1814,921
 411,59; 2086,456;11251,120;-2826,578
 412,19; 2049,024;11468,350;-2245,394
 412,78; 1955,298;11399,226;-2830,436
 413,37; 1859,519;12151,878;-2704,234
 413,97; 1948,857;12410,512;-2618,933
 414,56; 1938,172;12071,506;-2503,169
 415,15; 1907,645;12410,394;-2121,547
 415,75; 1922,924;12408,639;-2698,272
 416,34; 1941,208;12590,254;-1893,681
 416,93; 2006,036;12922,047;-2777,536
 417,53; 2116,591;12696,169;-1423,303
 418,12; 2155,046;12570,785;-2217,903
 418,71; 2059,243;12907,592;-2673,285
 419,31; 1989,915;13054,695;-1884,952
 419,90; 2030,370;13470,313;-2786,552
 420,49; 2037,829;13619,298;-1733,834
 421,08; 2114,829;14201,298;-1674,834
 421,68; 2050,554;14723,421;-1908,792
 422,27; 2098,009;14035,832;-2004,437
 422,86; 2074,775;13874,073; -437,590
 423,46; 2071,369;14080,107;-2575,598
 424,05; 2113,838;14376,626;-2928,293
 424,64; 2332,392;13888,953;-2640,014
 425,24; 2311,342;14092,098;-2903,453
 425,83; 2274,031;13992,269;-2680,945
 426,42; 2343,838;12987,626;-2760,293
 427,01; 3322,022;13424,734;-2674,533
 427,61; 3604,288;14347,873;-2609,209
 428,20; 2511,990;14036,151;-1764,751
 428,79; 2245,833;14414,052;-2859,656
 429,38; 2278,216;14092,377;-1781,186
 429,98; 2115,166;14922,521; -994,625
 430,57; 2213,288;15058,873;-2193,209
 431,16; 2200,414;14580,389;-2784,522
 431,75; 2236,053;14357,909; -561,407
 432,35; 2264,027;13435,899;-1951,262
 432,94; 2387,585;14429,186;-2324,759
 433,53; 2509,045;14560,375;-1152,995
 434,12; 2576,112;14431,298;-2267,381
 434,72; 2563,706;14188,331;-1413,389
 435,31; 2573,540;14167,699; 7395,119
 435,90; 2613,846;14308,954; 8338,249
 436,49; 2474,463;13427,834; -683,175
 437,08; 2768,504;13895,951; -675,370
 437,68; 3053,778;14442,827;-2987,412
 438,27; 2605,062;14610,237;-2610,866
 438,86; 2262,292;14612,832;-1147,984
 439,45; 2200,247;15313,346;-1937,106
 440,05; 2015,093;15955,616;-2982,694
 440,64; 1963,940;15054,886;-1902,282
 441,23; 1983,791;14152,525;-1415,553
 441,82; 2032,008;13700,218;-2631,576
 442,41; 1775,341;14351,277;-3014,637
 443,00; 1673,048;13625,925;-2724,863
 443,60; 1690,427;14373,881;-3136,710
 444,19; 1684,503;15026,541;-1440,462
 444,78; 1597,273;14960,151;-3012,298
 445,37; 1549,395;15728,297;-2522,928
 445,96; 1609,260;15331,249;-3116,202
 446,56; 1531,818;15596,535;-1144,698
 447,15; 1666,597;16225,678; -884,947
 447,74; 1647,264;17097,412;-2709,931
 448,33; 1617,656;16443,066;-1985,920
 448,92; 1522,174;15422,440;-2964,176
 449,51; 1579,034;15095,817;-2848,813
 450,10; 2005,854;15133,078;-3063,256
 450,70; 2461,588;14904,939;-1957,581
 451,29; 2039,723;15329,193;-1112,260
 451,88; 1710,913;15513,671;-2929,183
 452,47; 1737,458;16565,055;-2795,584
 453,06; 1982,335;16495,498;-2401,047
 453,65; 2197,024;16071,874;-2873,493
 454,24; 2082,371;17329,246;-2173,558
 454,84; 1753,435;17793,209;-1379,168
 455,43; 1543,993;18732,496;-2219,665
 456,02; 1501,453;18879,480;-2927,947
 456,61; 1421,056;17317,459;-2925,275
 457,20; 1539,412;16921,363;-2786,753
 457,79; 1786,502;17588,131;-2922,554
 458,38; 2595,083;18338,264;-2132,467
 458,97; 2468,943;18039,641;-2515,104
 459,56; 1782,110;18190,479;-2760,565
 460,16; 1673,569;17832,258;-2082,894
 460,75; 1587,218;18157,518;-2072,146
 461,34; 1453,394;18077,887;-2962,020
 461,93; 1581,150;18381,186;-2200,853
 462,52; 1593,452;19333,275;-2744,993
 463,11; 1631,907;20546,688;-1989,639
 463,70; 1872,115;19458,643;-2869,295
 464,29; 2684,650;19945,082;-3150,376
 464,88; 4002,119;20795,807;-2743,024
 465,47; 3316,479;19885,285;-2748,139
 466,06; 2089,645;20915,713;-3191,692
 466,65; 1899,037;21667,572;-3018,635
 467,24; 2266,569;22030,848;-2539,986
 467,84; 2156,925;22443,164;-2020,371
 468,43; 1871,227;22325,051;-2238,559
 469,02; 1911,610;23517,170;-2702,135
 469,61; 2260,357;24168,936;-2593,555
 470,20; 2453,596;23781,063;-2841,085
 470,79; 2096,533;22760,100;-3232,475
 471,38; 1722,853;25266,463;-2192,395
 471,97; 1665,699;26009,732; -666,983
 472,56; 1573,505;25472,887;-3035,376
 473,15; 1587,465;25296,975;-2825,135
 473,74; 1470,082;26395,854;-3106,559
 474,33; 1575,397;25866,848;-2957,796
 474,92; 1585,983;27630,348;-3146,391
 475,51; 1628,375;29609,002;-2873,380
 476,10; 1796,834;29847,986;-3011,662
 476,69; 1913,879;26101,268;-2855,586
 477,28; 1897,411;25846,955;-2956,845
 477,87; 1674,758;27035,121; -173,956
 478,46; 1841,055;28695,639;-3029,460
 479,05; 2115,362;30507,100;-2134,284
 479,64; 2134,095;31679,756;-2718,655
 480,23; 1884,474;29541,508;-2845,548
 480,82; 1817,861;28549,996;-2736,807
 481,41; 1881,816;29371,510;-1873,929
 482,00; 1867,334;29284,885;-1364,185
 482,59; 1825,032;29593,998;-2298,998
 483,18; 1880,312;31702,244;-2376,723
 483,77; 1926,469;31703,139;-2193,865
 484,36; 1948,375;32475,002;-1701,380
 484,95; 1931,487;32990,410; -788,643
 485,54; 2064,627;35331,031;-1371,006
 486,13; 2374,690;35762,996; -945,616
 486,72; 2434,298;34334,137;  148,326
 487,31; 2093,762;31046,285;-1109,686
 487,89; 2096,370;32608,633; -193,697
 488,48; 2077,037;33798,164;-1523,728
 489,07; 2216,154;32913,941;-1248,674
 489,66; 2390,740;33511,645;-1505,224
 490,25; 2760,131;31095,299; -660,212
 490,84; 3184,893;34127,375;-1683,635
 491,43; 3462,343;34965,621; -701,552
 492,02; 3596,424;36094,652;-1864,987
 492,61; 3597,046;35362,902;-1043,094
 493,20; 3663,370;33776,426;-2019,743
 493,79; 3578,054;32749,434; 4824,494
 494,38; 3397,825;33706,043;-1938,342
 494,97; 3204,469;32583,934; -629,911
 495,55; 3007,329;34690,309;-2325,548
 496,14; 2772,870;35087,531;-2403,220
 496,73; 2684,807;35451,566;-1952,609
 497,32; 2686,320;34211,570;-2587,182
 497,91; 2605,009;35005,949;-1921,629
 498,50; 2590,460;34165,195;-2912,544
 499,09; 2618,320;34554,570;-3088,182
 499,68; 2555,563;32403,070;-2405,396
 500,27; 2601,743;33321,605;-2490,999
 500,85; 2731,829;32655,207;-2604,071
 501,44; 2895,581;32478,342;-2576,175
 502,03; 2797,451;33194,457;-3368,178
 502,62; 2496,392;31275,068;-3438,205
 503,21; 2575,586;29432,711;-3532,858
 503,80; 2431,644;32028,100;-2976,831
 504,39; 2377,698;32451,119;-3458,121
 504,97; 2486,604;31774,982;-3577,636
 505,56; 2651,203;31537,590;-2979,281
 506,15; 2757,068;32302,336;-3991,602
 506,74; 2860,113;32557,617;-2945,526
 507,33; 2925,729;32185,498;-3165,949
 507,92; 2818,878;33952,859;-3871,678
 508,51; 2605,748;35926,973;-3735,682
 509,09; 2607,482;34536,629;-3921,053
 509,68; 3562,928;34318,508;-3748,286
 510,27; 5264,941;33667,410;-3799,381
 510,86; 4236,819;32572,264;-4081,751
 511,45; 2466,099;33677,512;-3843,476
 512,03; 2419,707;34524,855;-3829,488
 512,62; 2354,550;36240,961;-3780,346
 513,21; 2490,972;33870,789;-3186,209
 513,80; 3236,216;34644,289;-3501,423
 514,39; 5509,581;32752,137;-3905,221
 514,97; 8294,116;35347,781;-4095,255
 515,56; 6105,378;34167,551;-4198,248
 516,15; 2851,161;35428,063;-3955,179
 516,74; 2168,468;32584,318;-4420,049
 517,33; 2068,301;33459,688;-3549,542
 517,91; 2066,481;33935,426;-4188,099
 518,50; 2076,058;32563,393;-3264,282
 519,09; 2300,761;33942,875;-3157,778
 519,68; 2834,495;35231,531;-4286,148
 520,26; 3667,864;38679,547;-4232,675
 520,85; 6726,734;39452,660;-4352,679
 521,44;12046,702;40826,078;-4358,897
 522,03; 8984,180;39485,539;-4271,912
 522,61; 3191,702;36773,078;-4364,897
 523,20; 2235,900;33924,090;-4337,233
 523,79; 1886,485;32040,590;-4337,828
 524,38; 1788,400;32850,191;-4344,709
 524,96; 1662,085;35883,199;-4321,473
 525,55; 1579,877;36021,449;-4542,771
 526,14; 1460,238;34018,723;-4434,931
 526,73; 1477,359;32852,074;-4389,515
 527,31; 1348,981;32903,324;-4488,622
 527,90; 1401,877;33630,449;-4564,771
 528,49; 1775,094;34155,938;-2529,839
 529,08; 2118,206;34601,344;-3467,103
 529,66; 1831,535;34848,445;-3911,389
 530,25; 1408,422;35279,832;-4414,172
 530,84; 1299,548;35334,348;-4583,485
 531,42; 1277,783;38583,105;-4365,332
 532,01; 1182,301;37528,480;-4291,588
 532,60; 1182,494;34512,125;-4473,241
 533,18; 1107,729;35538,086;-4078,042
 533,77; 1063,057;34969,984;-4236,374
 534,36; 1171,931;34459,469;-4374,061
 534,95; 1241,787;35483,477;-4088,015
 535,53; 1434,071;34236,090; -974,424
 536,12; 1318,202;36469,977;-2657,420
 536,71; 1185,337;36511,230;-3869,099
 537,29; 1197,737;36073,621;-3618,454
 537,88; 1180,702;33908,078;-3454,897
 538,47; 1244,017;32497,867;-2840,180
 539,05; 1385,193;36837,238;-2139,054
 539,64; 1218,440;40414,898;-1785,997
 540,22; 1141,936;37414,633; -764,790
 540,81; 1144,517;37501,766; 1008,297
 541,40; 1181,593;39018,629; 3425,591
 541,98; 1019,679;38188,230; 4858,519
 542,57; 1119,202;39368,977; 4597,580
 543,16; 1100,882;38645,613; 4952,500
 543,74; 1088,130;35774,480; 4083,603
 544,33; 1080,900;36297,883; 3620,721
 544,92; 1086,242;37217,887; 3973,339
 545,50; 1164,985;37338,488;11456,648
 546,09; 1177,004;40064,965;11359,916
 546,67; 1221,409;41948,727; 2857,878
 547,26; 1145,242;40050,094; -202,615
 547,85; 1054,737;39208,414; -567,501
 548,43; 1133,080;38452,625; -849,836
 549,02; 1051,048;39427,246;-1040,008
 549,60; 1133,354;40570,500; -984,878
 550,19; 1071,427;41166,996;-2192,901
 550,78; 1023,044;42660,875;-2328,325
 551,36;  980,062;45349,148;-2432,104
 551,95; 1067,332;45443,859; -585,416
 552,53; 1070,760;43280,262; -296,916
 553,12; 1173,706;41420,035;-3431,672
 553,70; 1160,147;43188,547;-2878,222
 554,29; 1102,796;44058,008;-2869,428
 554,88; 1095,701;41831,668;-4247,989
 555,46; 1000,850;43723,027;-3881,718
 556,05; 1003,436;45007,734;-4207,268
 556,63; 1041,273;45206,266;-3396,489
 557,22; 1061,125;43875,109;-3394,714
 557,80; 1043,174;41749,762;-3568,321
 558,39;  954,391;44188,250;-4145,390
 558,97;  912,071;47993,887;-3699,470
 559,56;  988,863;49889,137;-4544,768
 560,15; 1004,584;50117,891;-3611,042
 560,73;  988,746;49814,152;-4287,867
 561,32; 1101,710;47024,609;-3741,309
 561,90; 1004,638;46041,910;-4382,333
 562,49; 1050,116;48487,371;-3786,348
 563,07; 1082,485;48074,387;-4783,875
 563,66; 1188,692;50064,133;-4352,577
 564,24; 1151,548;49228,145;-4763,531
 564,83; 1068,359;51344,664;-4603,607
 565,41; 1134,287;53840,375;-4329,539
 566,00; 1093,773;52202,164;-2755,012
 566,58; 1146,458;56465,375;-3725,729
 567,17; 1194,039;56909,508;-4280,642
 567,75; 1122,359;52392,871;-4653,562
 568,34; 1092,201;55893,770;-3216,466
 568,92; 1129,426;55738,793;-3987,947
 569,51; 1476,926;54852,895; 2680,576
 570,09; 1504,170;58247,391;-4676,638
 570,68; 1066,066;53188,313;-4788,833
 571,26;  957,877;50733,242;-3886,817
 571,85; 1004,778;57347,738;-4822,649
 572,43;  970,800;57011,379;-4704,111
 573,01;  934,629;52662,375;-4873,920
 573,60;  934,138;53819,012;-3785,810
 574,18;  852,760;55122,262;-4514,917
 574,77;  867,300;53284,277;-4737,634
 575,35;  975,138;56113,012;-4452,810
 575,94;  930,030;57300,770;-4076,275
 576,52;  980,444;54049,270;-2249,680
 577,11; 1123,354;51620,297;-3244,924
 577,69; 2386,003;48685,555;-3183,176
 578,27; 2552,427;51008,996;-3447,901
 578,86; 1148,976;55198,543;-2994,031
 579,44;  966,282;60080,004;-2805,855
 580,03;  976,035;60164,137;-2493,958
 580,61; 1017,787;60267,270;-3206,062
 581,19;  976,161;56429,652;-2538,271
 581,78;  854,480;55361,813;-2364,238
 582,36;  888,021;57656,031;-2911,909
 582,95;  909,458;56180,172;-1497,776
 583,53;  918,291;59586,539;-2319,268
 584,11;  978,728;61608,883;-2241,088
 584,70; 1002,845;61691,660;-1948,035
 585,28; 1003,025;62070,398;-1853,592
 585,87;  896,521;60436,930;-2889,432
 586,45;  825,976;63023,543;-2375,031
 587,03;  749,106;64945,430;-1150,027
 587,62;  849,791;61494,641;-1834,745
 588,20;  921,327;62236,285;-1020,779
 588,78;  917,561;58157,840;-3411,673
 589,37;  994,444;57765,270;-3360,680
 589,95;  886,372;62238,773;-3385,657
 590,54;  860,462;63633,539;-3461,459
 591,12;  899,868;62116,301;-3508,497
 591,70;  908,084;59586,789;-3331,565
 592,29;  880,624;62881,805;-2923,283
 592,87;  899,287;63542,375;-2394,538
 593,45;  915,453;63404,801; 1487,908
 594,04;  880,340;62800,188;-3676,875
 594,62;  847,638;59709,910;-3708,333
 595,20;  822,192;62066,828;-4371,146
 595,79;  899,156;62681,285;-4165,588
 596,37;  895,003;61108,555;-3657,176
 596,95;  882,944;56922,164;-4321,203
 597,53;  820,201;58806,770;-4226,466
 598,12;  888,836;61848,922;-3959,669
 598,70;  894,778;64932,531;-3776,695
 599,28;  927,287;64911,375;-3404,538
 599,87;  911,057;64929,777;-3061,420
 600,45;  951,012;64938,293;-3907,543
 601,03;  893,399;63145,781;-4100,802
 601,62;  873,340;61727,188;-4468,875
 602,20;  821,395;59786,414;-4541,119
 602,78;  844,300;64399,070;-4770,680
 603,36;  827,039;64783,301;-3166,688
 603,95;  891,300;58863,277;-4492,634
 604,53;  808,814;62401,281;-4574,207
 605,11;  877,417;59505,258;-2755,535
 605,69;  857,088;62362,156;-3365,249
 606,28;  813,624;62594,805;-4223,283
 606,86;  877,422;61629,422;-3946,264
 607,44;  842,147;60431,547;-3906,222
 608,02;  782,795;58047,805;-4037,474
 608,61;  816,701;60099,668;-2866,989
 609,19;  803,079;58582,418;-2582,882
 609,77;  817,250;57398,422; -710,073
 610,35;  825,913;55748,785; 5794,625
 610,94;  863,178;56509,926;14509,949
 611,52;  792,701;55803,668;12610,011
 612,10;  784,602;53026,957; 8432,133
 612,68;  758,575;56637,949; 2694,278
 613,26;  714,832;57037,551; 2032,015
 613,85;  771,350;61759,926; -599,241
 614,43;  773,323;62306,918;-1030,096
 615,01;  704,539;62272,199;-1215,211
 615,59;  794,948;64874,328; -972,932
 616,17;  749,818;59402,648;-2561,890
 616,76;  869,071;62178,887;-2993,470
 617,34;  951,742;62666,988;-2389,138
 617,92;  820,201;58547,770;-3399,466
 618,50;  829,161;61202,652;-2562,271
 619,08;  818,192;57928,031;-2514,100
 619,67;  882,773;55968,164;-3196,012
 620,25;  894,791;54290,641;-2743,745
 620,83;  847,012;50498,293;-3495,543
 621,41;  897,111;52314,797;-2800,711
 621,99;  835,043;54560,672;-2529,371
 622,57;  925,206;55529,141;-3707,149
 623,15;  867,485;56213,387;-3783,875
 623,74;  904,805;58266,746;-3892,794
 624,32;  853,661;59330,754;-2827,749
 624,90;  859,611;58625,898;-2311,188
 625,48;  855,390;57897,043;-3132,436
 626,06;  937,170;56898,391;-4006,638
 626,64;  911,282;57787,004;-4162,855
 627,22;  792,994;58993,020;-3409,764
 627,81;  797,810;58046,117;-4334,478
 628,39;  774,719;57121,145;-4560,722
 628,97;  812,183;56597,293;-4437,733
 629,55;  838,976;55377,750;-4219,985
 630,13;  764,787;55669,270;-2959,062
 630,71;  761,755;54162,891;-2747,233
 631,29;  818,300;53129,277;-3824,634
 631,87;  835,868;52776,504;-4223,451
 632,45;  717,818;52786,648;-4716,890
 633,03;  768,183;54183,500;-4191,688
 633,62;  764,814;55423,281;-4714,207
 634,20;  753,629;54882,172;-4089,966
 634,78;  758,769;56497,000;-4430,283
 635,36;  699,476;56701,648;-4449,508
 635,94;  731,314;55183,383;-5398,684
 636,52;  766,134;51027,645;-5422,126
 637,10;  761,944;52116,164;-5488,203
 637,68;  724,264;50694,527;-4702,123
 638,26;  680,147;47618,750;-5536,176
 638,84;  688,953;48688,902;-5421,569
 639,42;  710,944;49235,164;-3756,203
 640,00;  730,717;51366,148;-5405,726
 640,58;  700,507;54579,402;-4806,027
 641,16;  637,297;55521,656;-5571,328
 641,74;  629,087;53214,906;-5433,630
 642,32;  658,878;50106,160;-5620,931
 642,90;  642,668;50434,414;-5856,232
 643,48;  619,458;49231,668;-5786,534
 644,06;  648,248;49280,922;-5796,835
 644,64;  604,038;49595,176;-5842,137
 645,22;  594,829;50513,430;-5562,438
 645,80;  570,619;50547,684;-4957,740
 646,39;  572,409;48107,938;-5515,041
 646,97;  553,199;49773,191;-5850,342
 647,54;  626,990;52328,441;-5717,644
 648,12;  591,780;54879,695;-5865,945
 648,70;  607,570;58954,949;-5885,247
 649,28;  618,360;56421,203;-6090,548
 649,86;  585,150;51091,457;-5609,850
 650,44;  557,941;48619,711;-5452,151
 651,02;  615,731;49970,965;-5474,452
 651,60;  545,521;51793,219;-5803,753
 652,18;  577,311;51320,473;-4735,055
 652,76;  544,102;53277,723;-5934,356
 653,34;  532,892;54817,977;-5939,658
 653,92;  539,682;57729,230;-5784,959
 654,50;  590,472;59042,484;-5818,261
 655,08;  610,262;58048,738;-5841,562
 655,66;  649,053;55058,992;-5115,863
 656,24;  659,843;56743,246;-5200,165
 656,82;  648,633;58989,500;-4979,466
 657,40;  596,423;58967,754;-5667,768
 657,98;  574,213;60169,008;-5486,069
 658,56;  587,004;61114,258;-5717,371
 659,14;  532,794;61380,512;-5913,672
 659,72;  552,584;63381,766;-5916,973
 660,29;  502,374;62437,020;-5907,275
 660,87;  549,165;59738,273;-5212,576
 661,45;  577,955;58590,527;-5664,877
 662,03;  596,745;57513,781;-4971,179
 662,61;  530,535;54945,035;-5638,480
 663,19;  503,325;54618,289;-5657,782
 663,77;  514,116;53917,543;-5939,083
 664,35;  492,906;56689,793;-5887,384
 664,93;  523,696;62595,047;-4922,686
 665,51;  502,486;61993,301;-6033,987
 666,08;  559,277;57747,555;-5652,289
 666,66;  508,067;51859,809;-4400,590
 667,24;  601,857;49420,063;-5952,892
 667,82;  476,647;50250,316;-5849,193
 668,40;  512,437;50723,570;-5932,494
 668,98;  504,228;51952,824;-5097,796
 669,56;  459,018;57957,078;-6096,097
 670,13;  481,808;61797,328;-6222,398
 670,71;  490,598;59698,582;-5900,700
 671,29;  468,389;57209,836;-6139,001
 671,87;  450,179;56814,090;-6051,303
 672,45;  479,969;51822,344;-6050,604
 673,03;  632,759;52592,598;-4769,906
 673,60;  663,549;58431,852;-3503,207
 674,18;  670,340;63679,105;-5938,508
 674,76;  593,130;61159,359;-6226,810
 675,34;  593,920;56361,613;-5251,111
 675,92;  521,710;55284,863;-6338,413
 676,50;  481,501;55051,117;-6085,714
 677,07;  458,291;56952,371;-6095,016
 677,65;  450,081;56680,625;-6163,317
 678,23;  499,871;55997,879;-5057,618
 678,81;  499,661;58016,133;-5299,919
 679,38;  479,452;56669,387;-5969,221
 679,96;  422,242;53267,641;-5846,522
 680,54;  444,032;55171,895;-5308,824
 681,12;  408,822;52485,148;-6126,125
 681,70;  418,612;54786,398;-4413,427
 682,27;  472,403;54740,652;-5851,728
 682,85;  407,193;58265,906;-5991,029
 683,43;  415,983;64943,160;-6140,331
 684,01;  434,773;64943,414;-5172,632
 684,58;  421,564;64307,668;-5138,934
 685,16;  434,354;64236,922;-4494,235
 685,74;  423,144;62790,176;-3853,536
 686,32;  425,934;59009,430;-6012,838
 686,89;  464,724;59552,684;-6015,139
 687,47;  460,515;59534,934;-6076,441
 688,05;  468,305;56416,188;-6019,742
 688,63;  399,095;59626,441;-6102,043
 689,20;  417,885;62884,695;-5971,345
 689,78;  435,676;58427,949;-5530,646
 690,36;  491,466;54291,203;-5381,948
 690,93;  465,256;54968,457;-6355,249
 691,51;  492,046;61453,711;-6326,550
 692,09;  455,836;64946,965;-6223,852
 692,67;  426,627;64947,219;-6047,153
 693,24;  392,417;60968,469;-5803,455
 693,82;  355,207;59538,723;-6235,756
 694,40;  441,997;58049,977;-3570,058
 694,97;  353,788;57456,230;-6046,359
 695,55;  361,578;59820,484;-5464,660
 696,13;  418,368;61729,738;-4454,962
 696,70;  449,158;58594,992;-6029,263
 697,28;  370,948;59108,246;-6266,564
 697,86;  388,739;60837,500;-6030,866
 698,43;  360,529;58827,754;-6198,167
 699,01;  366,319;55595,004;-6051,469
 699,59;  430,109;55751,258;-6402,770
 700,16;  388,900;54174,512;-5257,072
 700,74;  389,690;57040,766;-5497,373
 701,32;  359,480;56440,020;-6233,674
 701,89;  360,270;55792,273;-6049,976
 702,47;  418,060;60296,527;-6466,277
 703,05;  410,851;64951,781;-6309,579
 703,62;  425,641;64952,035;-6227,880
 704,20;  388,431;64952,285;-5306,182
 704,77;  376,221;64952,539;-6118,483
 705,35;  299,012;64213,793;-6006,784
 705,93;  341,802;64327,047;-4922,085
 706,50;  368,592;63796,301;-5267,387
 707,08;  320,382;60606,555;-5284,688
 707,65;  358,172;60046,809;-5620,990
 708,23;  394,963;64881,063;-5431,292
 708,81;  330,753;64954,316;-5019,593
 709,38;  355,543;64954,570;-5001,894
 709,96;  389,333;64954,820;-6025,195
 710,53;  390,124;64955,074;-6007,497
 711,11;  354,914;61503,328;-5752,798
 711,69;  342,704;61913,582;-3821,100
 712,26;  372,494;59012,836;-4642,401
 712,84;  321,284;63346,090;-5947,703
 713,41;  374,075;64411,344;-6153,004
 713,99;  351,865;64924,598;-6068,305
 714,56;  369,655;62057,852;-6326,607
 715,14;  352,445;60312,105;-6198,908
 715,71;  425,235;60246,355;-6210,209
 716,29;  335,026;62893,609;-6648,511
 716,86;  343,816;63573,863;-6510,813
 717,44;  358,606;63263,117;-6424,114
 718,02;  342,396;62110,371;-6462,415
 718,59;  346,187;61013,625;-5121,716
 719,17;  346,977;63488,879;-5649,018
 719,74;  373,767;62907,133;-5756,319
 720,32;  310,557;63502,387;-6451,621
 720,89;  310,347;64959,641;-6422,922
 721,47;  278,138;64959,891;-6388,224
 722,04;  404,928;64960,145;-5502,525
 722,62;  367,718;64252,398;-3979,826
 723,19;  362,508;60250,652;-4938,128
 723,77;  322,299;57638,906;-5673,429
 724,34;  364,089;60150,160;-5576,730
 724,92;  378,879;63789,414;-6558,032
 725,49;  360,669;64961,668;-5666,333
 726,07;  393,459;64961,922;-6491,635
 726,64;  389,250;64627,176;-6587,936
 727,21;  368,040;60249,426;-5627,238
 727,79;  335,830;63706,680;-6444,539
 728,36;  402,620;64962,934;-6722,840
 728,94;  370,411;64963,188;-6535,142
 729,51;  372,201;64963,441;-6365,443
 730,09;  421,991;64963,695;-5545,745
 730,66;  431,781;64963,949;-6358,046
 731,24;  400,571;64964,203;-6577,348
 731,81;  496,362;64964,457;-5151,649
 732,38;  491,152;64964,711;-6492,950
 732,96;  439,942;64964,961;-6263,251
 733,53;  454,732;60347,215;-6389,553
 734,11;  499,523;61575,469;-6617,854
 734,68;  531,313;64965,723;-6211,156
 735,26;  548,103;64965,977;-6389,458
 735,83;  668,893;64966,230;-6498,759
 736,40;  655,683;62243,484;-6516,060
 736,98;  684,474;61999,738;-6374,361
 737,55;  650,264;59236,992;-5827,663
 738,13;  676,054;57707,246;-5702,964
 738,70;  702,844;60991,496;-5529,266
 739,27;  737,635;62504,750;-6452,567
 739,85;  800,425;62745,004;-6283,869
 740,42;  811,215;64968,258;-6464,170
 740,99;  826,005;64968,512;-5618,471
 741,57;  900,795;64968,766;-4867,773
 742,14;  922,586;64969,020;-5349,074
 742,72;  927,376;64969,273;-4751,375
 743,29;  921,166;64969,527;-6563,677
 743,86;  911,956;64969,781;-6538,979
 744,44;  997,746;64970,031;-6113,280
 745,01;  930,537;64970,285;-5760,581
 745,58;  890,327;64970,539;-6259,882
 746,16;  883,117;64970,793;-6188,184
 746,73;  922,907;64971,047;-6479,485
 747,30;  881,698;61139,301;-6536,787
 747,88;  963,488;59621,555;-5621,088
 748,45;  995,278;64971,809;-5668,390
 749,02; 1072,068;64972,063;-6384,691
 749,60; 1089,859;62401,313;-6212,992
 750,17; 1150,649;61766,566;-5269,294
 750,74; 1217,439;62801,820;-6479,595
 751,31; 1265,229;63306,074;-6347,896
 751,89; 1336,019;64232,328;-6546,198
 752,46; 1262,810;64973,582;-6282,500
 753,03; 1360,600;64973,836;-6160,801
 753,61; 1330,390;63755,090;-4858,102
 754,18; 1304,180;64573,344;-6434,404
 754,75; 1274,970;63888,598;-5191,705
 755,32; 1240,761;60715,848;-6332,006
 755,90; 1281,551;64975,102;-6493,308
 756,47; 1200,341;64975,355;-4809,609
 757,04; 1093,131;64975,609;-6457,911
 757,61; 1047,922;64975,863;-5553,212
 758,19;  910,712;64976,117;-5253,514
 758,76;  827,502;64976,371;-6603,815
 759,33;  766,292;64976,625;-6664,116
 759,90;  773,082;64976,879;-5714,417
 760,48;  703,873;64977,133;-6778,719
 761,05;  671,663;64977,383;-6083,021
 761,62;  647,453;62082,637;-4888,322
 762,19;  611,243;58992,891;-6144,624
 762,77;  576,034;61730,145;-5963,925
 763,34;  573,824;64978,398;-6610,226
 763,91;  563,614;64978,652;-5818,527
 764,48;  525,404;64978,906;-6756,829
 765,05;  493,194;64979,160;-6543,130
 765,63;  446,985;63215,414;-6417,432
 766,20;  425,775;59753,668;-6004,733
 766,77;  416,565;57105,918;-5921,035
 767,34;  383,355;58807,172;-6640,336
 767,91;  375,146;59176,426;-6689,637
 768,49;  395,936;61368,680;-6772,939
 769,06;  427,726;64980,934;-5832,240
 769,63;  366,516;62272,188;-6636,542
 770,20;  354,306;59567,441;-5868,843
 770,77;  340,097;57921,695;-5645,145
 771,34;  349,887;60065,949;-6615,446
 771,91;  347,677;60549,203;-6102,747
 772,49;  329,467;58558,453;-6369,048
 773,06;  389,257;57687,707;-6203,350
 773,63;  330,048;60204,961;-6639,651
 774,20;  346,838;58197,215;-5918,953
 774,77;  371,628;56475,469;-6631,254
 775,34;  334,418;56707,723;-6214,556
 775,91;  424,209;57056,977;-6417,857
 776,49;  629,999;58787,230;-6590,158
 777,06;  764,789;60761,484;-6015,460
 777,63;  714,579;64224,738;-6367,761
 778,20;  430,369;62572,988;-6250,063
 778,77;  455,160;63316,242;-5763,364
 779,34;  369,950;64985,496;-6585,666
 779,91;  358,740;64985,750;-6534,967
 780,48;  371,530;59144,004;-5853,268
 781,05;  389,321;50716,258;-6586,570
 781,62;  448,111;52124,512;-6604,871
 782,20;  452,901;58813,766;-6500,172
 782,77;  423,691;64987,020;-6529,474
 783,34;  385,481;64052,273;-6522,775
 783,91;  356,272;61362,523;-6509,077
 784,48;  358,062;60480,777;-2126,378
 785,05;  389,852;59144,031;-6540,680
 785,62;  359,642;58221,285;-6452,981
 786,19;  356,433;58149,539;-5100,282
 786,76;  333,223;55130,793;-6677,583
 787,33;  344,013;56202,047;-6515,885
 787,90;  371,803;59491,301;-6591,187
 788,47;  376,593;60148,555;-5075,488
 789,04;  405,384;58988,809;-5763,790
 789,61;  407,174;58863,059;-5066,091
 790,18;  366,964;55747,313;-6561,392
 790,75;  332,754;50841,566;-6671,693
 791,32;  364,545;52056,820;-6577,995
 791,89;  357,335;55205,074;-6068,296
 792,46;  670,125;60806,328;-5763,598
 793,03; 1287,915;62404,582;-6702,899
 793,60; 1088,705;55699,836;-6440,201
 794,17;  566,496;52257,090;-5569,502
 794,74;  450,286;47273,344;-5886,803
 795,31;  419,076;50096,594;-6099,105
 795,88;  337,866;52579,848;-5572,406
 796,45;  259,657;53365,102;-6529,708
 797,02;  248,447;56004,355;-5046,009
 797,59;  302,237;57922,609;-6675,311
 798,16;  287,027;54563,863;-5861,612
 798,73;  233,817;53534,117;-6761,913
 799,30;  234,608;55088,371;-6611,214
 799,87;  235,398;55650,625;-6713,516
 800,44;  226,188;55353,875;-6729,817
 801,01;  193,978;56836,129;-6807,119
 801,58;  299,768;58477,383;-6537,420
 802,15;  253,559;52086,637;-6658,722
 802,72;  252,349;48849,891;-6694,023
 803,28;  261,139;52000,145;-6076,324
 803,85;  222,929;57179,398;-6728,626
 804,42;  241,720;55235,652;-5999,927
 804,99;  210,510;53752,906;-6539,229
 805,56;  216,300;52472,160;-6770,530
 806,13;  252,090;53387,410;-6075,832
 806,70;  286,880;52719,664;-6748,133
 807,27;  324,671;54477,918;-6672,434
 807,84;  330,461;52786,172;-6693,736
 808,41;  755,251;49728,426;-6022,037
 808,98; 1569,041;50479,680;-5986,338
 809,54; 1288,832;52469,934;-4958,640
 810,11;  643,622;48281,188;-6782,941
 810,68;  366,412;43021,441;-6680,243
 811,25;  252,202;41394,695;-6760,544
 811,82;  244,992;40374,945;-6886,846
 812,39;  254,783;37710,199;-3331,147
 812,96;  244,573;38779,453;-6767,448
 813,52;  225,363;41291,707;-6937,750
 814,09;  212,153;44522,961;-6766,051
 814,66;  200,944;50325,215;-6827,353
 815,23;  207,734;51240,469;-6669,654
 815,80;  154,524;50439,723;-5853,956
 816,37;  190,314;50917,977;-6801,257
 816,93;  162,104;49487,230;-6731,558
 817,50;  209,895;46790,480;-6102,859
 818,07;  277,685;46034,734;-6960,161
 818,64;  248,475;46919,988;-6856,462
 819,21;  240,265;46261,242;-6053,764
 819,77;  304,056;42742,496;-6571,065
 820,34;  241,846;42053,750;-6677,367
 820,91;  321,636;43276,004;-6469,668
 821,48;  349,426;43873,258;-6689,969
 822,05;  383,216;45571,512;-5875,271
 822,61;  275,007;44296,766;-5631,572
 823,18;  307,797;41860,016;-6620,874
 823,75;  249,587;42585,270;-6957,175
 824,32;  255,377;45286,523;-6923,477
 824,88;  242,168;45073,777;-6882,778
 825,45;  185,958;44018,031;-6899,079
 826,02;  247,748;43798,285;-6643,380
 826,59;  210,538;43974,539;-6639,682
 827,15;  175,328;46077,793;-6906,983
 827,72;  199,119;49519,047;-6723,285
 828,29;  144,909;51523,301;-6895,586
 828,86;  113,699;48827,551;-6791,888
 829,42;  176,489;40797,805;-6812,189
 829,99;  175,279;36802,059;-6647,490
 830,56;  135,070;36252,313;-6869,792
 831,13;  141,860;37220,566;-6060,093
 831,69;  173,650;38022,820;-6506,395
 832,26;  149,440;38832,074;-5062,696
 832,83;  148,231;40408,328;-5452,998
 833,39;  132,021;40187,582;-6904,299
 833,96;  175,811;39167,836;-6687,600
 834,53;   91,601;40039,086;-6928,902
 835,10;  127,391;39930,340;-6529,203
 835,66;  138,182;38972,594;-6920,504
 836,23;  205,972;39801,848;-6803,806
 836,80;   87,762;39428,102;-6790,107
 837,36;   99,552;37086,355;-6810,409
 837,93;  117,343;34475,609;-6902,710
 838,50;  153,133;35084,863;-6789,012
 839,06;  126,923;37684,117;-6288,313
 839,63;   57,713;37191,371;-6895,614
 840,19;  147,503;35132,621;-6607,916
 840,76;  134,294;35364,875;-6404,217
 841,33;  160,084;35892,129;-6509,519
 841,89;  156,874;36779,383;-6949,820
 842,46;  115,664;37103,637;-6751,122
 843,03;  104,455;35389,891;-6089,423
 843,59;  112,245;34224,145;-6403,724
 844,16;  177,035;34994,398;-6181,025
 844,73;  232,825;34249,652;-6067,327
 845,29;  146,615;32937,902;-5695,628
 845,86;  150,406;35699,156;-6800,930
 846,42;   70,196;36940,410;-7004,231
 846,99;  140,986;36477,664;-6967,533
 847,56;  104,776;36265,918;-5840,834
 848,12;   51,567;36240,172;-6745,135
 848,69;   87,357;35710,426;-6715,437
 849,25;  121,147;34401,680;-6845,738
 849,82;  121,937;34081,934;-3247,040
 850,38;  119,727;35064,188;-6840,341
 850,95;  113,518;32489,439;-6324,643
 851,52;  147,308;32520,693;-6565,944
 852,08;  118,098;32548,947;-6691,245
 852,65;   51,888;30323,199;-7005,546
 853,21;   82,679;27698,453;-6958,848
 853,78;   69,469;27362,707;-6363,149
 854,34;  120,259;28860,961;-6871,451
 854,91;   72,049;29081,215;-5086,752
 855,47;  124,839;29942,467;-5108,054
 856,04;  125,630;32027,721;-6746,355
 856,60;   91,420;33961,973;-6104,656
 857,17;   86,210;34979,227;-6840,958
 857,73;   88,000;33553,480;-6811,259
 858,30;   70,791;32532,734;-6985,561
 858,86;   98,581;31110,988;-5926,862
 859,43;  173,371;31430,242;-6226,164
 859,99;  113,161;32011,496;-6852,465
 860,56;   73,951;33126,750;-6903,766
 861,12;   90,742;35190,004;-6737,068
 861,69;   68,532;33669,258;-5924,369
 862,25;  156,322;34731,508;-6821,670
 862,82;  178,112;34419,762;-5972,972
 863,38;  109,902;31196,018;-6843,273
 863,95;  144,693;29305,270;-6239,575
 864,51;  105,483;30403,523;-5287,876
 865,08;  137,273;29284,777;-6090,178
 865,64;  122,063;26795,031;-7018,479
 866,21;  105,854;26131,285;-6745,780
 866,77;  144,644;26051,537;-5552,082
 867,34;  171,434;25734,791;-6672,383
 867,90;  277,224;24632,045;-6303,685
 868,46;  243,014;23835,299;-6041,986
 869,03;  136,805;24389,551;-6929,288
 869,59;  166,595;26353,805;-6884,589
 870,16;  159,385;27647,059;-6052,890
 870,72;  100,175;30060,313;-6657,191
 871,28;  114,966;32915,566;-5992,493
 871,85;  141,756;33142,820;-6907,794
 872,41;  102,546;31569,072;-6004,096
 872,98;  103,336;32738,326;-6050,397
 873,54;   89,126;33876,578;-5920,699
 874,10;  150,917;32768,832;-5876,000
 874,67;   49,917;32987,832;-6904,000
 875,23;   98,917;31068,834;-7032,000
 875,80;  120,917;28009,834;-6641,000
 876,36;   45,917;25058,834;-6642,000
 876,92;   86,917;22832,834;-6189,000
 877,49;   50,917;23923,834;-6517,000
 878,05;   48,917;24896,834;-6797,000
 878,61;  105,917;26938,834;-6812,000
 879,18;   86,917;27553,834;-6252,000
 879,74;  100,917;28076,834;-6720,000
 880,30;   78,917;28679,834;-5926,000
 880,87;   43,917;28852,834;-6326,000
 881,43;   80,917;29533,834;-6871,000
 881,99;   56,917;27306,834;-6879,000
 882,56;   59,917;27610,834;-6661,000
 883,12;   98,917;29049,834;-5740,000
 883,68;   47,917;29120,834;-6518,000
 884,25;  107,917;28300,834;-6949,000
 884,81;   77,917;26343,834;-6701,000
 885,37;   81,917;24221,834;-6786,000
 885,94;   54,917;22940,834;-6851,000
 886,50;  121,917;23098,834;-6886,000
 887,06;   65,917;24358,834;-6796,000
 887,62;   44,917;25019,834;-6866,000
 888,19;   88,917;25774,834;-5986,000
 888,75;   66,917;26542,834;-6821,000
 889,31;   86,917;29043,834;-6778,000
 889,87;   84,917;30537,834;-6723,000
 890,44;  119,917;30349,834;-6696,000
 891,00;   41,917;28757,834;-6786,000
 891,56;   58,917;26457,834;-6998,000
 892,12;   94,917;24463,834;-6754,000
 892,69;   69,917;25310,834;-6373,000
 893,25;  103,917;28798,834;-6877,000
 893,81;   78,917;31774,834;-6696,000
 894,37;  120,917;31330,834;-6342,000
 894,94;  130,917;28713,834;-6772,000
 895,50;  108,917;26035,834; -212,000
 896,06;  165,917;24749,834;-6810,000
 896,62;  134,917;23405,834;-6707,000
 897,18;  149,917;24661,834;-6518,000
 897,75;  148,917;27406,834;-6895,000
 898,31;  167,917;27887,834;-6849,000
 898,87;  158,917;26274,834;-6860,000
 899,43;  138,917;25164,834;-6469,000
 899,99;  124,917;26592,834;-6866,000
 900,56;  179,917;25515,834;-6791,000
 901,12;  149,917;24875,834;-6890,000
 901,68;  160,917;27903,834;-6267,000
 902,24;  178,917;31800,834;-5930,000
 902,80;  139,917;32652,834;-6794,000
 903,36;  269,917;31893,834;-6691,000
 903,93;  336,917;32139,834;-6646,000
 904,49;  651,917;32761,834;-6913,000
 905,05; 1658,917;30952,834;-6732,000
 905,61; 3863,917;28208,834;-6832,000
 906,17; 7310,917;28086,834;-6901,000
 906,73;11519,917;25975,834;-5380,000
 907,29;15291,917;24960,834;-6910,000
 907,86;17008,916;25118,834;-6827,000
 908,42;17299,916;28092,834;-6795,000
 908,98;14746,917;31123,834;-5908,000
 909,54; 9523,917;38813,832;-6885,000
 910,10; 4179,917;48220,832;-6634,000
 910,66; 1395,917;57581,832;-6781,000
 911,22;  481,917;65027,832;-6761,000
 911,78;  332,917;62593,832;-6841,000
 912,34;  201,917;53256,832;-6080,000
 912,90;  231,917;44610,832;-5232,000
 913,46;  161,917;37052,832;-6876,000
 914,03;  150,917;30620,834;-5746,000
 914,59;  179,917;27452,834;-6682,000
 915,15;  144,917;24908,834;-6891,000
 915,71;  115,917;24217,834;-6863,000
 916,27;  120,917;23800,834;-6723,000
 916,83;  114,917;23006,834;-5824,000
 917,39;   85,917;21742,834;-3512,000
 917,95;  101,917;20224,834;-6009,000
 918,51;   79,917;19972,834;-6583,000
 919,07;  103,917;21780,834;-6791,000
 919,63;   30,917;23295,834;-6661,000
 920,19;   20,917;23935,834;-6865,000
 920,75;   70,917;23112,834;-6640,000
 921,31;   63,917;21484,834;-4837,000
 921,87;   89,917;20216,834;-6845,000
 922,43;  110,917;18019,834;-5626,000
 922,99;  115,917;17321,834;-6706,000
 923,55;  116,917;18674,834;-6655,000
 924,11;   73,917;19094,834;-6976,000
 924,67;   68,917;19310,834;-6962,000
 925,23;  124,917;19485,834;-6778,000
 925,79;   95,917;20122,834;-6710,000
 926,35;  109,917;20219,834;-6573,000
 926,91;   50,917;19401,834;-6909,000
 927,47;   67,917;19367,834;-6660,000
 928,03;  143,917;20294,834;-6786,000
 928,59;   81,917;20503,834;-6678,000
 929,15;  136,917;20781,834;-6792,000
 929,71;  100,917;22016,834;-6840,000
 930,27;  159,917;23587,834;-6537,000
 930,82;  107,917;25573,834;-6728,000
 931,38;   60,917;24317,834;-5852,000
 931,94;   65,917;22672,834;-6843,000
 932,50;   77,917;21252,834;-6481,000
 933,06;   95,917;20895,834;-6768,000
 933,62;   95,917;21092,834;-6443,000
 934,18;   95,917;20632,834;-6727,000
 934,74;  106,917;21320,834;-6709,000
 935,30;  106,917;22030,834;-6484,000
 935,86;  103,917;21213,834;-6505,000
 936,42;   97,917;20702,834;-6873,000
 936,97;  113,917;21656,834;-6563,000
 937,53;   54,917;20552,834;-6826,000
 938,09;  128,917;21087,834;  123,000
 938,65;  139,917;21186,834;-6268,000
 939,21;  100,917;20179,834;-6708,000
 939,77;   86,917;18946,834;-6213,000
 940,33;  104,917;18602,834;-6748,000
 940,88;  113,917;19429,834;-5908,000
 941,44;  113,917;21301,834;-6983,000
 942,00;   65,917;23225,834;-6697,000
 942,56;   96,917;24231,834;-6604,000
 943,12;   89,917;23427,834;-5907,000
 943,68;   94,917;22950,834;-5679,000
 944,23;  112,917;23124,834;-6749,000
 944,79;   60,917;22674,834;-6102,000
 945,35;   69,917;20741,834;-6599,000
 945,91;  128,917;19519,834;-6767,000
 946,47;  116,917;19827,834;-3353,000
 947,03;  115,917;19896,834;-6850,000
 947,58;  115,917;19661,834;-6840,000
 948,14;  118,917;20790,834;-5897,000
 948,70;   97,917;19573,834;-5855,000
 949,26;   97,917;18881,834;-6616,000
 949,81;   99,917;18342,834;-6644,000
 950,37;   95,917;18686,834;-6695,000
 950,93;  128,917;17993,834;-6224,000
 951,49;   36,917;17568,834;-6057,000
 952,05;  112,917;17926,834;-6571,000
 952,60;   73,917;17299,834;-6951,000
 953,16;   79,917;16933,834;-5783,000
 953,72;   53,917;15628,833;-5813,000
 954,27;   55,917;15524,833;-6566,000
 954,83;   87,917;15317,833;-6703,000
 955,39;   58,917;14917,833;-6691,000
 955,95;   81,917;14456,833;-6849,000
 956,50;   90,917;14272,833;-6698,000
 957,06;   55,917;14126,833;-5922,000
 957,62;   97,917;13780,833;-6559,000
 958,18;   66,917;13872,833;-6741,000
 958,73;   66,917;13326,833;-6820,000
 959,29;   80,917;13518,833;-6106,000
 959,85;   37,917;14785,833;-6864,000
 960,40;  108,917;16746,834;-4263,000
 960,96;   84,917;16386,834;-6738,000
 961,52;   96,917;14755,833;-6643,000
 962,07;  111,917;13711,833;-6742,000
 962,63;   60,917;13208,833;-6723,000
 963,19;   95,917;13435,833;-5779,000
 963,74;  169,917;13877,833;-6582,000
 964,30;   85,917;14475,833;-6595,000
 964,86;  127,917;14281,833;-6484,000
 965,41;  169,917;14290,833;-6705,000
 965,97;  107,917;14185,833;-6569,000
 966,53;   96,917;14792,833;-6750,000
 967,08;  102,917;15311,833;-6611,000
 967,64;  149,917;15082,833;-6705,000
 968,19;  124,917;14471,833;-6684,000
 968,75;  119,917;14662,833;-6566,000
 969,31;  123,917;14880,833;-5626,000
 969,86;  166,917;14995,833;-6505,000
 970,42;  166,917;13195,833;-6620,000
 970,97;  151,917;11567,833;-6437,000
 971,53;  175,917;11625,833;-6490,000
 972,09;  101,917;12998,833;-6646,000
 972,64;  136,917;13523,833;-5812,000
 973,20;  150,917;13815,833;-6599,000
 973,75;  131,917;14605,833;-5760,000
 974,31;  145,917;14826,833;-6578,000
 974,87;  158,917;14921,833;-6674,000
 975,42;  157,917;14507,833;-6727,000
 975,98;  144,917;13201,833;-6651,000
 976,53;  147,917;12100,833;-6555,000
 977,09;  166,917;11353,833;-4624,000
 977,64;  186,917;11164,833;-6532,000
 978,20;  180,917;10649,833;-6585,000
 978,75;  161,917;10482,833;-6429,000
 979,31;  109,917;10950,833;-6513,000
 979,86;  176,917;12220,833;-6739,000
 980,42;  154,917;12828,833;-5813,000
 980,97;  119,917;13290,833;-6642,000
 981,53;  188,917;14285,833;-6636,000
 982,08;  188,917;13803,833;-5046,000
 982,64;  155,917;12278,833;-6237,000
 983,19;  142,917;11308,833;-6760,000
 983,75;  139,917;10993,833;-6576,000
 984,30;  121,917;10430,833;-5581,000
 984,86;  157,917; 9867,833;-5898,000
 985,41;  135,917; 9457,833;-6634,000
 985,97;  168,917; 9632,833;-4797,000
 986,52;  119,917; 9894,833;-5853,000
 987,08;  174,917; 9953,833;-6174,000
 987,63;  136,917;10165,833;-5608,000
 988,19;  163,917;11252,833;-6266,000
 988,74;  111,917;11710,833;-5682,000
 989,30;  145,917;11529,833;-6568,000
 989,85;  188,917;11470,833; -276,000
 990,40;  109,917;11314,833;-6617,000
 990,96;  173,917;11060,833;-6482,000
 991,51;  181,917;11149,833;-6578,000
 992,07;  138,917;10742,833;-6605,000
 992,62;  129,917;10285,833;-6519,000
 993,18;  152,917;10035,833;-6504,000
 993,73;  210,917; 9986,833;-6440,000
 994,28;  156,917; 9800,833;-6464,000
 994,84;  146,917; 9019,833;-6240,000
 995,39;  172,917; 8474,833;-2971,000
 995,94;  177,917; 7953,833;-5673,000
 996,50;  172,917; 7647,833;-6543,000
 997,05;  165,917; 7872,833;-3481,000
 997,61;  174,917; 8363,833;-6489,000
 998,16;  167,917; 8581,833;-6555,000
 998,71;  188,917; 8850,833;-6340,000
 999,27;  187,917; 9115,833;-5223,000
 999,82;  154,917; 8706,833;-4778,000
1000,37;  202,917; 8661,833;-6520,000
1000,93;  183,917; 8920,833;-6107,000
1001,48;  187,917; 8799,833;-6543,000
1002,03;  177,917; 8477,833;-6469,000
1002,59;  176,917; 8715,833;-5972,000
1003,14;  182,917; 8758,833;-6113,000
1003,69;  175,917; 8484,833;-6513,000
1004,25;  181,917; 8299,833;-6507,000
1004,80;  170,917; 8322,833;-6266,000
1005,35;  179,917; 8313,833;-6361,000
1005,91;  182,917; 8515,833;-6558,000
1006,46;  203,917; 8426,833;-6084,000
1007,01;  224,917; 8227,833;-5479,000
1007,56;  156,917; 8599,833;-6440,000
1008,12;  207,917; 8342,833;-6178,000
1008,67;  212,917; 7867,833;-6312,000
1009,22;  211,917; 7509,833;-6481,000
1009,78;  185,917; 7205,833;-6163,000
1010,33;  225,917; 6649,833;-6443,000
1010,88;  235,917; 6413,833;-5618,000
1011,43;  227,917; 5995,833;-6433,000
1011,99;  275,917; 5972,833;-6198,000
1012,54;  212,917; 6320,833;-6387,000
1013,09;  254,917; 6048,833;-6299,000
1013,64;  259,917; 5802,833;-6362,000
1014,19;  281,917; 5823,833;-6442,000
1014,75;  265,917; 5928,833;-6408,000
1015,30;  299,917; 6394,833;-6425,000
1015,85;  304,917; 6370,833;-6367,000
1016,40;  267,917; 6247,833;-5436,000
1016,96;  390,917; 6235,833;-6268,000
1017,51;  314,917; 6150,833;-6351,000
1018,06;  341,917; 6095,833;-6310,000
1018,61;  303,917; 5695,833;-6665,000
1019,16;  309,917; 5609,833;-6697,000
1019,71;  416,917; 5663,833;-6373,000
1020,27;  370,917; 5567,833;-6353,000
1020,82;  398,917; 5375,833;-3700,000
1021,37;  429,917; 5405,833;-4798,000
1021,92;  420,917; 5984,833;-6454,000
1022,47;  427,917; 5965,833;-6548,000
1023,02;  486,917; 5463,833;-6512,000
1023,58;  520,917; 5045,833;-6573,000
1024,13;  556,917; 4730,833;-6258,000
1024,68;  473,917; 4434,833;-6298,000
1025,23;  511,917; 4324,833;-5525,000
1025,78;  562,917; 4613,833;-6475,000
1026,33;  571,917; 4932,833;-5510,000
1026,88;  661,917; 4843,833;-6236,000
1027,43;  678,917; 5167,833;-6276,000
1027,99;  663,917; 5134,833;-6002,000
1028,54;  788,917; 4732,833;-6395,000
1029,09;  799,917; 4106,833;-2478,000
1029,64;  864,917; 3919,833;-6303,000
1030,19; 1020,917; 4147,833;-3821,000
1030,74; 1051,917; 4243,833;-5134,000
1031,29; 1145,917; 4284,833;-4765,000
1031,84; 1171,917; 4491,833;-6300,000
1032,39; 1287,917; 4563,833;-5403,000
1032,94; 1513,917; 4617,833;-4326,000
1033,49; 1663,917; 4361,833;-5476,000
1034,04; 1740,917; 4236,833;-6312,000
1034,59; 1899,917; 4205,833;-6507,000
1035,14; 2001,917; 4117,833;-6145,000
1035,69; 2122,917; 4318,833;-6224,000
1036,24; 2305,917; 4104,833;-4477,000
1036,80; 2561,917; 3986,833;-5453,000
1037,35; 2737,917; 4138,833;-6347,000
1037,90; 2940,917; 4172,833;-6274,000
1038,45; 3148,917; 4201,833;-6419,000
1039,00; 3344,917; 4340,833;-5490,000
1039,55; 3598,917; 4229,833;-6284,000
1040,10; 3774,917; 3977,833;-5615,000
1040,65; 3979,917; 3916,833;-5576,000
1041,20; 4223,917; 3850,833;-6325,000
1041,75; 4629,917; 4030,833;-4522,000
1042,30; 5134,917; 4164,833;-3585,000
1042,84; 5806,917; 4338,833;-4439,000
1043,39; 6323,917; 4248,833;-6313,000
1043,94; 6877,917; 4175,833;-5342,000
1044,49; 7482,917; 3887,833;-6246,000
1045,04; 8102,917; 3710,833;-5800,000
1045,59; 9066,917; 3809,833;-6299,000
1046,14;10137,917; 3732,833;-6392,000
1046,69;11336,917; 3591,833;-6294,000
1047,24;12892,917; 3623,833;-5510,000
1047,79;14424,917; 3737,833;-6139,000
1048,34;16184,917; 4002,833;-5961,000
1048,89;18250,916; 3948,833;-6259,000
1049,44;21081,916; 3935,833;-5172,000
1049,99;24495,916; 3855,833;-4844,000
1050,54;29967,916; 3876,833;-6249,000
1051,08;38835,918; 3961,833;-6178,000
1051,63;53460,918; 4050,833;-5285,000
1052,18;65142,918; 5051,833;-6127,000
1052,73;65142,918; 7151,833;-6173,000
1053,28;65142,918;10516,833;-6386,000
1053,83;65142,918;15224,833;-6214,000
1054,38;65142,918;19203,834;-6254,000
1054,93;65142,918;21243,834;-6285,000
1055,47;65142,918;23825,834;-5328,000
1056,02;65142,918;26212,834;-5832,000
1056,57;65142,918;27830,834;-6198,000
1057,12;65142,918;30497,834;-6378,000
1057,67;65142,918;33805,832;-6078,000
1058,22;65142,918;36084,832;-6313,000
1058,76;65142,918;38542,832;-6093,000
1059,31;65142,918;44129,832;-3514,000
1059,86;65142,918;48778,832;-6204,000
1060,41;65142,918;49718,832;-6152,000
1060,96;65142,918;51396,832;-6226,000
1061,51;65142,918;53649,832;-5344,000
1062,05;65142,918;54082,832;-6122,000
1062,60;65142,918;50555,832;-6061,000
1063,15;65142,918;45221,832;-6149,000
1063,70;65142,918;41550,832;-6250,000
1064,24;65142,918;43676,832;-6169,000
1064,79;65142,918;45461,832;-6144,000
1065,34;65142,918;43989,832;-6064,000
1065,89;65142,918;41776,832;-6202,000
1066,44;65142,918;37631,832;-6120,000
1066,98;65142,918;32612,834;-6224,000
1067,53;65142,918;30790,834;-5953,000
1068,08;65142,918;30368,834;-4845,000
1068,63;65142,918;27618,834;-6096,000
1069,17;65142,918;24647,834;-5893,000
1069,72;65142,918;22350,834;-5857,000
1070,27;65142,918;20529,834;-6040,000
1070,81;65142,918;20388,834;-5996,000
1071,36;65142,918;20367,834;-3883,000
1071,91;65142,918;18745,834;  966,000
1072,46;65142,918;16791,834;-5058,000
1073,00;65142,918;14646,833;-5239,000
1073,55;65142,918;11404,833;-5935,000
1074,10;65142,918; 7803,833;-5981,000
1074,64;65142,918; 5240,833;-5860,000
1075,19;65142,918; 3535,833;-4958,000
1075,74;65142,918; 2551,833;-6091,000
1076,28;51360,918; 2312,833;-6075,000
1076,83;41054,918; 1951,833;-5286,000
1077,38;34126,918; 1820,833;-5653,000
1077,92;28448,916; 1783,833;-6332,000
1078,47;24390,916; 1629,833;-5507,000
1079,02;20753,916; 1578,833;-5959,000
1079,56;18042,916; 1557,833;-5328,000
1080,11;15286,917; 1304,833;-6094,000
1080,65;13195,917; 1241,833;-5039,000
1081,20;11268,917; 1186,833;-6151,000
1081,75; 9904,917; 1125,833;-6039,000
1082,29; 8412,917; 1128,833; -139,000
1082,84; 7482,917; 1184,833;-2678,000
1083,39; 6787,917; 1294,833;-5061,000
1083,93; 6419,917; 1335,833;-5025,000
1084,48; 5755,917; 1196,833;-5961,000
1085,02; 5115,917; 1082,833;-5783,000
1085,57; 4700,917; 1074,833;-5994,000
1086,11; 4435,917; 1079,833;-5968,000
1086,66; 4093,917;  925,833;-5584,000
1087,21; 3917,917; 1060,833;-5802,000
1087,75; 3709,917;  939,833;-6125,000
1088,30; 3443,917;  815,833;-5040,000
1088,84; 3133,917;  783,833;-5963,000
1089,39; 2946,917;  656,833;-5965,000
1089,93; 2746,917;  664,833;-6100,000
1090,48; 2442,917;  649,833;-4394,000
1091,02; 2221,917;  733,833;-5181,000
1091,57; 2004,917;  629,833;-5479,000
1092,11; 1890,917;  642,833;-4094,000
1092,66; 1724,917;  624,833;-6031,000
1093,20; 1672,917;  580,833;-5180,000
1093,75; 1612,917;  566,833;-4998,000
1094,29; 1541,917;  486,833;-4979,000
1094,84; 1500,917;  525,833;-5890,000
1095,38; 1377,917;  528,833;-5097,000
1095,93; 1221,917;  584,833;-5981,000
1096,47; 1255,917;  615,833;-5612,000
1097,02; 1138,917;  587,833;-4985,000
1097,56; 1089,917;  614,833;-5772,000
1098,11; 1014,917;  552,833;-5774,000
1098,65; 1004,917;  508,833;-5992,000
1099,20;  871,917;  577,833;-5935,000
1099,74;  816,917;  487,833;-6002,000
1100,29;  848,917;  513,833;-4879,000
1100,83;  722,917;  496,833;-5934,000

