
Integration time [ms]:   1,000
Averaging Nr. [scans]: 1
Smoothing Nr. [pixels]: 0
Data measured with spectrometer [name]: 1703254U1
Wave   ;Sample   ;Dark     ;Reference;Scope
[nm]   ;[counts] ;[counts] ;[counts] 

 190,08;  -95,257; -370,119;11982,743
 190,69;  -77,507; -359,404;11603,049
 191,29;  -78,969; -311,651;11479,965
 191,90;  -88,261; -365,508;11440,717
 192,50;  -86,591; -379,511;10355,099
 193,10;  -66,753; -446,299;11244,381
 193,71;  -85,442; -367,888; 9821,736
 194,31;  -80,118; -399,273; 9436,327
 194,91;  -80,118; -382,273; 9291,327
 195,52;  -86,695; -338,386;10555,949
 196,12;  -63,621; -397,056; 8671,847
 196,72;  -82,519; -386,394; 8220,904
 197,32;  -85,442; -375,888; 8251,736
 197,93;  -53,155; -360,420; 8700,957
 198,53;  -81,892; -383,145; 7601,797
 199,13;  -76,575; -397,132; 8091,270
 199,74;  -74,166; -366,410; 7263,813
 200,34;  -57,616; -388,667; 7832,874
 200,94;  -56,215; -436,547; 6941,297
 201,55;  -77,507; -406,404; 7119,049
 202,15;  -14,535; -375,773; 6404,732
 202,75; -109,352; -373,217; 6097,647
 203,36;   29,713; -338,664; 6822,492
 203,96;  -27,255; -357,943; 6332,678
 204,56;    1,372; -355,657;10275,729
 205,16;  -19,832; -363,018; 5478,458
 205,77;  -40,152; -360,244; 4767,892
 206,37;  -30,667; -409,017; 5556,267
 206,97;  -58,217; -363,760; 5129,205
 207,58;  -33,034; -364,166; 5927,278
 208,18;   -7,245; -337,129; 5129,889
 208,78;  -30,739; -404,134; 5295,461
 209,38;  -19,660; -469,415; 4958,385
 209,99;   68,444; -356,540; 3837,534
 210,59;  -20,122; -361,662; 3890,301
 211,19;  -33,391; -364,538; 3938,343
 211,79;   10,604; -366,927; 4499,316
 212,40;  -24,333; -373,625; 3368,911
 213,00;   20,228; -388,891; 3903,118
 213,60;  -26,783; -386,882; 2992,972
 214,20;  -15,670; -401,230; 3081,175
 214,81;  -37,674; -422,618; 2884,148
 215,41;  -70,879; -376,979; 3235,877
 216,01;  -29,985; -373,067; 3109,636
 216,61;  -21,013; -367,399; 2814,476
 217,22;  -26,600; -381,326; 2358,888
 217,82;  -42,904; -325,173; 2262,495
 218,42;    9,725; -383,711; 2389,480
 219,02;  -54,765; -288,327; 3432,079
 219,63;  -49,790; -357,483; 2044,854
 220,23;  -23,027; -366,602; 2425,239
 220,83;  -16,252; -395,730; 1901,770
 221,43;  -63,211; -393,195; 1850,167
 222,03;  -43,925; -348,940; 2326,296
 222,64;  -16,907; -380,348; 1769,560
 223,24;   38,439; -298,966; 1625,350
 223,84;  -33,282; -376,313; 2637,361
 224,44;  -12,628; -316,695; 2381,571
 225,05;  -58,078; -313,952; 1440,632
 225,65;  -12,821; -301,065; 1227,445
 226,25;  -48,067; -364,961; 1139,777
 226,85;  -16,953; -294,309;  995,979
 227,45;  -18,781; -335,706; 1083,907
 228,06;   -8,006; -365,834; 1945,438
 228,66;  -51,484; -349,460; 4049,182
 229,26;    3,822; -313,438; 1131,510
 229,86;  -91,248; -396,342; 1760,797
 230,46;  -29,046; -358,194;  891,976
 231,06;  -42,837; -320,444;  757,273
 231,67;  -23,417; -346,732; 1228,961
 232,27; -118,394; -343,789;  778,094
 232,87;  -69,371; -308,808;  526,384
 233,47;  -63,422; -321,158;  525,777
 234,07;  -40,120; -268,486; 9912,235
 234,67;  -68,549; -291,013;  672,338
 235,28; -102,422; -319,158;   65,777
 235,88;  -64,995; -316,882;  285,426
 236,48;  -61,689; -350,821;  165,911
 237,08;  -42,992; -267,669;  448,518
 237,68; -145,083; -369,378; -267,552
 238,28;  -75,911; -304,774; -106,624
 238,89;  -67,099; -212,756; -205,723
 239,49;  -81,538; -282,023; 1280,483
 240,09;  -63,898; -284,608; -190,544
 240,69; -124,589; -251,373; -319,124
 241,29;  -70,851; -289,647;  651,036
 241,89;  -90,269; -330,147; -260,559
 242,49;  -66,661; -248,490; -358,930
 243,10;  -70,320; -201,496; 3664,834
 243,70;  -67,661; -284,490;  239,070
 244,30;  -70,814; -275,501; -708,594
 244,90;  -55,262; -188,582; -568,598
 245,50;  -81,777; -177,355; 3274,777
 246,10;  -66,698; -307,636; -831,300
 246,70;  -44,067; -300,999;   17,620
 247,30;  -46,192; -251,641;  326,273
 247,91;  -85,728; -208,218; 5781,292
 248,51;  -65,717; -270,228; -806,563
 249,11;  -53,132; -239,514;  417,933
 249,71;  -36,055; -303,008; -667,235
 250,31;  -28,002; -265,483; -567,693
 250,91;   -7,649; -238,500;   75,216
 251,51;  -44,387; -199,225; -822,945
 252,11;  -54,076; -239,813;  367,410
 252,71;  -86,304; -269,117;-1080,994
 253,31;  -48,118; -222,348; 3228,013
 253,91;  -80,768; -236,578; -676,170
 254,52; -103,459; -237,342;-1063,750
 255,12;  -36,002; -293,483;-1104,693
 255,72;   24,070; -206,366;  557,112
 256,32;  -40,538; -242,061; -966,674
 256,92;  -42,526; -190,070;-1147,529
 257,52;    7,404; -173,974; -883,243
 258,12;  -68,174; -201,087;  -91,621
 258,72;  -49,747; -210,810;-1232,972
 259,32;  -26,800; -211,335;-1169,514
 259,92;  -26,306; -199,330;-1343,086
 260,52;   13,569; -192,973;-1077,433
 261,12;   -2,373; -202,059; -662,865
 261,72;  -24,872; -238,452;-1312,319
 262,32;   11,926; -215,600;-1561,498
 262,92;  -70,236; -238,426;  405,627
 263,53;  -43,169; -189,698;-1277,594
 264,13;  -50,807; -262,937; -268,632
 264,73;  -23,081; -217,202;-1694,617
 265,33;   10,012; -188,317;-1708,613
 265,93;    3,330; -147,304;-1345,140
 266,53;  -13,055; -161,046;-1544,392
 267,13;  -32,963; -139,161; -857,388
 267,73;  -28,633; -185,158;  270,230
 268,33;  -40,540; -166,274;-1788,766
 268,93;  -64,157; -213,708;-1702,449
 269,53;  -49,369; -204,670; -644,839
 270,13;    3,571; -201,797;-1810,499
 270,73;  -78,858; -245,287;-1891,239
 271,33;  -11,192; -200,678;-1778,884
 271,93;   -4,995; -242,919;-1867,732
 272,53;   18,513; -121,748;    8,776
 273,13;   27,972; -146,677;-1117,075
 273,73;  -23,981; -119,753;-1955,652
 274,33;  -16,401; -148,428;-2041,182
 274,93;  -27,102; -188,007;-1843,972
 275,53;  -75,487;  -68,748;-1881,224
 276,13;  -59,819; -121,965;-2261,935
 276,73;  -16,647; -118,361;-1570,007
 277,33;  -45,167; -179,522;-1926,659
 277,93;   40,643; -213,680;-1864,693
 278,53;    3,504; -194,526;-2112,278
 279,13;  -36,520; -125,506;-2152,568
 279,73;  -16,696; -140,498;-1388,522
 280,33;  -35,311; -154,756;-2179,270
 280,93;   12,216; -105,994;-2049,499
 281,53;  -51,283; -147,387;-2252,953
 282,13;  -22,812; -127,363;-2193,816
 282,73;  -36,547; -156,875; -385,885
 283,33;  -51,218; -137,872;-2307,266
 283,92;  -10,554;  -74,477;-2028,003
 284,52;  -19,691;  -94,109;-2365,496
 285,12;  -10,332; -138,524;-1425,469
 285,72;  -12,854; -126,898;-1041,213
 286,32;   24,573;  -55,622;-1313,564
 286,92;  -17,002; -163,521;-2376,850
 287,52;   59,163;  -89,519;-2170,041
 288,12;   73,030;  -97,763;-2542,507
 288,72;   26,752; -106,417;-1625,518
 289,32;   29,104;  -54,470; 1692,233
 289,92;   -4,211; -106,270;-2344,148
 290,52;   38,206;  -91,809;-2485,710
 291,12;   -1,949;  -57,996;-1570,308
 291,72;   34,446;  -74,477;-1590,003
 292,32;   58,673;  -83,135;-2372,442
 292,92;   55,666;   -2,737;-2481,560
 293,51;   44,956;  -37,093;-2532,404
 294,11;   43,156;  -42,121;-1681,160
 294,71;   58,292;   -7,488;-2695,667
 295,31;   57,007;  -24,743;-1755,797
 295,91;  153,931;   46,751;-2713,629
 296,51;   98,165;   62,656;-1776,106
 297,11;   56,817;   35,061;-2900,988
 297,71;   82,111;    4,131;-2726,648
 298,31;  123,789;   38,730;-2329,148
 298,91;  169,425;   74,756;-2483,202
 299,50;  146,221;   41,395;-2689,473
 300,10;  176,979;  145,887;-2706,114
 300,70;  169,940;   95,528;-2492,576
 301,30;  192,678;   89,253;-2855,415
 301,90;  148,183;   96,248;-2004,843
 302,50;  271,518;  163,640;-2515,198
 303,10;  276,617;  124,126;-2530,076
 303,70;  237,494;  208,660;-3000,488
 304,29;  200,109;  189,918;-2658,740
 304,89;  251,383;  266,183;-1090,755
 305,49;  231,439;  163,922;-2773,122
 306,09;  272,276;  214,133;-2874,839
 306,69;  336,448;  262,736;-2915,911
 307,29;  315,673;  312,865;-2008,442
 307,89;  323,538;  303,408;-3029,000
 308,48;  371,237;  341,774;-2453,301
 309,08;  489,316;  369,492;-2743,377
 309,68;  562,534;  377,019;-3094,026
 310,28;  722,146;  371,102;-2576,213
 310,88;  785,395;  321,211;-2936,453
 311,48;  645,139;  447,500;-2875,331
 312,07;  834,420;  408,367;-2963,228
 312,67;  933,685;  497,855;-2128,297
 313,27;  730,868;  494,448;-1105,224
 313,87;  867,432;  583,357;-2164,083
 314,47;  851,945;  516,954;-3030,392
 315,06;  808,418;  620,191; 2713,837
 315,66;  643,404;  579,988;-3245,400
 316,26;  809,297;  632,938;-1844,483
 316,86;  938,427;  777,969;-3140,110
 317,46;  950,325;  720,307;-2115,167
 318,06;  878,402;  739,813; -825,335
 318,65;  984,249;  781,801;-2807,999
 319,25; 1103,919;  821,798;-3195,617
 319,85; 1099,035;  932,663;-2908,323
 320,45; 1214,854;  986,283;-3213,304
 321,05; 1303,701;  901,271;-2761,968
 321,64; 1344,481;  889,531;-3219,411
 322,24; 1780,555; 1056,861;-3265,513
 322,84; 2340,479; 1080,356;-3261,345
 323,44; 3409,302; 1133,364;-3219,300
 324,03; 8405,868; 1194,486;-3072,067
 324,63;10656,409; 1250,452;-2310,059
 325,23; 6147,521; 1241,928;-3097,792
 325,83; 2938,121; 1367,021;-2876,123
 326,42; 4645,128; 1442,622;-3285,005
 327,02; 8616,880; 1476,551;-3076,607
 327,62; 7995,999; 1439,629;-2505,221
 328,22; 4800,291; 1553,486;-3234,973
 328,82; 4275,191; 1577,037;-2229,938
 329,41; 3712,201; 1658,852;-3016,728
 330,01; 4171,823; 1652,750;-2961,704
 330,61; 4790,085; 1806,062;-2928,707
 331,20; 4072,194; 1778,325;-2868,531
 331,80; 3569,561; 1762,512;-2794,386
 332,40; 3206,415; 1752,102;-2896,932
 333,00; 3310,633; 1933,667;-2790,423
 333,59; 3258,387; 1748,771;-2855,091
 334,19; 3416,751; 1920,745;-1771,037
 334,79; 3431,362; 1712,615;-2861,316
 335,39; 3199,589; 1729,919;-2978,912
 335,98; 3406,410; 1726,714;-3126,958
 336,58; 3196,835; 1659,777;-3191,401
 337,18; 3124,000; 1720,779;-2958,592
 337,77; 3143,930; 1782,837;-2098,463
 338,37; 2932,654; 1806,359;-2021,540
 338,97; 2745,125; 1907,384;-2912,402
 339,57; 2654,343; 1862,948;-3044,894
 340,16; 2679,113; 1836,431;-2881,390
 340,76; 2560,034; 1962,712;-3053,314
 341,36; 2583,542; 1861,920;-3195,650
 341,95; 2475,902; 1934,506;-3027,623
 342,55; 2234,661; 1918,998;  703,736
 343,15; 2294,686; 2048,155;-3094,039
 343,74; 2375,115; 1924,644;-2382,298
 344,34; 2513,264; 1860,267;-3015,661
 344,94; 2788,373; 2068,530;-3069,485
 345,53; 2723,011; 2110,769;-2860,447
 346,13; 2470,819; 2174,398;-1283,573
 346,73; 2598,607; 1966,473;-2254,805
 347,32; 2628,610; 2268,649;-3080,871
 347,92; 2726,668; 2312,600;-2277,145
 348,52; 2402,714; 2270,523;-1878,722
 349,11; 2135,515; 2336,551;  975,034
 349,71; 2127,598; 2330,658;-3240,016
 350,31; 2298,666; 2441,387;-2672,237
 350,90; 2514,795; 2483,418;-2326,863
 351,50; 2749,624; 2390,852;-2105,634
 352,10; 2904,062; 2471,119;-3114,840
 352,69; 2892,923; 2532,273;-3182,424
 353,29; 2612,296; 2563,024;-3191,317
 353,89; 2401,044; 2645,527;-3255,104
 354,48; 2278,062; 2693,119;-3208,840
 355,08; 2132,849; 2871,980;-1117,164
 355,67; 2025,109; 2850,042;-2951,417
 356,27; 2059,051; 2839,128;-3232,985
 356,87; 1962,406; 3010,288;-3383,142
 357,46; 2019,113; 3049,431;-2351,390
 358,06; 2136,735; 3306,291;-3073,523
 358,66; 2229,737; 3337,504;-3109,432
 359,25; 2747,317; 3260,792;-2344,119
 359,85; 3199,422; 3365,667;-3215,970
 360,44; 2900,308; 3389,015;-3292,172
 361,04; 2657,686; 3567,155;-2367,039
 361,64; 2734,686; 3696,155;-2309,039
 362,23; 2586,055; 3772,517;-2932,958
 362,83; 2331,621; 3755,639;-2990,726
 363,42; 2324,011; 3938,769;-2836,447
 364,02; 2305,285; 3910,034;-2973,462
 364,62; 2206,819; 3816,398;-2486,573
 365,21; 2304,190; 3857,937;-1741,558
 365,81; 2376,953; 3935,818;-2792,173
 366,40; 2179,085; 3970,062;-2080,707
 367,00; 2132,350; 4021,550;-2952,776
 367,59; 2160,271; 4071,831;-2979,699
 368,19; 2306,575; 4221,678;-3237,306
 368,79; 2234,858; 4198,720;-3125,268
 369,38; 2155,299; 4107,200;-2250,383
 369,98; 2143,519; 4101,940;-2935,940
 370,57; 2065,303; 4188,588;-3331,356
 371,17; 2006,236; 4164,860;-3326,135
 371,76; 1932,714; 4277,486;-3442,879
 372,36; 2062,292; 4057,598;-3195,501
 372,95; 2003,971; 4115,372;  667,934
 373,55; 2092,449; 4105,998;-3393,811
 374,14; 2160,874; 4300,099;-3405,097
 374,74; 2167,514; 4256,514;-3224,124
 375,34; 2061,473; 4286,979;-3189,521
 375,93; 2160,055; 4295,479;-2706,116
 376,53; 2179,974; 4344,585;-3575,974
 377,12; 2144,751; 4405,670;-1465,352
 377,72; 2133,846; 4480,730;-3410,414
 378,31; 2139,626; 4511,027;-2274,699
 378,91; 2062,948; 4291,429;-3262,199
 379,50; 2134,828; 4588,213;-3331,363
 380,10; 2146,146; 4327,226;-3398,890
 380,69; 2179,809; 4094,621;-2343,626
 381,29; 2052,552; 4586,735;-2550,439
 381,88; 2033,858; 4518,758;-1605,111
 382,48; 1927,728; 4519,727;-3286,485
 383,07; 1979,700; 4495,358;-3457,802
 383,67; 1890,858; 4635,758;-1847,111
 384,26; 1869,420; 4667,491;-2467,905
 384,86; 1848,294; 4921,849;-3182,252
 385,45; 1832,292; 4932,636;-3325,344
 386,05; 1888,491; 5073,608;-3419,100
 386,64; 1777,336; 4911,384;-3524,855
 387,24; 1883,260; 5016,878;-2585,688
 387,83; 1813,561; 4993,512;-2489,386
 388,42; 1849,547; 5182,346;-2109,466
 389,02; 1814,870; 5423,748;-3235,966
 389,61; 1828,450; 5688,036;-3413,653
 390,21; 1793,260; 5729,878;-3463,688
 390,80; 1785,160; 5816,392;-3208,810
 391,40; 1809,401; 6137,899;-2293,168
 391,99; 1868,085; 5981,099;-3195,550
 392,59; 1874,781; 6435,252;-2416,943
 393,18; 1851,819; 6683,398;-2491,573
 393,77; 1795,134; 6883,198;-3238,192
 394,37; 1848,433; 7145,657;-2198,825
 394,96; 1833,313; 7098,403;-2296,146
 395,56; 1776,303; 7264,588;-2834,356
 396,15; 1809,812; 6867,797;-3125,692
 396,75; 1893,510; 7343,163;-2889,993
 397,34; 1875,519; 7669,940;-2620,940
 397,93; 1899,146; 7720,188;-3358,047
 398,53; 1958,770; 7595,262;-2525,088
 399,12; 2146,143; 8192,013;-2154,981
 399,72; 2132,062; 8013,119;-2274,840
 400,31; 2124,633; 8034,629;-3169,581
 400,91; 2157,979; 8446,012;-2959,791
 401,50; 2223,134; 8820,198;-2330,192
 402,09; 2515,359; 8550,327;-2894,722
 402,69; 2402,981; 8691,187;-3072,856
 403,28; 2292,092; 9052,663;-2983,588
 403,88; 2405,338; 9162,560; 1927,079
 404,47; 2459,271; 9689,831;  884,300
 405,06; 2460,333; 9684,171;  -68,947
 405,66; 2767,997; 9753,565;-2875,684
 406,25; 3120,858;10085,720;-3119,268
 406,84; 2846,992;10446,177;-2892,711
 407,44; 2613,071;10847,858;-2219,944
 408,03; 2328,064;10422,257;-2906,063
 408,63; 2087,392;10373,085;-3011,379
 409,22; 2095,809;10191,584;-1945,783
 409,81; 1985,273;10681,007;-1849,765
 410,41; 2198,733;11553,078;-2857,615
 411,00; 2119,983;11336,362;-1814,921
 411,59; 2102,016;11251,120;-2826,578
 412,19; 2124,665;11468,350;-2245,394
 412,78; 2064,934;11399,226;-2830,436
 413,37; 1956,048;12151,878;-2704,234
 413,97; 1978,350;12410,512;-2618,933
 414,56; 1944,691;12071,506;-2503,169
 415,15; 1946,113;12410,394;-2121,547
 415,75; 1991,410;12408,639;-2698,272
 416,34; 1958,735;12590,254;-1893,681
 416,93; 1998,391;12922,047;-2777,536
 417,53; 2182,958;12696,169;-1423,303
 418,12; 2153,447;12570,785;-2217,903
 418,71; 1990,421;12907,592;-2673,285
 419,31; 2042,176;13054,695;-1884,952
 419,90; 2121,665;13470,313;-2786,552
 420,49; 2002,182;13619,298;-1733,834
 421,08; 2017,182;14201,298;-1674,834
 421,68; 2044,913;14723,421;-1908,792
 422,27; 2083,224;14035,832;-2004,437
 422,86; 2095,027;13874,073; -437,590
 423,46; 2096,486;14080,107;-2575,598
 424,05; 2127,881;14376,626;-2928,293
 424,64; 2356,625;13888,953;-2640,014
 425,24; 2392,498;14092,098;-2903,453
 425,83; 2281,006;13992,269;-2680,945
 426,42; 2288,881;12987,626;-2760,293
 427,01; 3412,129;13424,734;-2674,533
 427,61; 3625,342;14347,873;-2609,209
 428,20; 2483,934;14036,151;-1764,751
 428,79; 2134,674;14414,052;-2859,656
 429,38; 2163,254;14092,377;-1781,186
 429,98; 2139,126;14922,521; -994,625
 430,57; 2109,342;15058,873;-2193,209
 431,16; 2161,407;14580,389;-2784,522
 431,75; 2186,966;14357,909; -561,407
 432,35; 2271,978;13435,899;-1951,262
 432,94; 2338,393;14429,186;-2324,759
 433,53; 2416,089;14560,375;-1152,995
 434,12; 2451,971;14431,298;-2267,381
 434,72; 2604,430;14188,331;-1413,389
 435,31; 2606,293;14167,699; 7395,119
 435,90; 2581,579;14308,954; 8338,249
 436,49; 2525,177;13427,834; -683,175
 437,08; 2719,250;13895,951; -675,370
 437,68; 2991,519;14442,827;-2987,412
 438,27; 2632,665;14610,237;-2610,866
 438,86; 2191,013;14612,832;-1147,984
 439,45; 2120,913;15313,346;-1937,106
 440,05; 2029,681;15955,616;-2982,694
 440,64; 1979,449;15054,886;-1902,282
 441,23; 1978,245;14152,525;-1415,553
 441,82; 1906,688;13700,218;-2631,576
 442,41; 1752,783;14351,277;-3014,637
 443,00; 1598,402;13625,925;-2724,863
 443,60; 1714,955;14373,881;-3136,710
 444,19; 1681,892;15026,541;-1440,462
 444,78; 1651,723;14960,151;-3012,298
 445,37; 1590,760;15728,297;-2522,928
 445,96; 1590,818;15331,249;-3116,202
 446,56; 1569,233;15596,535;-1144,698
 447,15; 1555,941;16225,678; -884,947
 447,74; 1620,667;17097,412;-2709,931
 448,33; 1588,945;16443,066;-1985,920
 448,92; 1539,467;15422,440;-2964,176
 449,51; 1578,319;15095,817;-2848,813
 450,10; 1957,098;15133,078;-3063,256
 450,70; 2584,885;14904,939;-1957,581
 451,29; 2134,005;15329,193;-1112,260
 451,88; 1696,282;15513,671;-2929,183
 452,47; 1661,792;16565,055;-2795,584
 453,06; 1964,397;16495,498;-2401,047
 453,65; 2275,084;16071,874;-2873,493
 454,24; 2107,442;17329,246;-2173,558
 454,84; 1716,653;17793,209;-1379,168
 455,43; 1607,068;18732,496;-2219,665
 456,02; 1501,585;18879,480;-2927,947
 456,61; 1472,279;17317,459;-2925,275
 457,20; 1476,514;16921,363;-2786,753
 457,79; 1758,534;17588,131;-2922,554
 458,38; 2567,089;18338,264;-2132,467
 458,97; 2377,940;18039,641;-2515,104
 459,56; 1772,256;18190,479;-2760,565
 460,16; 1638,595;17832,258;-2082,894
 460,75; 1548,209;18157,518;-2072,146
 461,34; 1512,402;18077,887;-2962,020
 461,93; 1517,970;18381,186;-2200,853
 462,52; 1624,407;19333,275;-2744,993
 463,11; 1708,718;20546,688;-1989,639
 463,70; 1867,105;19458,643;-2869,295
 464,29; 2716,381;19945,082;-3150,376
 464,88; 4008,954;20795,807;-2743,024
 465,47; 3440,395;19885,285;-2748,139
 466,06; 2064,353;20915,713;-3191,692
 466,65; 2002,810;21667,572;-3018,635
 467,24; 2216,237;22030,848;-2539,986
 467,84; 2190,829;22443,164;-2020,371
 468,43; 1907,086;22325,051;-2238,559
 469,02; 1929,488;23517,170;-2702,135
 469,61; 2161,179;24168,936;-2593,555
 470,20; 2496,404;23781,063;-2841,085
 470,79; 2097,193;22760,100;-3232,475
 471,38; 1704,562;25266,463;-2192,395
 471,97; 1586,330;26009,732; -666,983
 472,56; 1538,026;25472,887;-3035,376
 473,15; 1571,133;25296,975;-2825,135
 473,74; 1482,731;26395,854;-3106,559
 474,33; 1543,072;25866,848;-2957,796
 474,92; 1538,655;27630,348;-3146,391
 475,51; 1642,933;29609,002;-2873,380
 476,10; 1799,451;29847,986;-3011,662
 476,69; 1868,372;26101,268;-2855,586
 477,28; 1821,156;25846,955;-2956,845
 477,87; 1673,335;27035,121; -173,956
 478,46; 1908,564;28695,639;-3029,460
 479,05; 2139,028;30507,100;-2134,284
 479,64; 2157,636;31679,756;-2718,655
 480,23; 1879,010;29541,508;-2845,548
 480,82; 1843,439;28549,996;-2736,807
 481,41; 1856,339;29371,510;-1873,929
 482,00; 1875,861;29284,885;-1364,185
 482,59; 1920,604;29593,998;-2298,998
 483,18; 1885,901;31702,244;-2376,723
 483,77; 1831,982;31703,139;-2193,865
 484,36; 1875,933;32475,002;-1701,380
 484,95; 1957,915;32990,410; -788,643
 485,54; 2001,063;35331,031;-1371,006
 486,13; 2257,274;35762,996; -945,616
 486,72; 2386,817;34334,137;  148,326
 487,31; 2099,184;31046,285;-1109,686
 487,89; 2067,905;32608,633; -193,697
 488,48; 2063,453;33798,164;-1523,728
 489,07; 2093,462;32913,941;-1248,674
 489,66; 2285,223;33511,645;-1505,224
 490,25; 2607,501;31095,299; -660,212
 490,84; 3129,455;34127,375;-1683,635
 491,43; 3497,917;34965,621; -701,552
 492,02; 3376,882;36094,652;-1864,987
 492,61; 3424,509;35362,902;-1043,094
 493,20; 3448,727;33776,426;-2019,743
 493,79; 3476,385;32749,434; 4824,494
 494,38; 3297,216;33706,043;-1938,342
 494,97; 3278,803;32583,934; -629,911
 495,55; 2925,655;34690,309;-2325,548
 496,14; 2798,316;35087,531;-2403,220
 496,73; 2718,105;35451,566;-1952,609
 497,32; 2544,599;34211,570;-2587,182
 497,91; 2594,286;35005,949;-1921,629
 498,50; 2565,747;34165,195;-2912,544
 499,09; 2455,599;34554,570;-3088,182
 499,68; 2577,852;32403,070;-2405,396
 500,27; 2732,894;33321,605;-2490,999
 500,85; 2765,065;32655,207;-2604,071
 501,44; 2829,784;32478,342;-2576,175
 502,03; 2719,692;33194,457;-3368,178
 502,62; 2539,687;31275,068;-3438,205
 503,21; 2464,812;29432,711;-3532,858
 503,80; 2458,817;32028,100;-2976,831
 504,39; 2288,794;32451,119;-3458,121
 504,97; 2405,745;31774,982;-3577,636
 505,56; 2500,411;31537,590;-2979,281
 506,15; 2677,290;32302,336;-3991,602
 506,74; 2746,211;32557,617;-2945,526
 507,33; 2821,810;32185,498;-3165,949
 507,92; 2846,014;33952,859;-3871,678
 508,51; 2525,921;35926,973;-3735,682
 509,09; 2493,529;34536,629;-3921,053
 509,68; 3489,963;34318,508;-3748,286
 510,27; 5324,868;33667,410;-3799,381
 510,86; 4244,831;32572,264;-4081,751
 511,45; 2378,128;33677,512;-3843,476
 512,03; 2292,849;34524,855;-3829,488
 512,62; 2343,768;36240,961;-3780,346
 513,21; 2432,884;33870,789;-3186,209
 513,80; 3122,137;34644,289;-3501,423
 514,39; 5389,605;32752,137;-3905,221
 514,97; 8221,061;35347,781;-4095,255
 515,56; 6189,246;34167,551;-4198,248
 516,15; 2949,981;35428,063;-3955,179
 516,74; 2207,267;32584,318;-4420,049
 517,33; 2058,130;33459,688;-3549,542
 517,91; 1968,350;33935,426;-4188,099
 518,50; 2148,056;32563,393;-3264,282
 519,09; 2293,826;33942,875;-3157,778
 519,68; 2871,434;35231,531;-4286,148
 520,26; 3628,752;38679,547;-4232,675
 520,85; 6707,659;39452,660;-4352,679
 521,44;11996,464;40826,078;-4358,897
 522,03; 9134,093;39485,539;-4271,912
 522,61; 3281,464;36773,078;-4364,897
 523,20; 2259,617;33924,090;-4337,233
 523,79; 1848,199;32040,590;-4337,828
 524,38; 1745,207;32850,191;-4344,709
 524,96; 1676,865;35883,199;-4321,473
 525,55; 1540,657;36021,449;-4542,771
 526,14; 1373,919;34018,723;-4434,931
 526,73; 1374,135;32852,074;-4389,515
 527,31; 1339,761;32903,324;-4488,622
 527,90; 1420,657;33630,449;-4564,771
 528,49; 1652,921;34155,938;-2529,839
 529,08; 2082,903;34601,344;-3467,103
 529,66; 1841,327;34848,445;-3911,389
 530,25; 1326,167;35279,832;-4414,172
 530,84; 1228,232;35334,348;-4583,485
 531,42; 1230,429;38583,105;-4365,332
 532,01; 1118,951;37528,480;-4291,588
 532,60; 1081,076;34512,125;-4473,241
 533,18; 1050,452;35538,086;-4078,042
 533,77; 1082,698;34969,984;-4236,374
 534,36; 1078,633;34459,469;-4374,061
 534,95; 1212,457;35483,477;-4088,015
 535,53; 1242,782;34236,090; -974,424
 536,12; 1183,875;36469,977;-2657,420
 536,71; 1136,995;36511,230;-3869,099
 537,29; 1122,329;36073,621;-3618,454
 537,88; 1173,464;33908,078;-3454,897
 538,47; 1190,626;32497,867;-2840,180
 539,05; 1367,819;36837,238;-2139,054
 539,64; 1203,921;40414,898;-1785,997
 540,22; 1173,482;37414,633; -764,790
 540,81; 1165,037;37501,766; 1008,297
 541,40; 1168,153;39018,629; 3425,591
 541,98; 1029,325;38188,230; 4858,519
 542,57; 1141,875;39368,977; 4597,580
 543,16; 1136,506;38645,613; 4952,500
 543,74; 1137,786;35774,480; 4083,603
 544,33; 1025,438;36297,883; 3620,721
 544,92; 1076,768;37217,887; 3973,339
 545,50; 1162,610;37338,488;11456,648
 546,09; 1206,722;40064,965;11359,916
 546,67; 1146,083;41948,727; 2857,878
 547,26; 1088,947;40050,094; -202,615
 547,85; 1076,151;39208,414; -567,501
 548,43; 1053,659;38452,625; -849,836
 549,02; 1045,643;39427,246;-1040,008
 549,60; 1011,928;40570,500; -984,878
 550,19; 1077,016;41166,996;-2192,901
 550,78;  987,615;42660,875;-2328,325
 551,36; 1010,547;45349,148;-2432,104
 551,95; 1030,967;45443,859; -585,416
 552,53; 1089,290;43280,262; -296,916
 553,12; 1178,134;41420,035;-3431,672
 553,70; 1147,540;43188,547;-2878,222
 554,29; 1055,334;44058,008;-2869,428
 554,88;  973,107;41831,668;-4247,989
 555,46;  984,311;43723,027;-3881,718
 556,05; 1050,072;45007,734;-4207,268
 556,63;  944,784;45206,266;-3396,489
 557,22;  920,759;43875,109;-3394,714
 557,80;  953,708;41749,762;-3568,321
 558,39; 1001,972;44188,250;-4145,390
 558,97;  906,603;47993,887;-3699,470
 559,56;  966,394;49889,137;-4544,768
 560,15; 1002,097;50117,891;-3611,042
 560,73;  980,206;49814,152;-4287,867
 561,32; 1121,341;47024,609;-3741,309
 561,90; 1003,074;46041,910;-4382,333
 562,49; 1112,703;48487,371;-3786,348
 563,07; 1039,021;48074,387;-4783,875
 563,66; 1040,229;50064,133;-4352,577
 564,24; 1075,053;49228,145;-4763,531
 564,83; 1057,777;51344,664;-4603,607
 565,41; 1097,868;53840,375;-4329,539
 566,00; 1033,195;52202,164;-2755,012
 566,58; 1098,032;56465,375;-3725,729
 567,17; 1101,587;56909,508;-4280,642
 567,75; 1086,956;52392,871;-4653,562
 568,34; 1035,696;55893,770;-3216,466
 568,92; 1038,837;55738,793;-3987,947
 569,51; 1450,427;54852,895; 2680,576
 570,09; 1395,680;58247,391;-4676,638
 570,68;  919,396;53188,313;-4788,833
 571,26;  925,478;50733,242;-3886,817
 571,85;  985,401;57347,738;-4822,649
 572,43;  971,362;57011,379;-4704,111
 573,01;  892,197;52662,375;-4873,920
 573,60;  986,663;53819,012;-3785,810
 574,18;  846,290;55122,262;-4514,917
 574,77;  787,772;53284,277;-4737,634
 575,35;  847,663;56113,012;-4452,810
 575,94;  902,531;57300,770;-4076,275
 576,52;  952,949;54049,270;-2249,680
 577,11; 1093,749;51620,297;-3244,924
 577,69; 2324,364;48685,555;-3183,176
 578,27; 2444,016;51008,996;-3447,901
 578,86; 1060,376;55198,543;-2994,031
 579,44;  859,840;60080,004;-2805,855
 580,03;  919,559;60164,137;-2493,958
 580,61;  932,278;60267,270;-3206,062
 581,19;  899,624;56429,652;-2538,271
 581,78;  879,814;55361,813;-2364,238
 582,36;  830,475;57656,031;-2911,909
 582,95;  848,854;56180,172;-1497,776
 583,53;  893,717;59586,539;-2319,268
 584,11;  904,274;61608,883;-2241,088
 584,70;  971,283;61691,660;-1948,035
 585,28;  927,503;62070,398;-1853,592
 585,87;  817,886;60436,930;-2889,432
 586,45;  821,376;63023,543;-2375,031
 587,03;  807,468;64945,430;-1150,027
 587,62;  818,306;61494,641;-1834,745
 588,20;  862,761;62236,285;-1020,779
 588,78;  967,779;58157,840;-3411,673
 589,37;  959,949;57765,270;-3360,680
 589,95;  941,861;62238,773;-3385,657
 590,54;  857,881;63633,539;-3461,459
 591,12;  820,243;62116,301;-3508,497
 591,70;  864,508;59586,789;-3331,565
 592,29;  836,990;62881,805;-2923,283
 592,87;  842,868;63542,375;-2394,538
 593,45;  863,826;63404,801; 1487,908
 594,04;  849,666;62800,188;-3676,875
 594,62;  841,074;59709,910;-3708,333
 595,20;  839,461;62066,828;-4371,146
 595,79;  902,596;62681,285;-4165,588
 596,37;  888,364;61108,555;-3657,176
 596,95;  855,359;56922,164;-4321,203
 597,53;  828,696;58806,770;-4226,466
 598,12;  791,227;61848,922;-3959,669
 598,70;  870,223;64932,531;-3776,695
 599,28;  875,868;64911,375;-3404,538
 599,87;  878,520;64929,777;-3061,420
 600,45;  883,420;64938,293;-3907,543
 601,03;  846,849;63145,781;-4100,802
 601,62;  838,666;61727,188;-4468,875
 602,20;  765,821;59786,414;-4541,119
 602,78;  769,594;64399,070;-4770,680
 603,36;  823,408;64783,301;-3166,688
 603,95;  851,772;58863,277;-4492,634
 604,53;  819,267;62401,281;-4574,207
 605,11;  799,960;59505,258;-2755,535
 605,69;  817,536;62362,156;-3365,249
 606,28;  812,990;62594,805;-4223,283
 606,86;  875,810;61629,422;-3946,264
 607,44;  795,540;60431,547;-3906,222
 608,02;  767,155;58047,805;-4037,474
 608,61;  874,107;60099,668;-2866,989
 609,19;  766,480;58582,418;-2582,882
 609,77;  829,645;57398,422; -710,073
 610,35;  782,343;55748,785; 5794,625
 610,94;  787,557;56509,926;14509,949
 611,52;  799,107;55803,668;12610,011
 612,10;  711,851;53026,957; 8432,133
 612,68;  730,863;56637,949; 2694,278
 613,26;  693,199;57037,551; 2032,015
 613,85;  675,721;61759,926; -599,241
 614,43;  714,733;62306,918;-1030,096
 615,01;  695,819;62272,199;-1215,211
 615,59;  778,208;64874,328; -972,932
 616,17;  758,294;59402,648;-2561,890
 616,76;  808,603;62178,887;-2993,470
 617,34;  828,357;62666,988;-2389,138
 617,92;  829,696;58547,770;-3399,466
 618,50;  818,624;61202,652;-2562,271
 619,08;  792,640;57928,031;-2514,100
 619,67;  834,195;55968,164;-3196,012
 620,25;  759,306;54290,641;-2743,745
 620,83;  795,420;50498,293;-3495,543
 621,41;  853,496;52314,797;-2800,711
 621,99;  804,436;54560,672;-2529,371
 622,57;  864,724;55529,141;-3707,149
 623,15;  826,021;56213,387;-3783,875
 623,74;  815,390;58266,746;-3892,794
 624,32;  823,213;59330,754;-2827,749
 624,90;  824,086;58625,898;-2311,188
 625,48;  828,793;57897,043;-3132,436
 626,06;  858,680;56898,391;-4006,638
 626,64;  895,840;57787,004;-4162,855
 627,22;  827,487;58993,020;-3409,764
 627,81;  820,417;58046,117;-4334,478
 628,39;  773,218;57121,145;-4560,722
 628,97;  774,584;56597,293;-4437,733
 629,55;  794,554;55377,750;-4219,985
 630,13;  747,278;55669,270;-2959,062
 630,71;  768,262;54162,891;-2747,233
 631,29;  751,772;53129,277;-3824,634
 631,87;  753,422;52776,504;-4223,451
 632,45;  727,294;52786,648;-4716,890
 633,03;  764,763;54183,500;-4191,688
 633,62;  746,267;55423,281;-4714,207
 634,20;  722,018;54882,172;-4089,966
 634,78;  729,346;56497,000;-4430,283
 635,36;  711,965;56701,648;-4449,508
 635,94;  754,856;55183,383;-5398,684
 636,52;  726,636;51027,645;-5422,126
 637,10;  715,359;52116,164;-5488,203
 637,68;  661,728;50694,527;-4702,123
 638,26;  634,719;47618,750;-5536,176
 638,84;  660,415;48688,902;-5421,569
 639,42;  648,359;49235,164;-3756,203
 640,00;  653,215;51366,148;-5405,726
 640,58;  711,004;54579,402;-4806,027
 641,16;  636,792;55521,656;-5571,328
 641,74;  662,581;53214,906;-5433,630
 642,32;  641,370;50106,160;-5620,931
 642,90;  648,158;50434,414;-5856,232
 643,48;  654,947;49231,668;-5786,534
 644,06;  653,735;49280,922;-5796,835
 644,64;  644,524;49595,176;-5842,137
 645,22;  595,313;50513,430;-5562,438
 645,80;  531,101;50547,684;-4957,740
 646,39;  603,890;48107,938;-5515,041
 646,97;  571,678;49773,191;-5850,342
 647,54;  538,467;52328,441;-5717,644
 648,12;  574,256;54879,695;-5865,945
 648,70;  566,044;58954,949;-5885,247
 649,28;  577,833;56421,203;-6090,548
 649,86;  555,621;51091,457;-5609,850
 650,44;  539,410;48619,711;-5452,151
 651,02;  567,199;49970,965;-5474,452
 651,60;  522,987;51793,219;-5803,753
 652,18;  512,776;51320,473;-4735,055
 652,76;  523,564;53277,723;-5934,356
 653,34;  509,353;54817,977;-5939,658
 653,92;  497,142;57729,230;-5784,959
 654,50;  556,930;59042,484;-5818,261
 655,08;  623,719;58048,738;-5841,562
 655,66;  642,507;55058,992;-5115,863
 656,24;  649,296;56743,246;-5200,165
 656,82;  599,085;58989,500;-4979,466
 657,40;  568,873;58967,754;-5667,768
 657,98;  614,662;60169,008;-5486,069
 658,56;  523,450;61114,258;-5717,371
 659,14;  545,239;61380,512;-5913,672
 659,72;  540,027;63381,766;-5916,973
 660,29;  488,816;62437,020;-5907,275
 660,87;  503,605;59738,273;-5212,576
 661,45;  491,393;58590,527;-5664,877
 662,03;  548,182;57513,781;-4971,179
 662,61;  561,970;54945,035;-5638,480
 663,19;  505,759;54618,289;-5657,782
 663,77;  469,548;53917,543;-5939,083
 664,35;  443,336;56689,793;-5887,384
 664,93;  469,125;62595,047;-4922,686
 665,51;  489,913;61993,301;-6033,987
 666,08;  495,702;57747,555;-5652,289
 666,66;  469,491;51859,809;-4400,590
 667,24;  536,279;49420,063;-5952,892
 667,82;  501,068;50250,316;-5849,193
 668,40;  491,856;50723,570;-5932,494
 668,98;  486,645;51952,824;-5097,796
 669,56;  457,434;57957,078;-6096,097
 670,13;  412,222;61797,328;-6222,398
 670,71;  443,011;59698,582;-5900,700
 671,29;  447,799;57209,836;-6139,001
 671,87;  459,588;56814,090;-6051,303
 672,45;  426,377;51822,344;-6050,604
 673,03;  550,165;52592,598;-4769,906
 673,60;  626,954;58431,852;-3503,207
 674,18;  703,742;63679,105;-5938,508
 674,76;  575,531;61159,359;-6226,810
 675,34;  540,320;56361,613;-5251,111
 675,92;  464,108;55284,863;-6338,413
 676,50;  492,897;55051,117;-6085,714
 677,07;  424,685;56952,371;-6095,016
 677,65;  474,474;56680,625;-6163,317
 678,23;  407,262;55997,879;-5057,618
 678,81;  427,051;58016,133;-5299,919
 679,38;  446,840;56669,387;-5969,221
 679,96;  410,628;53267,641;-5846,522
 680,54;  423,417;55171,895;-5308,824
 681,12;  410,205;52485,148;-6126,125
 681,70;  391,994;54786,398;-4413,427
 682,27;  371,783;54740,652;-5851,728
 682,85;  353,571;58265,906;-5991,029
 683,43;  399,360;64943,160;-6140,331
 684,01;  419,148;64943,414;-5172,632
 684,58;  399,937;64307,668;-5138,934
 685,16;  443,726;64236,922;-4494,235
 685,74;  404,514;62790,176;-3853,536
 686,32;  411,303;59009,430;-6012,838
 686,89;  373,091;59552,684;-6015,139
 687,47;  380,880;59534,934;-6076,441
 688,05;  440,669;56416,188;-6019,742
 688,63;  399,457;59626,441;-6102,043
 689,20;  388,246;62884,695;-5971,345
 689,78;  409,034;58427,949;-5530,646
 690,36;  466,823;54291,203;-5381,948
 690,93;  424,612;54968,457;-6355,249
 691,51;  500,400;61453,711;-6326,550
 692,09;  414,189;64946,965;-6223,852
 692,67;  412,977;64947,219;-6047,153
 693,24;  399,766;60968,469;-5803,455
 693,82;  352,555;59538,723;-6235,756
 694,40;  378,343;58049,977;-3570,058
 694,97;  361,132;57456,230;-6046,359
 695,55;  367,920;59820,484;-5464,660
 696,13;  379,709;61729,738;-4454,962
 696,70;  371,497;58594,992;-6029,263
 697,28;  376,286;59108,246;-6266,564
 697,86;  358,075;60837,500;-6030,866
 698,43;  432,863;58827,754;-6198,167
 699,01;  378,652;55595,004;-6051,469
 699,59;  384,440;55751,258;-6402,770
 700,16;  381,229;54174,512;-5257,072
 700,74;  376,018;57040,766;-5497,373
 701,32;  336,806;56440,020;-6233,674
 701,89;  353,595;55792,273;-6049,976
 702,47;  386,383;60296,527;-6466,277
 703,05;  345,172;64951,781;-6309,579
 703,62;  349,961;64952,035;-6227,880
 704,20;  352,749;64952,285;-5306,182
 704,77;  340,538;64952,539;-6118,483
 705,35;  299,326;64213,793;-6006,784
 705,93;  272,115;64327,047;-4922,085
 706,50;  292,904;63796,301;-5267,387
 707,08;  313,692;60606,555;-5284,688
 707,65;  313,481;60046,809;-5620,990
 708,23;  303,269;64881,063;-5431,292
 708,81;  337,058;64954,316;-5019,593
 709,38;  347,847;64954,570;-5001,894
 709,96;  363,635;64954,820;-6025,195
 710,53;  317,424;64955,074;-6007,497
 711,11;  308,212;61503,328;-5752,798
 711,69;  367,001;61913,582;-3821,100
 712,26;  346,789;59012,836;-4642,401
 712,84;  326,578;63346,090;-5947,703
 713,41;  315,367;64411,344;-6153,004
 713,99;  262,155;64924,598;-6068,305
 714,56;  347,944;62057,852;-6326,607
 715,14;  355,732;60312,105;-6198,908
 715,71;  339,521;60246,355;-6210,209
 716,29;  321,310;62893,609;-6648,511
 716,86;  289,098;63573,863;-6510,813
 717,44;  359,887;63263,117;-6424,114
 718,02;  305,675;62110,371;-6462,415
 718,59;  311,464;61013,625;-5121,716
 719,17;  292,253;63488,879;-5649,018
 719,74;  372,041;62907,133;-5756,319
 720,32;  308,830;63502,387;-6451,621
 720,89;  323,618;64959,641;-6422,922
 721,47;  294,407;64959,891;-6388,224
 722,04;  293,196;64960,145;-5502,525
 722,62;  358,984;64252,398;-3979,826
 723,19;  366,773;60250,652;-4938,128
 723,77;  328,561;57638,906;-5673,429
 724,34;  341,350;60150,160;-5576,730
 724,92;  327,139;63789,414;-6558,032
 725,49;  343,927;64961,668;-5666,333
 726,07;  363,716;64961,922;-6491,635
 726,64;  380,504;64627,176;-6587,936
 727,21;  378,293;60249,426;-5627,238
 727,79;  333,082;63706,680;-6444,539
 728,36;  377,870;64962,934;-6722,840
 728,94;  449,659;64963,188;-6535,142
 729,51;  413,447;64963,441;-6365,443
 730,09;  410,236;64963,695;-5545,745
 730,66;  454,024;64963,949;-6358,046
 731,24;  451,813;64964,203;-6577,348
 731,81;  499,602;64964,457;-5151,649
 732,38;  537,390;64964,711;-6492,950
 732,96;  524,179;64964,961;-6263,251
 733,53;  557,967;60347,215;-6389,553
 734,11;  558,756;61575,469;-6617,854
 734,68;  622,545;64965,723;-6211,156
 735,26;  689,333;64965,977;-6389,458
 735,83;  706,122;64966,230;-6498,759
 736,40;  776,910;62243,484;-6516,060
 736,98;  777,699;61999,738;-6374,361
 737,55;  751,488;59236,992;-5827,663
 738,13;  820,276;57707,246;-5702,964
 738,70;  763,065;60991,496;-5529,266
 739,27;  813,853;62504,750;-6452,567
 739,85;  904,642;62745,004;-6283,869
 740,42;  925,431;64968,258;-6464,170
 740,99;  929,219;64968,512;-5618,471
 741,57; 1035,008;64968,766;-4867,773
 742,14; 1073,796;64969,020;-5349,074
 742,72; 1127,585;64969,273;-4751,375
 743,29; 1027,374;64969,527;-6563,677
 743,86; 1085,162;64969,781;-6538,979
 744,44; 1127,951;64970,031;-6113,280
 745,01; 1017,739;64970,285;-5760,581
 745,58;  924,528;64970,539;-6259,882
 746,16;  998,317;64970,793;-6188,184
 746,73; 1007,105;64971,047;-6479,485
 747,30;  979,894;61139,301;-6536,787
 747,88; 1040,682;59621,555;-5621,088
 748,45; 1088,471;64971,809;-5668,390
 749,02; 1153,260;64972,063;-6384,691
 749,60; 1237,048;62401,313;-6212,992
 750,17; 1297,837;61766,566;-5269,294
 750,74; 1283,625;62801,820;-6479,595
 751,31; 1385,414;63306,074;-6347,896
 751,89; 1388,202;64232,328;-6546,198
 752,46; 1475,991;64973,582;-6282,500
 753,03; 1483,780;64973,836;-6160,801
 753,61; 1466,568;63755,090;-4858,102
 754,18; 1347,357;64573,344;-6434,404
 754,75; 1331,145;63888,598;-5191,705
 755,32; 1308,934;60715,848;-6332,006
 755,90; 1170,723;64975,102;-6493,308
 756,47; 1229,511;64975,355;-4809,609
 757,04; 1116,300;64975,609;-6457,911
 757,61; 1066,088;64975,863;-5553,212
 758,19;  952,877;64976,117;-5253,514
 758,76;  855,666;64976,371;-6603,815
 759,33;  822,454;64976,625;-6664,116
 759,90;  732,243;64976,879;-5714,417
 760,48;  673,031;64977,133;-6778,719
 761,05;  605,820;64977,383;-6083,021
 761,62;  609,609;62082,637;-4888,322
 762,19;  580,397;58992,891;-6144,624
 762,77;  585,186;61730,145;-5963,925
 763,34;  491,974;64978,398;-6610,226
 763,91;  477,763;64978,652;-5818,527
 764,48;  485,551;64978,906;-6756,829
 765,05;  463,340;64979,160;-6543,130
 765,63;  449,129;63215,414;-6417,432
 766,20;  434,917;59753,668;-6004,733
 766,77;  437,706;57105,918;-5921,035
 767,34;  397,494;58807,172;-6640,336
 767,91;  384,283;59176,426;-6689,637
 768,49;  337,072;61368,680;-6772,939
 769,06;  333,860;64980,934;-5832,240
 769,63;  348,649;62272,188;-6636,542
 770,20;  340,437;59567,441;-5868,843
 770,77;  328,226;57921,695;-5645,145
 771,34;  260,015;60065,949;-6615,446
 771,91;  314,803;60549,203;-6102,747
 772,49;  347,592;58558,453;-6369,048
 773,06;  281,380;57687,707;-6203,350
 773,63;  311,169;60204,961;-6639,651
 774,20;  340,958;58197,215;-5918,953
 774,77;  362,746;56475,469;-6631,254
 775,34;  318,535;56707,723;-6214,556
 775,91;  465,323;57056,977;-6417,857
 776,49;  592,112;58787,230;-6590,158
 777,06;  762,901;60761,484;-6015,460
 777,63;  665,689;64224,738;-6367,761
 778,20;  469,478;62572,988;-6250,063
 778,77;  395,266;63316,242;-5763,364
 779,34;  314,055;64985,496;-6585,666
 779,91;  375,844;64985,750;-6534,967
 780,48;  330,632;59144,004;-5853,268
 781,05;  360,421;50716,258;-6586,570
 781,62;  397,209;52124,512;-6604,871
 782,20;  358,998;58813,766;-6500,172
 782,77;  335,786;64987,020;-6529,474
 783,34;  288,575;64052,273;-6522,775
 783,91;  287,364;61362,523;-6509,077
 784,48;  266,152;60480,777;-2126,378
 785,05;  322,941;59144,031;-6540,680
 785,62;  292,729;58221,285;-6452,981
 786,19;  305,518;58149,539;-5100,282
 786,76;  280,307;55130,793;-6677,583
 787,33;  312,095;56202,047;-6515,885
 787,90;  297,884;59491,301;-6591,187
 788,47;  350,672;60148,555;-5075,488
 789,04;  343,461;58988,809;-5763,790
 789,61;  346,250;58863,059;-5066,091
 790,18;  292,038;55747,313;-6561,392
 790,75;  334,827;50841,566;-6671,693
 791,32;  331,615;52056,820;-6577,995
 791,89;  341,404;55205,074;-6068,296
 792,46;  611,193;60806,328;-5763,598
 793,03; 1191,981;62404,582;-6702,899
 793,60;  988,770;55699,836;-6440,201
 794,17;  569,558;52257,090;-5569,502
 794,74;  448,347;47273,344;-5886,803
 795,31;  351,136;50096,594;-6099,105
 795,88;  342,924;52579,848;-5572,406
 796,45;  261,713;53365,102;-6529,708
 797,02;  273,501;56004,355;-5046,009
 797,59;  251,290;57922,609;-6675,311
 798,16;  248,078;54563,863;-5861,612
 798,73;  181,867;53534,117;-6761,913
 799,30;  211,656;55088,371;-6611,214
 799,87;  213,444;55650,625;-6713,516
 800,44;  232,233;55353,875;-6729,817
 801,01;  200,021;56836,129;-6807,119
 801,58;  244,810;58477,383;-6537,420
 802,15;  225,599;52086,637;-6658,722
 802,72;  226,387;48849,891;-6694,023
 803,28;  204,176;52000,145;-6076,324
 803,85;  225,964;57179,398;-6728,626
 804,42;  281,753;55235,652;-5999,927
 804,99;  200,542;53752,906;-6539,229
 805,56;  150,330;52472,160;-6770,530
 806,13;  215,119;53387,410;-6075,832
 806,70;  239,907;52719,664;-6748,133
 807,27;  215,696;54477,918;-6672,434
 807,84;  271,485;52786,172;-6693,736
 808,41;  772,273;49728,426;-6022,037
 808,98; 1468,062;50479,680;-5986,338
 809,54; 1300,850;52469,934;-4958,640
 810,11;  634,639;48281,188;-6782,941
 810,68;  394,428;43021,441;-6680,243
 811,25;  256,216;41394,695;-6760,544
 811,82;  208,005;40374,945;-6886,846
 812,39;  182,793;37710,199;-3331,147
 812,96;  191,582;38779,453;-6767,448
 813,52;  221,371;41291,707;-6937,750
 814,09;  192,159;44522,961;-6766,051
 814,66;  137,948;50325,215;-6827,353
 815,23;  180,736;51240,469;-6669,654
 815,80;  167,525;50439,723;-5853,956
 816,37;  166,313;50917,977;-6801,257
 816,93;  135,102;49487,230;-6731,558
 817,50;  175,891;46790,480;-6102,859
 818,07;  267,679;46034,734;-6960,161
 818,64;  280,468;46919,988;-6856,462
 819,21;  262,256;46261,242;-6053,764
 819,77;  292,045;42742,496;-6571,065
 820,34;  210,834;42053,750;-6677,367
 820,91;  308,622;43276,004;-6469,668
 821,48;  348,411;43873,258;-6689,969
 822,05;  315,199;45571,512;-5875,271
 822,61;  287,988;44296,766;-5631,572
 823,18;  291,777;41860,016;-6620,874
 823,75;  252,565;42585,270;-6957,175
 824,32;  234,354;45286,523;-6923,477
 824,88;  207,142;45073,777;-6882,778
 825,45;  167,931;44018,031;-6899,079
 826,02;  137,720;43798,285;-6643,380
 826,59;  185,508;43974,539;-6639,682
 827,15;  164,297;46077,793;-6906,983
 827,72;  151,085;49519,047;-6723,285
 828,29;  146,874;51523,301;-6895,586
 828,86;  155,663;48827,551;-6791,888
 829,42;  167,451;40797,805;-6812,189
 829,99;  135,240;36802,059;-6647,490
 830,56;  156,028;36252,313;-6869,792
 831,13;  123,817;37220,566;-6060,093
 831,69;  150,605;38022,820;-6506,395
 832,26;  136,394;38832,074;-5062,696
 832,83;  120,183;40408,328;-5452,998
 833,39;  119,971;40187,582;-6904,299
 833,96;  129,760;39167,836;-6687,600
 834,53;   87,548;40039,086;-6928,902
 835,10;   84,337;39930,340;-6529,203
 835,66;   96,126;38972,594;-6920,504
 836,23;  121,914;39801,848;-6803,806
 836,80;  124,703;39428,102;-6790,107
 837,36;  115,491;37086,355;-6810,409
 837,93;  139,280;34475,609;-6902,710
 838,50;  151,069;35084,863;-6789,012
 839,06;   95,857;37684,117;-6288,313
 839,63;  107,646;37191,371;-6895,614
 840,19;  112,434;35132,621;-6607,916
 840,76;   92,223;35364,875;-6404,217
 841,33;  110,012;35892,129;-6509,519
 841,89;  158,800;36779,383;-6949,820
 842,46;   78,589;37103,637;-6751,122
 843,03;  144,377;35389,891;-6089,423
 843,59;  112,166;34224,145;-6403,724
 844,16;  200,955;34994,398;-6181,025
 844,73;  221,743;34249,652;-6067,327
 845,29;  153,532;32937,902;-5695,628
 845,86;  110,320;35699,156;-6800,930
 846,42;   38,109;36940,410;-7004,231
 846,99;   79,898;36477,664;-6967,533
 847,56;  134,686;36265,918;-5840,834
 848,12;   84,475;36240,172;-6745,135
 848,69;  120,263;35710,426;-6715,437
 849,25;   88,052;34401,680;-6845,738
 849,82;   82,840;34081,934;-3247,040
 850,38;  120,629;35064,188;-6840,341
 850,95;  111,418;32489,439;-6324,643
 851,52;   99,206;32520,693;-6565,944
 852,08;   82,995;32548,947;-6691,245
 852,65;   71,783;30323,199;-7005,546
 853,21;   68,572;27698,453;-6958,848
 853,78;   78,361;27362,707;-6363,149
 854,34;   72,149;28860,961;-6871,451
 854,91;  119,938;29081,215;-5086,752
 855,47;  135,726;29942,467;-5108,054
 856,04;  122,515;32027,721;-6746,355
 856,60;  101,304;33961,973;-6104,656
 857,17;  102,092;34979,227;-6840,958
 857,73;   77,881;33553,480;-6811,259
 858,30;   97,669;32532,734;-6985,561
 858,86;   94,458;31110,988;-5926,862
 859,43;  116,247;31430,242;-6226,164
 859,99;  112,035;32011,496;-6852,465
 860,56;   49,824;33126,750;-6903,766
 861,12;   71,612;35190,004;-6737,068
 861,69;  100,401;33669,258;-5924,369
 862,25;  127,190;34731,508;-6821,670
 862,82;  104,978;34419,762;-5972,972
 863,38;  141,767;31196,018;-6843,273
 863,95;   94,555;29305,270;-6239,575
 864,51;   92,344;30403,523;-5287,876
 865,08;  108,133;29284,777;-6090,178
 865,64;   54,921;26795,031;-7018,479
 866,21;   76,710;26131,285;-6745,780
 866,77;  109,498;26051,537;-5552,082
 867,34;  184,287;25734,791;-6672,383
 867,90;  230,075;24632,045;-6303,685
 868,46;  200,864;23835,299;-6041,986
 869,03;  101,653;24389,551;-6929,288
 869,59;   96,441;26353,805;-6884,589
 870,16;  111,230;27647,059;-6052,890
 870,72;  102,018;30060,313;-6657,191
 871,28;  103,807;32915,566;-5992,493
 871,85;  133,596;33142,820;-6907,794
 872,41;   89,384;31569,072;-6004,096
 872,98;   62,173;32738,326;-6050,397
 873,54;  109,961;33876,578;-5920,699
 874,10;  136,750;32768,832;-5876,000
 874,67;   43,750;32987,832;-6904,000
 875,23;   99,750;31068,834;-7032,000
 875,80;   43,750;28009,834;-6641,000
 876,36;   29,750;25058,834;-6642,000
 876,92;    9,750;22832,834;-6189,000
 877,49;   40,750;23923,834;-6517,000
 878,05;   72,750;24896,834;-6797,000
 878,61;   52,750;26938,834;-6812,000
 879,18;   35,750;27553,834;-6252,000
 879,74;   55,750;28076,834;-6720,000
 880,30;   83,750;28679,834;-5926,000
 880,87;   21,750;28852,834;-6326,000
 881,43;   63,750;29533,834;-6871,000
 881,99;   48,750;27306,834;-6879,000
 882,56;   98,750;27610,834;-6661,000
 883,12;   66,750;29049,834;-5740,000
 883,68;   45,750;29120,834;-6518,000
 884,25;   68,750;28300,834;-6949,000
 884,81;   13,750;26343,834;-6701,000
 885,37;   54,750;24221,834;-6786,000
 885,94;   44,750;22940,834;-6851,000
 886,50;   81,750;23098,834;-6886,000
 887,06;   47,750;24358,834;-6796,000
 887,62;   67,750;25019,834;-6866,000
 888,19;   18,750;25774,834;-5986,000
 888,75;   59,750;26542,834;-6821,000
 889,31;   67,750;29043,834;-6778,000
 889,87;   62,750;30537,834;-6723,000
 890,44;   92,750;30349,834;-6696,000
 891,00;   48,750;28757,834;-6786,000
 891,56;   74,750;26457,834;-6998,000
 892,12;   62,750;24463,834;-6754,000
 892,69;   62,750;25310,834;-6373,000
 893,25;   67,750;28798,834;-6877,000
 893,81;   69,750;31774,834;-6696,000
 894,37;   82,750;31330,834;-6342,000
 894,94;   70,750;28713,834;-6772,000
 895,50;   72,750;26035,834; -212,000
 896,06;  124,750;24749,834;-6810,000
 896,62;  135,750;23405,834;-6707,000
 897,18;  118,750;24661,834;-6518,000
 897,75;  114,750;27406,834;-6895,000
 898,31;  157,750;27887,834;-6849,000
 898,87;  141,750;26274,834;-6860,000
 899,43;   80,750;25164,834;-6469,000
 899,99;   98,750;26592,834;-6866,000
 900,56;  106,750;25515,834;-6791,000
 901,12;  113,750;24875,834;-6890,000
 901,68;  133,750;27903,834;-6267,000
 902,24;  113,750;31800,834;-5930,000
 902,80;   90,750;32652,834;-6794,000
 903,36;  218,750;31893,834;-6691,000
 903,93;  245,750;32139,834;-6646,000
 904,49;  415,750;32761,834;-6913,000
 905,05; 1059,750;30952,834;-6732,000
 905,61; 2476,750;28208,834;-6832,000
 906,17; 4334,750;28086,834;-6901,000
 906,73; 6273,750;25975,834;-5380,000
 907,29; 8760,750;24960,834;-6910,000
 907,86;11356,750;25118,834;-6827,000
 908,42;12563,750;28092,834;-6795,000
 908,98;11284,750;31123,834;-5908,000
 909,54; 6627,750;38813,832;-6885,000
 910,10; 2615,750;48220,832;-6634,000
 910,66;  859,750;57581,832;-6781,000
 911,22;  362,750;65027,832;-6761,000
 911,78;  159,750;62593,832;-6841,000
 912,34;   98,750;53256,832;-6080,000
 912,90;  130,750;44610,832;-5232,000
 913,46;   64,750;37052,832;-6876,000
 914,03;   74,750;30620,834;-5746,000
 914,59;  102,750;27452,834;-6682,000
 915,15;   94,750;24908,834;-6891,000
 915,71;   86,750;24217,834;-6863,000
 916,27;   61,750;23800,834;-6723,000
 916,83;   60,750;23006,834;-5824,000
 917,39;   64,750;21742,834;-3512,000
 917,95;   88,750;20224,834;-6009,000
 918,51;   92,750;19972,834;-6583,000
 919,07;   99,750;21780,834;-6791,000
 919,63;   17,750;23295,834;-6661,000
 920,19;   15,750;23935,834;-6865,000
 920,75;   83,750;23112,834;-6640,000
 921,31;   45,750;21484,834;-4837,000
 921,87;   50,750;20216,834;-6845,000
 922,43;   25,750;18019,834;-5626,000
 922,99;  106,750;17321,834;-6706,000
 923,55;   76,750;18674,834;-6655,000
 924,11;   69,750;19094,834;-6976,000
 924,67;   36,750;19310,834;-6962,000
 925,23;   93,750;19485,834;-6778,000
 925,79;   90,750;20122,834;-6710,000
 926,35;  117,750;20219,834;-6573,000
 926,91;   61,750;19401,834;-6909,000
 927,47;   51,750;19367,834;-6660,000
 928,03;  105,750;20294,834;-6786,000
 928,59;   94,750;20503,834;-6678,000
 929,15;  103,750;20781,834;-6792,000
 929,71;   59,750;22016,834;-6840,000
 930,27;  100,750;23587,834;-6537,000
 930,82;   89,750;25573,834;-6728,000
 931,38;   46,750;24317,834;-5852,000
 931,94;   48,750;22672,834;-6843,000
 932,50;   74,750;21252,834;-6481,000
 933,06;   89,750;20895,834;-6768,000
 933,62;   65,750;21092,834;-6443,000
 934,18;   68,750;20632,834;-6727,000
 934,74;   75,750;21320,834;-6709,000
 935,30;  110,750;22030,834;-6484,000
 935,86;  107,750;21213,834;-6505,000
 936,42;   69,750;20702,834;-6873,000
 936,97;   99,750;21656,834;-6563,000
 937,53;   52,750;20552,834;-6826,000
 938,09;   86,750;21087,834;  123,000
 938,65;   80,750;21186,834;-6268,000
 939,21;  113,750;20179,834;-6708,000
 939,77;   76,750;18946,834;-6213,000
 940,33;   81,750;18602,834;-6748,000
 940,88;   58,750;19429,834;-5908,000
 941,44;   61,750;21301,834;-6983,000
 942,00;   79,750;23225,834;-6697,000
 942,56;   99,750;24231,834;-6604,000
 943,12;   79,750;23427,834;-5907,000
 943,68;  100,750;22950,834;-5679,000
 944,23;   69,750;23124,834;-6749,000
 944,79;   54,750;22674,834;-6102,000
 945,35;   30,750;20741,834;-6599,000
 945,91;   88,750;19519,834;-6767,000
 946,47;   75,750;19827,834;-3353,000
 947,03;   91,750;19896,834;-6850,000
 947,58;   62,750;19661,834;-6840,000
 948,14;   98,750;20790,834;-5897,000
 948,70;   91,750;19573,834;-5855,000
 949,26;  124,750;18881,834;-6616,000
 949,81;   50,750;18342,834;-6644,000
 950,37;   66,750;18686,834;-6695,000
 950,93;   90,750;17993,834;-6224,000
 951,49;   84,750;17568,834;-6057,000
 952,05;   67,750;17926,834;-6571,000
 952,60;   56,750;17299,834;-6951,000
 953,16;   66,750;16933,834;-5783,000
 953,72;   44,750;15628,833;-5813,000
 954,27;   47,750;15524,833;-6566,000
 954,83;   44,750;15317,833;-6703,000
 955,39;   67,750;14917,833;-6691,000
 955,95;   66,750;14456,833;-6849,000
 956,50;   79,750;14272,833;-6698,000
 957,06;   36,750;14126,833;-5922,000
 957,62;   51,750;13780,833;-6559,000
 958,18;   52,750;13872,833;-6741,000
 958,73;   56,750;13326,833;-6820,000
 959,29;   40,750;13518,833;-6106,000
 959,85;   19,750;14785,833;-6864,000
 960,40;   92,750;16746,834;-4263,000
 960,96;  117,750;16386,834;-6738,000
 961,52;   39,750;14755,833;-6643,000
 962,07;  129,750;13711,833;-6742,000
 962,63;   -7,250;13208,833;-6723,000
 963,19;   35,750;13435,833;-5779,000
 963,74;  107,750;13877,833;-6582,000
 964,30;   48,750;14475,833;-6595,000
 964,86;   35,750;14281,833;-6484,000
 965,41;   71,750;14290,833;-6705,000
 965,97;   70,750;14185,833;-6569,000
 966,53;   54,750;14792,833;-6750,000
 967,08;  127,750;15311,833;-6611,000
 967,64;  118,750;15082,833;-6705,000
 968,19;   60,750;14471,833;-6684,000
 968,75;   74,750;14662,833;-6566,000
 969,31;  110,750;14880,833;-5626,000
 969,86;   80,750;14995,833;-6505,000
 970,42;  106,750;13195,833;-6620,000
 970,97;  109,750;11567,833;-6437,000
 971,53;   94,750;11625,833;-6490,000
 972,09;   62,750;12998,833;-6646,000
 972,64;  141,750;13523,833;-5812,000
 973,20;  116,750;13815,833;-6599,000
 973,75;  109,750;14605,833;-5760,000
 974,31;  156,750;14826,833;-6578,000
 974,87;  124,750;14921,833;-6674,000
 975,42;  113,750;14507,833;-6727,000
 975,98;   75,750;13201,833;-6651,000
 976,53;  113,750;12100,833;-6555,000
 977,09;  117,750;11353,833;-4624,000
 977,64;  125,750;11164,833;-6532,000
 978,20;  123,750;10649,833;-6585,000
 978,75;  124,750;10482,833;-6429,000
 979,31;  101,750;10950,833;-6513,000
 979,86;  121,750;12220,833;-6739,000
 980,42;  115,750;12828,833;-5813,000
 980,97;  112,750;13290,833;-6642,000
 981,53;  141,750;14285,833;-6636,000
 982,08;  133,750;13803,833;-5046,000
 982,64;  125,750;12278,833;-6237,000
 983,19;  102,750;11308,833;-6760,000
 983,75;  119,750;10993,833;-6576,000
 984,30;   81,750;10430,833;-5581,000
 984,86;  101,750; 9867,833;-5898,000
 985,41;  139,750; 9457,833;-6634,000
 985,97;  138,750; 9632,833;-4797,000
 986,52;  108,750; 9894,833;-5853,000
 987,08;  101,750; 9953,833;-6174,000
 987,63;  117,750;10165,833;-5608,000
 988,19;   74,750;11252,833;-6266,000
 988,74;  104,750;11710,833;-5682,000
 989,30;  117,750;11529,833;-6568,000
 989,85;  115,750;11470,833; -276,000
 990,40;  115,750;11314,833;-6617,000
 990,96;  128,750;11060,833;-6482,000
 991,51;   93,750;11149,833;-6578,000
 992,07;  107,750;10742,833;-6605,000
 992,62;   98,750;10285,833;-6519,000
 993,18;   96,750;10035,833;-6504,000
 993,73;  165,750; 9986,833;-6440,000
 994,28;  163,750; 9800,833;-6464,000
 994,84;  116,750; 9019,833;-6240,000
 995,39;  130,750; 8474,833;-2971,000
 995,94;  183,750; 7953,833;-5673,000
 996,50;  105,750; 7647,833;-6543,000
 997,05;  130,750; 7872,833;-3481,000
 997,61;  173,750; 8363,833;-6489,000
 998,16;  138,750; 8581,833;-6555,000
 998,71;  132,750; 8850,833;-6340,000
 999,27;  135,750; 9115,833;-5223,000
 999,82;  142,750; 8706,833;-4778,000
1000,37;  135,750; 8661,833;-6520,000
1000,93;  164,750; 8920,833;-6107,000
1001,48;  173,750; 8799,833;-6543,000
1002,03;   92,750; 8477,833;-6469,000
1002,59;  170,750; 8715,833;-5972,000
1003,14;  136,750; 8758,833;-6113,000
1003,69;  159,750; 8484,833;-6513,000
1004,25;  169,750; 8299,833;-6507,000
1004,80;  123,750; 8322,833;-6266,000
1005,35;  172,750; 8313,833;-6361,000
1005,91;  139,750; 8515,833;-6558,000
1006,46;  116,750; 8426,833;-6084,000
1007,01;  145,750; 8227,833;-5479,000
1007,56;  130,750; 8599,833;-6440,000
1008,12;  153,750; 8342,833;-6178,000
1008,67;  208,750; 7867,833;-6312,000
1009,22;  153,750; 7509,833;-6481,000
1009,78;  139,750; 7205,833;-6163,000
1010,33;  146,750; 6649,833;-6443,000
1010,88;  183,750; 6413,833;-5618,000
1011,43;  175,750; 5995,833;-6433,000
1011,99;  181,750; 5972,833;-6198,000
1012,54;  170,750; 6320,833;-6387,000
1013,09;  202,750; 6048,833;-6299,000
1013,64;  186,750; 5802,833;-6362,000
1014,19;  150,750; 5823,833;-6442,000
1014,75;  183,750; 5928,833;-6408,000
1015,30;  204,750; 6394,833;-6425,000
1015,85;  246,750; 6370,833;-6367,000
1016,40;  194,750; 6247,833;-5436,000
1016,96;  286,750; 6235,833;-6268,000
1017,51;  226,750; 6150,833;-6351,000
1018,06;  235,750; 6095,833;-6310,000
1018,61;  250,750; 5695,833;-6665,000
1019,16;  224,750; 5609,833;-6697,000
1019,71;  324,750; 5663,833;-6373,000
1020,27;  280,750; 5567,833;-6353,000
1020,82;  316,750; 5375,833;-3700,000
1021,37;  350,750; 5405,833;-4798,000
1021,92;  327,750; 5984,833;-6454,000
1022,47;  395,750; 5965,833;-6548,000
1023,02;  351,750; 5463,833;-6512,000
1023,58;  341,750; 5045,833;-6573,000
1024,13;  454,750; 4730,833;-6258,000
1024,68;  436,750; 4434,833;-6298,000
1025,23;  424,750; 4324,833;-5525,000
1025,78;  418,750; 4613,833;-6475,000
1026,33;  465,750; 4932,833;-5510,000
1026,88;  512,750; 4843,833;-6236,000
1027,43;  559,750; 5167,833;-6276,000
1027,99;  545,750; 5134,833;-6002,000
1028,54;  568,750; 4732,833;-6395,000
1029,09;  639,750; 4106,833;-2478,000
1029,64;  737,750; 3919,833;-6303,000
1030,19;  780,750; 4147,833;-3821,000
1030,74;  873,750; 4243,833;-5134,000
1031,29;  951,750; 4284,833;-4765,000
1031,84; 1086,750; 4491,833;-6300,000
1032,39; 1227,750; 4563,833;-5403,000
1032,94; 1325,750; 4617,833;-4326,000
1033,49; 1559,750; 4361,833;-5476,000
1034,04; 1654,750; 4236,833;-6312,000
1034,59; 1826,750; 4205,833;-6507,000
1035,14; 1940,750; 4117,833;-6145,000
1035,69; 2207,750; 4318,833;-6224,000
1036,24; 2408,750; 4104,833;-4477,000
1036,80; 2554,750; 3986,833;-5453,000
1037,35; 2732,750; 4138,833;-6347,000
1037,90; 2949,750; 4172,833;-6274,000
1038,45; 3108,750; 4201,833;-6419,000
1039,00; 3349,750; 4340,833;-5490,000
1039,55; 3596,750; 4229,833;-6284,000
1040,10; 3953,750; 3977,833;-5615,000
1040,65; 4005,750; 3916,833;-5576,000
1041,20; 4273,750; 3850,833;-6325,000
1041,75; 4709,750; 4030,833;-4522,000
1042,30; 5077,750; 4164,833;-3585,000
1042,84; 5775,750; 4338,833;-4439,000
1043,39; 6319,750; 4248,833;-6313,000
1043,94; 6843,750; 4175,833;-5342,000
1044,49; 7495,750; 3887,833;-6246,000
1045,04; 8115,750; 3710,833;-5800,000
1045,59; 8952,750; 3809,833;-6299,000
1046,14; 9984,750; 3732,833;-6392,000
1046,69;11146,750; 3591,833;-6294,000
1047,24;12514,750; 3623,833;-5510,000
1047,79;14080,750; 3737,833;-6139,000
1048,34;16227,750; 4002,833;-5961,000
1048,89;18483,750; 3948,833;-6259,000
1049,44;21274,750; 3935,833;-5172,000
1049,99;25088,750; 3855,833;-4844,000
1050,54;29335,750; 3876,833;-6249,000
1051,08;35808,750; 3961,833;-6178,000
1051,63;46372,750; 4050,833;-5285,000
1052,18;65153,750; 5051,833;-6127,000
1052,73;65153,750; 7151,833;-6173,000
1053,28;65153,750;10516,833;-6386,000
1053,83;65153,750;15224,833;-6214,000
1054,38;65153,750;19203,834;-6254,000
1054,93;65153,750;21243,834;-6285,000
1055,47;65153,750;23825,834;-5328,000
1056,02;65153,750;26212,834;-5832,000
1056,57;65153,750;27830,834;-6198,000
1057,12;65153,750;30497,834;-6378,000
1057,67;65153,750;33805,832;-6078,000
1058,22;65153,750;36084,832;-6313,000
1058,76;65153,750;38542,832;-6093,000
1059,31;65153,750;44129,832;-3514,000
1059,86;65153,750;48778,832;-6204,000
1060,41;65153,750;49718,832;-6152,000
1060,96;65153,750;51396,832;-6226,000
1061,51;65153,750;53649,832;-5344,000
1062,05;65153,750;54082,832;-6122,000
1062,60;65153,750;50555,832;-6061,000
1063,15;65153,750;45221,832;-6149,000
1063,70;65153,750;41550,832;-6250,000
1064,24;65153,750;43676,832;-6169,000
1064,79;65153,750;45461,832;-6144,000
1065,34;65153,750;43989,832;-6064,000
1065,89;65153,750;41776,832;-6202,000
1066,44;65153,750;37631,832;-6120,000
1066,98;65153,750;32612,834;-6224,000
1067,53;65153,750;30790,834;-5953,000
1068,08;65153,750;30368,834;-4845,000
1068,63;65153,750;27618,834;-6096,000
1069,17;65153,750;24647,834;-5893,000
1069,72;65153,750;22350,834;-5857,000
1070,27;65153,750;20529,834;-6040,000
1070,81;65153,750;20388,834;-5996,000
1071,36;65153,750;20367,834;-3883,000
1071,91;65153,750;18745,834;  966,000
1072,46;65153,750;16791,834;-5058,000
1073,00;65153,750;14646,833;-5239,000
1073,55;65153,750;11404,833;-5935,000
1074,10;65153,750; 7803,833;-5981,000
1074,64;65153,750; 5240,833;-5860,000
1075,19;65153,750; 3535,833;-4958,000
1075,74;54230,750; 2551,833;-6091,000
1076,28;42434,750; 2312,833;-6075,000
1076,83;33842,750; 1951,833;-5286,000
1077,38;27857,750; 1820,833;-5653,000
1077,92;23379,750; 1783,833;-6332,000
1078,47;19636,750; 1629,833;-5507,000
1079,02;16890,750; 1578,833;-5959,000
1079,56;14586,750; 1557,833;-5328,000
1080,11;12099,750; 1304,833;-6094,000
1080,65;10320,750; 1241,833;-5039,000
1081,20; 8877,750; 1186,833;-6151,000
1081,75; 7690,750; 1125,833;-6039,000
1082,29; 6336,750; 1128,833; -139,000
1082,84; 5718,750; 1184,833;-2678,000
1083,39; 5193,750; 1294,833;-5061,000
1083,93; 4793,750; 1335,833;-5025,000
1084,48; 4284,750; 1196,833;-5961,000
1085,02; 3899,750; 1082,833;-5783,000
1085,57; 3484,750; 1074,833;-5994,000
1086,11; 3231,750; 1079,833;-5968,000
1086,66; 3027,750;  925,833;-5584,000
1087,21; 2851,750; 1060,833;-5802,000
1087,75; 2656,750;  939,833;-6125,000
1088,30; 2447,750;  815,833;-5040,000
1088,84; 2302,750;  783,833;-5963,000
1089,39; 2150,750;  656,833;-5965,000
1089,93; 1908,750;  664,833;-6100,000
1090,48; 1803,750;  649,833;-4394,000
1091,02; 1642,750;  733,833;-5181,000
1091,57; 1440,750;  629,833;-5479,000
1092,11; 1318,750;  642,833;-4094,000
1092,66; 1287,750;  624,833;-6031,000
1093,20; 1170,750;  580,833;-5180,000
1093,75; 1096,750;  566,833;-4998,000
1094,29; 1061,750;  486,833;-4979,000
1094,84; 1114,750;  525,833;-5890,000
1095,38;  962,750;  528,833;-5097,000
1095,93;  896,750;  584,833;-5981,000
1096,47;  819,750;  615,833;-5612,000
1097,02;  783,750;  587,833;-4985,000
1097,56;  776,750;  614,833;-5772,000
1098,11;  758,750;  552,833;-5774,000
1098,65;  717,750;  508,833;-5992,000
1099,20;  610,750;  577,833;-5935,000
1099,74;  574,750;  487,833;-6002,000
1100,29;  597,750;  513,833;-4879,000
1100,83;  572,750;  496,833;-5934,000

