
Integration time [ms]:   1,000
Averaging Nr. [scans]: 1
Smoothing Nr. [pixels]: 0
Data measured with spectrometer [name]: 1703254U1
Wave   ;Sample   ;Dark     ;Reference;Scope
[nm]   ;[counts] ;[counts] ;[counts] 

 190,08;  -88,347; -370,119;11982,743
 190,69;    9,221; -359,404;11603,049
 191,29;    1,774; -311,651;11479,965
 191,90;  -35,423; -365,508;11440,717
 192,50;  -77,770; -379,511;10355,099
 193,10;  -14,135; -446,299;11244,381
 193,71;  -26,633; -367,888; 9821,736
 194,31;   11,638; -399,273; 9436,327
 194,91;    3,638; -382,273; 9291,327
 195,52;   35,127; -338,386;10555,949
 196,12;    9,966; -397,056; 8671,847
 196,72;   38,261; -386,394; 8220,904
 197,32;   32,367; -375,888; 8251,736
 197,93;  102,488; -360,420; 8700,957
 198,53;   20,881; -383,145; 7601,797
 199,13;   46,267; -397,132; 8091,270
 199,74;   45,528; -366,410; 7263,813
 200,34;  110,042; -388,667; 7832,874
 200,94;   63,419; -436,547; 6941,297
 201,55;  115,221; -406,404; 7119,049
 202,15;  154,224; -375,773; 6404,732
 202,75;  104,702; -373,217; 6097,647
 203,36;  129,388; -338,664; 6822,492
 203,96;   24,921; -357,943; 6332,678
 204,56;  160,081; -355,657;10275,729
 205,16;  113,951; -363,018; 5478,458
 205,77;  121,756; -360,244; 4767,892
 206,37;   63,124; -409,017; 5556,267
 206,97;  129,610; -363,760; 5129,205
 207,58;  142,628; -364,166; 5927,278
 208,18;   95,613; -337,129; 5129,889
 208,78;  106,094; -404,134; 5295,461
 209,38;  141,008; -469,415; 4958,385
 209,99;  178,112; -356,540; 3837,534
 210,59;  129,561; -361,662; 3890,301
 211,19;  144,285; -364,538; 3938,343
 211,79;  163,209; -366,927; 4499,316
 212,40;  145,547; -373,625; 3368,911
 213,00;  167,021; -388,891; 3903,118
 213,60;   72,060; -386,882; 2992,972
 214,20;   61,316; -401,230; 3081,175
 214,81;   54,240; -422,618; 2884,148
 215,41;   94,109; -376,979; 3235,877
 216,01;   91,198; -373,067; 3109,636
 216,61;  123,741; -367,399; 2814,476
 217,22;   52,538; -381,326; 2358,888
 217,82;  133,380; -325,173; 2262,495
 218,42;   99,808; -383,711; 2389,480
 219,02;   35,365; -288,327; 3432,079
 219,63;   47,176; -357,483; 2044,854
 220,23;   82,972; -366,602; 2425,239
 220,83;   77,729; -395,730; 1901,770
 221,43;   45,954; -393,195; 1850,167
 222,03;   53,268; -348,940; 2326,296
 222,64;   66,112; -380,348; 1769,560
 223,24;  101,495; -298,966; 1625,350
 223,84;   57,924; -376,313; 2637,361
 224,44;   74,541; -316,695; 2381,571
 225,05;   87,055; -313,952; 1440,632
 225,65;   55,371; -301,065; 1227,445
 226,25;   65,015; -364,961; 1139,777
 226,85;   61,271; -294,309;  995,979
 227,45;   30,328; -335,706; 1083,907
 228,06;   41,085; -365,834; 1945,438
 228,66;   26,602; -349,460; 4049,182
 229,26;   70,027; -313,438; 1131,510
 229,86;   47,805; -396,342; 1760,797
 230,46;   -8,872; -358,194;  891,976
 231,06;   30,334; -320,444;  757,273
 231,67;   65,556; -346,732; 1228,961
 232,27;    0,936; -343,789;  778,094
 232,87;   19,857; -308,808;  526,384
 233,47;  -55,060; -321,158;  525,777
 234,07;   79,829; -268,486; 9912,235
 234,67;   -8,085; -291,013;  672,338
 235,28;    4,940; -319,158;   65,777
 235,88;  -25,495; -316,882;  285,426
 236,48;   46,471; -350,821;  165,911
 237,08;   55,313; -267,669;  448,518
 237,68;  -78,562; -369,378; -267,552
 238,28;   24,496; -304,774; -106,624
 238,89;   -9,598; -212,756; -205,723
 239,49;  -19,124; -282,023; 1280,483
 240,09;   -0,276; -284,608; -190,544
 240,69;  -17,042; -251,373; -319,124
 241,29;   -8,434; -289,647;  651,036
 241,89;   -5,848; -330,147; -260,559
 242,49;  -21,072; -248,490; -358,930
 243,10;  -21,765; -201,496; 3664,834
 243,70;  -33,072; -284,490;  239,070
 244,30;    6,715; -275,501; -708,594
 244,90;  -20,503; -188,582; -568,598
 245,50;  -28,136; -177,355; 3274,777
 246,10;  -36,221; -307,636; -831,300
 246,70;  -12,525; -300,999;   17,620
 247,30;    9,259; -251,641;  326,273
 247,91;  -56,026; -208,218; 5781,292
 248,51;   15,934; -270,228; -806,563
 249,11;   18,329; -239,514;  417,933
 249,71;   16,435; -303,008; -667,235
 250,31;    9,621; -265,483; -567,693
 250,91;   55,888; -238,500;   75,216
 251,51;   -3,719; -199,225; -822,945
 252,11;    9,782; -239,813;  367,410
 252,71;   -1,729; -269,117;-1080,994
 253,31;  -10,443; -222,348; 3228,013
 253,91;   12,016; -236,578; -676,170
 254,52;    9,250; -237,342;-1063,750
 255,12;   39,621; -293,483;-1104,693
 255,72;   66,651; -206,366;  557,112
 256,32;  -25,664; -242,061; -966,674
 256,92;   24,296; -190,070;-1147,529
 257,52;   68,074; -173,974; -883,243
 258,12;    2,563; -201,087;  -91,621
 258,72;   24,129; -210,810;-1232,972
 259,32;   58,943; -211,335;-1169,514
 259,92;   47,463; -199,330;-1343,086
 260,52;   74,247; -192,973;-1077,433
 261,12;   31,509; -202,059; -662,865
 261,72;   27,913; -238,452;-1312,319
 262,32;   80,591; -215,600;-1561,498
 262,92;  -34,315; -238,426;  405,627
 263,53;   35,639; -189,698;-1277,594
 264,13;  -35,941; -262,937; -268,632
 264,73;   65,706; -217,202;-1694,617
 265,33;   18,849; -188,317;-1708,613
 265,93;   41,235; -147,304;-1345,140
 266,53;    4,895; -161,046;-1544,392
 267,13;  -10,962; -139,161; -857,388
 267,73;   16,385; -185,158;  270,230
 268,33;  -47,473; -166,274;-1788,766
 268,93;   66,600; -213,708;-1702,449
 269,53;   41,585; -204,670; -644,839
 270,13;   23,515; -201,797;-1810,499
 270,73;   44,141; -245,287;-1891,239
 271,33;   49,719; -200,678;-1778,884
 271,93;   32,965; -242,919;-1867,732
 272,53;   44,713; -121,748;    8,776
 273,13;   45,892; -146,677;-1117,075
 273,73;    8,193; -119,753;-1955,652
 274,33;   68,512; -148,428;-2041,182
 274,93;    5,053; -188,007;-1843,972
 275,53;   77,713;  -68,748;-1881,224
 276,13;   43,558; -121,965;-2261,935
 276,73;   -5,384; -118,361;-1570,007
 277,33;   25,907; -179,522;-1926,659
 277,93;   78,545; -213,680;-1864,693
 278,53;   42,561; -194,526;-2112,278
 279,13;   -6,360; -125,506;-2152,568
 279,73;   31,506; -140,498;-1388,522
 280,33;    8,847; -154,756;-2179,270
 280,93;   66,440; -105,994;-2049,499
 281,53;   28,844; -147,387;-2252,953
 282,13;   43,443; -127,363;-2193,816
 282,73;    6,643; -156,875; -385,885
 283,33;   50,990; -137,872;-2307,266
 283,92;  114,759;  -74,477;-2028,003
 284,52;   59,583;  -94,109;-2365,496
 285,12;   62,734; -138,524;-1425,469
 285,72;   51,217; -126,898;-1041,213
 286,32;   80,783;  -55,622;-1313,564
 286,92;   82,081; -163,521;-2376,850
 287,52;   69,254;  -89,519;-2170,041
 288,12;  160,154;  -97,763;-2542,507
 288,72;  152,725; -106,417;-1625,518
 289,32;  124,452;  -54,470; 1692,233
 289,92;  125,874; -106,270;-2344,148
 290,52;   61,747;  -91,809;-2485,710
 291,12;  122,266;  -57,996;-1570,308
 291,72;  143,759;  -74,477;-1590,003
 292,32;  244,810;  -83,135;-2372,442
 292,92;  230,926;   -2,737;-2481,560
 293,51;  211,315;  -37,093;-2532,404
 294,11;  338,370;  -42,121;-1681,160
 294,71;  467,546;   -7,488;-2695,667
 295,31;  380,233;  -24,743;-1755,797
 295,91;  556,126;   46,751;-2713,629
 296,51;  601,522;   62,656;-1776,106
 297,11;  609,331;   35,061;-2900,988
 297,71;  711,336;    4,131;-2726,648
 298,31;  943,874;   38,730;-2329,148
 298,91;  847,646;   74,756;-2483,202
 299,50;  884,516;   41,395;-2689,473
 300,10; 1148,236;  145,887;-2706,114
 300,70;  917,279;   95,528;-2492,576
 301,30;  934,886;   89,253;-2855,415
 301,90; 1156,367;   96,248;-2004,843
 302,50; 1043,789;  163,640;-2515,198
 303,10;  908,816;  124,126;-2530,076
 303,70;  905,868;  208,660;-3000,488
 304,29;  938,528;  189,918;-2658,740
 304,89;  985,881;  266,183;-1090,755
 305,49; 1127,875;  163,922;-2773,122
 306,09; 1242,510;  214,133;-2874,839
 306,69; 1170,567;  262,736;-2915,911
 307,29; 1205,810;  312,865;-2008,442
 307,89; 1178,902;  303,408;-3029,000
 308,48; 1043,552;  341,774;-2453,301
 309,08; 1195,467;  369,492;-2743,377
 309,68; 1297,826;  377,019;-3094,026
 310,28; 1252,217;  371,102;-2576,213
 310,88; 1017,381;  321,211;-2936,453
 311,48; 1099,333;  447,500;-2875,331
 312,07; 1197,570;  408,367;-2963,228
 312,67; 1193,771;  497,855;-2128,297
 313,27; 1222,789;  494,448;-1105,224
 313,87; 1327,531;  583,357;-2164,083
 314,47; 1500,895;  516,954;-3030,392
 315,06; 1956,302;  620,191; 2713,837
 315,66; 1925,534;  579,988;-3245,400
 316,26; 2134,162;  632,938;-1844,483
 316,86; 2147,454;  777,969;-3140,110
 317,46; 2431,159;  720,307;-2115,167
 318,06; 2613,266;  739,813; -825,335
 318,65; 2833,053;  781,801;-2807,999
 319,25; 3340,706;  821,798;-3195,617
 319,85; 3207,770;  932,663;-2908,323
 320,45; 3747,560;  986,283;-3213,304
 321,05; 5079,347;  901,271;-2761,968
 321,64; 5331,180;  889,531;-3219,411
 322,24; 5423,019; 1056,861;-3265,513
 322,84; 4688,912; 1080,356;-3261,345
 323,44; 3413,779; 1133,364;-3219,300
 324,03; 3148,329; 1194,486;-3072,067
 324,63; 3255,690; 1250,452;-2310,059
 325,23; 3078,678; 1241,928;-3097,792
 325,83; 3106,109; 1367,021;-2876,123
 326,42; 2948,993; 1442,622;-3285,005
 327,02; 3025,370; 1476,551;-3076,607
 327,62; 3122,241; 1439,629;-2505,221
 328,22; 3527,439; 1553,486;-3234,973
 328,82; 3673,952; 1577,037;-2229,938
 329,41; 3210,644; 1658,852;-3016,728
 330,01; 3852,729; 1652,750;-2961,704
 330,61; 4090,661; 1806,062;-2928,707
 331,20; 3619,840; 1778,325;-2868,531
 331,80; 3470,876; 1762,512;-2794,386
 332,40; 3603,548; 1752,102;-2896,932
 333,00; 3665,447; 1933,667;-2790,423
 333,59; 3643,091; 1748,771;-2855,091
 334,19; 3776,319; 1920,745;-1771,037
 334,79; 3761,902; 1712,615;-2861,316
 335,39; 3826,413; 1729,919;-2978,912
 335,98; 3758,472; 1726,714;-3126,958
 336,58; 3848,229; 1659,777;-3191,401
 337,18; 3873,402; 1720,779;-2958,592
 337,77; 3772,640; 1782,837;-2098,463
 338,37; 3815,479; 1806,359;-2021,540
 338,97; 3901,078; 1907,384;-2912,402
 339,57; 4164,977; 1862,948;-3044,894
 340,16; 4714,658; 1836,431;-2881,390
 340,76; 4672,743; 1962,712;-3053,314
 341,36; 4325,032; 1861,920;-3195,650
 341,95; 4840,183; 1934,506;-3027,623
 342,55; 5052,903; 1918,998;  703,736
 343,15; 4771,092; 2048,155;-3094,039
 343,74; 5545,466; 1924,644;-2382,298
 344,34; 5656,603; 1860,267;-3015,661
 344,94; 4508,782; 2068,530;-3069,485
 345,53; 4181,363; 2110,769;-2860,447
 346,13; 4380,192; 2174,398;-1283,573
 346,73; 4663,718; 1966,473;-2254,805
 347,32; 4902,986; 2268,649;-3080,871
 347,92; 4451,788; 2312,600;-2277,145
 348,52; 4438,089; 2270,523;-1878,722
 349,11; 4565,035; 2336,551;  975,034
 349,71; 4133,025; 2330,658;-3240,016
 350,31; 3881,980; 2441,387;-2672,237
 350,90; 3926,272; 2483,418;-2326,863
 351,50; 4347,754; 2390,852;-2105,634
 352,10; 5451,280; 2471,119;-3114,840
 352,69; 5962,296; 2532,273;-3182,424
 353,29; 6104,676; 2563,024;-3191,317
 353,89; 6355,436; 2645,527;-3255,104
 354,48; 5998,280; 2693,119;-3208,840
 355,08; 6982,998; 2871,980;-1117,164
 355,67; 7690,582; 2850,042;-2951,417
 356,27; 9405,320; 2839,128;-3232,985
 356,87;10277,855; 3010,288;-3383,142
 357,46;10239,658; 3049,431;-2351,390
 358,06;11842,202; 3306,291;-3073,523
 358,66; 9883,010; 3337,504;-3109,432
 359,25; 6602,789; 3260,792;-2344,119
 359,85; 7353,892; 3365,667;-3215,970
 360,44; 9265,636; 3389,015;-3292,172
 361,04; 9187,092; 3567,155;-2367,039
 361,64; 9190,092; 3696,155;-2309,039
 362,23; 8736,396; 3772,517;-2932,958
 362,83; 8332,946; 3755,639;-2990,726
 363,42; 7869,363; 3938,769;-2836,447
 364,02; 7480,715; 3910,034;-2973,462
 364,62; 7919,192; 3816,398;-2486,573
 365,21; 6377,764; 3857,937;-1741,558
 365,81; 4596,561; 3935,818;-2792,173
 366,40; 4644,661; 3970,062;-2080,707
 367,00; 4998,861; 4021,550;-2952,776
 367,59; 5822,947; 4071,831;-2979,699
 368,19; 6590,104; 4221,678;-3237,306
 368,79; 6287,610; 4198,720;-3125,268
 369,38; 5534,944; 4107,200;-2250,383
 369,98; 5984,111; 4101,940;-2935,940
 370,57; 6720,020; 4188,588;-3331,356
 371,17; 6405,066; 4164,860;-3326,135
 371,76; 7160,549; 4277,486;-3442,879
 372,36; 8195,060; 4057,598;-3195,501
 372,95; 9990,865; 4115,372;  667,934
 373,55;11166,349; 4105,998;-3393,811
 374,14;10888,646; 4300,099;-3405,097
 374,74;10840,494; 4256,514;-3224,124
 375,34; 9448,270; 4286,979;-3189,521
 375,93; 9369,855; 4295,479;-2706,116
 376,53; 8299,674; 4344,585;-3575,974
 377,12; 5611,238; 4405,670;-1465,352
 377,72; 4244,649; 4480,730;-3410,414
 378,31; 4665,022; 4511,027;-2274,699
 378,91; 5236,485; 4291,429;-3262,199
 379,50; 6028,885; 4588,213;-3331,363
 380,10; 6040,271; 4327,226;-3398,890
 380,69; 6128,041; 4094,621;-2343,626
 381,29; 8307,724; 4586,735;-2550,439
 381,88;10961,149; 4518,758;-1605,111
 382,48;10543,857; 4519,727;-3286,485
 383,07; 9029,860; 4495,358;-3457,802
 383,67; 8604,149; 4635,758;-1847,111
 384,26; 7817,624; 4667,491;-2467,905
 384,86; 6090,408; 4921,849;-3182,252
 385,45; 5967,600; 4932,636;-3325,344
 386,05; 5865,654; 5073,608;-3419,100
 386,64; 4972,633; 4911,384;-3524,855
 387,24; 5305,527; 5016,878;-2585,688
 387,83; 5484,876; 4993,512;-2489,386
 388,42; 5847,648; 5182,346;-2109,466
 389,02; 5422,110; 5423,748;-3235,966
 389,61; 5178,889; 5688,036;-3413,653
 390,21; 4960,527; 5729,878;-3463,688
 390,80; 3927,500; 5816,392;-3208,810
 391,40; 4028,779; 6137,899;-2293,168
 391,99; 4704,201; 5981,099;-3195,550
 392,59; 5000,043; 6435,252;-2416,943
 393,18; 4394,192; 6683,398;-2491,573
 393,77; 3641,771; 6883,198;-3238,192
 394,37; 3934,852; 7145,657;-2198,825
 394,96; 4553,712; 7098,403;-2296,146
 395,56; 4326,020; 7264,588;-2834,356
 396,15; 5196,308; 6867,797;-3125,692
 396,75; 5440,958; 7343,163;-2889,993
 397,34; 4231,111; 7669,940;-2620,940
 397,93; 3532,731; 7720,188;-3358,047
 398,53; 3346,083; 7595,262;-2525,088
 399,12; 3674,463; 8192,013;-2154,981
 399,72; 4456,280; 8013,119;-2274,840
 400,31; 4572,907; 8034,629;-3169,581
 400,91; 4077,290; 8446,012;-2959,791
 401,50; 3547,771; 8820,198;-2330,192
 402,09; 3452,014; 8550,327;-2894,722
 402,69; 3491,558; 8691,187;-3072,856
 403,28; 3802,545; 9052,663;-2983,588
 403,88; 6493,901; 9162,560; 1927,079
 404,47; 8083,947; 9689,831;  884,300
 405,06; 5220,825; 9684,171;  -68,947
 405,66; 5998,594; 9753,565;-2875,684
 406,25; 8377,609;10085,720;-3119,268
 406,84; 8206,518;10446,177;-2892,711
 407,44; 6111,893;10847,858;-2219,944
 408,03; 4088,008;10422,257;-2906,063
 408,63; 3650,087;10373,085;-3011,379
 409,22; 3607,500;10191,584;-1945,783
 409,81; 3794,215;10681,007;-1849,765
 410,41; 4014,394;11553,078;-2857,615
 411,00; 4334,826;11336,362;-1814,921
 411,59; 4919,898;11251,120;-2826,578
 412,19; 5029,439;11468,350;-2245,394
 412,78; 5745,716;11399,226;-2830,436
 413,37; 5976,972;12151,878;-2704,234
 413,97; 6349,321;12410,512;-2618,933
 414,56; 6078,628;12071,506;-2503,169
 415,15; 5336,118;12410,394;-2121,547
 415,75; 4838,391;12408,639;-2698,272
 416,34; 4120,662;12590,254;-1893,681
 416,93; 4542,546;12922,047;-2777,536
 417,53; 5209,097;12696,169;-1423,303
 418,12; 5993,541;12570,785;-2217,903
 418,71; 6074,812;12907,592;-2673,285
 419,31; 6978,456;13054,695;-1884,952
 419,90; 7492,899;13470,313;-2786,552
 420,49; 5454,340;13619,298;-1733,834
 421,08; 4536,340;14201,298;-1674,834
 421,68; 5178,063;14723,421;-1908,792
 422,27; 5934,565;14035,832;-2004,437
 422,86; 6362,319;13874,073; -437,590
 423,46; 6095,958;14080,107;-2575,598
 424,05; 5503,450;14376,626;-2928,293
 424,64; 6145,942;13888,953;-2640,014
 425,24; 6229,918;14092,098;-2903,453
 425,83; 6227,666;13992,269;-2680,945
 426,42; 7026,450;12987,626;-2760,293
 427,01; 7282,614;13424,734;-2674,533
 427,61; 5230,897;14347,873;-2609,209
 428,20; 4065,636;14036,151;-1764,751
 428,79; 4185,511;14414,052;-2859,656
 429,38; 4777,830;14092,377;-1781,186
 429,98; 5863,806;14922,521; -994,625
 430,57; 6764,897;15058,873;-2193,209
 431,16; 5498,043;14580,389;-2784,522
 431,75; 5381,708;14357,909; -561,407
 432,35; 6672,669;13435,899;-1951,262
 432,94; 5296,274;14429,186;-2324,759
 433,53; 3734,657;14560,375;-1152,995
 434,12; 3595,785;14431,298;-2267,381
 434,72; 3575,423;14188,331;-1413,389
 435,31; 3374,247;14167,699; 7395,119
 435,90; 3206,560;14308,954; 8338,249
 436,49; 3224,183;13427,834; -683,175
 437,08; 3336,214;13895,951; -675,370
 437,68; 5652,490;14442,827;-2987,412
 438,27; 6907,819;14610,237;-2610,866
 438,86; 4125,010;14612,832;-1147,984
 439,45; 3301,983;15313,346;-1937,106
 440,05; 4973,855;15955,616;-2982,694
 440,64; 5139,728;15054,886;-1902,282
 441,23; 3893,597;14152,525;-1415,553
 441,82; 3181,740;13700,218;-2631,576
 442,41; 2513,151;14351,277;-3014,637
 443,00; 2484,886;13625,925;-2724,863
 443,60; 2543,208;14373,881;-3136,710
 444,19; 2635,330;15026,541;-1440,462
 444,78; 2497,081;14960,151;-3012,298
 445,37; 2539,230;15728,297;-2522,928
 445,96; 2697,032;15331,249;-3116,202
 446,56; 2728,637;15596,535;-1144,698
 447,15; 2576,439;16225,678; -884,947
 447,74; 2477,087;17097,412;-2709,931
 448,33; 2323,516;16443,066;-1985,920
 448,92; 2352,032;15422,440;-2964,176
 449,51; 2193,896;15095,817;-2848,813
 450,10; 1877,729;15133,078;-3063,256
 450,70; 1928,446;14904,939;-1957,581
 451,29; 1949,586;15329,193;-1112,260
 451,88; 2082,746;15513,671;-2929,183
 452,47; 2445,303;16565,055;-2795,584
 453,06; 2231,270;16495,498;-2401,047
 453,65; 1828,960;16071,874;-2873,493
 454,24; 1865,303;17329,246;-2173,558
 454,84; 1995,318;17793,209;-1379,168
 455,43; 1914,923;18732,496;-2219,665
 456,02; 1748,364;18879,480;-2927,947
 456,61; 1802,938;17317,459;-2925,275
 457,20; 1791,334;16921,363;-2786,753
 457,79; 1831,446;17588,131;-2922,554
 458,38; 1905,036;18338,264;-2132,467
 458,97; 1866,899;18039,641;-2515,104
 459,56; 1958,018;18190,479;-2760,565
 460,16; 1938,516;17832,258;-2082,894
 460,75; 1878,176;18157,518;-2072,146
 461,34; 1831,346;18077,887;-2962,020
 461,93; 1870,164;18381,186;-2200,853
 462,52; 1945,422;19333,275;-2744,993
 463,11; 1962,924;20546,688;-1989,639
 463,70; 2162,073;19458,643;-2869,295
 464,29; 2156,693;19945,082;-3150,376
 464,88; 2253,128;20795,807;-2743,024
 465,47; 1976,462;19885,285;-2748,139
 466,06; 2023,696;20915,713;-3191,692
 466,65; 2124,067;21667,572;-3018,635
 467,24; 2234,633;22030,848;-2539,986
 467,84; 2190,912;22443,164;-2020,371
 468,43; 2081,228;22325,051;-2238,559
 469,02; 2080,605;23517,170;-2702,135
 469,61; 2055,371;24168,936;-2593,555
 470,20; 2191,614;23781,063;-2841,085
 470,79; 2119,599;22760,100;-3232,475
 471,38; 1935,903;25266,463;-2192,395
 471,97; 1842,776;26009,732; -666,983
 472,56; 1945,618;25472,887;-3035,376
 473,15; 2125,529;25296,975;-2825,135
 473,74; 2074,152;26395,854;-3106,559
 474,33; 2040,459;25866,848;-2957,796
 474,92; 1999,046;27630,348;-3146,391
 475,51; 1966,475;29609,002;-2873,380
 476,10; 2004,915;29847,986;-3011,662
 476,69; 2080,001;26101,268;-2855,586
 477,28; 1970,450;25846,955;-2956,845
 477,87; 1871,852;27035,121; -173,956
 478,46; 1928,171;28695,639;-3029,460
 479,05; 1982,426;30507,100;-2134,284
 479,64; 1853,201;31679,756;-2718,655
 480,23; 1881,581;29541,508;-2845,548
 480,82; 1858,955;28549,996;-2736,807
 481,41; 1859,928;29371,510;-1873,929
 482,00; 1789,444;29284,885;-1364,185
 482,59; 1867,128;29593,998;-2298,998
 483,18; 1983,402;31702,244;-2376,723
 483,77; 1917,584;31703,139;-2193,865
 484,36; 1967,475;32475,002;-1701,380
 484,95; 2035,630;32990,410; -788,643
 485,54; 2226,767;35331,031;-1371,006
 486,13; 2532,782;35762,996; -945,616
 486,72; 3192,411;34334,137;  148,326
 487,31; 3211,907;31046,285;-1109,686
 487,89; 2706,478;32608,633; -193,697
 488,48; 3472,183;33798,164;-1523,728
 489,07; 4194,335;32913,941;-1248,674
 489,66; 3008,864;33511,645;-1505,224
 490,25; 2498,293;31095,299; -660,212
 490,84; 2554,991;34127,375;-1683,635
 491,43; 4182,438;34965,621; -701,552
 492,02; 5151,557;36094,652;-1864,987
 492,61; 3360,177;35362,902;-1043,094
 493,20; 2586,536;33776,426;-2019,743
 493,79; 2653,229;32749,434; 4824,494
 494,38; 2511,980;33706,043;-1938,342
 494,97; 3582,643;32583,934; -629,911
 495,55; 5225,506;34690,309;-2325,548
 496,14; 4139,007;35087,531;-2403,220
 496,73; 2642,992;35451,566;-1952,609
 497,32; 2464,512;34211,570;-2587,182
 497,91; 2905,202;35005,949;-1921,629
 498,50; 2912,649;34165,195;-2912,544
 499,09; 2688,512;34554,570;-3088,182
 499,68; 2892,752;32403,070;-2405,396
 500,27; 3504,977;33321,605;-2490,999
 500,85; 3625,035;32655,207;-2604,071
 501,44; 3303,798;32478,342;-2576,175
 502,03; 3116,655;33194,457;-3368,178
 502,62; 2595,579;31275,068;-3438,205
 503,21; 2459,795;29432,711;-3532,858
 503,80; 2372,871;32028,100;-2976,831
 504,39; 2480,950;32451,119;-3458,121
 504,97; 2374,841;31774,982;-3577,636
 505,56; 2227,418;31537,590;-2979,281
 506,15; 2475,278;32302,336;-3991,602
 506,74; 2429,364;32557,617;-2945,526
 507,33; 2373,987;32185,498;-3165,949
 507,92; 2427,117;33952,859;-3871,678
 508,51; 2241,974;35926,973;-3735,682
 509,09; 2388,750;34536,629;-3921,053
 509,68; 2354,199;34318,508;-3748,286
 510,27; 2352,248;33667,410;-3799,381
 510,86; 2400,099;32572,264;-4081,751
 511,45; 2401,373;33677,512;-3843,476
 512,03; 2580,944;34524,855;-3829,488
 512,62; 2808,761;36240,961;-3780,346
 513,21; 3141,285;33870,789;-3186,209
 513,80; 3410,525;34644,289;-3501,423
 514,39; 3259,856;32752,137;-3905,221
 514,97; 2879,418;35347,781;-4095,255
 515,56; 3008,704;34167,551;-4198,248
 516,15; 3834,504;35428,063;-3955,179
 516,74; 4215,817;32584,318;-4420,049
 517,33; 3297,641;33459,688;-3549,542
 517,91; 2795,808;33935,426;-4188,099
 518,50; 3072,343;32563,393;-3264,282
 519,09; 3521,023;33942,875;-3157,778
 519,68; 3386,799;35231,531;-4286,148
 520,26; 2995,185;38679,547;-4232,675
 520,85; 2964,042;39452,660;-4352,679
 521,44; 3003,063;40826,078;-4358,897
 522,03; 3384,492;39485,539;-4271,912
 522,61; 4080,063;36773,078;-4364,897
 523,20; 4084,276;33924,090;-4337,233
 523,79; 3289,863;32040,590;-4337,828
 524,38; 2769,747;32850,191;-4344,709
 524,96; 2597,440;35883,199;-4321,473
 525,55; 2740,234;36021,449;-4542,771
 526,14; 3338,626;34018,723;-4434,931
 526,73; 4035,717;32852,074;-4389,515
 527,31; 3258,337;32903,324;-4488,622
 527,90; 2732,234;33630,449;-4564,771
 528,49; 2453,434;34155,938;-2529,839
 529,08; 2260,589;34601,344;-3467,103
 529,66; 2190,887;34848,445;-3911,389
 530,25; 2183,790;35279,832;-4414,172
 530,84; 2082,936;35334,348;-4583,485
 531,42; 2170,182;38583,105;-4365,332
 532,01; 2824,699;37528,480;-4291,588
 532,60; 3106,915;34512,125;-4473,241
 533,18; 2396,103;35538,086;-4078,042
 533,77; 2085,459;34969,984;-4236,374
 534,36; 1995,313;34459,469;-4374,061
 534,95; 1946,179;35483,477;-4088,015
 535,53; 2124,449;34236,090; -974,424
 536,12; 2577,593;36469,977;-2657,420
 536,71; 3015,732;36511,230;-3869,099
 537,29; 2746,155;36073,621;-3618,454
 537,88; 2469,063;33908,078;-3454,897
 538,47; 2438,428;32497,867;-2840,180
 539,05; 2475,599;36837,238;-2139,054
 539,64; 2848,894;40414,898;-1785,997
 540,22; 3110,368;37414,633; -764,790
 540,81; 2799,958;37501,766; 1008,297
 541,40; 2421,021;39018,629; 3425,591
 541,98; 2334,079;38188,230; 4858,519
 542,57; 2457,593;39368,977; 4597,580
 543,16; 2225,289;38645,613; 4952,500
 543,74; 2058,526;35774,480; 4083,603
 544,33; 2085,334;36297,883; 3620,721
 544,92; 2174,681;37217,887; 3973,339
 545,50; 2117,392;37338,488;11456,648
 546,09; 1886,380;40064,965;11359,916
 546,67; 1822,799;41948,727; 2857,878
 547,26; 1801,623;40050,094; -202,615
 547,85; 1794,213;39208,414; -567,501
 548,43; 1634,501;38452,625; -849,836
 549,02; 1584,465;39427,246;-1040,008
 549,60; 1666,778;40570,500; -984,878
 550,19; 1660,845;41166,996;-2192,901
 550,78; 1647,468;42660,875;-2328,325
 551,36; 1487,514;45349,148;-2432,104
 551,95; 1476,735;45443,859; -585,416
 552,53; 1478,198;43280,262; -296,916
 553,12; 1517,177;41420,035;-3431,672
 553,70; 1482,630;43188,547;-2878,222
 554,29; 1461,231;44058,008;-2869,428
 554,88; 1441,180;41831,668;-4247,989
 555,46; 1415,310;43723,027;-3881,718
 556,05; 1567,839;45007,734;-4207,268
 556,63; 1804,718;45206,266;-3396,489
 557,22; 1806,529;43875,109;-3394,714
 557,80; 1780,611;41749,762;-3568,321
 558,39; 1891,812;44188,250;-4145,390
 558,97; 1688,508;47993,887;-3699,470
 559,56; 1481,301;49889,137;-4544,768
 560,15; 1450,027;50117,891;-3611,042
 560,73; 1584,207;49814,152;-4287,867
 561,32; 2003,115;47024,609;-3741,309
 561,90; 1825,107;46041,910;-4382,333
 562,49; 1557,535;48487,371;-3786,348
 563,07; 1415,921;48074,387;-4783,875
 563,66; 1393,128;50064,133;-4352,577
 564,24; 1406,994;49228,145;-4763,531
 564,83; 1329,833;51344,664;-4603,607
 565,41; 1488,708;53840,375;-4329,539
 566,00; 1479,247;52202,164;-2755,012
 566,58; 1426,881;56465,375;-3725,729
 567,17; 1394,471;56909,508;-4280,642
 567,75; 1325,775;52392,871;-4653,562
 568,34; 1277,651;55893,770;-3216,466
 568,92; 1268,903;55738,793;-3987,947
 569,51; 1284,374;54852,895; 2680,576
 570,09; 1420,614;58247,391;-4676,638
 570,68; 1382,569;53188,313;-4788,833
 571,26; 1301,292;50733,242;-3886,817
 571,85; 1263,185;57347,738;-4822,649
 572,43; 1235,228;57011,379;-4704,111
 573,01; 1148,055;52662,375;-4873,920
 573,60; 1202,578;53819,012;-3785,810
 574,18; 1229,198;55122,262;-4514,917
 574,77; 1195,757;53284,277;-4737,634
 575,35; 1220,578;56113,012;-4452,810
 575,94; 1359,477;57300,770;-4076,275
 576,52; 1307,891;54049,270;-2249,680
 577,11; 1204,836;51620,297;-3244,924
 577,69; 1243,496;48685,555;-3183,176
 578,27; 1287,845;51008,996;-3447,901
 578,86; 1216,456;55198,543;-2994,031
 579,44; 1266,711;60080,004;-2805,855
 580,03; 1351,474;60164,137;-2493,958
 580,61; 1341,237;60267,270;-3206,062
 581,19; 1352,620;56429,652;-2538,271
 581,78; 1292,982;55361,813;-2364,238
 582,36; 1317,484;57656,031;-2911,909
 582,95; 1301,940;56180,172;-1497,776
 583,53; 1380,763;59586,539;-2319,268
 584,11; 1344,161;61608,883;-2241,088
 584,70; 1298,313;61691,660;-1948,035
 585,28; 1406,480;62070,398;-1853,592
 585,87; 1348,013;60436,930;-2889,432
 586,45; 1297,456;63023,543;-2375,031
 587,03; 1298,599;64945,430;-1150,027
 587,62; 1348,234;61494,641;-1834,745
 588,20; 1327,797;62236,285;-1020,779
 588,78; 1512,101;58157,840;-3411,673
 589,37; 1434,891;57765,270;-3360,680
 589,95; 1399,824;62238,773;-3385,657
 590,54; 1441,937;63633,539;-3461,459
 591,12; 1453,356;62116,301;-3508,497
 591,70; 1423,557;59586,789;-3331,565
 592,29; 1431,116;62881,805;-2923,283
 592,87; 1460,708;63542,375;-2394,538
 593,45; 1388,943;63404,801; 1487,908
 594,04; 1289,846;62800,188;-3676,875
 594,62; 1320,107;59709,910;-3708,333
 595,20; 1249,715;62066,828;-4371,146
 595,79; 1324,623;62681,285;-4165,588
 596,37; 1268,496;61108,555;-3657,176
 596,95; 1364,420;56922,164;-4321,203
 597,53; 1278,651;58806,770;-4226,466
 598,12; 1351,320;61848,922;-3959,669
 598,70; 1250,244;64932,531;-3776,695
 599,28; 1244,708;64911,375;-3404,538
 599,87; 1354,517;64929,777;-3061,420
 600,45; 1385,490;64938,293;-3907,543
 601,03; 1349,864;63145,781;-4100,802
 601,62; 1359,846;61727,188;-4468,875
 602,20; 1404,867;59786,414;-4541,119
 602,78; 1324,815;64399,070;-4770,680
 603,36; 1241,529;64783,301;-3166,688
 603,95; 1325,757;58863,277;-4492,634
 604,53; 1244,277;62401,281;-4574,207
 605,11; 1255,851;59505,258;-2755,535
 605,69; 1214,553;62362,156;-3365,249
 606,28; 1121,116;62594,805;-4223,283
 606,86; 1171,906;61629,422;-3946,264
 607,44; 1078,630;60431,547;-3906,222
 608,02; 1054,289;58047,805;-4037,474
 608,61; 1046,180;60099,668;-2866,989
 609,19;  995,560;58582,418;-2582,882
 609,77; 1048,733;57398,422; -710,073
 610,35; 1028,383;55748,785; 5794,625
 610,94; 1061,666;56509,926;14509,949
 611,52; 1004,180;55803,668;12610,011
 612,10;  915,131;53026,957; 8432,133
 612,68;  885,092;56637,949; 2694,278
 613,26; 1045,323;57037,551; 2032,015
 613,85; 1059,839;61759,926; -599,241
 614,43;  939,800;62306,918;-1030,096
 615,01;  909,058;62272,199;-1215,211
 615,59;  922,475;64874,328; -972,932
 616,17;  959,274;59402,648;-2561,890
 616,76; 1005,508;62178,887;-2993,470
 617,34; 1054,152;62666,988;-2389,138
 617,92;  889,651;58547,770;-3399,466
 618,50;  989,620;61202,652;-2562,271
 619,08; 1007,657;57928,031;-2514,100
 619,67;  936,247;55968,164;-3196,012
 620,25;  933,234;54290,641;-2743,745
 620,83;  844,490;50498,293;-3495,543
 621,41;  859,596;52314,797;-2800,711
 621,99;  844,526;54560,672;-2529,371
 622,57;  954,648;55529,141;-3707,149
 623,15;  977,921;56213,387;-3783,875
 623,74;  958,225;58266,746;-3892,794
 624,32;  915,091;59330,754;-2827,749
 624,90;  889,067;58625,898;-2311,188
 625,48;  926,870;57897,043;-3132,436
 626,06;  833,614;56898,391;-4006,638
 626,64;  784,711;57787,004;-4162,855
 627,22;  716,444;58993,020;-3409,764
 627,81;  811,222;58046,117;-4334,478
 628,39;  763,167;57121,145;-4560,722
 628,97;  794,663;56597,293;-4437,733
 629,55;  820,398;55377,750;-4219,985
 630,13;  803,237;55669,270;-2959,062
 630,71;  799,201;54162,891;-2747,233
 631,29;  801,757;53129,277;-3824,634
 631,87;  738,298;52776,504;-4223,451
 632,45;  771,274;52786,648;-4716,890
 633,03;  785,605;54183,500;-4191,688
 633,62;  806,277;55423,281;-4714,207
 634,20;  720,113;54882,172;-4089,966
 634,78;  729,191;56497,000;-4430,283
 635,36;  716,927;56701,648;-4449,508
 635,94;  822,748;55183,383;-5398,684
 636,52;  843,581;51027,645;-5422,126
 637,10;  739,420;52116,164;-5488,203
 637,68;  786,724;50694,527;-4702,123
 638,26;  719,571;47618,750;-5536,176
 638,84;  725,414;48688,902;-5421,569
 639,42;  768,420;49235,164;-3756,203
 640,00;  936,165;51366,148;-5405,726
 640,58;  894,956;54579,402;-4806,027
 641,16;  803,746;55521,656;-5571,328
 641,74;  779,537;53214,906;-5433,630
 642,32;  724,328;50106,160;-5620,931
 642,90;  700,119;50434,414;-5856,232
 643,48;  745,909;49231,668;-5786,534
 644,06;  711,700;49280,922;-5796,835
 644,64;  691,491;49595,176;-5842,137
 645,22;  644,282;50513,430;-5562,438
 645,80;  674,072;50547,684;-4957,740
 646,39;  706,863;48107,938;-5515,041
 646,97;  679,654;49773,191;-5850,342
 647,54;  651,445;52328,441;-5717,644
 648,12;  593,235;54879,695;-5865,945
 648,70;  706,026;58954,949;-5885,247
 649,28;  782,817;56421,203;-6090,548
 649,86;  698,608;51091,457;-5609,850
 650,44;  684,398;48619,711;-5452,151
 651,02;  699,189;49970,965;-5474,452
 651,60;  609,980;51793,219;-5803,753
 652,18;  701,771;51320,473;-4735,055
 652,76;  675,561;53277,723;-5934,356
 653,34;  662,352;54817,977;-5939,658
 653,92;  696,143;57729,230;-5784,959
 654,50;  852,934;59042,484;-5818,261
 655,08;  794,724;58048,738;-5841,562
 655,66;  809,515;55058,992;-5115,863
 656,24;  807,306;56743,246;-5200,165
 656,82;  876,097;58989,500;-4979,466
 657,40;  803,887;58967,754;-5667,768
 657,98;  768,678;60169,008;-5486,069
 658,56;  740,469;61114,258;-5717,371
 659,14;  787,260;61380,512;-5913,672
 659,72;  667,050;63381,766;-5916,973
 660,29;  640,841;62437,020;-5907,275
 660,87;  651,632;59738,273;-5212,576
 661,45;  629,423;58590,527;-5664,877
 662,03;  646,213;57513,781;-4971,179
 662,61;  556,004;54945,035;-5638,480
 663,19;  594,795;54618,289;-5657,782
 663,77;  586,586;53917,543;-5939,083
 664,35;  549,376;56689,793;-5887,384
 664,93;  563,167;62595,047;-4922,686
 665,51;  571,958;61993,301;-6033,987
 666,08;  577,749;57747,555;-5652,289
 666,66;  563,539;51859,809;-4400,590
 667,24;  638,330;49420,063;-5952,892
 667,82;  631,121;50250,316;-5849,193
 668,40;  545,912;50723,570;-5932,494
 668,98;  578,703;51952,824;-5097,796
 669,56;  593,493;57957,078;-6096,097
 670,13;  648,284;61797,328;-6222,398
 670,71;  681,075;59698,582;-5900,700
 671,29;  615,866;57209,836;-6139,001
 671,87;  538,656;56814,090;-6051,303
 672,45;  523,447;51822,344;-6050,604
 673,03;  569,238;52592,598;-4769,906
 673,60;  567,029;58431,852;-3503,207
 674,18;  568,819;63679,105;-5938,508
 674,76;  519,610;61159,359;-6226,810
 675,34;  564,401;56361,613;-5251,111
 675,92;  559,192;55284,863;-6338,413
 676,50;  505,982;55051,117;-6085,714
 677,07;  534,773;56952,371;-6095,016
 677,65;  531,564;56680,625;-6163,317
 678,23;  526,355;55997,879;-5057,618
 678,81;  537,145;58016,133;-5299,919
 679,38;  596,936;56669,387;-5969,221
 679,96;  508,727;53267,641;-5846,522
 680,54;  529,518;55171,895;-5308,824
 681,12;  544,308;52485,148;-6126,125
 681,70;  516,099;54786,398;-4413,427
 682,27;  539,890;54740,652;-5851,728
 682,85;  481,681;58265,906;-5991,029
 683,43;  535,471;64943,160;-6140,331
 684,01;  565,262;64943,414;-5172,632
 684,58;  535,053;64307,668;-5138,934
 685,16;  584,844;64236,922;-4494,235
 685,74;  603,634;62790,176;-3853,536
 686,32;  538,425;59009,430;-6012,838
 686,89;  519,216;59552,684;-6015,139
 687,47;  438,007;59534,934;-6076,441
 688,05;  522,797;56416,188;-6019,742
 688,63;  505,588;59626,441;-6102,043
 689,20;  491,379;62884,695;-5971,345
 689,78;  525,170;58427,949;-5530,646
 690,36;  524,960;54291,203;-5381,948
 690,93;  474,751;54968,457;-6355,249
 691,51;  526,542;61453,711;-6326,550
 692,09;  541,333;64946,965;-6223,852
 692,67;  530,123;64947,219;-6047,153
 693,24;  457,914;60968,469;-5803,455
 693,82;  498,705;59538,723;-6235,756
 694,40;  594,496;58049,977;-3570,058
 694,97;  501,286;57456,230;-6046,359
 695,55;  460,077;59820,484;-5464,660
 696,13;  513,868;61729,738;-4454,962
 696,70;  511,659;58594,992;-6029,263
 697,28;  399,449;59108,246;-6266,564
 697,86;  507,240;60837,500;-6030,866
 698,43;  486,031;58827,754;-6198,167
 699,01;  480,822;55595,004;-6051,469
 699,59;  493,612;55751,258;-6402,770
 700,16;  503,403;54174,512;-5257,072
 700,74;  443,194;57040,766;-5497,373
 701,32;  422,985;56440,020;-6233,674
 701,89;  453,776;55792,273;-6049,976
 702,47;  474,566;60296,527;-6466,277
 703,05;  483,357;64951,781;-6309,579
 703,62;  439,148;64952,035;-6227,880
 704,20;  436,939;64952,285;-5306,182
 704,77;  461,729;64952,539;-6118,483
 705,35;  394,520;64213,793;-6006,784
 705,93;  362,311;64327,047;-4922,085
 706,50;  424,102;63796,301;-5267,387
 707,08;  404,892;60606,555;-5284,688
 707,65;  433,683;60046,809;-5620,990
 708,23;  451,474;64881,063;-5431,292
 708,81;  345,265;64954,316;-5019,593
 709,38;  458,055;64954,570;-5001,894
 709,96;  408,846;64954,820;-6025,195
 710,53;  406,637;64955,074;-6007,497
 711,11;  423,428;61503,328;-5752,798
 711,69;  438,218;61913,582;-3821,100
 712,26;  443,009;59012,836;-4642,401
 712,84;  393,800;63346,090;-5947,703
 713,41;  470,591;64411,344;-6153,004
 713,99;  393,381;64924,598;-6068,305
 714,56;  424,172;62057,852;-6326,607
 715,14;  450,963;60312,105;-6198,908
 715,71;  437,754;60246,355;-6210,209
 716,29;  412,544;62893,609;-6648,511
 716,86;  419,335;63573,863;-6510,813
 717,44;  421,126;63263,117;-6424,114
 718,02;  493,917;62110,371;-6462,415
 718,59;  475,707;61013,625;-5121,716
 719,17;  450,498;63488,879;-5649,018
 719,74;  444,289;62907,133;-5756,319
 720,32;  449,080;63502,387;-6451,621
 720,89;  464,870;64959,641;-6422,922
 721,47;  395,661;64959,891;-6388,224
 722,04;  433,452;64960,145;-5502,525
 722,62;  406,243;64252,398;-3979,826
 723,19;  390,033;60250,652;-4938,128
 723,77;  405,824;57638,906;-5673,429
 724,34;  405,615;60150,160;-5576,730
 724,92;  372,406;63789,414;-6558,032
 725,49;  388,196;64961,668;-5666,333
 726,07;  395,987;64961,922;-6491,635
 726,64;  411,778;64627,176;-6587,936
 727,21;  453,569;60249,426;-5627,238
 727,79;  381,359;63706,680;-6444,539
 728,36;  439,150;64962,934;-6722,840
 728,94;  464,941;64963,188;-6535,142
 729,51;  434,732;64963,441;-6365,443
 730,09;  469,522;64963,695;-5545,745
 730,66;  471,313;64963,949;-6358,046
 731,24;  480,104;64964,203;-6577,348
 731,81;  486,895;64964,457;-5151,649
 732,38;  499,685;64964,711;-6492,950
 732,96;  490,476;64964,961;-6263,251
 733,53;  533,267;60347,215;-6389,553
 734,11;  568,058;61575,469;-6617,854
 734,68;  632,849;64965,723;-6211,156
 735,26;  717,639;64965,977;-6389,458
 735,83;  708,430;64966,230;-6498,759
 736,40;  714,221;62243,484;-6516,060
 736,98;  751,012;61999,738;-6374,361
 737,55;  749,802;59236,992;-5827,663
 738,13;  765,593;57707,246;-5702,964
 738,70;  833,384;60991,496;-5529,266
 739,27;  774,175;62504,750;-6452,567
 739,85;  795,965;62745,004;-6283,869
 740,42;  903,756;64968,258;-6464,170
 740,99;  901,547;64968,512;-5618,471
 741,57; 1037,338;64968,766;-4867,773
 742,14;  995,128;64969,020;-5349,074
 742,72; 1061,919;64969,273;-4751,375
 743,29; 1045,710;64969,527;-6563,677
 743,86; 1122,501;64969,781;-6538,979
 744,44; 1090,291;64970,031;-6113,280
 745,01; 1025,082;64970,285;-5760,581
 745,58;  976,873;64970,539;-6259,882
 746,16; 1038,664;64970,793;-6188,184
 746,73; 1058,454;64971,047;-6479,485
 747,30; 1030,245;61139,301;-6536,787
 747,88; 1078,036;59621,555;-5621,088
 748,45; 1171,827;64971,809;-5668,390
 749,02; 1196,617;64972,063;-6384,691
 749,60; 1396,408;62401,313;-6212,992
 750,17; 1504,199;61766,566;-5269,294
 750,74; 1629,990;62801,820;-6479,595
 751,31; 1596,780;63306,074;-6347,896
 751,89; 1584,571;64232,328;-6546,198
 752,46; 1654,362;64973,582;-6282,500
 753,03; 1662,153;64973,836;-6160,801
 753,61; 1620,943;63755,090;-4858,102
 754,18; 1486,734;64573,344;-6434,404
 754,75; 1436,525;63888,598;-5191,705
 755,32; 1425,316;60715,848;-6332,006
 755,90; 1361,106;64975,102;-6493,308
 756,47; 1291,897;64975,355;-4809,609
 757,04; 1198,688;64975,609;-6457,911
 757,61; 1147,479;64975,863;-5553,212
 758,19; 1098,269;64976,117;-5253,514
 758,76;  944,060;64976,371;-6603,815
 759,33;  964,851;64976,625;-6664,116
 759,90;  804,642;64976,879;-5714,417
 760,48;  758,432;64977,133;-6778,719
 761,05;  680,223;64977,383;-6083,021
 761,62;  707,014;62082,637;-4888,322
 762,19;  630,805;58992,891;-6144,624
 762,77;  636,595;61730,145;-5963,925
 763,34;  567,386;64978,398;-6610,226
 763,91;  558,177;64978,652;-5818,527
 764,48;  549,968;64978,906;-6756,829
 765,05;  501,758;64979,160;-6543,130
 765,63;  466,549;63215,414;-6417,432
 766,20;  459,340;59753,668;-6004,733
 766,77;  479,131;57105,918;-5921,035
 767,34;  412,922;58807,172;-6640,336
 767,91;  448,712;59176,426;-6689,637
 768,49;  418,503;61368,680;-6772,939
 769,06;  395,294;64980,934;-5832,240
 769,63;  433,085;62272,188;-6636,542
 770,20;  451,875;59567,441;-5868,843
 770,77;  325,666;57921,695;-5645,145
 771,34;  336,457;60065,949;-6615,446
 771,91;  396,248;60549,203;-6102,747
 772,49;  371,038;58558,453;-6369,048
 773,06;  382,829;57687,707;-6203,350
 773,63;  365,620;60204,961;-6639,651
 774,20;  412,411;58197,215;-5918,953
 774,77;  402,201;56475,469;-6631,254
 775,34;  425,992;56707,723;-6214,556
 775,91;  415,783;57056,977;-6417,857
 776,49;  496,574;58787,230;-6590,158
 777,06;  538,364;60761,484;-6015,460
 777,63;  471,155;64224,738;-6367,761
 778,20;  458,946;62572,988;-6250,063
 778,77;  377,737;63316,242;-5763,364
 779,34;  297,527;64985,496;-6585,666
 779,91;  382,318;64985,750;-6534,967
 780,48;  317,109;59144,004;-5853,268
 781,05;  294,900;50716,258;-6586,570
 781,62;  335,690;52124,512;-6604,871
 782,20;  369,481;58813,766;-6500,172
 782,77;  348,272;64987,020;-6529,474
 783,34;  401,063;64052,273;-6522,775
 783,91;  333,853;61362,523;-6509,077
 784,48;  272,644;60480,777;-2126,378
 785,05;  299,435;59144,031;-6540,680
 785,62;  304,226;58221,285;-6452,981
 786,19;  343,016;58149,539;-5100,282
 786,76;  310,807;55130,793;-6677,583
 787,33;  292,598;56202,047;-6515,885
 787,90;  285,389;59491,301;-6591,187
 788,47;  268,179;60148,555;-5075,488
 789,04;  336,970;58988,809;-5763,790
 789,61;  270,761;58863,059;-5066,091
 790,18;  283,552;55747,313;-6561,392
 790,75;  314,342;50841,566;-6671,693
 791,32;  327,133;52056,820;-6577,995
 791,89;  283,924;55205,074;-6068,296
 792,46;  330,715;60806,328;-5763,598
 793,03;  350,505;62404,582;-6702,899
 793,60;  392,296;55699,836;-6440,201
 794,17;  404,087;52257,090;-5569,502
 794,74;  382,878;47273,344;-5886,803
 795,31;  343,668;50096,594;-6099,105
 795,88;  287,459;52579,848;-5572,406
 796,45;  276,250;53365,102;-6529,708
 797,02;  234,041;56004,355;-5046,009
 797,59;  269,831;57922,609;-6675,311
 798,16;  283,622;54563,863;-5861,612
 798,73;  281,413;53534,117;-6761,913
 799,30;  264,204;55088,371;-6611,214
 799,87;  250,995;55650,625;-6713,516
 800,44;  234,785;55353,875;-6729,817
 801,01;  237,576;56836,129;-6807,119
 801,58;  312,367;58477,383;-6537,420
 802,15;  301,158;52086,637;-6658,722
 802,72;  302,948;48849,891;-6694,023
 803,28;  232,739;52000,145;-6076,324
 803,85;  297,530;57179,398;-6728,626
 804,42;  319,321;55235,652;-5999,927
 804,99;  277,111;53752,906;-6539,229
 805,56;  257,902;52472,160;-6770,530
 806,13;  252,693;53387,410;-6075,832
 806,70;  259,484;52719,664;-6748,133
 807,27;  270,274;54477,918;-6672,434
 807,84;  265,065;52786,172;-6693,736
 808,41;  268,856;49728,426;-6022,037
 808,98;  262,647;50479,680;-5986,338
 809,54;  243,437;52469,934;-4958,640
 810,11;  247,228;48281,188;-6782,941
 810,68;  240,019;43021,441;-6680,243
 811,25;  207,810;41394,695;-6760,544
 811,82;  220,600;40374,945;-6886,846
 812,39;  179,391;37710,199;-3331,147
 812,96;  253,182;38779,453;-6767,448
 813,52;  208,973;41291,707;-6937,750
 814,09;  196,763;44522,961;-6766,051
 814,66;  215,554;50325,215;-6827,353
 815,23;  212,345;51240,469;-6669,654
 815,80;  181,136;50439,723;-5853,956
 816,37;  242,926;50917,977;-6801,257
 816,93;  206,717;49487,230;-6731,558
 817,50;  226,508;46790,480;-6102,859
 818,07;  268,299;46034,734;-6960,161
 818,64;  219,089;46919,988;-6856,462
 819,21;  241,880;46261,242;-6053,764
 819,77;  261,671;42742,496;-6571,065
 820,34;  263,462;42053,750;-6677,367
 820,91;  318,252;43276,004;-6469,668
 821,48;  351,043;43873,258;-6689,969
 822,05;  342,834;45571,512;-5875,271
 822,61;  374,625;44296,766;-5631,572
 823,18;  285,415;41860,016;-6620,874
 823,75;  246,206;42585,270;-6957,175
 824,32;  260,997;45286,523;-6923,477
 824,88;  238,788;45073,777;-6882,778
 825,45;  220,578;44018,031;-6899,079
 826,02;  201,369;43798,285;-6643,380
 826,59;  244,160;43974,539;-6639,682
 827,15;  216,951;46077,793;-6906,983
 827,72;  197,741;49519,047;-6723,285
 828,29;  218,532;51523,301;-6895,586
 828,86;  205,323;48827,551;-6791,888
 829,42;  200,114;40797,805;-6812,189
 829,99;  178,904;36802,059;-6647,490
 830,56;  198,695;36252,313;-6869,792
 831,13;  223,486;37220,566;-6060,093
 831,69;  240,277;38022,820;-6506,395
 832,26;  254,068;38832,074;-5062,696
 832,83;  188,858;40408,328;-5452,998
 833,39;  198,649;40187,582;-6904,299
 833,96;  213,440;39167,836;-6687,600
 834,53;  147,231;40039,086;-6928,902
 835,10;  180,021;39930,340;-6529,203
 835,66;  171,812;38972,594;-6920,504
 836,23;  206,603;39801,848;-6803,806
 836,80;  147,394;39428,102;-6790,107
 837,36;  188,184;37086,355;-6810,409
 837,93;  190,975;34475,609;-6902,710
 838,50;  222,766;35084,863;-6789,012
 839,06;  183,557;37684,117;-6288,313
 839,63;  166,347;37191,371;-6895,614
 840,19;  176,138;35132,621;-6607,916
 840,76;  191,929;35364,875;-6404,217
 841,33;  179,720;35892,129;-6509,519
 841,89;  179,510;36779,383;-6949,820
 842,46;  147,301;37103,637;-6751,122
 843,03;  198,092;35389,891;-6089,423
 843,59;  115,883;34224,145;-6403,724
 844,16;  197,673;34994,398;-6181,025
 844,73;  223,464;34249,652;-6067,327
 845,29;  221,255;32937,902;-5695,628
 845,86;  206,046;35699,156;-6800,930
 846,42;  134,836;36940,410;-7004,231
 846,99;  155,627;36477,664;-6967,533
 847,56;  144,418;36265,918;-5840,834
 848,12;  125,209;36240,172;-6745,135
 848,69;  149,999;35710,426;-6715,437
 849,25;  157,790;34401,680;-6845,738
 849,82;  120,581;34081,934;-3247,040
 850,38;  162,372;35064,188;-6840,341
 850,95;  121,162;32489,439;-6324,643
 851,52;  156,953;32520,693;-6565,944
 852,08;  124,744;32548,947;-6691,245
 852,65;   86,535;30323,199;-7005,546
 853,21;  101,325;27698,453;-6958,848
 853,78;  146,116;27362,707;-6363,149
 854,34;  123,907;28860,961;-6871,451
 854,91;  143,698;29081,215;-5086,752
 855,47;  132,488;29942,467;-5108,054
 856,04;  182,279;32027,721;-6746,355
 856,60;  120,070;33961,973;-6104,656
 857,17;  132,861;34979,227;-6840,958
 857,73;  152,651;33553,480;-6811,259
 858,30;  123,442;32532,734;-6985,561
 858,86;  150,233;31110,988;-5926,862
 859,43;  149,024;31430,242;-6226,164
 859,99;  126,814;32011,496;-6852,465
 860,56;   96,605;33126,750;-6903,766
 861,12;  102,396;35190,004;-6737,068
 861,69;   99,187;33669,258;-5924,369
 862,25;  116,977;34731,508;-6821,670
 862,82;  137,768;34419,762;-5972,972
 863,38;  152,559;31196,018;-6843,273
 863,95;  127,350;29305,270;-6239,575
 864,51;  149,141;30403,523;-5287,876
 865,08;  157,931;29284,777;-6090,178
 865,64;  160,722;26795,031;-7018,479
 866,21;  149,513;26131,285;-6745,780
 866,77;   89,304;26051,537;-5552,082
 867,34;  204,094;25734,791;-6672,383
 867,90;  221,885;24632,045;-6303,685
 868,46;  189,676;23835,299;-6041,986
 869,03;  163,467;24389,551;-6929,288
 869,59;  161,257;26353,805;-6884,589
 870,16;  175,048;27647,059;-6052,890
 870,72;  125,839;30060,313;-6657,191
 871,28;  127,630;32915,566;-5992,493
 871,85;  138,420;33142,820;-6907,794
 872,41;   97,211;31569,072;-6004,096
 872,98;  112,002;32738,326;-6050,397
 873,54;  142,793;33876,578;-5920,699
 874,10;  139,583;32768,832;-5876,000
 874,67;   99,583;32987,832;-6904,000
 875,23;  104,583;31068,834;-7032,000
 875,80;  150,583;28009,834;-6641,000
 876,36;  123,583;25058,834;-6642,000
 876,92;  132,583;22832,834;-6189,000
 877,49;  138,583;23923,834;-6517,000
 878,05;  138,583;24896,834;-6797,000
 878,61;  127,583;26938,834;-6812,000
 879,18;  104,583;27553,834;-6252,000
 879,74;  112,583;28076,834;-6720,000
 880,30;  105,583;28679,834;-5926,000
 880,87;   61,583;28852,834;-6326,000
 881,43;  120,583;29533,834;-6871,000
 881,99;  120,583;27306,834;-6879,000
 882,56;  102,583;27610,834;-6661,000
 883,12;   61,583;29049,834;-5740,000
 883,68;   93,583;29120,834;-6518,000
 884,25;  128,583;28300,834;-6949,000
 884,81;  100,583;26343,834;-6701,000
 885,37;  101,583;24221,834;-6786,000
 885,94;  107,583;22940,834;-6851,000
 886,50;  123,583;23098,834;-6886,000
 887,06;  160,583;24358,834;-6796,000
 887,62;  106,583;25019,834;-6866,000
 888,19;   85,583;25774,834;-5986,000
 888,75;  100,583;26542,834;-6821,000
 889,31;  148,583;29043,834;-6778,000
 889,87;  136,583;30537,834;-6723,000
 890,44;  165,583;30349,834;-6696,000
 891,00;  103,583;28757,834;-6786,000
 891,56;  130,583;26457,834;-6998,000
 892,12;  166,583;24463,834;-6754,000
 892,69;  110,583;25310,834;-6373,000
 893,25;  169,583;28798,834;-6877,000
 893,81;  124,583;31774,834;-6696,000
 894,37;  161,583;31330,834;-6342,000
 894,94;  155,583;28713,834;-6772,000
 895,50;  153,583;26035,834; -212,000
 896,06;  157,583;24749,834;-6810,000
 896,62;  186,583;23405,834;-6707,000
 897,18;  173,583;24661,834;-6518,000
 897,75;  208,583;27406,834;-6895,000
 898,31;  247,583;27887,834;-6849,000
 898,87;  171,583;26274,834;-6860,000
 899,43;  221,583;25164,834;-6469,000
 899,99;  189,583;26592,834;-6866,000
 900,56;  202,583;25515,834;-6791,000
 901,12;  220,583;24875,834;-6890,000
 901,68;  230,583;27903,834;-6267,000
 902,24;  237,583;31800,834;-5930,000
 902,80;  217,583;32652,834;-6794,000
 903,36;  323,583;31893,834;-6691,000
 903,93;  394,583;32139,834;-6646,000
 904,49;  739,583;32761,834;-6913,000
 905,05; 1869,583;30952,834;-6732,000
 905,61; 4567,583;28208,834;-6832,000
 906,17; 9210,583;28086,834;-6901,000
 906,73;14911,583;25975,834;-5380,000
 907,29;19590,584;24960,834;-6910,000
 907,86;21105,584;25118,834;-6827,000
 908,42;20856,584;28092,834;-6795,000
 908,98;17953,584;31123,834;-5908,000
 909,54;11928,583;38813,832;-6885,000
 910,10; 5285,583;48220,832;-6634,000
 910,66; 1561,583;57581,832;-6781,000
 911,22;  614,583;65027,832;-6761,000
 911,78;  365,583;62593,832;-6841,000
 912,34;  242,583;53256,832;-6080,000
 912,90;  273,583;44610,832;-5232,000
 913,46;  225,583;37052,832;-6876,000
 914,03;  151,583;30620,834;-5746,000
 914,59;  231,583;27452,834;-6682,000
 915,15;  209,583;24908,834;-6891,000
 915,71;  177,583;24217,834;-6863,000
 916,27;  151,583;23800,834;-6723,000
 916,83;  162,583;23006,834;-5824,000
 917,39;  178,583;21742,834;-3512,000
 917,95;  165,583;20224,834;-6009,000
 918,51;  157,583;19972,834;-6583,000
 919,07;  182,583;21780,834;-6791,000
 919,63;   89,583;23295,834;-6661,000
 920,19;  107,583;23935,834;-6865,000
 920,75;  155,583;23112,834;-6640,000
 921,31;  135,583;21484,834;-4837,000
 921,87;  125,583;20216,834;-6845,000
 922,43;  101,583;18019,834;-5626,000
 922,99;  132,583;17321,834;-6706,000
 923,55;  154,583;18674,834;-6655,000
 924,11;   96,583;19094,834;-6976,000
 924,67;  111,583;19310,834;-6962,000
 925,23;  135,583;19485,834;-6778,000
 925,79;  164,583;20122,834;-6710,000
 926,35;  133,583;20219,834;-6573,000
 926,91;   94,583;19401,834;-6909,000
 927,47;  124,583;19367,834;-6660,000
 928,03;  186,583;20294,834;-6786,000
 928,59;  120,583;20503,834;-6678,000
 929,15;  139,583;20781,834;-6792,000
 929,71;  147,583;22016,834;-6840,000
 930,27;  126,583;23587,834;-6537,000
 930,82;  179,583;25573,834;-6728,000
 931,38;   88,583;24317,834;-5852,000
 931,94;  116,583;22672,834;-6843,000
 932,50;  158,583;21252,834;-6481,000
 933,06;  129,583;20895,834;-6768,000
 933,62;  138,583;21092,834;-6443,000
 934,18;  126,583;20632,834;-6727,000
 934,74;  130,583;21320,834;-6709,000
 935,30;  183,583;22030,834;-6484,000
 935,86;  175,583;21213,834;-6505,000
 936,42;  153,583;20702,834;-6873,000
 936,97;  115,583;21656,834;-6563,000
 937,53;  121,583;20552,834;-6826,000
 938,09;  124,583;21087,834;  123,000
 938,65;  102,583;21186,834;-6268,000
 939,21;  125,583;20179,834;-6708,000
 939,77;  100,583;18946,834;-6213,000
 940,33;  167,583;18602,834;-6748,000
 940,88;  114,583;19429,834;-5908,000
 941,44;  171,583;21301,834;-6983,000
 942,00;  101,583;23225,834;-6697,000
 942,56;  134,583;24231,834;-6604,000
 943,12;  124,583;23427,834;-5907,000
 943,68;  171,583;22950,834;-5679,000
 944,23;  118,583;23124,834;-6749,000
 944,79;  117,583;22674,834;-6102,000
 945,35;  117,583;20741,834;-6599,000
 945,91;  146,583;19519,834;-6767,000
 946,47;  120,583;19827,834;-3353,000
 947,03;  111,583;19896,834;-6850,000
 947,58;  105,583;19661,834;-6840,000
 948,14;  137,583;20790,834;-5897,000
 948,70;  135,583;19573,834;-5855,000
 949,26;  180,583;18881,834;-6616,000
 949,81;  106,583;18342,834;-6644,000
 950,37;   97,583;18686,834;-6695,000
 950,93;  141,583;17993,834;-6224,000
 951,49;   68,583;17568,834;-6057,000
 952,05;  136,583;17926,834;-6571,000
 952,60;  105,583;17299,834;-6951,000
 953,16;   99,583;16933,834;-5783,000
 953,72;   71,583;15628,833;-5813,000
 954,27;  130,583;15524,833;-6566,000
 954,83;  108,583;15317,833;-6703,000
 955,39;  123,583;14917,833;-6691,000
 955,95;  178,583;14456,833;-6849,000
 956,50;   72,583;14272,833;-6698,000
 957,06;  109,583;14126,833;-5922,000
 957,62;  146,583;13780,833;-6559,000
 958,18;  128,583;13872,833;-6741,000
 958,73;  129,583;13326,833;-6820,000
 959,29;  114,583;13518,833;-6106,000
 959,85;  103,583;14785,833;-6864,000
 960,40;  169,583;16746,834;-4263,000
 960,96;  104,583;16386,834;-6738,000
 961,52;  125,583;14755,833;-6643,000
 962,07;  115,583;13711,833;-6742,000
 962,63;   26,583;13208,833;-6723,000
 963,19;   65,583;13435,833;-5779,000
 963,74;  170,583;13877,833;-6582,000
 964,30;  101,583;14475,833;-6595,000
 964,86;  140,583;14281,833;-6484,000
 965,41;  183,583;14290,833;-6705,000
 965,97;  119,583;14185,833;-6569,000
 966,53;  159,583;14792,833;-6750,000
 967,08;  159,583;15311,833;-6611,000
 967,64;  188,583;15082,833;-6705,000
 968,19;  156,583;14471,833;-6684,000
 968,75;  184,583;14662,833;-6566,000
 969,31;  190,583;14880,833;-5626,000
 969,86;  104,583;14995,833;-6505,000
 970,42;  168,583;13195,833;-6620,000
 970,97;  160,583;11567,833;-6437,000
 971,53;  180,583;11625,833;-6490,000
 972,09;  151,583;12998,833;-6646,000
 972,64;  164,583;13523,833;-5812,000
 973,20;  170,583;13815,833;-6599,000
 973,75;  194,583;14605,833;-5760,000
 974,31;  226,583;14826,833;-6578,000
 974,87;  186,583;14921,833;-6674,000
 975,42;  208,583;14507,833;-6727,000
 975,98;  173,583;13201,833;-6651,000
 976,53;  215,583;12100,833;-6555,000
 977,09;  209,583;11353,833;-4624,000
 977,64;  205,583;11164,833;-6532,000
 978,20;  194,583;10649,833;-6585,000
 978,75;  219,583;10482,833;-6429,000
 979,31;  224,583;10950,833;-6513,000
 979,86;  199,583;12220,833;-6739,000
 980,42;  207,583;12828,833;-5813,000
 980,97;  195,583;13290,833;-6642,000
 981,53;  238,583;14285,833;-6636,000
 982,08;  200,583;13803,833;-5046,000
 982,64;  188,583;12278,833;-6237,000
 983,19;  198,583;11308,833;-6760,000
 983,75;  204,583;10993,833;-6576,000
 984,30;  195,583;10430,833;-5581,000
 984,86;  192,583; 9867,833;-5898,000
 985,41;  278,583; 9457,833;-6634,000
 985,97;  201,583; 9632,833;-4797,000
 986,52;  250,583; 9894,833;-5853,000
 987,08;  196,583; 9953,833;-6174,000
 987,63;  210,583;10165,833;-5608,000
 988,19;  199,583;11252,833;-6266,000
 988,74;  161,583;11710,833;-5682,000
 989,30;  201,583;11529,833;-6568,000
 989,85;  188,583;11470,833; -276,000
 990,40;  189,583;11314,833;-6617,000
 990,96;  246,583;11060,833;-6482,000
 991,51;  209,583;11149,833;-6578,000
 992,07;  169,583;10742,833;-6605,000
 992,62;  212,583;10285,833;-6519,000
 993,18;  139,583;10035,833;-6504,000
 993,73;  177,583; 9986,833;-6440,000
 994,28;  195,583; 9800,833;-6464,000
 994,84;  187,583; 9019,833;-6240,000
 995,39;  228,583; 8474,833;-2971,000
 995,94;  240,583; 7953,833;-5673,000
 996,50;  199,583; 7647,833;-6543,000
 997,05;  230,583; 7872,833;-3481,000
 997,61;  226,583; 8363,833;-6489,000
 998,16;  190,583; 8581,833;-6555,000
 998,71;  218,583; 8850,833;-6340,000
 999,27;  182,583; 9115,833;-5223,000
 999,82;  263,583; 8706,833;-4778,000
1000,37;  253,583; 8661,833;-6520,000
1000,93;  273,583; 8920,833;-6107,000
1001,48;  271,583; 8799,833;-6543,000
1002,03;  191,583; 8477,833;-6469,000
1002,59;  268,583; 8715,833;-5972,000
1003,14;  231,583; 8758,833;-6113,000
1003,69;  253,583; 8484,833;-6513,000
1004,25;  220,583; 8299,833;-6507,000
1004,80;  258,583; 8322,833;-6266,000
1005,35;  242,583; 8313,833;-6361,000
1005,91;  244,583; 8515,833;-6558,000
1006,46;  243,583; 8426,833;-6084,000
1007,01;  252,583; 8227,833;-5479,000
1007,56;  289,583; 8599,833;-6440,000
1008,12;  247,583; 8342,833;-6178,000
1008,67;  296,583; 7867,833;-6312,000
1009,22;  230,583; 7509,833;-6481,000
1009,78;  234,583; 7205,833;-6163,000
1010,33;  249,583; 6649,833;-6443,000
1010,88;  268,583; 6413,833;-5618,000
1011,43;  256,583; 5995,833;-6433,000
1011,99;  309,583; 5972,833;-6198,000
1012,54;  259,583; 6320,833;-6387,000
1013,09;  319,583; 6048,833;-6299,000
1013,64;  268,583; 5802,833;-6362,000
1014,19;  302,583; 5823,833;-6442,000
1014,75;  333,583; 5928,833;-6408,000
1015,30;  364,583; 6394,833;-6425,000
1015,85;  354,583; 6370,833;-6367,000
1016,40;  304,583; 6247,833;-5436,000
1016,96;  425,583; 6235,833;-6268,000
1017,51;  403,583; 6150,833;-6351,000
1018,06;  384,583; 6095,833;-6310,000
1018,61;  381,583; 5695,833;-6665,000
1019,16;  342,583; 5609,833;-6697,000
1019,71;  469,583; 5663,833;-6373,000
1020,27;  448,583; 5567,833;-6353,000
1020,82;  428,583; 5375,833;-3700,000
1021,37;  503,583; 5405,833;-4798,000
1021,92;  481,583; 5984,833;-6454,000
1022,47;  537,583; 5965,833;-6548,000
1023,02;  518,583; 5463,833;-6512,000
1023,58;  570,583; 5045,833;-6573,000
1024,13;  556,583; 4730,833;-6258,000
1024,68;  555,583; 4434,833;-6298,000
1025,23;  667,583; 4324,833;-5525,000
1025,78;  649,583; 4613,833;-6475,000
1026,33;  665,583; 4932,833;-5510,000
1026,88;  774,583; 4843,833;-6236,000
1027,43;  776,583; 5167,833;-6276,000
1027,99;  848,583; 5134,833;-6002,000
1028,54;  901,583; 4732,833;-6395,000
1029,09;  949,583; 4106,833;-2478,000
1029,64; 1005,583; 3919,833;-6303,000
1030,19; 1080,583; 4147,833;-3821,000
1030,74; 1204,583; 4243,833;-5134,000
1031,29; 1277,583; 4284,833;-4765,000
1031,84; 1397,583; 4491,833;-6300,000
1032,39; 1573,583; 4563,833;-5403,000
1032,94; 1762,583; 4617,833;-4326,000
1033,49; 1954,583; 4361,833;-5476,000
1034,04; 2001,583; 4236,833;-6312,000
1034,59; 2273,583; 4205,833;-6507,000
1035,14; 2413,583; 4117,833;-6145,000
1035,69; 2639,583; 4318,833;-6224,000
1036,24; 2833,583; 4104,833;-4477,000
1036,80; 3109,583; 3986,833;-5453,000
1037,35; 3205,583; 4138,833;-6347,000
1037,90; 3409,583; 4172,833;-6274,000
1038,45; 3730,583; 4201,833;-6419,000
1039,00; 3849,583; 4340,833;-5490,000
1039,55; 3981,583; 4229,833;-6284,000
1040,10; 4265,583; 3977,833;-5615,000
1040,65; 4551,583; 3916,833;-5576,000
1041,20; 4693,583; 3850,833;-6325,000
1041,75; 5085,583; 4030,833;-4522,000
1042,30; 5433,583; 4164,833;-3585,000
1042,84; 6005,583; 4338,833;-4439,000
1043,39; 6588,583; 4248,833;-6313,000
1043,94; 7145,583; 4175,833;-5342,000
1044,49; 7853,583; 3887,833;-6246,000
1045,04; 8551,583; 3710,833;-5800,000
1045,59; 9271,583; 3809,833;-6299,000
1046,14;10384,583; 3732,833;-6392,000
1046,69;11611,583; 3591,833;-6294,000
1047,24;12935,583; 3623,833;-5510,000
1047,79;14390,583; 3737,833;-6139,000
1048,34;16016,583; 4002,833;-5961,000
1048,89;18116,584; 3948,833;-6259,000
1049,44;20698,584; 3935,833;-5172,000
1049,99;24168,584; 3855,833;-4844,000
1050,54;28847,584; 3876,833;-6249,000
1051,08;37816,582; 3961,833;-6178,000
1051,63;52512,582; 4050,833;-5285,000
1052,18;65148,582; 5051,833;-6127,000
1052,73;65148,582; 7151,833;-6173,000
1053,28;65148,582;10516,833;-6386,000
1053,83;65148,582;15224,833;-6214,000
1054,38;65148,582;19203,834;-6254,000
1054,93;65148,582;21243,834;-6285,000
1055,47;65148,582;23825,834;-5328,000
1056,02;65148,582;26212,834;-5832,000
1056,57;65148,582;27830,834;-6198,000
1057,12;65148,582;30497,834;-6378,000
1057,67;65148,582;33805,832;-6078,000
1058,22;65148,582;36084,832;-6313,000
1058,76;65148,582;38542,832;-6093,000
1059,31;65148,582;44129,832;-3514,000
1059,86;65148,582;48778,832;-6204,000
1060,41;65148,582;49718,832;-6152,000
1060,96;65148,582;51396,832;-6226,000
1061,51;65148,582;53649,832;-5344,000
1062,05;65148,582;54082,832;-6122,000
1062,60;65148,582;50555,832;-6061,000
1063,15;65148,582;45221,832;-6149,000
1063,70;65148,582;41550,832;-6250,000
1064,24;65148,582;43676,832;-6169,000
1064,79;65148,582;45461,832;-6144,000
1065,34;65148,582;43989,832;-6064,000
1065,89;65148,582;41776,832;-6202,000
1066,44;65148,582;37631,832;-6120,000
1066,98;65148,582;32612,834;-6224,000
1067,53;65148,582;30790,834;-5953,000
1068,08;65148,582;30368,834;-4845,000
1068,63;65148,582;27618,834;-6096,000
1069,17;65148,582;24647,834;-5893,000
1069,72;65148,582;22350,834;-5857,000
1070,27;65148,582;20529,834;-6040,000
1070,81;65148,582;20388,834;-5996,000
1071,36;65148,582;20367,834;-3883,000
1071,91;65148,582;18745,834;  966,000
1072,46;65148,582;16791,834;-5058,000
1073,00;65148,582;14646,833;-5239,000
1073,55;65148,582;11404,833;-5935,000
1074,10;65148,582; 7803,833;-5981,000
1074,64;65148,582; 5240,833;-5860,000
1075,19;65148,582; 3535,833;-4958,000
1075,74;65148,582; 2551,833;-6091,000
1076,28;56631,582; 2312,833;-6075,000
1076,83;43556,582; 1951,833;-5286,000
1077,38;34956,582; 1820,833;-5653,000
1077,92;28915,584; 1783,833;-6332,000
1078,47;23894,584; 1629,833;-5507,000
1079,02;20220,584; 1578,833;-5959,000
1079,56;17102,584; 1557,833;-5328,000
1080,11;14494,583; 1304,833;-6094,000
1080,65;12496,583; 1241,833;-5039,000
1081,20;10403,583; 1186,833;-6151,000
1081,75; 8820,583; 1125,833;-6039,000
1082,29; 7357,583; 1128,833; -139,000
1082,84; 6377,583; 1184,833;-2678,000
1083,39; 5836,583; 1294,833;-5061,000
1083,93; 5450,583; 1335,833;-5025,000
1084,48; 4848,583; 1196,833;-5961,000
1085,02; 4465,583; 1082,833;-5783,000
1085,57; 4073,583; 1074,833;-5994,000
1086,11; 3972,583; 1079,833;-5968,000
1086,66; 3707,583;  925,833;-5584,000
1087,21; 3464,583; 1060,833;-5802,000
1087,75; 3339,583;  939,833;-6125,000
1088,30; 3147,583;  815,833;-5040,000
1088,84; 3030,583;  783,833;-5963,000
1089,39; 2788,583;  656,833;-5965,000
1089,93; 2532,583;  664,833;-6100,000
1090,48; 2378,583;  649,833;-4394,000
1091,02; 2172,583;  733,833;-5181,000
1091,57; 2017,583;  629,833;-5479,000
1092,11; 1964,583;  642,833;-4094,000
1092,66; 1844,583;  624,833;-6031,000
1093,20; 1709,583;  580,833;-5180,000
1093,75; 1582,583;  566,833;-4998,000
1094,29; 1597,583;  486,833;-4979,000
1094,84; 1614,583;  525,833;-5890,000
1095,38; 1412,583;  528,833;-5097,000
1095,93; 1487,583;  584,833;-5981,000
1096,47; 1297,583;  615,833;-5612,000
1097,02; 1277,583;  587,833;-4985,000
1097,56; 1251,583;  614,833;-5772,000
1098,11; 1088,583;  552,833;-5774,000
1098,65; 1066,583;  508,833;-5992,000
1099,20;  993,583;  577,833;-5935,000
1099,74;  923,583;  487,833;-6002,000
1100,29;  940,583;  513,833;-4879,000
1100,83;  850,583;  496,833;-5934,000

