
Integration time [ms]:   1,000
Averaging Nr. [scans]: 1
Smoothing Nr. [pixels]: 0
Data measured with spectrometer [name]: 1703254U1
Wave   ;Sample   ;Dark     ;Reference;Scope
[nm]   ;[counts] ;[counts] ;[counts] 

 190,08;  -78,257; -370,119;11982,743
 190,69;  -60,208; -359,404;11603,049
 191,29;  -61,694; -311,651;11479,965
 191,90;  -71,144; -365,508;11440,717
 192,50;  -69,445; -379,511;10355,099
 193,10;  -49,272; -446,299;11244,381
 193,71;  -68,277; -367,888; 9821,736
 194,31;  -62,862; -399,273; 9436,327
 194,91;  -45,862; -382,273; 9291,327
 195,52;  -69,551; -338,386;10555,949
 196,12;  -46,087; -397,056; 8671,847
 196,72;  -65,304; -386,394; 8220,904
 197,32;  -65,277; -375,888; 8251,736
 197,93;  -17,714; -360,420; 8700,957
 198,53;  -64,667; -383,145; 7601,797
 199,13;  -71,462; -397,132; 8091,270
 199,74;  -56,810; -366,410; 7263,813
 200,34;  -52,200; -388,667; 7832,874
 200,94;  -50,758; -436,547; 6941,297
 201,55;  -60,208; -406,404; 7119,049
 202,15;  -63,287; -375,773; 6404,732
 202,75;  -76,591; -373,217; 6097,647
 203,36;  -12,899; -338,664; 6822,492
 203,96; -104,694; -357,943; 6332,678
 204,56;  -49,297; -355,657;10275,729
 205,16;  -23,623; -363,018; 5478,458
 205,77;  -58,151; -360,244; 4767,892
 206,37;  -66,472; -409,017; 5556,267
 206,97;  -70,082; -363,760; 5129,205
 207,58;  -53,625; -364,166; 5927,278
 208,18;  -62,161; -337,129; 5129,889
 208,78;  -34,613; -404,134; 5295,461
 209,38;  -39,262; -469,415; 4958,385
 209,99;   46,844; -356,540; 3837,534
 210,59;  -10,749; -361,662; 3890,301
 211,19;  -12,005; -364,538; 3938,343
 211,79;   32,108; -366,927; 4499,316
 212,40;  -22,284; -373,625; 3368,911
 213,00;    5,422; -388,891; 3903,118
 213,60;  -37,675; -386,882; 2992,972
 214,20;  -32,796; -401,230; 3081,175
 214,81;  -78,682; -422,618; 2884,148
 215,41;  -86,008; -376,979; 3235,877
 216,01;  -57,438; -373,067; 3109,636
 216,61;    0,244; -367,399; 2814,476
 217,22;  -72,978; -381,326; 2358,888
 217,82;  -49,524; -325,173; 2262,495
 218,42;  -64,563; -383,711; 2389,480
 219,02;  -72,129; -288,327; 3432,079
 219,63;  -83,884; -357,483; 2044,854
 220,23;  -69,176; -366,602; 2425,239
 220,83;  -32,371; -395,730; 1901,770
 221,43; -103,633; -393,195; 1850,167
 222,03;  -46,393; -348,940; 2326,296
 222,64;  -67,087; -380,348; 1769,560
 223,24;  -27,803; -298,966; 1625,350
 223,84;  -97,773; -376,313; 2637,361
 224,44;  -57,057; -316,695; 2381,571
 225,05;  -18,447; -313,952; 1440,632
 225,65;  -51,287; -301,065; 1227,445
 226,25;  -71,351; -364,961; 1139,777
 226,85;  -64,472; -294,309;  995,979
 227,45;  -39,112; -335,706; 1083,907
 228,06;  -45,307; -365,834; 1945,438
 228,66;  -88,776; -349,460; 4049,182
 229,26;  -33,667; -313,438; 1131,510
 229,86;  -68,484; -396,342; 1760,797
 230,46;  -59,482; -358,194;  891,976
 231,06;  -67,270; -320,444;  757,273
 231,67;  -84,522; -346,732; 1228,961
 232,27; -117,090; -343,789;  778,094
 232,87;  -73,897; -308,808;  526,384
 233,47; -123,169; -321,158;  525,777
 234,07;  -44,186; -268,486; 9912,235
 234,67; -100,467; -291,013;  672,338
 235,28;  -98,169; -319,158;   65,777
 235,88; -112,971; -316,882;  285,426
 236,48;  -66,102; -350,821;  165,911
 237,08;  -64,648; -267,669;  448,518
 237,68; -133,094; -369,378; -267,552
 238,28;  -39,734; -304,774; -106,624
 238,89; -115,077; -212,756; -205,723
 239,49;  -72,371; -282,023; 1280,483
 240,09; -101,075; -284,608; -190,544
 240,69; -114,643; -251,373; -319,124
 241,29;  -96,690; -289,647;  651,036
 241,89; -124,114; -330,147; -260,559
 242,49;  -55,783; -248,490; -358,930
 243,10;  -62,386; -201,496; 3664,834
 243,70; -104,783; -284,490;  239,070
 244,30;  -75,838; -275,501; -708,594
 244,90;  -78,665; -188,582; -568,598
 245,50;  -97,986; -177,355; 3274,777
 246,10;  -76,635; -307,636; -831,300
 246,70; -119,112; -300,999;   17,620
 247,30;  -58,087; -251,641;  326,273
 247,91;  -91,038; -208,218; 5781,292
 248,51; -115,941; -270,228; -806,563
 249,11;  -68,043; -239,514;  417,933
 249,71;  -61,015; -303,008; -667,235
 250,31;  -46,181; -265,483; -567,693
 250,91;  -67,687; -238,500;   75,216
 251,51;  -55,640; -199,225; -822,945
 252,11;  -52,645; -239,813;  367,410
 252,71;  -39,403; -269,117;-1080,994
 253,31;  -47,383; -222,348; 3228,013
 253,91;  -67,213; -236,578; -676,170
 254,52;  -50,781; -237,342;-1063,750
 255,12;  -47,181; -293,483;-1104,693
 255,72;    0,960; -206,366;  557,112
 256,32;  -83,132; -242,061; -966,674
 256,92;  -58,035; -190,070;-1147,529
 257,52;  -16,853; -173,974; -883,243
 258,12;  -33,541; -201,087;  -91,621
 258,72;  -47,344; -210,810;-1232,972
 259,32;   -8,179; -211,335;-1169,514
 259,92;  -10,727; -199,330;-1343,086
 260,52;  -10,702; -192,973;-1077,433
 261,12;  -19,981; -202,059; -662,865
 261,72;  -48,319; -238,452;-1312,319
 262,32;   -9,322; -215,600;-1561,498
 262,92;  -68,909; -238,426;  405,627
 263,53;  -35,655; -189,698;-1277,594
 264,13;  -66,388; -262,937; -268,632
 264,73;  -23,532; -217,202;-1694,617
 265,33;  -42,522; -188,317;-1708,613
 265,93;   -6,317; -147,304;-1345,140
 266,53;  -11,776; -161,046;-1544,392
 267,13;  -57,766; -139,161; -857,388
 267,73;  -59,465; -185,158;  270,230
 268,33; -103,455; -166,274;-1788,766
 268,93;  -55,559; -213,708;-1702,449
 269,53;  -63,095; -204,670; -644,839
 270,13;  -39,139; -201,797;-1810,499
 270,73;  -42,660; -245,287;-1891,239
 271,33;  -38,848; -200,678;-1778,884
 271,93;  -35,732; -242,919;-1867,732
 272,53;   20,379; -121,748;    8,776
 273,13;  -33,697; -146,677;-1117,075
 273,73;  -56,072; -119,753;-1955,652
 274,33;  -21,060; -148,428;-2041,182
 274,93;  -63,161; -188,007;-1843,972
 275,53;    0,379;  -68,748;-1881,224
 276,13;  -82,245; -121,965;-2261,935
 276,73;  -58,885; -118,361;-1570,007
 277,33;  -34,092; -179,522;-1926,659
 277,93;    2,002; -213,680;-1864,693
 278,53;   -1,393; -194,526;-2112,278
 279,13;  -59,586; -125,506;-2152,568
 279,73;  -27,833; -140,498;-1388,522
 280,33;   -8,374; -154,756;-2179,270
 280,93;   44,044; -105,994;-2049,499
 281,53;  -44,295; -147,387;-2252,953
 282,13;  -51,035; -127,363;-2193,816
 282,73;  -52,665; -156,875; -385,885
 283,33;  -12,364; -137,872;-2307,266
 283,92;   14,125;  -74,477;-2028,003
 284,52;   25,053;  -94,109;-2365,496
 285,12;    0,757; -138,524;-1425,469
 285,72;  -21,774; -126,898;-1041,213
 286,32;   53,424;  -55,622;-1313,564
 286,92;    5,058; -163,521;-2376,850
 287,52;   57,209;  -89,519;-2170,041
 288,12;  102,024;  -97,763;-2542,507
 288,72;   39,994; -106,417;-1625,518
 289,32;   34,727;  -54,470; 1692,233
 289,92;   70,846; -106,270;-2344,148
 290,52;   -8,490;  -91,809;-2485,710
 291,12;   89,893;  -57,996;-1570,308
 291,72;   72,125;  -74,477;-1590,003
 292,32;  163,644;  -83,135;-2372,442
 292,92;  162,434;   -2,737;-2481,560
 293,51;  155,560;  -37,093;-2532,404
 294,11;  252,999;  -42,121;-1681,160
 294,71;  347,071;   -7,488;-2695,667
 295,31;  290,831;  -24,743;-1755,797
 295,91;  448,804;   46,751;-2713,629
 296,51;  484,772;   62,656;-1776,106
 297,11;  468,164;   35,061;-2900,988
 297,71;  515,937;    4,131;-2726,648
 298,31;  726,846;   38,730;-2329,148
 298,91;  642,256;   74,756;-2483,202
 299,50;  664,930;   41,395;-2689,473
 300,10;  912,752;  145,887;-2706,114
 300,70;  777,577;   95,528;-2492,576
 301,30;  787,530;   89,253;-2855,415
 301,90; 1014,078;   96,248;-2004,843
 302,50;  860,266;  163,640;-2515,198
 303,10;  725,486;  124,126;-2530,076
 303,70;  755,073;  208,660;-3000,488
 304,29;  776,614;  189,918;-2658,740
 304,89;  766,757;  266,183;-1090,755
 305,49;  952,915;  163,922;-2773,122
 306,09; 1012,088;  214,133;-2874,839
 306,69;  904,448;  262,736;-2915,911
 307,29;  973,644;  312,865;-2008,442
 307,89;  944,135;  303,408;-3029,000
 308,48;  886,913;  341,774;-2453,301
 309,08;  899,263;  369,492;-2743,377
 309,68; 1139,248;  377,019;-3094,026
 310,28; 1003,226;  371,102;-2576,213
 310,88;  787,614;  321,211;-2936,453
 311,48;  876,016;  447,500;-2875,331
 312,07;  884,370;  408,367;-2963,228
 312,67; 1023,740;  497,855;-2128,297
 313,27; 1001,197;  494,448;-1105,224
 313,87; 1109,466;  583,357;-2164,083
 314,47; 1195,224;  516,954;-3030,392
 315,06; 1589,807;  620,191; 2713,837
 315,66; 1651,387;  579,988;-3245,400
 316,26; 1666,718;  632,938;-1844,483
 316,86; 1709,579;  777,969;-3140,110
 317,46; 2037,797;  720,307;-2115,167
 318,06; 2130,824;  739,813; -825,335
 318,65; 2359,770;  781,801;-2807,999
 319,25; 2826,468;  821,798;-3195,617
 319,85; 2714,671;  932,663;-2908,323
 320,45; 3276,538;  986,283;-3213,304
 321,05; 4362,483;  901,271;-2761,968
 321,64; 4624,175;  889,531;-3219,411
 322,24; 4710,639; 1056,861;-3265,513
 322,84; 4020,612; 1080,356;-3261,345
 323,44; 2844,365; 1133,364;-3219,300
 324,03; 2633,957; 1194,486;-3072,067
 324,63; 2674,794; 1250,452;-2310,059
 325,23; 2521,111; 1241,928;-3097,792
 325,83; 2310,992; 1367,021;-2876,123
 326,42; 2359,202; 1442,622;-3285,005
 327,02; 2310,575; 1476,551;-3076,607
 327,62; 2397,101; 1439,629;-2505,221
 328,22; 2743,550; 1553,486;-3234,973
 328,82; 2858,091; 1577,037;-2229,938
 329,41; 2485,625; 1658,852;-3016,728
 330,01; 2910,136; 1652,750;-2961,704
 330,61; 3093,944; 1806,062;-2928,707
 331,20; 2581,936; 1778,325;-2868,531
 331,80; 2466,850; 1762,512;-2794,386
 332,40; 2569,005; 1752,102;-2896,932
 333,00; 2517,751; 1933,667;-2790,423
 333,59; 2478,687; 1748,771;-2855,091
 334,19; 2567,277; 1920,745;-1771,037
 334,79; 2525,931; 1712,615;-2861,316
 335,39; 2485,689; 1729,919;-2978,912
 335,98; 2479,119; 1726,714;-3126,958
 336,58; 2656,993; 1659,777;-3191,401
 337,18; 2735,144; 1720,779;-2958,592
 337,77; 2554,566; 1782,837;-2098,463
 338,37; 2633,099; 1806,359;-2021,540
 338,97; 2725,358; 1907,384;-2912,402
 339,57; 2968,104; 1862,948;-3044,894
 340,16; 3557,022; 1836,431;-2881,390
 340,76; 3675,672; 1962,712;-3053,314
 341,36; 3358,543; 1861,920;-3195,650
 341,95; 3837,247; 1934,506;-3027,623
 342,55; 3971,070; 1918,998;  703,736
 343,15; 3774,825; 2048,155;-3094,039
 343,74; 4697,346; 1924,644;-2382,298
 344,34; 4599,514; 1860,267;-3015,661
 344,94; 3411,507; 2068,530;-3069,485
 345,53; 3148,240; 2110,769;-2860,447
 346,13; 3266,010; 2174,398;-1283,573
 346,73; 3778,235; 1966,473;-2254,805
 347,32; 3810,798; 2268,649;-3080,871
 347,92; 3617,280; 2312,600;-2277,145
 348,52; 3593,904; 2270,523;-1878,722
 349,11; 3711,465; 2336,551;  975,034
 349,71; 3371,702; 2330,658;-3240,016
 350,31; 3033,956; 2441,387;-2672,237
 350,90; 3162,818; 2483,418;-2326,863
 351,50; 3800,218; 2390,852;-2105,634
 352,10; 4587,512; 2471,119;-3114,840
 352,69; 5199,116; 2532,273;-3182,424
 353,29; 5260,479; 2563,024;-3191,317
 353,89; 5473,206; 2645,527;-3255,104
 354,48; 5120,512; 2693,119;-3208,840
 355,08; 6129,413; 2871,980;-1117,164
 355,67; 6828,136; 2850,042;-2951,417
 356,27; 8391,415; 2839,128;-3232,985
 356,87; 9250,472; 3010,288;-3383,142
 357,46; 9410,022; 3049,431;-2351,390
 358,06;10854,773; 3306,291;-3073,523
 358,66; 8850,097; 3337,504;-3109,432
 359,25; 5829,349; 3260,792;-2344,119
 359,85; 6392,455; 3365,667;-3215,970
 360,44; 8252,575; 3389,015;-3292,172
 361,04; 8319,825; 3567,155;-2367,039
 361,64; 8207,825; 3696,155;-2309,039
 362,23; 7847,302; 3772,517;-2932,958
 362,83; 7404,894; 3755,639;-2990,726
 363,42; 7149,240; 3938,769;-2836,447
 364,02; 6888,383; 3910,034;-2973,462
 364,62; 7212,010; 3816,398;-2486,573
 365,21; 5781,050; 3857,937;-1741,558
 365,81; 4215,758; 3935,818;-2792,173
 366,40; 4099,943; 3970,062;-2080,707
 367,00; 4492,314; 4021,550;-2952,776
 367,59; 5272,963; 4071,831;-2979,699
 368,19; 5987,509; 4221,678;-3237,306
 368,79; 5730,425; 4198,720;-3125,268
 369,38; 5022,042; 4107,200;-2250,383
 369,98; 5586,351; 4101,940;-2935,940
 370,57; 6153,929; 4188,588;-3331,356
 371,17; 5902,674; 4164,860;-3326,135
 371,76; 6729,144; 4277,486;-3442,879
 372,36; 7593,833; 4057,598;-3195,501
 372,95; 9575,304; 4115,372;  667,934
 373,55;10476,773; 4105,998;-3393,811
 374,14;10533,407; 4300,099;-3405,097
 374,74;10091,704; 4256,514;-3224,124
 375,34; 8734,966; 4286,979;-3189,521
 375,93; 8771,541; 4295,479;-2706,116
 376,53; 7668,627; 4344,585;-3575,974
 377,12; 5059,756; 4405,670;-1465,352
 377,72; 3970,329; 4480,730;-3410,414
 378,31; 4372,781; 4511,027;-2274,699
 378,91; 4755,872; 4291,429;-3262,199
 379,50; 5672,543; 4588,213;-3331,363
 380,10; 5522,749; 4327,226;-3398,890
 380,69; 5603,237; 4094,621;-2343,626
 381,29; 7702,077; 4586,735;-2550,439
 381,88;10183,186; 4518,758;-1605,111
 382,48; 9879,324; 4519,727;-3286,485
 383,07; 8295,245; 4495,358;-3457,802
 383,67; 7985,186; 4635,758;-1847,111
 384,26; 7284,892; 4667,491;-2467,905
 384,86; 5615,917; 4921,849;-3182,252
 385,45; 5554,593; 4932,636;-3325,344
 386,05; 5567,033; 5073,608;-3419,100
 386,64; 4558,655; 4911,384;-3524,855
 387,24; 4915,627; 5016,878;-2585,688
 387,83; 5099,850; 4993,512;-2489,386
 388,42; 5464,190; 5182,346;-2109,466
 389,02; 5171,282; 5423,748;-3235,966
 389,61; 4949,534; 5688,036;-3413,653
 390,21; 4665,627; 5729,878;-3463,688
 390,80; 3701,408; 5816,392;-3208,810
 391,40; 3838,585; 6137,899;-2293,168
 391,99; 4467,704; 5981,099;-3195,550
 392,59; 4912,158; 6435,252;-2416,943
 393,18; 4580,010; 6683,398;-2491,573
 393,77; 3593,892; 6883,198;-3238,192
 394,37; 3729,551; 7145,657;-2198,825
 394,96; 4201,462; 7098,403;-2296,146
 395,56; 4084,929; 7264,588;-2834,356
 396,15; 4988,800; 6867,797;-3125,692
 396,75; 5587,578; 7343,163;-2889,993
 397,34; 4132,351; 7669,940;-2620,940
 397,93; 3187,988; 7720,188;-3358,047
 398,53; 3054,062; 7595,262;-2525,088
 399,12; 3428,425; 8192,013;-2154,981
 399,72; 3971,511; 8013,119;-2274,840
 400,31; 4177,991; 8034,629;-3169,581
 400,91; 3707,274; 8446,012;-2959,791
 401,50; 3212,892; 8820,198;-2330,192
 402,09; 3194,087; 8550,327;-2894,722
 402,69; 3326,837; 8691,187;-3072,856
 403,28; 3467,153; 9052,663;-2983,588
 403,88; 6150,218; 9162,560; 1927,079
 404,47; 7639,963; 9689,831;  884,300
 405,06; 4764,331; 9684,171;  -68,947
 405,66; 5755,820; 9753,565;-2875,684
 406,25; 7972,425;10085,720;-3119,268
 406,84; 7931,934;10446,177;-2892,711
 407,44; 5945,524;10847,858;-2219,944
 408,03; 3888,314;10422,257;-2906,063
 408,63; 3402,052;10373,085;-3011,379
 409,22; 3302,477;10191,584;-1945,783
 409,81; 3393,526;10681,007;-1849,765
 410,41; 3695,450;11553,078;-2857,615
 411,00; 3954,400;11336,362;-1814,921
 411,59; 4551,366;11251,120;-2826,578
 412,19; 4572,195;11468,350;-2245,394
 412,78; 5343,452;11399,226;-2830,436
 413,37; 5582,331;12151,878;-2704,234
 413,97; 5991,553;12410,512;-2618,933
 414,56; 5625,951;12071,506;-2503,169
 415,15; 4916,262;12410,394;-2121,547
 415,75; 4402,598;12408,639;-2698,272
 416,34; 3802,012;12590,254;-1893,681
 416,93; 4168,292;12922,047;-2777,536
 417,53; 4735,884;12696,169;-1423,303
 418,12; 5554,450;12570,785;-2217,903
 418,71; 5724,934;12907,592;-2673,285
 419,31; 6702,869;13054,695;-1884,952
 419,90; 6932,435;13470,313;-2786,552
 420,49; 4999,079;13619,298;-1733,834
 421,08; 4100,079;14201,298;-1674,834
 421,68; 4726,822;14723,421;-1908,792
 422,27; 5616,817;14035,832;-2004,437
 422,86; 6006,701;13874,073; -437,590
 423,46; 5497,864;14080,107;-2575,598
 424,05; 4983,096;14376,626;-2928,293
 424,64; 5767,259;13888,953;-2640,014
 425,24; 5932,960;14092,098;-2903,453
 425,83; 5760,072;13992,269;-2680,945
 426,42; 6583,096;12987,626;-2760,293
 427,01; 6667,484;13424,734;-2674,533
 427,61; 4841,583;14347,873;-2609,209
 428,20; 3570,931;14036,151;-1764,751
 428,79; 3683,447;14414,052;-2859,656
 429,38; 4346,459;14092,377;-1781,186
 429,98; 5446,161;14922,521; -994,625
 430,57; 6316,583;15058,873;-2193,209
 431,16; 5036,514;14580,389;-2784,522
 431,75; 4916,896;14357,909; -561,407
 432,35; 6220,993;13435,899;-1951,262
 432,94; 4679,094;14429,186;-2324,759
 433,53; 3443,309;14560,375;-1152,995
 434,12; 3254,783;14431,298;-2267,381
 434,72; 3313,946;14188,331;-1413,389
 435,31; 3087,874;14167,699; 7395,119
 435,90; 2797,114;14308,954; 8338,249
 436,49; 2867,671;13427,834; -683,175
 437,08; 3023,812;13895,951; -675,370
 437,68; 5239,069;14442,827;-2987,412
 438,27; 6417,914;14610,237;-2610,866
 438,86; 3733,521;14612,832;-1147,984
 439,45; 3033,301;15313,346;-1937,106
 440,05; 4642,896;15955,616;-2982,694
 440,64; 4644,491;15054,886;-1902,282
 441,23; 3743,165;14152,525;-1415,553
 441,82; 2991,106;13700,218;-2631,576
 442,41; 2337,679;14351,277;-3014,637
 443,00; 2208,106;13625,925;-2724,863
 443,60; 2263,039;14373,881;-3136,710
 444,19; 2427,671;15026,541;-1440,462
 444,78; 2262,634;14960,151;-3012,298
 445,37; 2214,486;15728,297;-2522,928
 445,96; 2470,968;15331,249;-3116,202
 446,56; 2496,069;15596,535;-1144,698
 447,15; 2319,619;16225,678; -884,947
 447,74; 2207,476;17097,412;-2709,931
 448,33; 2123,506;16443,066;-1985,920
 448,92; 2024,037;15422,440;-2964,176
 449,51; 1852,869;15095,817;-2848,813
 450,10; 1629,560;15133,078;-3063,256
 450,70; 1664,461;14904,939;-1957,581
 451,29; 1712,550;15329,193;-1112,260
 451,88; 1836,017;15513,671;-2929,183
 452,47; 2252,452;16565,055;-2795,584
 453,06; 1991,459;16495,498;-2401,047
 453,65; 1643,140;16071,874;-2873,493
 454,24; 1655,521;17329,246;-2173,558
 454,84; 1689,056;17793,209;-1379,168
 455,43; 1564,158;18732,496;-2219,665
 456,02; 1535,802;18879,480;-2927,947
 456,61; 1521,693;17317,459;-2925,275
 457,20; 1548,661;16921,363;-2786,753
 457,79; 1730,530;17588,131;-2922,554
 458,38; 1668,027;18338,264;-2132,467
 458,97; 1732,859;18039,641;-2515,104
 459,56; 1729,501;18190,479;-2760,565
 460,16; 1707,575;17832,258;-2082,894
 460,75; 1650,116;18157,518;-2072,146
 461,34; 1633,345;18077,887;-2962,020
 461,93; 1627,501;18381,186;-2200,853
 462,52; 1699,232;19333,275;-2744,993
 463,11; 1803,227;20546,688;-1989,639
 463,70; 1951,009;19458,643;-2869,295
 464,29; 2024,715;19945,082;-3150,376
 464,88; 2064,518;20795,807;-2743,024
 465,47; 1842,135;19885,285;-2748,139
 466,06; 1821,636;20915,713;-3191,692
 466,65; 1962,236;21667,572;-3018,635
 467,24; 2030,434;22030,848;-2539,986
 467,84; 1890,543;22443,164;-2020,371
 468,43; 1858,703;22325,051;-2238,559
 469,02; 1908,145;23517,170;-2702,135
 469,61; 1916,713;24168,936;-2593,555
 470,20; 2047,908;23781,063;-2841,085
 470,79; 1967,372;22760,100;-3232,475
 471,38; 1756,849;25266,463;-2192,395
 471,97; 1685,444;26009,732; -666,983
 472,56; 1736,898;25472,887;-3035,376
 473,15; 1803,328;25296,975;-2825,135
 473,74; 1811,886;26395,854;-3106,559
 474,33; 1795,283;25866,848;-2957,796
 474,92; 1795,859;27630,348;-3146,391
 475,51; 1619,888;29609,002;-2873,380
 476,10; 1689,533;29847,986;-3011,662
 476,69; 1716,182;26101,268;-2855,586
 477,28; 1651,520;25846,955;-2956,845
 477,87; 1586,330;27035,121; -173,956
 478,46; 1708,412;28695,639;-3029,460
 479,05; 1688,222;30507,100;-2134,284
 479,64; 1661,552;31679,756;-2718,655
 480,23; 1621,915;29541,508;-2845,548
 480,82; 1595,436;28549,996;-2736,807
 481,41; 1638,217;29371,510;-1873,929
 482,00; 1603,747;29284,885;-1364,185
 482,59; 1634,587;29593,998;-2298,998
 483,18; 1669,923;31702,244;-2376,723
 483,77; 1667,836;31703,139;-2193,865
 484,36; 1704,888;32475,002;-1701,380
 484,95; 1815,582;32990,410; -788,643
 485,54; 2033,750;35331,031;-1371,006
 486,13; 2325,286;35762,996; -945,616
 486,72; 2852,686;34334,137;  148,326
 487,31; 3049,839;31046,285;-1109,686
 487,89; 2442,809;32608,633; -193,697
 488,48; 3295,095;33798,164;-1523,728
 489,07; 3874,868;32913,941;-1248,674
 489,66; 2748,014;33511,645;-1505,224
 490,25; 2216,044;31095,299; -660,212
 490,84; 2284,419;34127,375;-1683,635
 491,43; 3961,906;34965,621; -701,552
 492,02; 4769,617;36094,652;-1864,987
 492,61; 3029,254;35362,902;-1043,094
 493,20; 2241,239;33776,426;-2019,743
 493,79; 2258,841;32749,434; 4824,494
 494,38; 2126,804;33706,043;-1938,342
 494,97; 3357,266;32583,934; -629,911
 495,55; 4971,098;34690,309;-2325,548
 496,14; 3868,024;35087,531;-2403,220
 496,73; 2365,488;35451,566;-1952,609
 497,32; 2248,940;34211,570;-2587,182
 497,91; 2507,621;35005,949;-1921,629
 498,50; 2618,108;34165,195;-2912,544
 499,09; 2387,940;34554,570;-3088,182
 499,68; 2557,214;32403,070;-2405,396
 500,27; 3245,952;33321,605;-2490,999
 500,85; 3219,313;32655,207;-2604,071
 501,44; 2878,960;32478,342;-2576,175
 502,03; 2659,950;33194,457;-3368,178
 502,62; 2315,063;31275,068;-3438,205
 503,21; 2145,039;29432,711;-3532,858
 503,80; 2118,925;32028,100;-2976,831
 504,39; 2170,732;32451,119;-3458,121
 504,97; 2116,784;31774,982;-3577,636
 505,56; 2009,597;31537,590;-2979,281
 506,15; 2097,508;32302,336;-3991,602
 506,74; 2239,157;32557,617;-2945,526
 507,33; 2201,715;32185,498;-3165,949
 507,92; 2129,041;33952,859;-3871,678
 508,51; 2018,031;35926,973;-3735,682
 509,09; 2056,362;34536,629;-3921,053
 509,68; 2103,770;34318,508;-3748,286
 510,27; 2094,436;33667,410;-3799,381
 510,86; 2219,584;32572,264;-4081,751
 511,45; 2001,920;33677,512;-3843,476
 512,03; 2357,890;34524,855;-3829,488
 512,62; 2592,977;36240,961;-3780,346
 513,21; 2818,419;33870,789;-3186,209
 513,80; 3088,693;34644,289;-3501,423
 514,39; 2898,389;32752,137;-3905,221
 514,97; 2518,666;35347,781;-4095,255
 515,56; 2670,686;34167,551;-4198,248
 516,15; 3675,315;35428,063;-3955,179
 516,74; 3797,554;32584,318;-4420,049
 517,33; 2859,483;33459,688;-3549,542
 517,91; 2443,792;33935,426;-4188,099
 518,50; 2813,779;32563,393;-3264,282
 519,09; 3270,698;33942,875;-3157,778
 519,68; 2992,029;35231,531;-4286,148
 520,26; 2550,234;38679,547;-4232,675
 520,85; 2573,224;39452,660;-4352,679
 521,44; 2529,671;40826,078;-4358,897
 522,03; 3109,631;39485,539;-4271,912
 522,61; 3804,671;36773,078;-4364,897
 523,20; 3621,725;33924,090;-4337,233
 523,79; 2886,300;32040,590;-4337,828
 524,38; 2527,510;32850,191;-4344,709
 524,96; 2262,113;35883,199;-4321,473
 525,55; 2312,900;36021,449;-4542,771
 526,14; 3037,947;34018,723;-4434,931
 526,73; 3718,369;32852,074;-4389,515
 527,31; 2978,006;32903,324;-4488,622
 527,90; 2486,900;33630,449;-4564,771
 528,49; 2184,271;34155,938;-2529,839
 529,08; 1855,964;34601,344;-3467,103
 529,66; 1846,599;34848,445;-3911,389
 530,25; 1784,335;35279,832;-4414,172
 530,84; 1708,266;35334,348;-4583,485
 531,42; 1895,382;38583,105;-4365,332
 532,01; 2493,913;37528,480;-4291,588
 532,60; 2785,888;34512,125;-4473,241
 533,18; 2098,574;35538,086;-4078,042
 533,77; 1833,638;34969,984;-4236,374
 534,36; 1769,708;34459,469;-4374,061
 534,95; 1716,461;35483,477;-4088,015
 535,53; 1876,875;34236,090; -974,424
 536,12; 2318,885;36469,977;-2657,420
 536,71; 2735,974;36511,230;-3869,099
 537,29; 2395,162;36073,621;-3618,454
 537,88; 2296,671;33908,078;-3454,897
 538,47; 2102,498;32497,867;-2840,180
 539,05; 2263,727;36837,238;-2139,054
 539,64; 2578,510;40414,898;-1785,997
 540,22; 2801,216;37414,633; -764,790
 540,81; 2620,712;37501,766; 1008,297
 541,40; 2244,915;39018,629; 3425,591
 541,98; 2104,275;38188,230; 4858,519
 542,57; 2222,885;39368,977; 4597,580
 543,16; 2011,409;38645,613; 4952,500
 543,74; 1740,762;35774,480; 4083,603
 544,33; 1879,154;36297,883; 3620,721
 544,92; 1983,456;37217,887; 3973,339
 545,50; 1893,515;37338,488;11456,648
 546,09; 1667,831;40064,965;11359,916
 546,67; 1606,098;41948,727; 2857,878
 547,26; 1537,026;40050,094; -202,615
 547,85; 1545,591;39208,414; -567,501
 548,43; 1474,463;38452,625; -849,836
 549,02; 1417,480;39427,246;-1040,008
 549,60; 1436,720;40570,500; -984,878
 550,19; 1511,843;41166,996;-2192,901
 550,78; 1325,401;42660,875;-2328,325
 551,36; 1323,147;45349,148;-2432,104
 551,95; 1263,895;45443,859; -585,416
 552,53; 1204,987;43280,262; -296,916
 553,12; 1259,609;41420,035;-3431,672
 553,70; 1188,937;43188,547;-2878,222
 554,29; 1151,048;44058,008;-2869,428
 554,88; 1203,530;41831,668;-4247,989
 555,46; 1282,856;43723,027;-3881,718
 556,05; 1318,001;45007,734;-4207,268
 556,63; 1588,438;45206,266;-3396,489
 557,22; 1665,683;43875,109;-3394,714
 557,80; 1653,411;41749,762;-3568,321
 558,39; 1741,782;44188,250;-4145,390
 558,97; 1495,305;47993,887;-3699,470
 559,56; 1329,093;49889,137;-4544,768
 560,15; 1274,757;50117,891;-3611,042
 560,73; 1366,750;49814,152;-4287,867
 561,32; 1870,258;47024,609;-3741,309
 561,90; 1596,564;46041,910;-4382,333
 562,49; 1387,525;48487,371;-3786,348
 563,07; 1258,730;48074,387;-4783,875
 563,66; 1215,942;50064,133;-4352,577
 564,24; 1152,695;49228,145;-4763,531
 564,83; 1161,228;51344,664;-4603,607
 565,41; 1261,675;53840,375;-4329,539
 566,00; 1255,653;52202,164;-2755,012
 566,58; 1240,826;56465,375;-3725,729
 567,17; 1135,322;56909,508;-4280,642
 567,75; 1059,799;52392,871;-4653,562
 568,34; 1128,315;55893,770;-3216,466
 568,92; 1060,273;55738,793;-3987,947
 569,51; 1141,058;54852,895; 2680,576
 570,09; 1171,332;58247,391;-4676,638
 570,68; 1152,656;53188,313;-4788,833
 571,26; 1039,330;50733,242;-3886,817
 571,85; 1045,303;57347,738;-4822,649
 572,43; 1050,127;57011,379;-4704,111
 573,01;  908,977;52662,375;-4873,920
 573,60; 1024,349;53819,012;-3785,810
 574,18; 1021,987;55122,262;-4514,917
 574,77; 1022,342;53284,277;-4737,634
 575,35; 1041,349;56113,012;-4452,810
 575,94; 1105,164;57300,770;-4076,275
 576,52; 1052,589;54049,270;-2249,680
 577,11;  984,149;51620,297;-3244,924
 577,69;  973,690;48685,555;-3183,176
 578,27; 1081,843;51008,996;-3447,901
 578,86;  990,786;55198,543;-2994,031
 579,44; 1076,596;60080,004;-2805,855
 580,03; 1091,243;60164,137;-2493,958
 580,61; 1097,890;60267,270;-3206,062
 581,19; 1059,174;56429,652;-2538,271
 581,78; 1029,080;55361,813;-2364,238
 582,36; 1086,006;57656,031;-2911,909
 582,95; 1047,256;56180,172;-1497,776
 583,53; 1071,184;59586,539;-2319,268
 584,11; 1139,004;61608,883;-2241,088
 584,70; 1096,777;61691,660;-1948,035
 585,28; 1148,085;62070,398;-1853,592
 585,87; 1070,221;60436,930;-2889,432
 586,45; 1020,786;63023,543;-2375,031
 587,03; 1119,796;64945,430;-1150,027
 587,62; 1105,969;61494,641;-1834,745
 588,20; 1160,246;62236,285;-1020,779
 588,78; 1207,791;58157,840;-3411,673
 589,37; 1204,589;57765,270;-3360,680
 589,95; 1176,466;62238,773;-3385,657
 590,54; 1148,335;63633,539;-3461,459
 591,12; 1251,601;62116,301;-3508,497
 591,70; 1157,972;59586,789;-3331,565
 592,29; 1213,327;62881,805;-2923,283
 592,87; 1194,675;63542,375;-2394,538
 593,45; 1140,177;63404,801; 1487,908
 594,04; 1143,912;62800,188;-3676,875
 594,62; 1096,564;59709,910;-3708,333
 595,20; 1046,586;62066,828;-4371,146
 595,79; 1115,095;62681,285;-4165,588
 596,37; 1017,690;61108,555;-3657,176
 596,95; 1067,804;56922,164;-4321,203
 597,53; 1029,315;58806,770;-4226,466
 598,12; 1077,619;61848,922;-3959,669
 598,70; 1051,732;64932,531;-3776,695
 599,28; 1019,675;64911,375;-3404,538
 599,87; 1142,068;64929,777;-3061,420
 600,45; 1217,848;64938,293;-3907,543
 601,03; 1118,369;63145,781;-4100,802
 601,62; 1189,912;61727,188;-4468,875
 602,20; 1216,290;59786,414;-4541,119
 602,78; 1109,772;64399,070;-4770,680
 603,36; 1006,752;64783,301;-3166,688
 603,95; 1138,342;58863,277;-4492,634
 604,53; 1017,794;62401,281;-4574,207
 605,11; 1071,685;59505,258;-2755,535
 605,69;  999,051;62362,156;-3365,249
 606,28; 1037,327;62594,805;-4223,283
 606,86; 1047,194;61629,422;-3946,264
 607,44;  896,937;60431,547;-3906,222
 608,02;  831,478;58047,805;-4037,474
 608,61;  889,530;60099,668;-2866,989
 609,19;  861,893;58582,418;-2582,882
 609,77;  986,043;57398,422; -710,073
 610,35;  937,821;55748,785; 5794,625
 610,94;  829,920;56509,926;14509,949
 611,52;  833,530;55803,668;12610,011
 612,10;  771,932;53026,957; 8432,133
 612,68;  761,028;56637,949; 2694,278
 613,26;  909,540;57037,551; 2032,015
 613,85;  897,070;61759,926; -599,241
 614,43;  724,167;62306,918;-1030,096
 615,01;  696,967;62272,199;-1215,211
 615,59;  750,312;64874,328; -972,932
 616,17;  815,873;59402,648;-2561,890
 616,76;  850,305;62178,887;-2993,470
 617,34;  878,241;62666,988;-2389,138
 617,92;  751,315;58547,770;-3399,466
 618,50;  805,174;61202,652;-2562,271
 619,08;  882,157;57928,031;-2514,100
 619,67;  739,653;55968,164;-3196,012
 620,25;  752,969;54290,641;-2743,745
 620,83;  730,848;50498,293;-3495,543
 621,41;  818,875;52314,797;-2800,711
 621,99;  707,831;54560,672;-2529,371
 622,57;  826,394;55529,141;-3707,149
 623,15;  751,730;56213,387;-3783,875
 623,74;  798,206;58266,746;-3892,794
 624,32;  786,959;59330,754;-2827,749
 624,90;  764,661;58625,898;-2311,188
 625,48;  740,211;57897,043;-3132,436
 626,06;  752,332;56898,391;-4006,638
 626,64;  656,596;57787,004;-4162,855
 627,22;  574,103;58993,020;-3409,764
 627,81;  553,285;58046,117;-4334,478
 628,39;  601,846;57121,145;-4560,722
 628,97;  599,999;56597,293;-4437,733
 629,55;  648,357;55377,750;-4219,985
 630,13;  657,890;55669,270;-2959,062
 630,71;  601,907;54162,891;-2747,233
 631,29;  598,342;53129,277;-3824,634
 631,87;  603,172;52776,504;-4223,451
 632,45;  528,873;52786,648;-4716,890
 633,03;  649,569;54183,500;-4191,688
 633,62;  641,794;55423,281;-4714,207
 634,20;  571,406;54882,172;-4089,966
 634,78;  609,145;56497,000;-4430,283
 635,36;  595,572;56701,648;-4449,508
 635,94;  636,579;55183,383;-5398,684
 636,52;  671,270;51027,645;-5422,126
 637,10;  590,804;52116,164;-5488,203
 637,68;  612,280;50694,527;-4702,123
 638,26;  601,508;47618,750;-5536,176
 638,84;  619,962;48688,902;-5421,569
 639,42;  643,804;49235,164;-3756,203
 640,00;  755,843;51366,148;-5405,726
 640,58;  729,628;54579,402;-4806,027
 641,16;  680,413;55521,656;-5571,328
 641,74;  639,198;53214,906;-5433,630
 642,32;  597,983;50106,160;-5620,931
 642,90;  633,768;50434,414;-5856,232
 643,48;  588,553;49231,668;-5786,534
 644,06;  584,338;49280,922;-5796,835
 644,64;  579,123;49595,176;-5842,137
 645,22;  504,908;50513,430;-5562,438
 645,80;  576,693;50547,684;-4957,740
 646,39;  527,478;48107,938;-5515,041
 646,97;  517,263;49773,191;-5850,342
 647,54;  523,048;52328,441;-5717,644
 648,12;  543,833;54879,695;-5865,945
 648,70;  607,618;58954,949;-5885,247
 649,28;  678,403;56421,203;-6090,548
 649,86;  593,188;51091,457;-5609,850
 650,44;  515,974;48619,711;-5452,151
 651,02;  548,759;49970,965;-5474,452
 651,60;  500,544;51793,219;-5803,753
 652,18;  527,329;51320,473;-4735,055
 652,76;  473,114;53277,723;-5934,356
 653,34;  507,899;54817,977;-5939,658
 653,92;  594,684;57729,230;-5784,959
 654,50;  664,469;59042,484;-5818,261
 655,08;  693,254;58048,738;-5841,562
 655,66;  626,039;55058,992;-5115,863
 656,24;  681,824;56743,246;-5200,165
 656,82;  676,609;58989,500;-4979,466
 657,40;  609,394;58967,754;-5667,768
 657,98;  644,179;60169,008;-5486,069
 658,56;  587,964;61114,258;-5717,371
 659,14;  661,749;61380,512;-5913,672
 659,72;  585,534;63381,766;-5916,973
 660,29;  519,319;62437,020;-5907,275
 660,87;  547,104;59738,273;-5212,576
 661,45;  536,889;58590,527;-5664,877
 662,03;  509,674;57513,781;-4971,179
 662,61;  443,459;54945,035;-5638,480
 663,19;  476,244;54618,289;-5657,782
 663,77;  452,029;53917,543;-5939,083
 664,35;  428,814;56689,793;-5887,384
 664,93;  416,599;62595,047;-4922,686
 665,51;  475,384;61993,301;-6033,987
 666,08;  476,169;57747,555;-5652,289
 666,66;  431,954;51859,809;-4400,590
 667,24;  459,739;49420,063;-5952,892
 667,82;  509,524;50250,316;-5849,193
 668,40;  455,309;50723,570;-5932,494
 668,98;  457,094;51952,824;-5097,796
 669,56;  438,879;57957,078;-6096,097
 670,13;  562,664;61797,328;-6222,398
 670,71;  585,449;59698,582;-5900,700
 671,29;  494,234;57209,836;-6139,001
 671,87;  455,019;56814,090;-6051,303
 672,45;  431,804;51822,344;-6050,604
 673,03;  469,589;52592,598;-4769,906
 673,60;  443,374;58431,852;-3503,207
 674,18;  485,159;63679,105;-5938,508
 674,76;  453,944;61159,359;-6226,810
 675,34;  443,729;56361,613;-5251,111
 675,92;  416,514;55284,863;-6338,413
 676,50;  439,299;55051,117;-6085,714
 677,07;  390,084;56952,371;-6095,016
 677,65;  486,869;56680,625;-6163,317
 678,23;  411,655;55997,879;-5057,618
 678,81;  407,440;58016,133;-5299,919
 679,38;  479,225;56669,387;-5969,221
 679,96;  418,010;53267,641;-5846,522
 680,54;  428,795;55171,895;-5308,824
 681,12;  350,580;52485,148;-6126,125
 681,70;  396,365;54786,398;-4413,427
 682,27;  456,150;54740,652;-5851,728
 682,85;  389,935;58265,906;-5991,029
 683,43;  450,720;64943,160;-6140,331
 684,01;  465,505;64943,414;-5172,632
 684,58;  418,290;64307,668;-5138,934
 685,16;  510,075;64236,922;-4494,235
 685,74;  468,860;62790,176;-3853,536
 686,32;  435,645;59009,430;-6012,838
 686,89;  422,430;59552,684;-6015,139
 687,47;  413,215;59534,934;-6076,441
 688,05;  457,000;56416,188;-6019,742
 688,63;  415,785;59626,441;-6102,043
 689,20;  421,570;62884,695;-5971,345
 689,78;  428,355;58427,949;-5530,646
 690,36;  386,140;54291,203;-5381,948
 690,93;  361,925;54968,457;-6355,249
 691,51;  428,710;61453,711;-6326,550
 692,09;  377,495;64946,965;-6223,852
 692,67;  397,280;64947,219;-6047,153
 693,24;  372,065;60968,469;-5803,455
 693,82;  401,850;59538,723;-6235,756
 694,40;  466,635;58049,977;-3570,058
 694,97;  373,420;57456,230;-6046,359
 695,55;  317,205;59820,484;-5464,660
 696,13;  411,990;61729,738;-4454,962
 696,70;  374,775;58594,992;-6029,263
 697,28;  357,560;59108,246;-6266,564
 697,86;  376,345;60837,500;-6030,866
 698,43;  400,130;58827,754;-6198,167
 699,01;  417,915;55595,004;-6051,469
 699,59;  374,700;55751,258;-6402,770
 700,16;  372,485;54174,512;-5257,072
 700,74;  357,270;57040,766;-5497,373
 701,32;  373,055;56440,020;-6233,674
 701,89;  329,840;55792,273;-6049,976
 702,47;  374,625;60296,527;-6466,277
 703,05;  333,410;64951,781;-6309,579
 703,62;  347,195;64952,035;-6227,880
 704,20;  340,980;64952,285;-5306,182
 704,77;  337,765;64952,539;-6118,483
 705,35;  281,550;64213,793;-6006,784
 705,93;  321,336;64327,047;-4922,085
 706,50;  360,121;63796,301;-5267,387
 707,08;  278,906;60606,555;-5284,688
 707,65;  318,691;60046,809;-5620,990
 708,23;  368,476;64881,063;-5431,292
 708,81;  322,261;64954,316;-5019,593
 709,38;  322,046;64954,570;-5001,894
 709,96;  384,831;64954,820;-6025,195
 710,53;  354,616;64955,074;-6007,497
 711,11;  321,401;61503,328;-5752,798
 711,69;  358,186;61913,582;-3821,100
 712,26;  301,971;59012,836;-4642,401
 712,84;  331,756;63346,090;-5947,703
 713,41;  370,541;64411,344;-6153,004
 713,99;  307,326;64924,598;-6068,305
 714,56;  312,111;62057,852;-6326,607
 715,14;  331,896;60312,105;-6198,908
 715,71;  330,681;60246,355;-6210,209
 716,29;  327,466;62893,609;-6648,511
 716,86;  312,251;63573,863;-6510,813
 717,44;  316,036;63263,117;-6424,114
 718,02;  345,821;62110,371;-6462,415
 718,59;  363,606;61013,625;-5121,716
 719,17;  347,391;63488,879;-5649,018
 719,74;  366,176;62907,133;-5756,319
 720,32;  349,961;63502,387;-6451,621
 720,89;  386,746;64959,641;-6422,922
 721,47;  295,531;64959,891;-6388,224
 722,04;  335,316;64960,145;-5502,525
 722,62;  300,101;64252,398;-3979,826
 723,19;  323,886;60250,652;-4938,128
 723,77;  262,671;57638,906;-5673,429
 724,34;  336,456;60150,160;-5576,730
 724,92;  298,241;63789,414;-6558,032
 725,49;  309,026;64961,668;-5666,333
 726,07;  328,811;64961,922;-6491,635
 726,64;  315,596;64627,176;-6587,936
 727,21;  300,381;60249,426;-5627,238
 727,79;  327,166;63706,680;-6444,539
 728,36;  364,951;64962,934;-6722,840
 728,94;  380,736;64963,188;-6535,142
 729,51;  361,521;64963,441;-6365,443
 730,09;  350,306;64963,695;-5545,745
 730,66;  319,091;64963,949;-6358,046
 731,24;  343,876;64964,203;-6577,348
 731,81;  375,661;64964,457;-5151,649
 732,38;  362,446;64964,711;-6492,950
 732,96;  388,232;64964,961;-6263,251
 733,53;  383,017;60347,215;-6389,553
 734,11;  348,802;61575,469;-6617,854
 734,68;  372,587;64965,723;-6211,156
 735,26;  404,372;64965,977;-6389,458
 735,83;  419,157;64966,230;-6498,759
 736,40;  445,942;62243,484;-6516,060
 736,98;  476,727;61999,738;-6374,361
 737,55;  462,512;59236,992;-5827,663
 738,13;  504,297;57707,246;-5702,964
 738,70;  506,082;60991,496;-5529,266
 739,27;  450,867;62504,750;-6452,567
 739,85;  468,652;62745,004;-6283,869
 740,42;  565,437;64968,258;-6464,170
 740,99;  518,222;64968,512;-5618,471
 741,57;  559,007;64968,766;-4867,773
 742,14;  554,792;64969,020;-5349,074
 742,72;  573,577;64969,273;-4751,375
 743,29;  570,362;64969,527;-6563,677
 743,86;  628,147;64969,781;-6538,979
 744,44;  652,932;64970,031;-6113,280
 745,01;  582,717;64970,285;-5760,581
 745,58;  567,502;64970,539;-6259,882
 746,16;  574,287;64970,793;-6188,184
 746,73;  643,072;64971,047;-6479,485
 747,30;  612,857;61139,301;-6536,787
 747,88;  615,642;59621,555;-5621,088
 748,45;  684,427;64971,809;-5668,390
 749,02;  743,212;64972,063;-6384,691
 749,60;  817,997;62401,313;-6212,992
 750,17;  836,782;61766,566;-5269,294
 750,74;  955,567;62801,820;-6479,595
 751,31;  954,352;63306,074;-6347,896
 751,89;  879,137;64232,328;-6546,198
 752,46;  978,922;64973,582;-6282,500
 753,03;  895,707;64973,836;-6160,801
 753,61;  827,492;63755,090;-4858,102
 754,18;  758,277;64573,344;-6434,404
 754,75;  797,062;63888,598;-5191,705
 755,32;  762,847;60715,848;-6332,006
 755,90;  686,632;64975,102;-6493,308
 756,47;  724,417;64975,355;-4809,609
 757,04;  686,202;64975,609;-6457,911
 757,61;  560,987;64975,863;-5553,212
 758,19;  621,772;64976,117;-5253,514
 758,76;  555,557;64976,371;-6603,815
 759,33;  526,342;64976,625;-6664,116
 759,90;  475,127;64976,879;-5714,417
 760,48;  410,913;64977,133;-6778,719
 761,05;  446,698;64977,383;-6083,021
 761,62;  425,483;62082,637;-4888,322
 762,19;  347,268;58992,891;-6144,624
 762,77;  427,053;61730,145;-5963,925
 763,34;  340,838;64978,398;-6610,226
 763,91;  338,623;64978,652;-5818,527
 764,48;  338,408;64978,906;-6756,829
 765,05;  363,193;64979,160;-6543,130
 765,63;  328,978;63215,414;-6417,432
 766,20;  373,763;59753,668;-6004,733
 766,77;  342,548;57105,918;-5921,035
 767,34;  312,333;58807,172;-6640,336
 767,91;  266,118;59176,426;-6689,637
 768,49;  284,903;61368,680;-6772,939
 769,06;  241,688;64980,934;-5832,240
 769,63;  289,473;62272,188;-6636,542
 770,20;  312,258;59567,441;-5868,843
 770,77;  283,043;57921,695;-5645,145
 771,34;  238,828;60065,949;-6615,446
 771,91;  278,613;60549,203;-6102,747
 772,49;  250,398;58558,453;-6369,048
 773,06;  268,183;57687,707;-6203,350
 773,63;  226,968;60204,961;-6639,651
 774,20;  298,753;58197,215;-5918,953
 774,77;  280,538;56475,469;-6631,254
 775,34;  308,323;56707,723;-6214,556
 775,91;  355,108;57056,977;-6417,857
 776,49;  398,893;58787,230;-6590,158
 777,06;  550,678;60761,484;-6015,460
 777,63;  475,463;64224,738;-6367,761
 778,20;  395,248;62572,988;-6250,063
 778,77;  338,033;63316,242;-5763,364
 779,34;  229,818;64985,496;-6585,666
 779,91;  309,603;64985,750;-6534,967
 780,48;  196,388;59144,004;-5853,268
 781,05;  244,173;50716,258;-6586,570
 781,62;  278,958;52124,512;-6604,871
 782,20;  232,743;58813,766;-6500,172
 782,77;  276,528;64987,020;-6529,474
 783,34;  262,313;64052,273;-6522,775
 783,91;  278,098;61362,523;-6509,077
 784,48;  200,883;60480,777;-2126,378
 785,05;  227,668;59144,031;-6540,680
 785,62;  229,453;58221,285;-6452,981
 786,19;  252,238;58149,539;-5100,282
 786,76;  200,023;55130,793;-6677,583
 787,33;  203,808;56202,047;-6515,885
 787,90;  176,593;59491,301;-6591,187
 788,47;  177,379;60148,555;-5075,488
 789,04;  239,164;58988,809;-5763,790
 789,61;  202,949;58863,059;-5066,091
 790,18;  150,734;55747,313;-6561,392
 790,75;  202,519;50841,566;-6671,693
 791,32;  241,304;52056,820;-6577,995
 791,89;  198,089;55205,074;-6068,296
 792,46;  233,874;60806,328;-5763,598
 793,03;  227,659;62404,582;-6702,899
 793,60;  247,444;55699,836;-6440,201
 794,17;  306,229;52257,090;-5569,502
 794,74;  299,014;47273,344;-5886,803
 795,31;  230,799;50096,594;-6099,105
 795,88;  183,584;52579,848;-5572,406
 796,45;  193,369;53365,102;-6529,708
 797,02;  212,154;56004,355;-5046,009
 797,59;  152,939;57922,609;-6675,311
 798,16;  206,724;54563,863;-5861,612
 798,73;  162,509;53534,117;-6761,913
 799,30;  179,294;55088,371;-6611,214
 799,87;  189,079;55650,625;-6713,516
 800,44;  160,864;55353,875;-6729,817
 801,01;  159,649;56836,129;-6807,119
 801,58;  181,434;58477,383;-6537,420
 802,15;  156,219;52086,637;-6658,722
 802,72;  187,004;48849,891;-6694,023
 803,28;  164,789;52000,145;-6076,324
 803,85;  241,574;57179,398;-6728,626
 804,42;  276,359;55235,652;-5999,927
 804,99;  196,144;53752,906;-6539,229
 805,56;  218,929;52472,160;-6770,530
 806,13;  173,714;53387,410;-6075,832
 806,70;  170,499;52719,664;-6748,133
 807,27;  203,284;54477,918;-6672,434
 807,84;  143,069;52786,172;-6693,736
 808,41;  184,854;49728,426;-6022,037
 808,98;  163,639;50479,680;-5986,338
 809,54;  156,424;52469,934;-4958,640
 810,11;  140,209;48281,188;-6782,941
 810,68;  143,994;43021,441;-6680,243
 811,25;  162,779;41394,695;-6760,544
 811,82;  140,564;40374,945;-6886,846
 812,39;   96,349;37710,199;-3331,147
 812,96;  132,134;38779,453;-6767,448
 813,52;  167,919;41291,707;-6937,750
 814,09;  103,704;44522,961;-6766,051
 814,66;  140,489;50325,215;-6827,353
 815,23;  120,274;51240,469;-6669,654
 815,80;   96,060;50439,723;-5853,956
 816,37;  117,845;50917,977;-6801,257
 816,93;  129,630;49487,230;-6731,558
 817,50;  163,415;46790,480;-6102,859
 818,07;  177,200;46034,734;-6960,161
 818,64;  136,985;46919,988;-6856,462
 819,21;  205,770;46261,242;-6053,764
 819,77;  201,555;42742,496;-6571,065
 820,34;  204,340;42053,750;-6677,367
 820,91;  219,125;43276,004;-6469,668
 821,48;  278,910;43873,258;-6689,969
 822,05;  327,695;45571,512;-5875,271
 822,61;  265,480;44296,766;-5631,572
 823,18;  212,265;41860,016;-6620,874
 823,75;  184,050;42585,270;-6957,175
 824,32;  189,835;45286,523;-6923,477
 824,88;  205,620;45073,777;-6882,778
 825,45;  130,405;44018,031;-6899,079
 826,02;  124,190;43798,285;-6643,380
 826,59;  131,975;43974,539;-6639,682
 827,15;  134,760;46077,793;-6906,983
 827,72;  142,545;49519,047;-6723,285
 828,29;  194,330;51523,301;-6895,586
 828,86;  177,115;48827,551;-6791,888
 829,42;  108,900;40797,805;-6812,189
 829,99;  138,685;36802,059;-6647,490
 830,56;  150,470;36252,313;-6869,792
 831,13;  126,255;37220,566;-6060,093
 831,69;  161,040;38022,820;-6506,395
 832,26;  122,825;38832,074;-5062,696
 832,83;  177,610;40408,328;-5452,998
 833,39;  171,395;40187,582;-6904,299
 833,96;  179,180;39167,836;-6687,600
 834,53;   80,965;40039,086;-6928,902
 835,10;  117,750;39930,340;-6529,203
 835,66;  118,535;38972,594;-6920,504
 836,23;  121,320;39801,848;-6803,806
 836,80;  105,105;39428,102;-6790,107
 837,36;  117,890;37086,355;-6810,409
 837,93;  136,675;34475,609;-6902,710
 838,50;  192,460;35084,863;-6789,012
 839,06;  108,245;37684,117;-6288,313
 839,63;   96,030;37191,371;-6895,614
 840,19;  113,815;35132,621;-6607,916
 840,76;  141,600;35364,875;-6404,217
 841,33;   99,385;35892,129;-6509,519
 841,89;  103,170;36779,383;-6949,820
 842,46;   76,955;37103,637;-6751,122
 843,03;  123,741;35389,891;-6089,423
 843,59;  115,526;34224,145;-6403,724
 844,16;  112,311;34994,398;-6181,025
 844,73;  158,096;34249,652;-6067,327
 845,29;  108,881;32937,902;-5695,628
 845,86;   97,666;35699,156;-6800,930
 846,42;   83,451;36940,410;-7004,231
 846,99;  108,236;36477,664;-6967,533
 847,56;  103,021;36265,918;-5840,834
 848,12;   95,806;36240,172;-6745,135
 848,69;   80,591;35710,426;-6715,437
 849,25;  123,376;34401,680;-6845,738
 849,82;  139,161;34081,934;-3247,040
 850,38;   98,946;35064,188;-6840,341
 850,95;   78,731;32489,439;-6324,643
 851,52;   85,516;32520,693;-6565,944
 852,08;   82,301;32548,947;-6691,245
 852,65;   52,086;30323,199;-7005,546
 853,21;   67,871;27698,453;-6958,848
 853,78;   57,656;27362,707;-6363,149
 854,34;   99,441;28860,961;-6871,451
 854,91;   45,226;29081,215;-5086,752
 855,47;  116,011;29942,467;-5108,054
 856,04;  131,796;32027,721;-6746,355
 856,60;   92,581;33961,973;-6104,656
 857,17;   91,366;34979,227;-6840,958
 857,73;   90,151;33553,480;-6811,259
 858,30;   49,936;32532,734;-6985,561
 858,86;   57,721;31110,988;-5926,862
 859,43;   83,506;31430,242;-6226,164
 859,99;   61,291;32011,496;-6852,465
 860,56;   42,076;33126,750;-6903,766
 861,12;   75,861;35190,004;-6737,068
 861,69;   41,646;33669,258;-5924,369
 862,25;   82,431;34731,508;-6821,670
 862,82;   87,216;34419,762;-5972,972
 863,38;  114,001;31196,018;-6843,273
 863,95;   84,786;29305,270;-6239,575
 864,51;  101,571;30403,523;-5287,876
 865,08;   71,356;29284,777;-6090,178
 865,64;  106,141;26795,031;-7018,479
 866,21;   92,926;26131,285;-6745,780
 866,77;  120,711;26051,537;-5552,082
 867,34;   70,496;25734,791;-6672,383
 867,90;  119,281;24632,045;-6303,685
 868,46;  157,066;23835,299;-6041,986
 869,03;  143,851;24389,551;-6929,288
 869,59;  111,636;26353,805;-6884,589
 870,16;  112,422;27647,059;-6052,890
 870,72;   73,207;30060,313;-6657,191
 871,28;   75,992;32915,566;-5992,493
 871,85;  108,777;33142,820;-6907,794
 872,41;   82,562;31569,072;-6004,096
 872,98;   71,347;32738,326;-6050,397
 873,54;   43,132;33876,578;-5920,699
 874,10;  138,917;32768,832;-5876,000
 874,67;   72,917;32987,832;-6904,000
 875,23;   25,917;31068,834;-7032,000
 875,80;   96,917;28009,834;-6641,000
 876,36;   16,917;25058,834;-6642,000
 876,92;   58,917;22832,834;-6189,000
 877,49;   43,917;23923,834;-6517,000
 878,05;   43,917;24896,834;-6797,000
 878,61;   61,917;26938,834;-6812,000
 879,18;   35,917;27553,834;-6252,000
 879,74;   48,917;28076,834;-6720,000
 880,30;   40,917;28679,834;-5926,000
 880,87;   42,917;28852,834;-6326,000
 881,43;   79,917;29533,834;-6871,000
 881,99;   52,917;27306,834;-6879,000
 882,56;   81,917;27610,834;-6661,000
 883,12;   51,917;29049,834;-5740,000
 883,68;   62,917;29120,834;-6518,000
 884,25;   68,917;28300,834;-6949,000
 884,81;   55,917;26343,834;-6701,000
 885,37;   37,917;24221,834;-6786,000
 885,94;   60,917;22940,834;-6851,000
 886,50;   66,917;23098,834;-6886,000
 887,06;   59,917;24358,834;-6796,000
 887,62;   90,917;25019,834;-6866,000
 888,19;   31,917;25774,834;-5986,000
 888,75;   45,917;26542,834;-6821,000
 889,31;   78,917;29043,834;-6778,000
 889,87;   66,917;30537,834;-6723,000
 890,44;  106,917;30349,834;-6696,000
 891,00;   66,917;28757,834;-6786,000
 891,56;   77,917;26457,834;-6998,000
 892,12;  106,917;24463,834;-6754,000
 892,69;   88,917;25310,834;-6373,000
 893,25;   68,917;28798,834;-6877,000
 893,81;   90,917;31774,834;-6696,000
 894,37;   93,917;31330,834;-6342,000
 894,94;   90,917;28713,834;-6772,000
 895,50;  121,917;26035,834; -212,000
 896,06;  131,917;24749,834;-6810,000
 896,62;  100,917;23405,834;-6707,000
 897,18;  101,917;24661,834;-6518,000
 897,75;  134,917;27406,834;-6895,000
 898,31;  161,917;27887,834;-6849,000
 898,87;  128,917;26274,834;-6860,000
 899,43;  135,917;25164,834;-6469,000
 899,99;   99,917;26592,834;-6866,000
 900,56;  196,917;25515,834;-6791,000
 901,12;  151,917;24875,834;-6890,000
 901,68;  153,917;27903,834;-6267,000
 902,24;  136,917;31800,834;-5930,000
 902,80;  154,917;32652,834;-6794,000
 903,36;  237,917;31893,834;-6691,000
 903,93;  358,917;32139,834;-6646,000
 904,49;  737,917;32761,834;-6913,000
 905,05; 1827,917;30952,834;-6732,000
 905,61; 4816,917;28208,834;-6832,000
 906,17; 9345,917;28086,834;-6901,000
 906,73;15320,917;25975,834;-5380,000
 907,29;19631,916;24960,834;-6910,000
 907,86;22106,916;25118,834;-6827,000
 908,42;21331,916;28092,834;-6795,000
 908,98;18643,916;31123,834;-5908,000
 909,54;12277,917;38813,832;-6885,000
 910,10; 5008,917;48220,832;-6634,000
 910,66; 1516,917;57581,832;-6781,000
 911,22;  592,917;65027,832;-6761,000
 911,78;  256,917;62593,832;-6841,000
 912,34;  207,917;53256,832;-6080,000
 912,90;  197,917;44610,832;-5232,000
 913,46;  157,917;37052,832;-6876,000
 914,03;  131,917;30620,834;-5746,000
 914,59;  113,917;27452,834;-6682,000
 915,15;  116,917;24908,834;-6891,000
 915,71;  113,917;24217,834;-6863,000
 916,27;   99,917;23800,834;-6723,000
 916,83;   54,917;23006,834;-5824,000
 917,39;  115,917;21742,834;-3512,000
 917,95;   99,917;20224,834;-6009,000
 918,51;  101,917;19972,834;-6583,000
 919,07;  102,917;21780,834;-6791,000
 919,63;   14,917;23295,834;-6661,000
 920,19;   42,917;23935,834;-6865,000
 920,75;   54,917;23112,834;-6640,000
 921,31;   41,917;21484,834;-4837,000
 921,87;   66,917;20216,834;-6845,000
 922,43;   66,917;18019,834;-5626,000
 922,99;   66,917;17321,834;-6706,000
 923,55;   84,917;18674,834;-6655,000
 924,11;   49,917;19094,834;-6976,000
 924,67;   42,917;19310,834;-6962,000
 925,23;   60,917;19485,834;-6778,000
 925,79;   92,917;20122,834;-6710,000
 926,35;   93,917;20219,834;-6573,000
 926,91;   41,917;19401,834;-6909,000
 927,47;   56,917;19367,834;-6660,000
 928,03;   83,917;20294,834;-6786,000
 928,59;   75,917;20503,834;-6678,000
 929,15;   99,917;20781,834;-6792,000
 929,71;   67,917;22016,834;-6840,000
 930,27;   65,917;23587,834;-6537,000
 930,82;   70,917;25573,834;-6728,000
 931,38;   32,917;24317,834;-5852,000
 931,94;   68,917;22672,834;-6843,000
 932,50;   46,917;21252,834;-6481,000
 933,06;   85,917;20895,834;-6768,000
 933,62;   66,917;21092,834;-6443,000
 934,18;   81,917;20632,834;-6727,000
 934,74;   29,917;21320,834;-6709,000
 935,30;   90,917;22030,834;-6484,000
 935,86;   55,917;21213,834;-6505,000
 936,42;   62,917;20702,834;-6873,000
 936,97;   45,917;21656,834;-6563,000
 937,53;   49,917;20552,834;-6826,000
 938,09;   84,917;21087,834;  123,000
 938,65;   74,917;21186,834;-6268,000
 939,21;   44,917;20179,834;-6708,000
 939,77;   29,917;18946,834;-6213,000
 940,33;   79,917;18602,834;-6748,000
 940,88;   67,917;19429,834;-5908,000
 941,44;   82,917;21301,834;-6983,000
 942,00;   33,917;23225,834;-6697,000
 942,56;   47,917;24231,834;-6604,000
 943,12;   60,917;23427,834;-5907,000
 943,68;   50,917;22950,834;-5679,000
 944,23;   44,917;23124,834;-6749,000
 944,79;   25,917;22674,834;-6102,000
 945,35;   36,917;20741,834;-6599,000
 945,91;   91,917;19519,834;-6767,000
 946,47;   78,917;19827,834;-3353,000
 947,03;   61,917;19896,834;-6850,000
 947,58;   37,917;19661,834;-6840,000
 948,14;   75,917;20790,834;-5897,000
 948,70;   46,917;19573,834;-5855,000
 949,26;   94,917;18881,834;-6616,000
 949,81;   51,917;18342,834;-6644,000
 950,37;   39,917;18686,834;-6695,000
 950,93;   94,917;17993,834;-6224,000
 951,49;   32,917;17568,834;-6057,000
 952,05;   68,917;17926,834;-6571,000
 952,60;   52,917;17299,834;-6951,000
 953,16;   62,917;16933,834;-5783,000
 953,72;   58,917;15628,833;-5813,000
 954,27;   19,917;15524,833;-6566,000
 954,83;   29,917;15317,833;-6703,000
 955,39;   63,917;14917,833;-6691,000
 955,95;   54,917;14456,833;-6849,000
 956,50;   70,917;14272,833;-6698,000
 957,06;   28,917;14126,833;-5922,000
 957,62;   23,917;13780,833;-6559,000
 958,18;   10,917;13872,833;-6741,000
 958,73;   58,917;13326,833;-6820,000
 959,29;   44,917;13518,833;-6106,000
 959,85;    7,917;14785,833;-6864,000
 960,40;   44,917;16746,834;-4263,000
 960,96;   66,917;16386,834;-6738,000
 961,52;   50,917;14755,833;-6643,000
 962,07;   57,917;13711,833;-6742,000
 962,63;  -55,083;13208,833;-6723,000
 963,19;  -34,083;13435,833;-5779,000
 963,74;   78,917;13877,833;-6582,000
 964,30;   18,917;14475,833;-6595,000
 964,86;   39,917;14281,833;-6484,000
 965,41;   63,917;14290,833;-6705,000
 965,97;   43,917;14185,833;-6569,000
 966,53;   18,917;14792,833;-6750,000
 967,08;   54,917;15311,833;-6611,000
 967,64;  100,917;15082,833;-6705,000
 968,19;   68,917;14471,833;-6684,000
 968,75;   22,917;14662,833;-6566,000
 969,31;   74,917;14880,833;-5626,000
 969,86;   36,917;14995,833;-6505,000
 970,42;   61,917;13195,833;-6620,000
 970,97;   51,917;11567,833;-6437,000
 971,53;   54,917;11625,833;-6490,000
 972,09;   68,917;12998,833;-6646,000
 972,64;   87,917;13523,833;-5812,000
 973,20;   79,917;13815,833;-6599,000
 973,75;   76,917;14605,833;-5760,000
 974,31;   72,917;14826,833;-6578,000
 974,87;   63,917;14921,833;-6674,000
 975,42;   42,917;14507,833;-6727,000
 975,98;   50,917;13201,833;-6651,000
 976,53;   83,917;12100,833;-6555,000
 977,09;   47,917;11353,833;-4624,000
 977,64;   64,917;11164,833;-6532,000
 978,20;   88,917;10649,833;-6585,000
 978,75;   68,917;10482,833;-6429,000
 979,31;   56,917;10950,833;-6513,000
 979,86;   62,917;12220,833;-6739,000
 980,42;   43,917;12828,833;-5813,000
 980,97;   57,917;13290,833;-6642,000
 981,53;  103,917;14285,833;-6636,000
 982,08;   53,917;13803,833;-5046,000
 982,64;   86,917;12278,833;-6237,000
 983,19;   72,917;11308,833;-6760,000
 983,75;   83,917;10993,833;-6576,000
 984,30;   68,917;10430,833;-5581,000
 984,86;   37,917; 9867,833;-5898,000
 985,41;   88,917; 9457,833;-6634,000
 985,97;   77,917; 9632,833;-4797,000
 986,52;   86,917; 9894,833;-5853,000
 987,08;   81,917; 9953,833;-6174,000
 987,63;   83,917;10165,833;-5608,000
 988,19;   67,917;11252,833;-6266,000
 988,74;   45,917;11710,833;-5682,000
 989,30;   76,917;11529,833;-6568,000
 989,85;   79,917;11470,833; -276,000
 990,40;   62,917;11314,833;-6617,000
 990,96;  102,917;11060,833;-6482,000
 991,51;   81,917;11149,833;-6578,000
 992,07;   71,917;10742,833;-6605,000
 992,62;   90,917;10285,833;-6519,000
 993,18;   52,917;10035,833;-6504,000
 993,73;   72,917; 9986,833;-6440,000
 994,28;   79,917; 9800,833;-6464,000
 994,84;   94,917; 9019,833;-6240,000
 995,39;   66,917; 8474,833;-2971,000
 995,94;   99,917; 7953,833;-5673,000
 996,50;   67,917; 7647,833;-6543,000
 997,05;   16,917; 7872,833;-3481,000
 997,61;   86,917; 8363,833;-6489,000
 998,16;   68,917; 8581,833;-6555,000
 998,71;  110,917; 8850,833;-6340,000
 999,27;   44,917; 9115,833;-5223,000
 999,82;   99,917; 8706,833;-4778,000
1000,37;  100,917; 8661,833;-6520,000
1000,93;   93,917; 8920,833;-6107,000
1001,48;   50,917; 8799,833;-6543,000
1002,03;   21,917; 8477,833;-6469,000
1002,59;  106,917; 8715,833;-5972,000
1003,14;   75,917; 8758,833;-6113,000
1003,69;  111,917; 8484,833;-6513,000
1004,25;   72,917; 8299,833;-6507,000
1004,80;  109,917; 8322,833;-6266,000
1005,35;   72,917; 8313,833;-6361,000
1005,91;   98,917; 8515,833;-6558,000
1006,46;   60,917; 8426,833;-6084,000
1007,01;  103,917; 8227,833;-5479,000
1007,56;   91,917; 8599,833;-6440,000
1008,12;   93,917; 8342,833;-6178,000
1008,67;  116,917; 7867,833;-6312,000
1009,22;   67,917; 7509,833;-6481,000
1009,78;  128,917; 7205,833;-6163,000
1010,33;   78,917; 6649,833;-6443,000
1010,88;  131,917; 6413,833;-5618,000
1011,43;  107,917; 5995,833;-6433,000
1011,99;   90,917; 5972,833;-6198,000
1012,54;  103,917; 6320,833;-6387,000
1013,09;  164,917; 6048,833;-6299,000
1013,64;  120,917; 5802,833;-6362,000
1014,19;  108,917; 5823,833;-6442,000
1014,75;  106,917; 5928,833;-6408,000
1015,30;  136,917; 6394,833;-6425,000
1015,85;  147,917; 6370,833;-6367,000
1016,40;  119,917; 6247,833;-5436,000
1016,96;  179,917; 6235,833;-6268,000
1017,51;  178,917; 6150,833;-6351,000
1018,06;  163,917; 6095,833;-6310,000
1018,61;  144,917; 5695,833;-6665,000
1019,16;  146,917; 5609,833;-6697,000
1019,71;  204,917; 5663,833;-6373,000
1020,27;  156,917; 5567,833;-6353,000
1020,82;  230,917; 5375,833;-3700,000
1021,37;  189,917; 5405,833;-4798,000
1021,92;  208,917; 5984,833;-6454,000
1022,47;  235,917; 5965,833;-6548,000
1023,02;  197,917; 5463,833;-6512,000
1023,58;  214,917; 5045,833;-6573,000
1024,13;  237,917; 4730,833;-6258,000
1024,68;  221,917; 4434,833;-6298,000
1025,23;  270,917; 4324,833;-5525,000
1025,78;  295,917; 4613,833;-6475,000
1026,33;  298,917; 4932,833;-5510,000
1026,88;  339,917; 4843,833;-6236,000
1027,43;  365,917; 5167,833;-6276,000
1027,99;  330,917; 5134,833;-6002,000
1028,54;  408,917; 4732,833;-6395,000
1029,09;  410,917; 4106,833;-2478,000
1029,64;  500,917; 3919,833;-6303,000
1030,19;  569,917; 4147,833;-3821,000
1030,74;  606,917; 4243,833;-5134,000
1031,29;  697,917; 4284,833;-4765,000
1031,84;  738,917; 4491,833;-6300,000
1032,39;  829,917; 4563,833;-5403,000
1032,94;  921,917; 4617,833;-4326,000
1033,49; 1068,917; 4361,833;-5476,000
1034,04; 1161,917; 4236,833;-6312,000
1034,59; 1416,917; 4205,833;-6507,000
1035,14; 1441,917; 4117,833;-6145,000
1035,69; 1623,917; 4318,833;-6224,000
1036,24; 1659,917; 4104,833;-4477,000
1036,80; 1801,917; 3986,833;-5453,000
1037,35; 1969,917; 4138,833;-6347,000
1037,90; 2111,917; 4172,833;-6274,000
1038,45; 2174,917; 4201,833;-6419,000
1039,00; 2244,917; 4340,833;-5490,000
1039,55; 2359,917; 4229,833;-6284,000
1040,10; 2465,917; 3977,833;-5615,000
1040,65; 2610,917; 3916,833;-5576,000
1041,20; 2598,917; 3850,833;-6325,000
1041,75; 2831,917; 4030,833;-4522,000
1042,30; 2928,917; 4164,833;-3585,000
1042,84; 3293,917; 4338,833;-4439,000
1043,39; 3512,917; 4248,833;-6313,000
1043,94; 3854,917; 4175,833;-5342,000
1044,49; 4106,917; 3887,833;-6246,000
1045,04; 4229,917; 3710,833;-5800,000
1045,59; 4643,917; 3809,833;-6299,000
1046,14; 5173,917; 3732,833;-6392,000
1046,69; 5656,917; 3591,833;-6294,000
1047,24; 6196,917; 3623,833;-5510,000
1047,79; 6983,917; 3737,833;-6139,000
1048,34; 7822,917; 4002,833;-5961,000
1048,89; 8889,917; 3948,833;-6259,000
1049,44;10199,917; 3935,833;-5172,000
1049,99;12085,917; 3855,833;-4844,000
1050,54;15022,917; 3876,833;-6249,000
1051,08;20780,916; 3961,833;-6178,000
1051,63;31313,916; 4050,833;-5285,000
1052,18;49070,918; 5051,833;-6127,000
1052,73;65165,918; 7151,833;-6173,000
1053,28;65165,918;10516,833;-6386,000
1053,83;65165,918;15224,833;-6214,000
1054,38;65165,918;19203,834;-6254,000
1054,93;65165,918;21243,834;-6285,000
1055,47;65165,918;23825,834;-5328,000
1056,02;65165,918;26212,834;-5832,000
1056,57;65165,918;27830,834;-6198,000
1057,12;65165,918;30497,834;-6378,000
1057,67;65165,918;33805,832;-6078,000
1058,22;65165,918;36084,832;-6313,000
1058,76;65165,918;38542,832;-6093,000
1059,31;65165,918;44129,832;-3514,000
1059,86;65165,918;48778,832;-6204,000
1060,41;65165,918;49718,832;-6152,000
1060,96;65165,918;51396,832;-6226,000
1061,51;65165,918;53649,832;-5344,000
1062,05;65165,918;54082,832;-6122,000
1062,60;65165,918;50555,832;-6061,000
1063,15;65165,918;45221,832;-6149,000
1063,70;65165,918;41550,832;-6250,000
1064,24;65165,918;43676,832;-6169,000
1064,79;65165,918;45461,832;-6144,000
1065,34;65165,918;43989,832;-6064,000
1065,89;65165,918;41776,832;-6202,000
1066,44;65165,918;37631,832;-6120,000
1066,98;65165,918;32612,834;-6224,000
1067,53;65165,918;30790,834;-5953,000
1068,08;65165,918;30368,834;-4845,000
1068,63;65165,918;27618,834;-6096,000
1069,17;65165,918;24647,834;-5893,000
1069,72;65165,918;22350,834;-5857,000
1070,27;65165,918;20529,834;-6040,000
1070,81;65165,918;20388,834;-5996,000
1071,36;65165,918;20367,834;-3883,000
1071,91;65165,918;18745,834;  966,000
1072,46;65165,918;16791,834;-5058,000
1073,00;65165,918;14646,833;-5239,000
1073,55;65165,918;11404,833;-5935,000
1074,10;65165,918; 7803,833;-5981,000
1074,64;65165,918; 5240,833;-5860,000
1075,19;50854,918; 3535,833;-4958,000
1075,74;32698,916; 2551,833;-6091,000
1076,28;22926,916; 2312,833;-6075,000
1076,83;17301,916; 1951,833;-5286,000
1077,38;14044,917; 1820,833;-5653,000
1077,92;11372,917; 1783,833;-6332,000
1078,47; 9662,917; 1629,833;-5507,000
1079,02; 8094,917; 1578,833;-5959,000
1079,56; 7085,917; 1557,833;-5328,000
1080,11; 5937,917; 1304,833;-6094,000
1080,65; 5135,917; 1241,833;-5039,000
1081,20; 4414,917; 1186,833;-6151,000
1081,75; 3834,917; 1125,833;-6039,000
1082,29; 3269,917; 1128,833; -139,000
1082,84; 2711,917; 1184,833;-2678,000
1083,39; 2504,917; 1294,833;-5061,000
1083,93; 2336,917; 1335,833;-5025,000
1084,48; 2090,917; 1196,833;-5961,000
1085,02; 1945,917; 1082,833;-5783,000
1085,57; 1758,917; 1074,833;-5994,000
1086,11; 1607,917; 1079,833;-5968,000
1086,66; 1545,917;  925,833;-5584,000
1087,21; 1524,917; 1060,833;-5802,000
1087,75; 1379,917;  939,833;-6125,000
1088,30; 1272,917;  815,833;-5040,000
1088,84; 1218,917;  783,833;-5963,000
1089,39; 1179,917;  656,833;-5965,000
1089,93; 1067,917;  664,833;-6100,000
1090,48;  858,917;  649,833;-4394,000
1091,02;  959,917;  733,833;-5181,000
1091,57;  844,917;  629,833;-5479,000
1092,11;  830,917;  642,833;-4094,000
1092,66;  748,917;  624,833;-6031,000
1093,20;  646,917;  580,833;-5180,000
1093,75;  698,917;  566,833;-4998,000
1094,29;  631,917;  486,833;-4979,000
1094,84;  672,917;  525,833;-5890,000
1095,38;  591,917;  528,833;-5097,000
1095,93;  576,917;  584,833;-5981,000
1096,47;  528,917;  615,833;-5612,000
1097,02;  504,917;  587,833;-4985,000
1097,56;  499,917;  614,833;-5772,000
1098,11;  436,917;  552,833;-5774,000
1098,65;  401,917;  508,833;-5992,000
1099,20;  443,917;  577,833;-5935,000
1099,74;  365,917;  487,833;-6002,000
1100,29;  372,917;  513,833;-4879,000
1100,83;  307,917;  496,833;-5934,000

