
Integration time [ms]:   1,000
Averaging Nr. [scans]: 1
Smoothing Nr. [pixels]: 0
Data measured with spectrometer [name]: 1703254U1
Wave   ;Sample   ;Dark     ;Reference;Scope
[nm]   ;[counts] ;[counts] ;[counts] 

 190,08; -107,952; -370,119;11982,743
 190,69;  -26,385; -359,404;11603,049
 191,29;   -2,832; -311,651;11479,965
 191,90;  -67,029; -365,508;11440,717
 192,50;  -81,375; -379,511;10355,099
 193,10;  -22,742; -446,299;11244,381
 193,71;   -0,238; -367,888; 9821,736
 194,31;    1,031; -399,273; 9436,327
 194,91;   24,031; -382,273; 9291,327
 195,52;    5,521; -338,386;10555,949
 196,12;   67,358; -397,056; 8671,847
 196,72;   31,655; -386,394; 8220,904
 197,32;   34,762; -375,888; 8251,736
 197,93;   83,882; -360,420; 8700,957
 198,53;    5,275; -383,145; 7601,797
 199,13;   -3,339; -397,132; 8091,270
 199,74;   61,922; -366,410; 7263,813
 200,34;   34,435; -388,667; 7832,874
 200,94;   11,812; -436,547; 6941,297
 201,55;   45,615; -406,404; 7119,049
 202,15;   99,618; -375,773; 6404,732
 202,75;   36,098; -373,217; 6097,647
 203,36;  137,782; -338,664; 6822,492
 203,96;   40,318; -357,943; 6332,678
 204,56;   93,475; -355,657;10275,729
 205,16;  102,345; -363,018; 5478,458
 205,77;   93,151; -360,244; 4767,892
 206,37;   46,518; -409,017; 5556,267
 206,97;   75,005; -363,760; 5129,205
 207,58;  107,022; -364,166; 5927,278
 208,18;   72,008; -337,129; 5129,889
 208,78;   87,488; -404,134; 5295,461
 209,38;   76,402; -469,415; 4958,385
 209,99;  128,505; -356,540; 3837,534
 210,59;   72,955; -361,662; 3890,301
 211,19;  123,678; -364,538; 3938,343
 211,79;   85,602; -366,927; 4499,316
 212,40;   46,941; -373,625; 3368,911
 213,00;   75,415; -388,891; 3903,118
 213,60;   35,455; -386,882; 2992,972
 214,20;   76,711; -401,230; 3081,175
 214,81;   57,635; -422,618; 2884,148
 215,41;   12,505; -376,979; 3235,877
 216,01;   61,595; -373,067; 3109,636
 216,61;   87,135; -367,399; 2814,476
 217,22;   37,935; -381,326; 2358,888
 217,82;   66,778; -325,173; 2262,495
 218,42;   73,205; -383,711; 2389,480
 219,02;   -1,239; -288,327; 3432,079
 219,63;   56,571; -357,483; 2044,854
 220,23;   41,368; -366,602; 2425,239
 220,83;   66,125; -395,730; 1901,770
 221,43;   -9,649; -393,195; 1850,167
 222,03;   32,665; -348,940; 2326,296
 222,64;   42,508; -380,348; 1769,560
 223,24;   42,891; -298,966; 1625,350
 223,84;   27,321; -376,313; 2637,361
 224,44;    9,938; -316,695; 2381,571
 225,05;   16,451; -313,952; 1440,632
 225,65;   36,768; -301,065; 1227,445
 226,25;    9,411; -364,961; 1139,777
 226,85;   39,668; -294,309;  995,979
 227,45;   43,725; -335,706; 1083,907
 228,06;   27,481; -365,834; 1945,438
 228,66;   16,998; -349,460; 4049,182
 229,26;   22,425; -313,438; 1131,510
 229,86;   51,201; -396,342; 1760,797
 230,46;   -6,475; -358,194;  891,976
 231,06;   -1,269; -320,444;  757,273
 231,67;   54,951; -346,732; 1228,961
 232,27;  -53,665; -343,789;  778,094
 232,87;   31,255; -308,808;  526,384
 233,47;  -56,662; -321,158;  525,777
 234,07;   -1,775; -268,486; 9912,235
 234,67;  -27,685; -291,013;  672,338
 235,28;  -50,662; -319,158;   65,777
 235,88;  -62,095; -316,882;  285,426
 236,48;    0,868; -350,821;  165,911
 237,08;   20,711; -267,669;  448,518
 237,68;  -58,162; -369,378; -267,552
 238,28;  -44,105; -304,774; -106,624
 238,89;  -66,199; -212,756; -205,723
 239,49;  -14,725; -282,023; 1280,483
 240,09;   -9,875; -284,608; -190,544
 240,69;  -45,642; -251,373; -319,124
 241,29;  -13,035; -289,647;  651,036
 241,89;  -62,449; -330,147; -260,559
 242,49;   21,328; -248,490; -358,930
 243,10;  -59,365; -201,496; 3664,834
 243,70;  -75,672; -284,490;  239,070
 244,30;  -43,885; -275,501; -708,594
 244,90;   -7,102; -188,582; -568,598
 245,50;  -39,735; -177,355; 3274,777
 246,10;  -25,822; -307,636; -831,300
 246,70;  -40,125; -300,999;   17,620
 247,30;  -42,342; -251,641;  326,273
 247,91;  -81,625; -208,218; 5781,292
 248,51;   -6,665; -270,228; -806,563
 249,11;   -3,272; -239,514;  417,933
 249,71;   -4,165; -303,008; -667,235
 250,31;  -31,979; -265,483; -567,693
 250,91;   16,288; -238,500;   75,216
 251,51;  -43,319; -199,225; -822,945
 252,11;  -68,816; -239,813;  367,410
 252,71;  -32,329; -269,117;-1080,994
 253,31;  -30,042; -222,348; 3228,013
 253,91;  -28,582; -236,578; -676,170
 254,52;  -12,349; -237,342;-1063,750
 255,12;   -9,979; -293,483;-1104,693
 255,72;   23,051; -206,366;  557,112
 256,32;  -33,262; -242,061; -966,674
 256,92;   -6,302; -190,070;-1147,529
 257,52;   58,475; -173,974; -883,243
 258,12;   14,965; -201,087;  -91,621
 258,72;  -11,469; -210,810;-1232,972
 259,32;   13,345; -211,335;-1169,514
 259,92;   37,865; -199,330;-1343,086
 260,52;   15,648; -192,973;-1077,433
 261,12;    2,911; -202,059; -662,865
 261,72;   26,315; -238,452;-1312,319
 262,32;   53,991; -215,600;-1561,498
 262,92;  -17,912; -238,426;  405,627
 263,53;  -11,959; -189,698;-1277,594
 264,13;  -12,539; -262,937; -268,632
 264,73;    8,108; -217,202;-1694,617
 265,33;  -12,749; -188,317;-1708,613
 265,93;   57,638; -147,304;-1345,140
 266,53;  -11,702; -161,046;-1544,392
 267,13;   -5,559; -139,161; -857,388
 267,73;  -29,212; -185,158;  270,230
 268,33;   39,931; -166,274;-1788,766
 268,93;    5,001; -213,708;-1702,449
 269,53;    8,988; -204,670; -644,839
 270,13;   -6,082; -201,797;-1810,499
 270,73;  -22,456; -245,287;-1891,239
 271,33;   39,121; -200,678;-1778,884
 271,93;   25,368; -242,919;-1867,732
 272,53;   44,118; -121,748;    8,776
 273,13;   47,294; -146,677;-1117,075
 273,73;  -11,402; -119,753;-1955,652
 274,33;   30,914; -148,428;-2041,182
 274,93;  -23,542; -188,007;-1843,972
 275,53;   21,118;  -68,748;-1881,224
 276,13;  -32,036; -121,965;-2261,935
 276,73;   20,021; -118,361;-1570,007
 277,33;   -0,689; -179,522;-1926,659
 277,93;   49,948; -213,680;-1864,693
 278,53;   41,964; -194,526;-2112,278
 279,13;   32,044; -125,506;-2152,568
 279,73;   -6,089; -140,498;-1388,522
 280,33;   21,251; -154,756;-2179,270
 280,93;   31,844; -105,994;-2049,499
 281,53;  -31,752; -147,387;-2252,953
 282,13;   17,848; -127,363;-2193,816
 282,73;   -4,952; -156,875; -385,885
 283,33;  -32,606; -137,872;-2307,266
 283,92;   67,164;  -74,477;-2028,003
 284,52;   48,988;  -94,109;-2365,496
 285,12;   50,138; -138,524;-1425,469
 285,72;   48,621; -126,898;-1041,213
 286,32;   92,188;  -55,622;-1313,564
 286,92;   73,484; -163,521;-2376,850
 287,52;   71,658;  -89,519;-2170,041
 288,12;  105,558;  -97,763;-2542,507
 288,72;   79,128; -106,417;-1625,518
 289,32;  117,858;  -54,470; 1692,233
 289,92;   87,278; -106,270;-2344,148
 290,52;  119,154;  -91,809;-2485,710
 291,12;   96,671;  -57,996;-1570,308
 291,72;  145,164;  -74,477;-1590,003
 292,32;  203,214;  -83,135;-2372,442
 292,92;  159,331;   -2,737;-2481,560
 293,51;  183,721;  -37,093;-2532,404
 294,11;  338,774;  -42,121;-1681,160
 294,71;  339,951;   -7,488;-2695,667
 295,31;  309,638;  -24,743;-1755,797
 295,91;  422,531;   46,751;-2713,629
 296,51;  515,928;   62,656;-1776,106
 297,11;  456,738;   35,061;-2900,988
 297,71;  485,741;    4,131;-2726,648
 298,31;  746,278;   38,730;-2329,148
 298,91;  626,051;   74,756;-2483,202
 299,50;  609,921;   41,395;-2689,473
 300,10;  843,641;  145,887;-2706,114
 300,70;  753,684;   95,528;-2492,576
 301,30;  728,291;   89,253;-2855,415
 301,90;  902,771;   96,248;-2004,843
 302,50;  836,194;  163,640;-2515,198
 303,10;  708,221;  124,126;-2530,076
 303,70;  698,274;  208,660;-3000,488
 304,29;  726,934;  189,918;-2658,740
 304,89;  713,288;  266,183;-1090,755
 305,49;  852,281;  163,922;-2773,122
 306,09;  917,914;  214,133;-2874,839
 306,69;  892,971;  262,736;-2915,911
 307,29;  977,214;  312,865;-2008,442
 307,89;  862,308;  303,408;-3029,000
 308,48;  845,958;  341,774;-2453,301
 309,08;  908,871;  369,492;-2743,377
 309,68; 1047,231;  377,019;-3094,026
 310,28;  973,621;  371,102;-2576,213
 310,88;  816,784;  321,211;-2936,453
 311,48;  930,738;  447,500;-2875,331
 312,07;  889,974;  408,367;-2963,228
 312,67; 1052,174;  497,855;-2128,297
 313,27; 1039,191;  494,448;-1105,224
 313,87; 1078,934;  583,357;-2164,083
 314,47; 1232,298;  516,954;-3030,392
 315,06; 1452,704;  620,191; 2713,837
 315,66; 1556,938;  579,988;-3245,400
 316,26; 1535,564;  632,938;-1844,483
 316,86; 1636,858;  777,969;-3140,110
 317,46; 1944,561;  720,307;-2115,167
 318,06; 1996,668;  739,813; -825,335
 318,65; 2220,455;  781,801;-2807,999
 319,25; 2683,108;  821,798;-3195,617
 319,85; 2526,171;  932,663;-2908,323
 320,45; 2993,961;  986,283;-3213,304
 321,05; 3962,748;  901,271;-2761,968
 321,64; 4058,581;  889,531;-3219,411
 322,24; 4332,418; 1056,861;-3265,513
 322,84; 3590,311; 1080,356;-3261,345
 323,44; 2776,178; 1133,364;-3219,300
 324,03; 2461,728; 1194,486;-3072,067
 324,63; 2557,088; 1250,452;-2310,059
 325,23; 2503,075; 1241,928;-3097,792
 325,83; 2416,505; 1367,021;-2876,123
 326,42; 2329,388; 1442,622;-3285,005
 327,02; 2355,762; 1476,551;-3076,607
 327,62; 2476,632; 1439,629;-2505,221
 328,22; 2798,828; 1553,486;-3234,973
 328,82; 2913,338; 1577,037;-2229,938
 329,41; 2668,029; 1658,852;-3016,728
 330,01; 3131,109; 1652,750;-2961,704
 330,61; 3284,039; 1806,062;-2928,707
 331,20; 2837,219; 1778,325;-2868,531
 331,80; 2836,252; 1762,512;-2794,386
 332,40; 2841,922; 1752,102;-2896,932
 333,00; 2847,819; 1933,667;-2790,423
 333,59; 2921,462; 1748,771;-2855,091
 334,19; 3016,689; 1920,745;-1771,037
 334,79; 3072,272; 1712,615;-2861,316
 335,39; 3056,786; 1729,919;-2978,912
 335,98; 2959,846; 1726,714;-3126,958
 336,58; 3050,605; 1659,777;-3191,401
 337,18; 3176,779; 1720,779;-2958,592
 337,77; 3064,019; 1782,837;-2098,463
 338,37; 3056,859; 1806,359;-2021,540
 338,97; 2957,459; 1907,384;-2912,402
 339,57; 3231,355; 1862,948;-3044,894
 340,16; 3752,036; 1836,431;-2881,390
 340,76; 3676,122; 1962,712;-3053,314
 341,36; 3569,409; 1861,920;-3195,650
 341,95; 3948,559; 1934,506;-3027,623
 342,55; 4071,279; 1918,998;  703,736
 343,15; 3845,469; 2048,155;-3094,039
 343,74; 4530,842; 1924,644;-2382,298
 344,34; 4575,979; 1860,267;-3015,661
 344,94; 3629,159; 2068,530;-3069,485
 345,53; 3351,739; 2110,769;-2860,447
 346,13; 3662,569; 2174,398;-1283,573
 346,73; 3884,092; 1966,473;-2254,805
 347,32; 3916,362; 2268,649;-3080,871
 347,92; 3651,162; 2312,600;-2277,145
 348,52; 3715,466; 2270,523;-1878,722
 349,11; 3765,412; 2336,551;  975,034
 349,71; 3434,402; 2330,658;-3240,016
 350,31; 3230,355; 2441,387;-2672,237
 350,90; 3303,649; 2483,418;-2326,863
 351,50; 3808,129; 2390,852;-2105,634
 352,10; 4405,656; 2471,119;-3114,840
 352,69; 4932,672; 2532,273;-3182,424
 353,29; 5132,052; 2563,024;-3191,317
 353,89; 5243,813; 2645,527;-3255,104
 354,48; 4971,656; 2693,119;-3208,840
 355,08; 5825,372; 2871,980;-1117,164
 355,67; 6380,959; 2850,042;-2951,417
 356,27; 7630,696; 2839,128;-3232,985
 356,87; 8404,232; 3010,288;-3383,142
 357,46; 8566,035; 3049,431;-2351,390
 358,06; 9607,579; 3306,291;-3073,523
 358,66; 7903,386; 3337,504;-3109,432
 359,25; 5417,166; 3260,792;-2344,119
 359,85; 6069,269; 3365,667;-3215,970
 360,44; 7878,012; 3389,015;-3292,172
 361,04; 7717,469; 3567,155;-2367,039
 361,64; 7590,469; 3696,155;-2309,039
 362,23; 7082,772; 3772,517;-2932,958
 362,83; 6754,322; 3755,639;-2990,726
 363,42; 6605,739; 3938,769;-2836,447
 364,02; 6241,092; 3910,034;-2973,462
 364,62; 6579,569; 3816,398;-2486,573
 365,21; 5271,142; 3857,937;-1741,558
 365,81; 3918,939; 3935,818;-2792,173
 366,40; 3977,039; 3970,062;-2080,707
 367,00; 4294,239; 4021,550;-2952,776
 367,59; 4919,326; 4071,831;-2979,699
 368,19; 5560,482; 4221,678;-3237,306
 368,79; 5118,989; 4198,720;-3125,268
 369,38; 4710,322; 4107,200;-2250,383
 369,98; 5171,489; 4101,940;-2935,940
 370,57; 5591,399; 4188,588;-3331,356
 371,17; 5404,445; 4164,860;-3326,135
 371,76; 6065,929; 4277,486;-3442,879
 372,36; 6758,439; 4057,598;-3195,501
 372,95; 8420,245; 4115,372;  667,934
 373,55; 9229,729; 4105,998;-3393,811
 374,14; 9044,025; 4300,099;-3405,097
 374,74; 8848,875; 4256,514;-3224,124
 375,34; 7801,649; 4286,979;-3189,521
 375,93; 7844,235; 4295,479;-2706,116
 376,53; 6763,052; 4344,585;-3575,974
 377,12; 4754,616; 4405,670;-1465,352
 377,72; 3653,029; 4480,730;-3410,414
 378,31; 4087,399; 4511,027;-2274,699
 378,91; 4447,862; 4291,429;-3262,199
 379,50; 5090,259; 4588,213;-3331,363
 380,10; 4981,646; 4327,226;-3398,890
 380,69; 5179,416; 4094,621;-2343,626
 381,29; 6927,099; 4586,735;-2550,439
 381,88; 8848,525; 4518,758;-1605,111
 382,48; 8768,232; 4519,727;-3286,485
 383,07; 7412,235; 4495,358;-3457,802
 383,67; 7135,525; 4635,758;-1847,111
 384,26; 6492,999; 4667,491;-2467,905
 384,86; 5367,782; 4921,849;-3182,252
 385,45; 5190,976; 4932,636;-3325,344
 386,05; 4907,029; 5073,608;-3419,100
 386,64; 4322,009; 4911,384;-3524,855
 387,24; 4568,902; 5016,878;-2585,688
 387,83; 4663,252; 4993,512;-2489,386
 388,42; 5005,022; 5182,346;-2109,466
 389,02; 4724,486; 5423,748;-3235,966
 389,61; 4347,266; 5688,036;-3413,653
 390,21; 4257,902; 5729,878;-3463,688
 390,80; 3478,875; 5816,392;-3208,810
 391,40; 3455,156; 6137,899;-2293,168
 391,99; 4095,576; 5981,099;-3195,550
 392,59; 4280,419; 6435,252;-2416,943
 393,18; 3820,569; 6683,398;-2491,573
 393,77; 3093,149; 6883,198;-3238,192
 394,37; 3376,229; 7145,657;-2198,825
 394,96; 3863,089; 7098,403;-2296,146
 395,56; 3664,399; 7264,588;-2834,356
 396,15; 4232,686; 6867,797;-3125,692
 396,75; 4732,335; 7343,163;-2889,993
 397,34; 3539,489; 7669,940;-2620,940
 397,93; 3005,109; 7720,188;-3358,047
 398,53; 3013,459; 7595,262;-2525,088
 399,12; 3223,839; 8192,013;-2154,981
 399,72; 3847,656; 8013,119;-2274,840
 400,31; 3968,282; 8034,629;-3169,581
 400,91; 3605,666; 8446,012;-2959,791
 401,50; 3083,149; 8820,198;-2330,192
 402,09; 3030,392; 8550,327;-2894,722
 402,69; 3208,936; 8691,187;-3072,856
 403,28; 3321,922; 9052,663;-2983,588
 403,88; 5650,279; 9162,560; 1927,079
 404,47; 6921,326; 9689,831;  884,300
 405,06; 4686,202; 9684,171;  -68,947
 405,66; 5264,972; 9753,565;-2875,684
 406,25; 7038,989;10085,720;-3119,268
 406,84; 6821,896;10446,177;-2892,711
 407,44; 5422,272;10847,858;-2219,944
 408,03; 3578,389;10422,257;-2906,063
 408,63; 3284,465;10373,085;-3011,379
 409,22; 3229,879;10191,584;-1945,783
 409,81; 3387,595;10681,007;-1849,765
 410,41; 3509,772;11553,078;-2857,615
 411,00; 3732,205;11336,362;-1814,921
 411,59; 4187,279;11251,120;-2826,578
 412,19; 4407,819;11468,350;-2245,394
 412,78; 4866,096;11399,226;-2830,436
 413,37; 5240,352;12151,878;-2704,234
 413,97; 5523,702;12410,512;-2618,933
 414,56; 5230,009;12071,506;-2503,169
 415,15; 4746,499;12410,394;-2121,547
 415,75; 4388,772;12408,639;-2698,272
 416,34; 3808,042;12590,254;-1893,681
 416,93; 4061,929;12922,047;-2777,536
 417,53; 4620,479;12696,169;-1423,303
 418,12; 5310,922;12570,785;-2217,903
 418,71; 5372,195;12907,592;-2673,285
 419,31; 6241,839;13054,695;-1884,952
 419,90; 6386,282;13470,313;-2786,552
 420,49; 4819,722;13619,298;-1733,834
 421,08; 4062,722;14201,298;-1674,834
 421,68; 4552,445;14723,421;-1908,792
 422,27; 5147,949;14035,832;-2004,437
 422,86; 5498,702;13874,073; -437,590
 423,46; 5184,342;14080,107;-2575,598
 424,05; 4793,835;14376,626;-2928,293
 424,64; 5335,325;13888,953;-2640,014
 425,24; 5538,302;14092,098;-2903,453
 425,83; 5412,052;13992,269;-2680,945
 426,42; 6041,835;12987,626;-2760,293
 427,01; 6359,999;13424,734;-2674,533
 427,61; 4507,282;14347,873;-2609,209
 428,20; 3614,022;14036,151;-1764,751
 428,79; 3616,898;14414,052;-2859,656
 429,38; 4349,215;14092,377;-1781,186
 429,98; 5068,192;14922,521; -994,625
 430,57; 5891,282;15058,873;-2193,209
 431,16; 4759,429;14580,389;-2784,522
 431,75; 4679,095;14357,909; -561,407
 432,35; 5844,055;13435,899;-1951,262
 432,94; 4639,662;14429,186;-2324,759
 433,53; 3402,042;14560,375;-1152,995
 434,12; 3192,172;14431,298;-2267,381
 434,72; 3093,812;14188,331;-1413,389
 435,31; 3105,635;14167,699; 7395,119
 435,90; 2821,948;14308,954; 8338,249
 436,49; 2947,572;13427,834; -683,175
 437,08; 3058,602;13895,951; -675,370
 437,68; 4846,878;14442,827;-2987,412
 438,27; 5961,208;14610,237;-2610,866
 438,86; 3632,398;14612,832;-1147,984
 439,45; 2967,372;15313,346;-1937,106
 440,05; 4282,245;15955,616;-2982,694
 440,64; 4385,118;15054,886;-1902,282
 441,23; 3419,988;14152,525;-1415,553
 441,82; 2811,128;13700,218;-2631,576
 442,41; 2363,542;14351,277;-3014,637
 443,00; 2244,278;13625,925;-2724,863
 443,60; 2333,598;14373,881;-3136,710
 444,19; 2352,722;15026,541;-1440,462
 444,78; 2329,472;14960,151;-3012,298
 445,37; 2271,622;15728,297;-2522,928
 445,96; 2430,422;15331,249;-3116,202
 446,56; 2446,028;15596,535;-1144,698
 447,15; 2374,832;16225,678; -884,947
 447,74; 2257,478;17097,412;-2709,931
 448,33; 2170,908;16443,066;-1985,920
 448,92; 2162,425;15422,440;-2964,176
 449,51; 1950,288;15095,817;-2848,813
 450,10; 1772,122;15133,078;-3063,256
 450,70; 1780,838;14904,939;-1957,581
 451,29; 1778,978;15329,193;-1112,260
 451,88; 1887,138;15513,671;-2929,183
 452,47; 2251,695;16565,055;-2795,584
 453,06; 2087,665;16495,498;-2401,047
 453,65; 1706,355;16071,874;-2873,493
 454,24; 1715,698;17329,246;-2173,558
 454,84; 1855,712;17793,209;-1379,168
 455,43; 1721,318;18732,496;-2219,665
 456,02; 1650,758;18879,480;-2927,947
 456,61; 1629,332;17317,459;-2925,275
 457,20; 1755,728;16921,363;-2786,753
 457,79; 1807,841;17588,131;-2922,554
 458,38; 1756,431;18338,264;-2132,467
 458,97; 1702,295;18039,641;-2515,104
 459,56; 1748,411;18190,479;-2760,565
 460,16; 1775,911;17832,258;-2082,894
 460,75; 1808,571;18157,518;-2072,146
 461,34; 1764,741;18077,887;-2962,020
 461,93; 1713,561;18381,186;-2200,853
 462,52; 1840,818;19333,275;-2744,993
 463,11; 1899,321;20546,688;-1989,639
 463,70; 1855,468;19458,643;-2869,295
 464,29; 1935,091;19945,082;-3150,376
 464,88; 1976,525;20795,807;-2743,024
 465,47; 1809,858;19885,285;-2748,139
 466,06; 1830,095;20915,713;-3191,692
 466,65; 2006,465;21667,572;-3018,635
 467,24; 2066,031;22030,848;-2539,986
 467,84; 1958,308;22443,164;-2020,371
 468,43; 1877,625;22325,051;-2238,559
 469,02; 1954,001;23517,170;-2702,135
 469,61; 1866,768;24168,936;-2593,555
 470,20; 1931,011;23781,063;-2841,085
 470,79; 1900,998;22760,100;-3232,475
 471,38; 1760,301;25266,463;-2192,395
 471,97; 1691,175;26009,732; -666,983
 472,56; 1759,018;25472,887;-3035,376
 473,15; 1830,928;25296,975;-2825,135
 473,74; 1856,551;26395,854;-3106,559
 474,33; 1874,858;25866,848;-2957,796
 474,92; 1792,445;27630,348;-3146,391
 475,51; 1808,875;29609,002;-2873,380
 476,10; 1765,315;29847,986;-3011,662
 476,69; 1869,401;26101,268;-2855,586
 477,28; 1800,848;25846,955;-2956,845
 477,87; 1714,251;27035,121; -173,956
 478,46; 1791,571;28695,639;-3029,460
 479,05; 1789,825;30507,100;-2134,284
 479,64; 1765,601;31679,756;-2718,655
 480,23; 1726,981;29541,508;-2845,548
 480,82; 1689,355;28549,996;-2736,807
 481,41; 1685,328;29371,510;-1873,929
 482,00; 1650,845;29284,885;-1364,185
 482,59; 1658,528;29593,998;-2298,998
 483,18; 1777,801;31702,244;-2376,723
 483,77; 1732,985;31703,139;-2193,865
 484,36; 1821,875;32475,002;-1701,380
 484,95; 1826,031;32990,410; -788,643
 485,54; 2034,168;35331,031;-1371,006
 486,13; 2329,181;35762,996; -945,616
 486,72; 2887,811;34334,137;  148,326
 487,31; 2980,308;31046,285;-1109,686
 487,89; 2417,878;32608,633; -193,697
 488,48; 3087,584;33798,164;-1523,728
 489,07; 3611,738;32913,941;-1248,674
 489,66; 2732,265;33511,645;-1505,224
 490,25; 2189,695;31095,299; -660,212
 490,84; 2376,391;34127,375;-1683,635
 491,43; 3815,838;34965,621; -701,552
 492,02; 4525,958;36094,652;-1864,987
 492,61; 3005,578;35362,902;-1043,094
 493,20; 2371,938;33776,426;-2019,743
 493,79; 2303,631;32749,434; 4824,494
 494,38; 2262,381;33706,043;-1938,342
 494,97; 3242,044;32583,934; -629,911
 495,55; 4593,908;34690,309;-2325,548
 496,14; 3627,408;35087,531;-2403,220
 496,73; 2408,395;35451,566;-1952,609
 497,32; 2268,915;34211,570;-2587,182
 497,91; 2514,604;35005,949;-1921,629
 498,50; 2616,051;34165,195;-2912,544
 499,09; 2429,915;34554,570;-3088,182
 499,68; 2705,155;32403,070;-2405,396
 500,27; 3113,381;33321,605;-2490,999
 500,85; 3187,438;32655,207;-2604,071
 501,44; 2935,201;32478,342;-2576,175
 502,03; 2675,058;33194,457;-3368,178
 502,62; 2290,981;31275,068;-3438,205
 503,21; 2187,198;29432,711;-3532,858
 503,80; 2264,274;32028,100;-2976,831
 504,39; 2154,354;32451,119;-3458,121
 504,97; 2161,244;31774,982;-3577,636
 505,56; 2038,821;31537,590;-2979,281
 506,15; 2262,681;32302,336;-3991,602
 506,74; 2232,768;32557,617;-2945,526
 507,33; 2190,391;32185,498;-3165,949
 507,92; 2340,521;33952,859;-3871,678
 508,51; 2073,378;35926,973;-3735,682
 509,09; 2134,154;34536,629;-3921,053
 509,68; 2167,604;34318,508;-3748,286
 510,27; 2077,654;33667,410;-3799,381
 510,86; 2164,504;32572,264;-4081,751
 511,45; 2158,778;33677,512;-3843,476
 512,03; 2295,348;34524,855;-3829,488
 512,62; 2553,165;36240,961;-3780,346
 513,21; 2831,691;33870,789;-3186,209
 513,80; 3130,931;34644,289;-3501,423
 514,39; 2862,261;32752,137;-3905,221
 514,97; 2632,824;35347,781;-4095,255
 515,56; 2649,111;34167,551;-4198,248
 516,15; 3421,911;35428,063;-3955,179
 516,74; 3782,224;32584,318;-4420,049
 517,33; 2871,048;33459,688;-3549,542
 517,91; 2462,214;33935,426;-4188,099
 518,50; 2783,748;32563,393;-3264,282
 519,09; 3230,428;33942,875;-3157,778
 519,68; 3029,204;35231,531;-4286,148
 520,26; 2623,591;38679,547;-4232,675
 520,85; 2561,448;39452,660;-4352,679
 521,44; 2674,471;40826,078;-4358,897
 522,03; 3142,898;39485,539;-4271,912
 522,61; 3667,471;36773,078;-4364,897
 523,20; 3513,684;33924,090;-4337,233
 523,79; 2860,271;32040,590;-4337,828
 524,38; 2493,154;32850,191;-4344,709
 524,96; 2323,848;35883,199;-4321,473
 525,55; 2399,641;36021,449;-4542,771
 526,14; 3013,034;34018,723;-4434,931
 526,73; 3521,124;32852,074;-4389,515
 527,31; 2883,744;32903,324;-4488,622
 527,90; 2516,641;33630,449;-4564,771
 528,49; 2266,841;34155,938;-2529,839
 529,08; 1936,998;34601,344;-3467,103
 529,66; 2035,294;34848,445;-3911,389
 530,25; 1932,198;35279,832;-4414,172
 530,84; 1899,344;35334,348;-4583,485
 531,42; 2020,591;38583,105;-4365,332
 532,01; 2516,108;37528,480;-4291,588
 532,60; 2770,324;34512,125;-4473,241
 533,18; 2164,511;35538,086;-4078,042
 533,77; 1900,868;34969,984;-4236,374
 534,36; 1851,721;34459,469;-4374,061
 534,95; 1835,588;35483,477;-4088,015
 535,53; 1873,858;34236,090; -974,424
 536,12; 2319,001;36469,977;-2657,420
 536,71; 2729,141;36511,230;-3869,099
 537,29; 2385,564;36073,621;-3618,454
 537,88; 2261,471;33908,078;-3454,897
 538,47; 2156,838;32497,867;-2840,180
 539,05; 2238,008;36837,238;-2139,054
 539,64; 2517,304;40414,898;-1785,997
 540,22; 2675,778;37414,633; -764,790
 540,81; 2667,367;37501,766; 1008,297
 541,40; 2344,431;39018,629; 3425,591
 541,98; 2176,488;38188,230; 4858,519
 542,57; 2219,001;39368,977; 4597,580
 543,16; 1977,698;38645,613; 4952,500
 543,74; 1861,934;35774,480; 4083,603
 544,33; 1970,744;36297,883; 3620,721
 544,92; 1949,091;37217,887; 3973,339
 545,50; 1805,801;37338,488;11456,648
 546,09; 1675,788;40064,965;11359,916
 546,67; 1614,208;41948,727; 2857,878
 547,26; 1622,031;40050,094; -202,615
 547,85; 1612,624;39208,414; -567,501
 548,43; 1519,911;38452,625; -849,836
 549,02; 1516,874;39427,246;-1040,008
 549,60; 1474,188;40570,500; -984,878
 550,19; 1530,254;41166,996;-2192,901
 550,78; 1475,878;42660,875;-2328,325
 551,36; 1437,924;45349,148;-2432,104
 551,95; 1351,144;45443,859; -585,416
 552,53; 1381,608;43280,262; -296,916
 553,12; 1377,587;41420,035;-3431,672
 553,70; 1355,041;43188,547;-2878,222
 554,29; 1363,641;44058,008;-2869,428
 554,88; 1349,591;41831,668;-4247,989
 555,46; 1380,721;43723,027;-3881,718
 556,05; 1374,248;45007,734;-4207,268
 556,63; 1667,127;45206,266;-3396,489
 557,22; 1677,938;43875,109;-3394,714
 557,80; 1562,021;41749,762;-3568,321
 558,39; 1684,221;44188,250;-4145,390
 558,97; 1559,917;47993,887;-3699,470
 559,56; 1415,711;49889,137;-4544,768
 560,15; 1397,438;50117,891;-3611,042
 560,73; 1484,617;49814,152;-4287,867
 561,32; 1864,524;47024,609;-3741,309
 561,90; 1674,517;46041,910;-4382,333
 562,49; 1401,944;48487,371;-3786,348
 563,07; 1279,331;48074,387;-4783,875
 563,66; 1244,537;50064,133;-4352,577
 564,24; 1323,404;49228,145;-4763,531
 564,83; 1252,244;51344,664;-4603,607
 565,41; 1385,118;53840,375;-4329,539
 566,00; 1350,657;52202,164;-2755,012
 566,58; 1322,291;56465,375;-3725,729
 567,17; 1272,881;56909,508;-4280,642
 567,75; 1231,184;52392,871;-4653,562
 568,34; 1208,061;55893,770;-3216,466
 568,92; 1176,314;55738,793;-3987,947
 569,51; 1257,784;54852,895; 2680,576
 570,09; 1270,024;58247,391;-4676,638
 570,68; 1250,981;53188,313;-4788,833
 571,26; 1242,701;50733,242;-3886,817
 571,85; 1214,594;57347,738;-4822,649
 572,43; 1143,638;57011,379;-4704,111
 573,01; 1100,464;52662,375;-4873,920
 573,60; 1146,988;53819,012;-3785,810
 574,18; 1201,608;55122,262;-4514,917
 574,77; 1181,167;53284,277;-4737,634
 575,35; 1189,988;56113,012;-4452,810
 575,94; 1232,887;57300,770;-4076,275
 576,52; 1245,301;54049,270;-2249,680
 577,11; 1148,247;51620,297;-3244,924
 577,69; 1175,907;48685,555;-3183,176
 578,27; 1176,254;51008,996;-3447,901
 578,86; 1186,867;55198,543;-2994,031
 579,44; 1163,121;60080,004;-2805,855
 580,03; 1236,884;60164,137;-2493,958
 580,61; 1246,647;60267,270;-3206,062
 581,19; 1289,031;56429,652;-2538,271
 581,78; 1199,394;55361,813;-2364,238
 582,36; 1168,894;57656,031;-2911,909
 582,95; 1172,351;56180,172;-1497,776
 583,53; 1269,174;59586,539;-2319,268
 584,11; 1199,571;61608,883;-2241,088
 584,70; 1227,724;61691,660;-1948,035
 585,28; 1271,891;62070,398;-1853,592
 585,87; 1286,424;60436,930;-2889,432
 586,45; 1215,867;63023,543;-2375,031
 587,03; 1234,011;64945,430;-1150,027
 587,62; 1252,644;61494,641;-1834,745
 588,20; 1320,208;62236,285;-1020,779
 588,78; 1312,514;58157,840;-3411,673
 589,37; 1362,301;57765,270;-3360,680
 589,95; 1353,234;62238,773;-3385,657
 590,54; 1414,347;63633,539;-3461,459
 591,12; 1389,767;62116,301;-3508,497
 591,70; 1337,968;59586,789;-3331,565
 592,29; 1318,527;62881,805;-2923,283
 592,87; 1367,118;63542,375;-2394,538
 593,45; 1317,354;63404,801; 1487,908
 594,04; 1257,257;62800,188;-3676,875
 594,62; 1264,517;59709,910;-3708,333
 595,20; 1191,127;62066,828;-4371,146
 595,79; 1258,034;62681,285;-4165,588
 596,37; 1261,907;61108,555;-3657,176
 596,95; 1307,831;56922,164;-4321,203
 597,53; 1275,061;58806,770;-4226,466
 598,12; 1219,731;61848,922;-3959,669
 598,70; 1236,654;64932,531;-3776,695
 599,28; 1273,118;64911,375;-3404,538
 599,87; 1199,927;64929,777;-3061,420
 600,45; 1272,901;64938,293;-3907,543
 601,03; 1231,274;63145,781;-4100,802
 601,62; 1248,257;61727,188;-4468,875
 602,20; 1313,277;59786,414;-4541,119
 602,78; 1229,227;64399,070;-4770,680
 603,36; 1156,941;64783,301;-3166,688
 603,95; 1214,167;58863,277;-4492,634
 604,53; 1178,688;62401,281;-4574,207
 605,11; 1184,261;59505,258;-2755,535
 605,69; 1141,964;62362,156;-3365,249
 606,28; 1170,527;62594,805;-4223,283
 606,86; 1163,318;61629,422;-3946,264
 607,44; 1056,041;60431,547;-3906,222
 608,02; 1058,701;58047,805;-4037,474
 608,61; 1011,591;60099,668;-2866,989
 609,19;  981,971;58582,418;-2582,882
 609,77;  998,144;57398,422; -710,073
 610,35;  918,794;55748,785; 5794,625
 610,94;  964,077;56509,926;14509,949
 611,52;  916,591;55803,668;12610,011
 612,10;  884,544;53026,957; 8432,133
 612,68;  849,504;56637,949; 2694,278
 613,26;  941,734;57037,551; 2032,015
 613,85; 1002,251;61759,926; -599,241
 614,43;  840,211;62306,918;-1030,096
 615,01;  811,471;62272,199;-1215,211
 615,59;  812,887;64874,328; -972,932
 616,17;  847,684;59402,648;-2561,890
 616,76;  930,917;62178,887;-2993,470
 617,34;  949,561;62666,988;-2389,138
 617,92;  894,061;58547,770;-3399,466
 618,50;  976,031;61202,652;-2562,271
 619,08;  976,068;57928,031;-2514,100
 619,67;  900,657;55968,164;-3196,012
 620,25;  890,644;54290,641;-2743,745
 620,83;  810,901;50498,293;-3495,543
 621,41;  869,007;52314,797;-2800,711
 621,99;  864,937;54560,672;-2529,371
 622,57;  961,057;55529,141;-3707,149
 623,15;  918,331;56213,387;-3783,875
 623,74;  847,634;58266,746;-3892,794
 624,32;  893,501;59330,754;-2827,749
 624,90;  891,477;58625,898;-2311,188
 625,48;  806,281;57897,043;-3132,436
 626,06;  761,024;56898,391;-4006,638
 626,64;  731,121;57787,004;-4162,855
 627,22;  669,854;58993,020;-3409,764
 627,81;  686,631;58046,117;-4334,478
 628,39;  640,578;57121,145;-4560,722
 628,97;  732,074;56597,293;-4437,733
 629,55;  794,808;55377,750;-4219,985
 630,13;  831,647;55669,270;-2959,062
 630,71;  718,611;54162,891;-2747,233
 631,29;  720,167;53129,277;-3824,634
 631,87;  744,708;52776,504;-4223,451
 632,45;  694,684;52786,648;-4716,890
 633,03;  724,014;54183,500;-4191,688
 633,62;  723,688;55423,281;-4714,207
 634,20;  706,524;54882,172;-4089,966
 634,78;  717,601;56497,000;-4430,283
 635,36;  724,338;56701,648;-4449,508
 635,94;  725,158;55183,383;-5398,684
 636,52;  743,991;51027,645;-5422,126
 637,10;  694,831;52116,164;-5488,203
 637,68;  686,134;50694,527;-4702,123
 638,26;  656,981;47618,750;-5536,176
 638,84;  683,824;48688,902;-5421,569
 639,42;  729,831;49235,164;-3756,203
 640,00;  809,575;51366,148;-5405,726
 640,58;  822,366;54579,402;-4806,027
 641,16;  750,156;55521,656;-5571,328
 641,74;  782,947;53214,906;-5433,630
 642,32;  760,738;50106,160;-5620,931
 642,90;  700,529;50434,414;-5856,232
 643,48;  699,320;49231,668;-5786,534
 644,06;  657,110;49280,922;-5796,835
 644,64;  662,901;49595,176;-5842,137
 645,22;  675,692;50513,430;-5562,438
 645,80;  577,483;50547,684;-4957,740
 646,39;  603,273;48107,938;-5515,041
 646,97;  574,064;49773,191;-5850,342
 647,54;  612,855;52328,441;-5717,644
 648,12;  638,646;54879,695;-5865,945
 648,70;  687,437;58954,949;-5885,247
 649,28;  706,227;56421,203;-6090,548
 649,86;  690,018;51091,457;-5609,850
 650,44;  600,809;48619,711;-5452,151
 651,02;  645,600;49970,965;-5474,452
 651,60;  628,390;51793,219;-5803,753
 652,18;  679,181;51320,473;-4735,055
 652,76;  638,972;53277,723;-5934,356
 653,34;  654,763;54817,977;-5939,658
 653,92;  658,553;57729,230;-5784,959
 654,50;  778,344;59042,484;-5818,261
 655,08;  757,135;58048,738;-5841,562
 655,66;  756,926;55058,992;-5115,863
 656,24;  848,716;56743,246;-5200,165
 656,82;  840,507;58989,500;-4979,466
 657,40;  806,298;58967,754;-5667,768
 657,98;  710,089;60169,008;-5486,069
 658,56;  737,880;61114,258;-5717,371
 659,14;  713,670;61380,512;-5913,672
 659,72;  721,461;63381,766;-5916,973
 660,29;  614,252;62437,020;-5907,275
 660,87;  634,043;59738,273;-5212,576
 661,45;  607,833;58590,527;-5664,877
 662,03;  615,624;57513,781;-4971,179
 662,61;  513,415;54945,035;-5638,480
 663,19;  599,206;54618,289;-5657,782
 663,77;  584,997;53917,543;-5939,083
 664,35;  543,787;56689,793;-5887,384
 664,93;  521,578;62595,047;-4922,686
 665,51;  554,369;61993,301;-6033,987
 666,08;  489,160;57747,555;-5652,289
 666,66;  491,950;51859,809;-4400,590
 667,24;  515,741;49420,063;-5952,892
 667,82;  594,532;50250,316;-5849,193
 668,40;  558,323;50723,570;-5932,494
 668,98;  550,113;51952,824;-5097,796
 669,56;  506,904;57957,078;-6096,097
 670,13;  592,695;61797,328;-6222,398
 670,71;  636,486;59698,582;-5900,700
 671,29;  552,277;57209,836;-6139,001
 671,87;  490,067;56814,090;-6051,303
 672,45;  489,858;51822,344;-6050,604
 673,03;  544,649;52592,598;-4769,906
 673,60;  488,440;58431,852;-3503,207
 674,18;  542,230;63679,105;-5938,508
 674,76;  539,021;61159,359;-6226,810
 675,34;  536,812;56361,613;-5251,111
 675,92;  476,603;55284,863;-6338,413
 676,50;  522,393;55051,117;-6085,714
 677,07;  475,184;56952,371;-6095,016
 677,65;  514,975;56680,625;-6163,317
 678,23;  525,766;55997,879;-5057,618
 678,81;  489,557;58016,133;-5299,919
 679,38;  552,347;56669,387;-5969,221
 679,96;  465,138;53267,641;-5846,522
 680,54;  496,929;55171,895;-5308,824
 681,12;  505,720;52485,148;-6126,125
 681,70;  473,510;54786,398;-4413,427
 682,27;  501,301;54740,652;-5851,728
 682,85;  427,092;58265,906;-5991,029
 683,43;  526,883;64943,160;-6140,331
 684,01;  511,673;64943,414;-5172,632
 684,58;  495,464;64307,668;-5138,934
 685,16;  467,255;64236,922;-4494,235
 685,74;  518,046;62790,176;-3853,536
 686,32;  503,837;59009,430;-6012,838
 686,89;  501,627;59552,684;-6015,139
 687,47;  537,418;59534,934;-6076,441
 688,05;  487,209;56416,188;-6019,742
 688,63;  465,000;59626,441;-6102,043
 689,20;  459,790;62884,695;-5971,345
 689,78;  494,581;58427,949;-5530,646
 690,36;  474,372;54291,203;-5381,948
 690,93;  435,163;54968,457;-6355,249
 691,51;  511,953;61453,711;-6326,550
 692,09;  496,744;64946,965;-6223,852
 692,67;  482,535;64947,219;-6047,153
 693,24;  478,326;60968,469;-5803,455
 693,82;  424,117;59538,723;-6235,756
 694,40;  542,907;58049,977;-3570,058
 694,97;  434,698;57456,230;-6046,359
 695,55;  467,489;59820,484;-5464,660
 696,13;  499,280;61729,738;-4454,962
 696,70;  510,070;58594,992;-6029,263
 697,28;  487,861;59108,246;-6266,564
 697,86;  479,652;60837,500;-6030,866
 698,43;  503,443;58827,754;-6198,167
 699,01;  421,234;55595,004;-6051,469
 699,59;  455,024;55751,258;-6402,770
 700,16;  443,815;54174,512;-5257,072
 700,74;  463,606;57040,766;-5497,373
 701,32;  391,397;56440,020;-6233,674
 701,89;  368,187;55792,273;-6049,976
 702,47;  386,978;60296,527;-6466,277
 703,05;  468,769;64951,781;-6309,579
 703,62;  418,560;64952,035;-6227,880
 704,20;  460,350;64952,285;-5306,182
 704,77;  415,141;64952,539;-6118,483
 705,35;  381,932;64213,793;-6006,784
 705,93;  402,723;64327,047;-4922,085
 706,50;  457,514;63796,301;-5267,387
 707,08;  398,304;60606,555;-5284,688
 707,65;  362,095;60046,809;-5620,990
 708,23;  420,886;64881,063;-5431,292
 708,81;  363,677;64954,316;-5019,593
 709,38;  408,467;64954,570;-5001,894
 709,96;  441,258;64954,820;-6025,195
 710,53;  461,049;64955,074;-6007,497
 711,11;  413,840;61503,328;-5752,798
 711,69;  373,630;61913,582;-3821,100
 712,26;  447,421;59012,836;-4642,401
 712,84;  398,212;63346,090;-5947,703
 713,41;  404,003;64411,344;-6153,004
 713,99;  421,794;64924,598;-6068,305
 714,56;  431,584;62057,852;-6326,607
 715,14;  382,375;60312,105;-6198,908
 715,71;  440,166;60246,355;-6210,209
 716,29;  478,957;62893,609;-6648,511
 716,86;  383,747;63573,863;-6510,813
 717,44;  440,538;63263,117;-6424,114
 718,02;  445,329;62110,371;-6462,415
 718,59;  432,120;61013,625;-5121,716
 719,17;  369,910;63488,879;-5649,018
 719,74;  457,701;62907,133;-5756,319
 720,32;  456,492;63502,387;-6451,621
 720,89;  428,283;64959,641;-6422,922
 721,47;  414,074;64959,891;-6388,224
 722,04;  372,864;64960,145;-5502,525
 722,62;  384,655;64252,398;-3979,826
 723,19;  421,446;60250,652;-4938,128
 723,77;  345,237;57638,906;-5673,429
 724,34;  390,027;60150,160;-5576,730
 724,92;  387,818;63789,414;-6558,032
 725,49;  371,609;64961,668;-5666,333
 726,07;  389,400;64961,922;-6491,635
 726,64;  405,190;64627,176;-6587,936
 727,21;  407,981;60249,426;-5627,238
 727,79;  382,772;63706,680;-6444,539
 728,36;  402,563;64962,934;-6722,840
 728,94;  421,354;64963,188;-6535,142
 729,51;  415,144;64963,441;-6365,443
 730,09;  445,935;64963,695;-5545,745
 730,66;  429,726;64963,949;-6358,046
 731,24;  373,517;64964,203;-6577,348
 731,81;  518,307;64964,457;-5151,649
 732,38;  465,098;64964,711;-6492,950
 732,96;  446,889;64964,961;-6263,251
 733,53;  480,680;60347,215;-6389,553
 734,11;  510,470;61575,469;-6617,854
 734,68;  556,261;64965,723;-6211,156
 735,26;  568,052;64965,977;-6389,458
 735,83;  550,843;64966,230;-6498,759
 736,40;  625,634;62243,484;-6516,060
 736,98;  660,424;61999,738;-6374,361
 737,55;  597,215;59236,992;-5827,663
 738,13;  641,006;57707,246;-5702,964
 738,70;  713,797;60991,496;-5529,266
 739,27;  643,587;62504,750;-6452,567
 739,85;  624,378;62745,004;-6283,869
 740,42;  771,169;64968,258;-6464,170
 740,99;  814,960;64968,512;-5618,471
 741,57;  882,750;64968,766;-4867,773
 742,14;  803,541;64969,020;-5349,074
 742,72;  844,332;64969,273;-4751,375
 743,29;  897,123;64969,527;-6563,677
 743,86;  842,914;64969,781;-6538,979
 744,44;  986,704;64970,031;-6113,280
 745,01;  875,495;64970,285;-5760,581
 745,58;  813,286;64970,539;-6259,882
 746,16;  858,077;64970,793;-6188,184
 746,73;  856,867;64971,047;-6479,485
 747,30;  900,658;61139,301;-6536,787
 747,88;  934,449;59621,555;-5621,088
 748,45; 1005,240;64971,809;-5668,390
 749,02; 1136,031;64972,063;-6384,691
 749,60; 1168,821;62401,313;-6212,992
 750,17; 1264,612;61766,566;-5269,294
 750,74; 1309,403;62801,820;-6479,595
 751,31; 1391,194;63306,074;-6347,896
 751,89; 1377,984;64232,328;-6546,198
 752,46; 1432,775;64973,582;-6282,500
 753,03; 1358,566;64973,836;-6160,801
 753,61; 1364,357;63755,090;-4858,102
 754,18; 1265,147;64573,344;-6434,404
 754,75; 1156,938;63888,598;-5191,705
 755,32; 1201,729;60715,848;-6332,006
 755,90; 1110,520;64975,102;-6493,308
 756,47; 1083,311;64975,355;-4809,609
 757,04; 1014,101;64975,609;-6457,911
 757,61;  947,892;64975,863;-5553,212
 758,19;  903,683;64976,117;-5253,514
 758,76;  834,474;64976,371;-6603,815
 759,33;  808,264;64976,625;-6664,116
 759,90;  746,055;64976,879;-5714,417
 760,48;  692,846;64977,133;-6778,719
 761,05;  646,637;64977,383;-6083,021
 761,62;  601,427;62082,637;-4888,322
 762,19;  556,218;58992,891;-6144,624
 762,77;  537,009;61730,145;-5963,925
 763,34;  462,800;64978,398;-6610,226
 763,91;  417,591;64978,652;-5818,527
 764,48;  498,381;64978,906;-6756,829
 765,05;  492,172;64979,160;-6543,130
 765,63;  467,963;63215,414;-6417,432
 766,20;  460,754;59753,668;-6004,733
 766,77;  440,544;57105,918;-5921,035
 767,34;  418,335;58807,172;-6640,336
 767,91;  349,126;59176,426;-6689,637
 768,49;  376,917;61368,680;-6772,939
 769,06;  383,707;64980,934;-5832,240
 769,63;  411,498;62272,188;-6636,542
 770,20;  380,289;59567,441;-5868,843
 770,77;  355,080;57921,695;-5645,145
 771,34;  296,871;60065,949;-6615,446
 771,91;  396,661;60549,203;-6102,747
 772,49;  342,452;58558,453;-6369,048
 773,06;  332,243;57687,707;-6203,350
 773,63;  316,034;60204,961;-6639,651
 774,20;  360,824;58197,215;-5918,953
 774,77;  388,615;56475,469;-6631,254
 775,34;  357,406;56707,723;-6214,556
 775,91;  394,197;57056,977;-6417,857
 776,49;  477,987;58787,230;-6590,158
 777,06;  501,778;60761,484;-6015,460
 777,63;  533,569;64224,738;-6367,761
 778,20;  364,360;62572,988;-6250,063
 778,77;  366,151;63316,242;-5763,364
 779,34;  303,941;64985,496;-6585,666
 779,91;  317,732;64985,750;-6534,967
 780,48;  245,523;59144,004;-5853,268
 781,05;  297,314;50716,258;-6586,570
 781,62;  304,104;52124,512;-6604,871
 782,20;  312,895;58813,766;-6500,172
 782,77;  277,686;64987,020;-6529,474
 783,34;  349,477;64052,273;-6522,775
 783,91;  323,268;61362,523;-6509,077
 784,48;  258,058;60480,777;-2126,378
 785,05;  296,849;59144,031;-6540,680
 785,62;  264,640;58221,285;-6452,981
 786,19;  304,431;58149,539;-5100,282
 786,76;  265,221;55130,793;-6677,583
 787,33;  259,012;56202,047;-6515,885
 787,90;  285,803;59491,301;-6591,187
 788,47;  305,594;60148,555;-5075,488
 789,04;  321,384;58988,809;-5763,790
 789,61;  310,175;58863,059;-5066,091
 790,18;  270,966;55747,313;-6561,392
 790,75;  317,757;50841,566;-6671,693
 791,32;  295,548;52056,820;-6577,995
 791,89;  269,338;55205,074;-6068,296
 792,46;  292,129;60806,328;-5763,598
 793,03;  317,920;62404,582;-6702,899
 793,60;  363,711;55699,836;-6440,201
 794,17;  390,501;52257,090;-5569,502
 794,74;  397,292;47273,344;-5886,803
 795,31;  288,083;50096,594;-6099,105
 795,88;  246,874;52579,848;-5572,406
 796,45;  237,664;53365,102;-6529,708
 797,02;  245,455;56004,355;-5046,009
 797,59;  280,246;57922,609;-6675,311
 798,16;  238,037;54563,863;-5861,612
 798,73;  244,828;53534,117;-6761,913
 799,30;  272,618;55088,371;-6611,214
 799,87;  270,409;55650,625;-6713,516
 800,44;  261,200;55353,875;-6729,817
 801,01;  233,991;56836,129;-6807,119
 801,58;  251,781;58477,383;-6537,420
 802,15;  283,572;52086,637;-6658,722
 802,72;  260,363;48849,891;-6694,023
 803,28;  239,154;52000,145;-6076,324
 803,85;  259,944;57179,398;-6728,626
 804,42;  312,735;55235,652;-5999,927
 804,99;  258,526;53752,906;-6539,229
 805,56;  198,317;52472,160;-6770,530
 806,13;  202,108;53387,410;-6075,832
 806,70;  267,898;52719,664;-6748,133
 807,27;  220,689;54477,918;-6672,434
 807,84;  209,480;52786,172;-6693,736
 808,41;  247,271;49728,426;-6022,037
 808,98;  261,061;50479,680;-5986,338
 809,54;  209,852;52469,934;-4958,640
 810,11;  193,643;48281,188;-6782,941
 810,68;  194,434;43021,441;-6680,243
 811,25;  175,224;41394,695;-6760,544
 811,82;  216,015;40374,945;-6886,846
 812,39;  219,806;37710,199;-3331,147
 812,96;  233,597;38779,453;-6767,448
 813,52;  216,388;41291,707;-6937,750
 814,09;  180,178;44522,961;-6766,051
 814,66;  188,969;50325,215;-6827,353
 815,23;  166,760;51240,469;-6669,654
 815,80;  177,551;50439,723;-5853,956
 816,37;  196,341;50917,977;-6801,257
 816,93;  222,132;49487,230;-6731,558
 817,50;  252,923;46790,480;-6102,859
 818,07;  283,714;46034,734;-6960,161
 818,64;  226,505;46919,988;-6856,462
 819,21;  202,295;46261,242;-6053,764
 819,77;  249,086;42742,496;-6571,065
 820,34;  215,877;42053,750;-6677,367
 820,91;  231,668;43276,004;-6469,668
 821,48;  312,458;43873,258;-6689,969
 822,05;  322,249;45571,512;-5875,271
 822,61;  300,040;44296,766;-5631,572
 823,18;  232,831;41860,016;-6620,874
 823,75;  224,621;42585,270;-6957,175
 824,32;  229,412;45286,523;-6923,477
 824,88;  284,203;45073,777;-6882,778
 825,45;  208,994;44018,031;-6899,079
 826,02;  212,785;43798,285;-6643,380
 826,59;  204,575;43974,539;-6639,682
 827,15;  169,366;46077,793;-6906,983
 827,72;  204,157;49519,047;-6723,285
 828,29;  182,948;51523,301;-6895,586
 828,86;  220,738;48827,551;-6791,888
 829,42;  208,529;40797,805;-6812,189
 829,99;  224,320;36802,059;-6647,490
 830,56;  180,111;36252,313;-6869,792
 831,13;  202,901;37220,566;-6060,093
 831,69;  185,692;38022,820;-6506,395
 832,26;  217,483;38832,074;-5062,696
 832,83;  189,274;40408,328;-5452,998
 833,39;  229,065;40187,582;-6904,299
 833,96;  210,855;39167,836;-6687,600
 834,53;  177,646;40039,086;-6928,902
 835,10;  139,437;39930,340;-6529,203
 835,66;  161,228;38972,594;-6920,504
 836,23;  199,018;39801,848;-6803,806
 836,80;  143,809;39428,102;-6790,107
 837,36;  169,600;37086,355;-6810,409
 837,93;  186,391;34475,609;-6902,710
 838,50;  213,181;35084,863;-6789,012
 839,06;  177,972;37684,117;-6288,313
 839,63;  123,763;37191,371;-6895,614
 840,19;  160,554;35132,621;-6607,916
 840,76;  149,345;35364,875;-6404,217
 841,33;  132,135;35892,129;-6509,519
 841,89;  218,926;36779,383;-6949,820
 842,46;   85,717;37103,637;-6751,122
 843,03;  159,508;35389,891;-6089,423
 843,59;  106,298;34224,145;-6403,724
 844,16;  173,089;34994,398;-6181,025
 844,73;  208,880;34249,652;-6067,327
 845,29;  155,671;32937,902;-5695,628
 845,86;  146,461;35699,156;-6800,930
 846,42;  120,252;36940,410;-7004,231
 846,99;  147,043;36477,664;-6967,533
 847,56;  120,834;36265,918;-5840,834
 848,12;  104,625;36240,172;-6745,135
 848,69;  123,415;35710,426;-6715,437
 849,25;  128,206;34401,680;-6845,738
 849,82;   55,997;34081,934;-3247,040
 850,38;  124,788;35064,188;-6840,341
 850,95;   94,578;32489,439;-6324,643
 851,52;  161,369;32520,693;-6565,944
 852,08;  130,160;32548,947;-6691,245
 852,65;  107,951;30323,199;-7005,546
 853,21;   83,742;27698,453;-6958,848
 853,78;   98,532;27362,707;-6363,149
 854,34;   98,323;28860,961;-6871,451
 854,91;   74,114;29081,215;-5086,752
 855,47;  134,905;29942,467;-5108,054
 856,04;  170,695;32027,721;-6746,355
 856,60;  142,486;33961,973;-6104,656
 857,17;  124,277;34979,227;-6840,958
 857,73;  124,068;33553,480;-6811,259
 858,30;  111,858;32532,734;-6985,561
 858,86;  145,649;31110,988;-5926,862
 859,43;  117,440;31430,242;-6226,164
 859,99;  132,231;32011,496;-6852,465
 860,56;   78,022;33126,750;-6903,766
 861,12;  115,812;35190,004;-6737,068
 861,69;  152,603;33669,258;-5924,369
 862,25;  140,394;34731,508;-6821,670
 862,82;  106,185;34419,762;-5972,972
 863,38;   92,975;31196,018;-6843,273
 863,95;  141,766;29305,270;-6239,575
 864,51;  173,557;30403,523;-5287,876
 865,08;  161,348;29284,777;-6090,178
 865,64;   84,138;26795,031;-7018,479
 866,21;  135,929;26131,285;-6745,780
 866,77;   97,720;26051,537;-5552,082
 867,34;  185,511;25734,791;-6672,383
 867,90;  169,302;24632,045;-6303,685
 868,46;  197,092;23835,299;-6041,986
 869,03;  136,883;24389,551;-6929,288
 869,59;  155,674;26353,805;-6884,589
 870,16;  127,465;27647,059;-6052,890
 870,72;   87,255;30060,313;-6657,191
 871,28;  183,046;32915,566;-5992,493
 871,85;  122,837;33142,820;-6907,794
 872,41;   85,628;31569,072;-6004,096
 872,98;  101,418;32738,326;-6050,397
 873,54;   71,209;33876,578;-5920,699
 874,10;  135,000;32768,832;-5876,000
 874,67;   97,000;32987,832;-6904,000
 875,23;  101,000;31068,834;-7032,000
 875,80;  113,000;28009,834;-6641,000
 876,36;   82,000;25058,834;-6642,000
 876,92;   68,000;22832,834;-6189,000
 877,49;  123,000;23923,834;-6517,000
 878,05;  107,000;24896,834;-6797,000
 878,61;   47,000;26938,834;-6812,000
 879,18;   89,000;27553,834;-6252,000
 879,74;  142,000;28076,834;-6720,000
 880,30;   86,000;28679,834;-5926,000
 880,87;   48,000;28852,834;-6326,000
 881,43;  120,000;29533,834;-6871,000
 881,99;  141,000;27306,834;-6879,000
 882,56;  129,000;27610,834;-6661,000
 883,12;  137,000;29049,834;-5740,000
 883,68;  100,000;29120,834;-6518,000
 884,25;  112,000;28300,834;-6949,000
 884,81;   95,000;26343,834;-6701,000
 885,37;   75,000;24221,834;-6786,000
 885,94;   97,000;22940,834;-6851,000
 886,50;  138,000;23098,834;-6886,000
 887,06;   88,000;24358,834;-6796,000
 887,62;   82,000;25019,834;-6866,000
 888,19;   98,000;25774,834;-5986,000
 888,75;   71,000;26542,834;-6821,000
 889,31;  105,000;29043,834;-6778,000
 889,87;  122,000;30537,834;-6723,000
 890,44;  105,000;30349,834;-6696,000
 891,00;  127,000;28757,834;-6786,000
 891,56;   82,000;26457,834;-6998,000
 892,12;  149,000;24463,834;-6754,000
 892,69;  117,000;25310,834;-6373,000
 893,25;  129,000;28798,834;-6877,000
 893,81;  106,000;31774,834;-6696,000
 894,37;  179,000;31330,834;-6342,000
 894,94;  125,000;28713,834;-6772,000
 895,50;  129,000;26035,834; -212,000
 896,06;  141,000;24749,834;-6810,000
 896,62;  197,000;23405,834;-6707,000
 897,18;  186,000;24661,834;-6518,000
 897,75;  207,000;27406,834;-6895,000
 898,31;  221,000;27887,834;-6849,000
 898,87;  213,000;26274,834;-6860,000
 899,43;  207,000;25164,834;-6469,000
 899,99;  203,000;26592,834;-6866,000
 900,56;  232,000;25515,834;-6791,000
 901,12;  175,000;24875,834;-6890,000
 901,68;  279,000;27903,834;-6267,000
 902,24;  276,000;31800,834;-5930,000
 902,80;  242,000;32652,834;-6794,000
 903,36;  290,000;31893,834;-6691,000
 903,93;  452,000;32139,834;-6646,000
 904,49; 1044,000;32761,834;-6913,000
 905,05; 2850,000;30952,834;-6732,000
 905,61; 6951,000;28208,834;-6832,000
 906,17;12759,000;28086,834;-6901,000
 906,73;19242,000;25975,834;-5380,000
 907,29;23708,000;24960,834;-6910,000
 907,86;25347,000;25118,834;-6827,000
 908,42;24322,000;28092,834;-6795,000
 908,98;19724,000;31123,834;-5908,000
 909,54;11567,000;38813,832;-6885,000
 910,10; 4294,000;48220,832;-6634,000
 910,66; 1380,000;57581,832;-6781,000
 911,22;  507,000;65027,832;-6761,000
 911,78;  300,000;62593,832;-6841,000
 912,34;  274,000;53256,832;-6080,000
 912,90;  293,000;44610,832;-5232,000
 913,46;  248,000;37052,832;-6876,000
 914,03;  184,000;30620,834;-5746,000
 914,59;  168,000;27452,834;-6682,000
 915,15;  149,000;24908,834;-6891,000
 915,71;  189,000;24217,834;-6863,000
 916,27;  124,000;23800,834;-6723,000
 916,83;  122,000;23006,834;-5824,000
 917,39;  132,000;21742,834;-3512,000
 917,95;  127,000;20224,834;-6009,000
 918,51;  143,000;19972,834;-6583,000
 919,07;  148,000;21780,834;-6791,000
 919,63;   91,000;23295,834;-6661,000
 920,19;   48,000;23935,834;-6865,000
 920,75;  108,000;23112,834;-6640,000
 921,31;   88,000;21484,834;-4837,000
 921,87;   80,000;20216,834;-6845,000
 922,43;  108,000;18019,834;-5626,000
 922,99;  140,000;17321,834;-6706,000
 923,55;  160,000;18674,834;-6655,000
 924,11;  126,000;19094,834;-6976,000
 924,67;  122,000;19310,834;-6962,000
 925,23;  118,000;19485,834;-6778,000
 925,79;  104,000;20122,834;-6710,000
 926,35;  106,000;20219,834;-6573,000
 926,91;  137,000;19401,834;-6909,000
 927,47;   65,000;19367,834;-6660,000
 928,03;  129,000;20294,834;-6786,000
 928,59;  112,000;20503,834;-6678,000
 929,15;  151,000;20781,834;-6792,000
 929,71;  129,000;22016,834;-6840,000
 930,27;  127,000;23587,834;-6537,000
 930,82;  133,000;25573,834;-6728,000
 931,38;   60,000;24317,834;-5852,000
 931,94;   84,000;22672,834;-6843,000
 932,50;  103,000;21252,834;-6481,000
 933,06;  120,000;20895,834;-6768,000
 933,62;  159,000;21092,834;-6443,000
 934,18;  128,000;20632,834;-6727,000
 934,74;   76,000;21320,834;-6709,000
 935,30;  128,000;22030,834;-6484,000
 935,86;  128,000;21213,834;-6505,000
 936,42;  118,000;20702,834;-6873,000
 936,97;  126,000;21656,834;-6563,000
 937,53;  106,000;20552,834;-6826,000
 938,09;  138,000;21087,834;  123,000
 938,65;  120,000;21186,834;-6268,000
 939,21;  131,000;20179,834;-6708,000
 939,77;  101,000;18946,834;-6213,000
 940,33;  123,000;18602,834;-6748,000
 940,88;   97,000;19429,834;-5908,000
 941,44;  106,000;21301,834;-6983,000
 942,00;   96,000;23225,834;-6697,000
 942,56;   79,000;24231,834;-6604,000
 943,12;  102,000;23427,834;-5907,000
 943,68;   97,000;22950,834;-5679,000
 944,23;  123,000;23124,834;-6749,000
 944,79;  110,000;22674,834;-6102,000
 945,35;   48,000;20741,834;-6599,000
 945,91;  151,000;19519,834;-6767,000
 946,47;  123,000;19827,834;-3353,000
 947,03;  124,000;19896,834;-6850,000
 947,58;   91,000;19661,834;-6840,000
 948,14;  148,000;20790,834;-5897,000
 948,70;   86,000;19573,834;-5855,000
 949,26;  110,000;18881,834;-6616,000
 949,81;  130,000;18342,834;-6644,000
 950,37;  104,000;18686,834;-6695,000
 950,93;  102,000;17993,834;-6224,000
 951,49;   97,000;17568,834;-6057,000
 952,05;   83,000;17926,834;-6571,000
 952,60;  111,000;17299,834;-6951,000
 953,16;  138,000;16933,834;-5783,000
 953,72;   87,000;15628,833;-5813,000
 954,27;   67,000;15524,833;-6566,000
 954,83;   70,000;15317,833;-6703,000
 955,39;  108,000;14917,833;-6691,000
 955,95;   81,000;14456,833;-6849,000
 956,50;   72,000;14272,833;-6698,000
 957,06;  116,000;14126,833;-5922,000
 957,62;  101,000;13780,833;-6559,000
 958,18;  144,000;13872,833;-6741,000
 958,73;   97,000;13326,833;-6820,000
 959,29;   68,000;13518,833;-6106,000
 959,85;   88,000;14785,833;-6864,000
 960,40;  115,000;16746,834;-4263,000
 960,96;  134,000;16386,834;-6738,000
 961,52;  177,000;14755,833;-6643,000
 962,07;  102,000;13711,833;-6742,000
 962,63;   42,000;13208,833;-6723,000
 963,19;   64,000;13435,833;-5779,000
 963,74;  155,000;13877,833;-6582,000
 964,30;  115,000;14475,833;-6595,000
 964,86;   93,000;14281,833;-6484,000
 965,41;  119,000;14290,833;-6705,000
 965,97;   96,000;14185,833;-6569,000
 966,53;  112,000;14792,833;-6750,000
 967,08;  172,000;15311,833;-6611,000
 967,64;  159,000;15082,833;-6705,000
 968,19;  166,000;14471,833;-6684,000
 968,75;  118,000;14662,833;-6566,000
 969,31;  136,000;14880,833;-5626,000
 969,86;   96,000;14995,833;-6505,000
 970,42;  128,000;13195,833;-6620,000
 970,97;  101,000;11567,833;-6437,000
 971,53;  121,000;11625,833;-6490,000
 972,09;  112,000;12998,833;-6646,000
 972,64;  150,000;13523,833;-5812,000
 973,20;  126,000;13815,833;-6599,000
 973,75;  133,000;14605,833;-5760,000
 974,31;  121,000;14826,833;-6578,000
 974,87;  168,000;14921,833;-6674,000
 975,42;  133,000;14507,833;-6727,000
 975,98;  133,000;13201,833;-6651,000
 976,53;  157,000;12100,833;-6555,000
 977,09;  153,000;11353,833;-4624,000
 977,64;  128,000;11164,833;-6532,000
 978,20;  175,000;10649,833;-6585,000
 978,75;  141,000;10482,833;-6429,000
 979,31;  111,000;10950,833;-6513,000
 979,86;  211,000;12220,833;-6739,000
 980,42;  166,000;12828,833;-5813,000
 980,97;  122,000;13290,833;-6642,000
 981,53;  211,000;14285,833;-6636,000
 982,08;  186,000;13803,833;-5046,000
 982,64;  178,000;12278,833;-6237,000
 983,19;  169,000;11308,833;-6760,000
 983,75;  169,000;10993,833;-6576,000
 984,30;  172,000;10430,833;-5581,000
 984,86;  151,000; 9867,833;-5898,000
 985,41;  199,000; 9457,833;-6634,000
 985,97;  181,000; 9632,833;-4797,000
 986,52;  195,000; 9894,833;-5853,000
 987,08;  170,000; 9953,833;-6174,000
 987,63;  152,000;10165,833;-5608,000
 988,19;  136,000;11252,833;-6266,000
 988,74;  161,000;11710,833;-5682,000
 989,30;  184,000;11529,833;-6568,000
 989,85;  189,000;11470,833; -276,000
 990,40;  170,000;11314,833;-6617,000
 990,96;  192,000;11060,833;-6482,000
 991,51;  131,000;11149,833;-6578,000
 992,07;  144,000;10742,833;-6605,000
 992,62;  155,000;10285,833;-6519,000
 993,18;  165,000;10035,833;-6504,000
 993,73;  152,000; 9986,833;-6440,000
 994,28;  168,000; 9800,833;-6464,000
 994,84;  168,000; 9019,833;-6240,000
 995,39;  182,000; 8474,833;-2971,000
 995,94;  223,000; 7953,833;-5673,000
 996,50;  182,000; 7647,833;-6543,000
 997,05;  158,000; 7872,833;-3481,000
 997,61;  162,000; 8363,833;-6489,000
 998,16;  153,000; 8581,833;-6555,000
 998,71;  184,000; 8850,833;-6340,000
 999,27;  189,000; 9115,833;-5223,000
 999,82;  193,000; 8706,833;-4778,000
1000,37;  171,000; 8661,833;-6520,000
1000,93;  147,000; 8920,833;-6107,000
1001,48;  204,000; 8799,833;-6543,000
1002,03;  181,000; 8477,833;-6469,000
1002,59;  211,000; 8715,833;-5972,000
1003,14;  208,000; 8758,833;-6113,000
1003,69;  218,000; 8484,833;-6513,000
1004,25;  242,000; 8299,833;-6507,000
1004,80;  187,000; 8322,833;-6266,000
1005,35;  182,000; 8313,833;-6361,000
1005,91;  220,000; 8515,833;-6558,000
1006,46;  179,000; 8426,833;-6084,000
1007,01;  233,000; 8227,833;-5479,000
1007,56;  170,000; 8599,833;-6440,000
1008,12;  239,000; 8342,833;-6178,000
1008,67;  250,000; 7867,833;-6312,000
1009,22;  192,000; 7509,833;-6481,000
1009,78;  225,000; 7205,833;-6163,000
1010,33;  207,000; 6649,833;-6443,000
1010,88;  218,000; 6413,833;-5618,000
1011,43;  231,000; 5995,833;-6433,000
1011,99;  252,000; 5972,833;-6198,000
1012,54;  251,000; 6320,833;-6387,000
1013,09;  250,000; 6048,833;-6299,000
1013,64;  241,000; 5802,833;-6362,000
1014,19;  226,000; 5823,833;-6442,000
1014,75;  284,000; 5928,833;-6408,000
1015,30;  284,000; 6394,833;-6425,000
1015,85;  275,000; 6370,833;-6367,000
1016,40;  277,000; 6247,833;-5436,000
1016,96;  335,000; 6235,833;-6268,000
1017,51;  312,000; 6150,833;-6351,000
1018,06;  362,000; 6095,833;-6310,000
1018,61;  332,000; 5695,833;-6665,000
1019,16;  343,000; 5609,833;-6697,000
1019,71;  402,000; 5663,833;-6373,000
1020,27;  404,000; 5567,833;-6353,000
1020,82;  379,000; 5375,833;-3700,000
1021,37;  450,000; 5405,833;-4798,000
1021,92;  462,000; 5984,833;-6454,000
1022,47;  465,000; 5965,833;-6548,000
1023,02;  458,000; 5463,833;-6512,000
1023,58;  434,000; 5045,833;-6573,000
1024,13;  599,000; 4730,833;-6258,000
1024,68;  577,000; 4434,833;-6298,000
1025,23;  533,000; 4324,833;-5525,000
1025,78;  573,000; 4613,833;-6475,000
1026,33;  637,000; 4932,833;-5510,000
1026,88;  690,000; 4843,833;-6236,000
1027,43;  761,000; 5167,833;-6276,000
1027,99;  777,000; 5134,833;-6002,000
1028,54;  849,000; 4732,833;-6395,000
1029,09;  907,000; 4106,833;-2478,000
1029,64;  987,000; 3919,833;-6303,000
1030,19; 1095,000; 4147,833;-3821,000
1030,74; 1187,000; 4243,833;-5134,000
1031,29; 1247,000; 4284,833;-4765,000
1031,84; 1372,000; 4491,833;-6300,000
1032,39; 1556,000; 4563,833;-5403,000
1032,94; 1744,000; 4617,833;-4326,000
1033,49; 1932,000; 4361,833;-5476,000
1034,04; 2242,000; 4236,833;-6312,000
1034,59; 2418,000; 4205,833;-6507,000
1035,14; 2528,000; 4117,833;-6145,000
1035,69; 2624,000; 4318,833;-6224,000
1036,24; 2806,000; 4104,833;-4477,000
1036,80; 3159,000; 3986,833;-5453,000
1037,35; 3463,000; 4138,833;-6347,000
1037,90; 3662,000; 4172,833;-6274,000
1038,45; 3744,000; 4201,833;-6419,000
1039,00; 4043,000; 4340,833;-5490,000
1039,55; 4308,000; 4229,833;-6284,000
1040,10; 4576,000; 3977,833;-5615,000
1040,65; 4927,000; 3916,833;-5576,000
1041,20; 5122,000; 3850,833;-6325,000
1041,75; 5374,000; 4030,833;-4522,000
1042,30; 5606,000; 4164,833;-3585,000
1042,84; 6228,000; 4338,833;-4439,000
1043,39; 6696,000; 4248,833;-6313,000
1043,94; 7427,000; 4175,833;-5342,000
1044,49; 7763,000; 3887,833;-6246,000
1045,04; 8443,000; 3710,833;-5800,000
1045,59; 9556,000; 3809,833;-6299,000
1046,14;10406,000; 3732,833;-6392,000
1046,69;11614,000; 3591,833;-6294,000
1047,24;13188,000; 3623,833;-5510,000
1047,79;14806,000; 3737,833;-6139,000
1048,34;16824,000; 4002,833;-5961,000
1048,89;19423,000; 3948,833;-6259,000
1049,44;22167,000; 3935,833;-5172,000
1049,99;26124,000; 3855,833;-4844,000
1050,54;31099,000; 3876,833;-6249,000
1051,08;39952,000; 3961,833;-6178,000
1051,63;56706,000; 4050,833;-5285,000
1052,18;65144,000; 5051,833;-6127,000
1052,73;65144,000; 7151,833;-6173,000
1053,28;65144,000;10516,833;-6386,000
1053,83;65144,000;15224,833;-6214,000
1054,38;65144,000;19203,834;-6254,000
1054,93;65144,000;21243,834;-6285,000
1055,47;65144,000;23825,834;-5328,000
1056,02;65144,000;26212,834;-5832,000
1056,57;65144,000;27830,834;-6198,000
1057,12;65144,000;30497,834;-6378,000
1057,67;65144,000;33805,832;-6078,000
1058,22;65144,000;36084,832;-6313,000
1058,76;65144,000;38542,832;-6093,000
1059,31;65144,000;44129,832;-3514,000
1059,86;65144,000;48778,832;-6204,000
1060,41;65144,000;49718,832;-6152,000
1060,96;65144,000;51396,832;-6226,000
1061,51;65144,000;53649,832;-5344,000
1062,05;65144,000;54082,832;-6122,000
1062,60;65144,000;50555,832;-6061,000
1063,15;65144,000;45221,832;-6149,000
1063,70;65144,000;41550,832;-6250,000
1064,24;65144,000;43676,832;-6169,000
1064,79;65144,000;45461,832;-6144,000
1065,34;65144,000;43989,832;-6064,000
1065,89;65144,000;41776,832;-6202,000
1066,44;65144,000;37631,832;-6120,000
1066,98;65144,000;32612,834;-6224,000
1067,53;65144,000;30790,834;-5953,000
1068,08;65144,000;30368,834;-4845,000
1068,63;65144,000;27618,834;-6096,000
1069,17;65144,000;24647,834;-5893,000
1069,72;65144,000;22350,834;-5857,000
1070,27;65144,000;20529,834;-6040,000
1070,81;65144,000;20388,834;-5996,000
1071,36;65144,000;20367,834;-3883,000
1071,91;65144,000;18745,834;  966,000
1072,46;65144,000;16791,834;-5058,000
1073,00;65144,000;14646,833;-5239,000
1073,55;65144,000;11404,833;-5935,000
1074,10;65144,000; 7803,833;-5981,000
1074,64;65144,000; 5240,833;-5860,000
1075,19;65144,000; 3535,833;-4958,000
1075,74;64634,000; 2551,833;-6091,000
1076,28;47879,000; 2312,833;-6075,000
1076,83;38107,000; 1951,833;-5286,000
1077,38;30862,000; 1820,833;-5653,000
1077,92;25973,000; 1783,833;-6332,000
1078,47;21821,000; 1629,833;-5507,000
1079,02;18792,000; 1578,833;-5959,000
1079,56;16470,000; 1557,833;-5328,000
1080,11;13789,000; 1304,833;-6094,000
1080,65;12253,000; 1241,833;-5039,000
1081,20;10765,000; 1186,833;-6151,000
1081,75; 9206,000; 1125,833;-6039,000
1082,29; 7959,000; 1128,833; -139,000
1082,84; 6959,000; 1184,833;-2678,000
1083,39; 6281,000; 1294,833;-5061,000
1083,93; 6003,000; 1335,833;-5025,000
1084,48; 5457,000; 1196,833;-5961,000
1085,02; 5052,000; 1082,833;-5783,000
1085,57; 4604,000; 1074,833;-5994,000
1086,11; 4373,000; 1079,833;-5968,000
1086,66; 4092,000;  925,833;-5584,000
1087,21; 3899,000; 1060,833;-5802,000
1087,75; 3612,000;  939,833;-6125,000
1088,30; 3460,000;  815,833;-5040,000
1088,84; 3257,000;  783,833;-5963,000
1089,39; 2944,000;  656,833;-5965,000
1089,93; 2774,000;  664,833;-6100,000
1090,48; 2466,000;  649,833;-4394,000
1091,02; 2198,000;  733,833;-5181,000
1091,57; 2119,000;  629,833;-5479,000
1092,11; 1988,000;  642,833;-4094,000
1092,66; 1937,000;  624,833;-6031,000
1093,20; 1747,000;  580,833;-5180,000
1093,75; 1683,000;  566,833;-4998,000
1094,29; 1606,000;  486,833;-4979,000
1094,84; 1558,000;  525,833;-5890,000
1095,38; 1463,000;  528,833;-5097,000
1095,93; 1356,000;  584,833;-5981,000
1096,47; 1314,000;  615,833;-5612,000
1097,02; 1185,000;  587,833;-4985,000
1097,56; 1135,000;  614,833;-5772,000
1098,11; 1064,000;  552,833;-5774,000
1098,65; 1032,000;  508,833;-5992,000
1099,20; 1015,000;  577,833;-5935,000
1099,74;  889,000;  487,833;-6002,000
1100,29;  896,000;  513,833;-4879,000
1100,83;  750,000;  496,833;-5934,000

